masses:        e= 9.109e-31; ions in proton mass units:    2.000e+00  1.820e+02 ...
charges:       e=-1.602e-19; charges in elementary units:  1.000e+00  2.000e+00
n:             e:  1.000e+00                           i:  1.000e+00  1.000e-07
thermal T (K): e= 2.321e+07 i= 1.160e+07  1.160e+07. Normalization grid 0: v_0= 1.876e+07 ( 6.256e-02c) n_0= 1.000e+20 t_0= 1.909e-05 8 batched, view batch 0
Domain radius (AMR levels) grid 0: par= 5.000e+00 perp= 5.000e+00 (2) , 1: par= 5.835e-02 perp= 5.835e-02 (2) , 2: par= 6.117e-03 perp= 6.117e-03 (2) 
0) FormLandau 672 IPs, 42 cells total, Nb=16, Nq=16, dim=2, Tab: Nb=16 Nf=10 Np=16 cdim=2 N=11360 nnz=252320
0 TS dt 0.5 time 0.
    0 SNES Function norm 1.680342846414e-02
    1 SNES Function norm 1.763423789067e-04
    2 SNES Function norm 2.441636775810e-05
    3 SNES Function norm 6.173163246685e-06
    4 SNES Function norm 1.488800457489e-06
    5 SNES Function norm 3.528623284346e-07
    6 SNES Function norm 8.314824489925e-08
    7 SNES Function norm 1.955284346651e-08
    8 SNES Function norm 4.594293838398e-09
    9 SNES Function norm 1.079158656728e-09
   10 SNES Function norm 2.534427735842e-10
   11 SNES Function norm 5.952185139299e-11
   12 SNES Function norm 1.397956766377e-11
   13 SNES Function norm 3.280387228790e-12
   14 SNES Function norm 7.713072745563e-13
    Nonlinear solve converged due to CONVERGED_SNORM_RELATIVE iterations 14
      TSAdapt none beuler 0: step   0 accepted t=0          + 5.000e-01 dt=5.000e-01 
1 TS dt 0.5 time 0.5
TS Object: 1 MPI process
  type: beuler
  maximum steps=1
  maximum time=100.
  total number of I function evaluations=15
  total number of I Jacobian evaluations=14
  total number of RHS function evaluations=15
  total number of nonlinear solver iterations=14
  total number of linear solver iterations=332
  total number of nonlinear solve failures=0
  total number of rejected steps=0
  using relative error tolerance of 0.01,   using absolute error tolerance of 0.0001
  TSAdapt Object: 1 MPI process
    type: none
  SNES Object: 1 MPI process
    type: newtonls
    maximum iterations=50, maximum function evaluations=10000
    tolerances: relative=1e-14, absolute=1e-50, solution=1e-14
    total number of linear solver iterations=332
    total number of function evaluations=15
    norm schedule ALWAYS
    SNESLineSearch Object: 1 MPI process
      type: basic
      maxstep=1.000000e+08, minlambda=1.000000e-12
      tolerances: relative=1.000000e-08, absolute=1.000000e-15, lambda=1.000000e-08
      maximum iterations=40
    KSP Object: 1 MPI process
      type: preonly
      maximum iterations=10000, initial guess is zero
      tolerances: relative=1e-05, absolute=1e-50, divergence=10000.
      left preconditioning
      using NONE norm type for convergence test
    PC Object: 1 MPI process
      type: bjkokkos
        Batched device linear solver: Krylov (KSP) method with Jacobi preconditioning
      		nwork = 10, rel tol = 1.000000e-08, abs tol = 1.000000e-50, div tol = 1.000000e+04, max it =100, type = tfqmr
      linear system matrix = precond matrix:
      Mat Object: Jacobian 1 MPI process
        type: seqaijkokkos
        rows=11360, cols=11360
        total: nonzeros=252320, allocated nonzeros=252320
        total number of mallocs used during MatSetValues calls=0
          using I-node routines: found 5328 nodes, limit used is 5
0 TS dt 0.5 time 0.
    0 SNES Function norm 1.680342846414e-02
    1 SNES Function norm 1.763423789067e-04
    2 SNES Function norm 2.441636775810e-05
    3 SNES Function norm 6.173163246685e-06
    4 SNES Function norm 1.488800457489e-06
    5 SNES Function norm 3.528623284346e-07
    6 SNES Function norm 8.314824489925e-08
    7 SNES Function norm 1.955284346651e-08
    8 SNES Function norm 4.594293838398e-09
    9 SNES Function norm 1.079158656728e-09
   10 SNES Function norm 2.534427735842e-10
   11 SNES Function norm 5.952185139299e-11
   12 SNES Function norm 1.397956766377e-11
   13 SNES Function norm 3.280387228790e-12
   14 SNES Function norm 7.713072745563e-13
    Nonlinear solve converged due to CONVERGED_SNORM_RELATIVE iterations 14
      TSAdapt none beuler 0: step   0 accepted t=0          + 5.000e-01 dt=5.000e-01 
1 TS dt 0.5 time 0.5
    0 SNES Function norm 5.862622634896e-03
    1 SNES Function norm 1.190830515123e-04
    2 SNES Function norm 2.221137392661e-05
    3 SNES Function norm 5.337063381341e-06
    4 SNES Function norm 1.276003078164e-06
    5 SNES Function norm 3.023147972350e-07
    6 SNES Function norm 7.129423144330e-08
    7 SNES Function norm 1.677704808206e-08
    8 SNES Function norm 3.944171904512e-09
    9 SNES Function norm 9.268408270714e-10
   10 SNES Function norm 2.177593709609e-10
   11 SNES Function norm 5.115748436834e-11
   12 SNES Function norm 1.201666194025e-11
   13 SNES Function norm 2.823193323000e-12
    Nonlinear solve converged due to CONVERGED_SNORM_RELATIVE iterations 13
      TSAdapt none beuler 0: step   1 accepted t=0.5        + 5.000e-01 dt=5.000e-01 
2 TS dt 0.5 time 1.
    0 SNES Function norm 3.819590736047e-03
    1 SNES Function norm 1.327350911939e-04
    2 SNES Function norm 2.785563155432e-05
    3 SNES Function norm 6.670312086421e-06
    4 SNES Function norm 1.590012519281e-06
    5 SNES Function norm 3.763818145392e-07
    6 SNES Function norm 8.875804161038e-08
    7 SNES Function norm 2.089295663492e-08
    8 SNES Function norm 4.913971062096e-09
    9 SNES Function norm 1.155324770305e-09
   10 SNES Function norm 2.715869995205e-10
   11 SNES Function norm 6.383908278801e-11
   12 SNES Function norm 1.500298485357e-11
   13 SNES Function norm 3.523619245510e-12
   14 SNES Function norm 8.296057849810e-13
    Nonlinear solve converged due to CONVERGED_SNORM_RELATIVE iterations 14
      TSAdapt none beuler 0: step   2 accepted t=1          + 5.000e-01 dt=5.000e-01 
3 TS dt 0.5 time 1.5
    0 SNES Function norm 2.877648273643e-03
    1 SNES Function norm 1.584651702606e-04
    2 SNES Function norm 3.595463344655e-05
    3 SNES Function norm 8.625543590550e-06
    4 SNES Function norm 2.053406752353e-06
    5 SNES Function norm 4.858296354238e-07
    6 SNES Function norm 1.145825312151e-07
    7 SNES Function norm 2.698420530115e-08
    8 SNES Function norm 6.350520817132e-09
    9 SNES Function norm 1.494101340593e-09
   10 SNES Function norm 3.514675220409e-10
   11 SNES Function norm 8.267796046937e-11
   12 SNES Function norm 1.944553670609e-11
   13 SNES Function norm 4.575749028548e-12
   14 SNES Function norm 1.072102631032e-12
    Nonlinear solve converged due to CONVERGED_SNORM_RELATIVE iterations 14
      TSAdapt none beuler 0: step   3 accepted t=1.5        + 5.000e-01 dt=5.000e-01 
4 TS dt 0.5 time 2.
    0 SNES Function norm 2.364173201545e-03
    1 SNES Function norm 1.886753358739e-04
    2 SNES Function norm 4.438959895674e-05
    3 SNES Function norm 1.065055377479e-05
    4 SNES Function norm 2.533408090815e-06
    5 SNES Function norm 5.993536528839e-07
    6 SNES Function norm 1.414178079219e-07
    7 SNES Function norm 3.332665421374e-08
    8 SNES Function norm 7.849445347551e-09
    9 SNES Function norm 1.848327745035e-09
   10 SNES Function norm 4.351852902500e-10
   11 SNES Function norm 1.024574839627e-10
   12 SNES Function norm 2.412036492199e-11
   13 SNES Function norm 5.679828720353e-12
   14 SNES Function norm 1.337655504327e-12
    Nonlinear solve converged due to CONVERGED_SNORM_RELATIVE iterations 14
      TSAdapt none beuler 0: step   4 accepted t=2          + 5.000e-01 dt=5.000e-01 
5 TS dt 0.5 time 2.5
    0 SNES Function norm 2.063058783230e-03
    1 SNES Function norm 2.177193162162e-04
    2 SNES Function norm 5.202071356832e-05
    3 SNES Function norm 1.247475290799e-05
    4 SNES Function norm 2.966226206060e-06
    5 SNES Function norm 7.019561646310e-07
    6 SNES Function norm 1.657389021348e-07
    7 SNES Function norm 3.909180622130e-08
    8 SNES Function norm 9.216024078256e-09
    9 SNES Function norm 2.172255570277e-09
   10 SNES Function norm 5.119598744397e-10
   11 SNES Function norm 1.206523265990e-10
   12 SNES Function norm 2.843596403608e-11
   13 SNES Function norm 6.701858889763e-12
   14 SNES Function norm 1.577351138541e-12
    Nonlinear solve converged due to CONVERGED_SNORM_RELATIVE iterations 14
      TSAdapt none beuler 0: step   5 accepted t=2.5        + 5.000e-01 dt=5.000e-01 
6 TS dt 0.5 time 3.
    0 SNES Function norm 1.878649998531e-03
    1 SNES Function norm 2.424806222408e-04
    2 SNES Function norm 5.831652817886e-05
    3 SNES Function norm 1.397693848569e-05
    4 SNES Function norm 3.323450767257e-06
    5 SNES Function norm 7.869347850633e-07
    6 SNES Function norm 1.859611701905e-07
    7 SNES Function norm 4.390473967954e-08
    8 SNES Function norm 1.036152939884e-08
    9 SNES Function norm 2.444874177140e-09
   10 SNES Function norm 5.768363308905e-10
   11 SNES Function norm 1.360957256495e-10
   12 SNES Function norm 3.211049855765e-11
   13 SNES Function norm 7.571776519347e-12
   14 SNES Function norm 1.787570494467e-12
    Nonlinear solve converged due to CONVERGED_SNORM_RELATIVE iterations 14
      TSAdapt none beuler 0: step   6 accepted t=3          + 5.000e-01 dt=5.000e-01 
7 TS dt 0.5 time 3.5
    0 SNES Function norm 1.759923823347e-03
    1 SNES Function norm 2.617077348523e-04
    2 SNES Function norm 6.311339332836e-05
    3 SNES Function norm 1.512158358642e-05
    4 SNES Function norm 3.596704438710e-06
    5 SNES Function norm 8.522711382261e-07
    6 SNES Function norm 2.015953105150e-07
    7 SNES Function norm 4.764667354405e-08
    8 SNES Function norm 1.125712782241e-08
    9 SNES Function norm 2.659209327411e-09
   10 SNES Function norm 6.281258575861e-10
   11 SNES Function norm 1.483632470124e-10
   12 SNES Function norm 3.503937407413e-11
   13 SNES Function norm 8.275209643595e-12
   14 SNES Function norm 1.955834954584e-12
    Nonlinear solve converged due to CONVERGED_SNORM_RELATIVE iterations 14
      TSAdapt none beuler 0: step   7 accepted t=3.5        + 5.000e-01 dt=5.000e-01 
8 TS dt 0.5 time 4.
    0 SNES Function norm 1.677064457924e-03
    1 SNES Function norm 2.752406183079e-04
    2 SNES Function norm 6.645120654104e-05
    3 SNES Function norm 1.591971756728e-05
    4 SNES Function norm 3.788459457464e-06
    5 SNES Function norm 8.984863792879e-07
    6 SNES Function norm 2.127472954033e-07
    7 SNES Function norm 5.033841506405e-08
    8 SNES Function norm 1.190673720744e-08
    9 SNES Function norm 2.815934747220e-09
   10 SNES Function norm 6.659253744978e-10
   11 SNES Function norm 1.574725103626e-10
   12 SNES Function norm 3.723790109958e-11
   13 SNES Function norm 8.806633414374e-12
   14 SNES Function norm 2.080891473201e-12
    Nonlinear solve converged due to CONVERGED_SNORM_RELATIVE iterations 14
      TSAdapt none beuler 0: step   8 accepted t=4          + 5.000e-01 dt=5.000e-01 
9 TS dt 0.5 time 4.5
    0 SNES Function norm 1.612383848956e-03
    1 SNES Function norm 2.834808875120e-04
    2 SNES Function norm 6.846987278017e-05
    3 SNES Function norm 1.640499228161e-05
    4 SNES Function norm 3.906468070977e-06
    5 SNES Function norm 9.273441957249e-07
    6 SNES Function norm 2.198162314019e-07
    7 SNES Function norm 5.206999822479e-08
    8 SNES Function norm 1.233060955714e-08
    9 SNES Function norm 2.919599490183e-09
   10 SNES Function norm 6.912506231965e-10
   11 SNES Function norm 1.636576751852e-10
   12 SNES Function norm 3.874794065117e-11
   13 SNES Function norm 9.176866890470e-12
   14 SNES Function norm 2.168454954331e-12
    Nonlinear solve converged due to CONVERGED_SNORM_RELATIVE iterations 14
      TSAdapt none beuler 0: step   9 accepted t=4.5        + 5.000e-01 dt=5.000e-01 
10 TS dt 0.5 time 5.
TS Object: 1 MPI process
  type: beuler
  maximum steps=10
  maximum time=100.
  total number of I function evaluations=164
  total number of I Jacobian evaluations=153
  total number of RHS function evaluations=164
  total number of nonlinear solver iterations=139
  total number of linear solver iterations=3312
  total number of nonlinear solve failures=0
  total number of rejected steps=0
  using relative error tolerance of 0.01,   using absolute error tolerance of 0.0001
  TSAdapt Object: 1 MPI process
    type: none
  SNES Object: 1 MPI process
    type: newtonls
    maximum iterations=50, maximum function evaluations=10000
    tolerances: relative=1e-14, absolute=1e-50, solution=1e-14
    total number of linear solver iterations=335
    total number of function evaluations=15
    norm schedule ALWAYS
    SNESLineSearch Object: 1 MPI process
      type: basic
      maxstep=1.000000e+08, minlambda=1.000000e-12
      tolerances: relative=1.000000e-08, absolute=1.000000e-15, lambda=1.000000e-08
      maximum iterations=40
    KSP Object: 1 MPI process
      type: preonly
      maximum iterations=10000, initial guess is zero
      tolerances: relative=1e-05, absolute=1e-50, divergence=10000.
      left preconditioning
      using NONE norm type for convergence test
    PC Object: 1 MPI process
      type: bjkokkos
        Batched device linear solver: Krylov (KSP) method with Jacobi preconditioning
      		nwork = 10, rel tol = 1.000000e-08, abs tol = 1.000000e-50, div tol = 1.000000e+04, max it =100, type = tfqmr
      linear system matrix = precond matrix:
      Mat Object: Jacobian 1 MPI process
        type: seqaijkokkos
        rows=11360, cols=11360
        total: nonzeros=252320, allocated nonzeros=252320
        total number of mallocs used during MatSetValues calls=0
          using I-node routines: found 5328 nodes, limit used is 5
****************************************************************************************************************************************************************
***                                WIDEN YOUR WINDOW TO 160 CHARACTERS.  Use 'enscript -r -fCourier9' to print this document                                 ***
****************************************************************************************************************************************************************

------------------------------------------------------------------ PETSc Performance Summary: ------------------------------------------------------------------



      ##########################################################
      #                                                        #
      #                       WARNING!!!                       #
      #                                                        #
      #   This code was run with -log_view_gpu_time            #
      #   This provides accurate timing within the GPU kernels #
      #   but can slow down the entire computation by a        #
      #   measurable amount. For fastest runs we recommend     #
      #   not using this option.                               #
      #                                                        #
      ##########################################################


/global/u2/m/madams/batch_gmres_paper/landau_throughput_nsight/perlmutter/./ex2-2 on a arch-perlmutter-opt-gcc-kokkos-cuda named nid200381 with 4 processes and CUDA architecture 80, by madams on Thu Jun 27 14:32:57 2024
Using Petsc Development GIT revision: v3.21.2-329-g0f40c42b27c  GIT Date: 2024-06-27 15:17:08 -0400

                         Max       Max/Min     Avg       Total
Time (sec):           2.454e+00     1.000   2.454e+00
Objects:              0.000e+00     0.000   0.000e+00
Flops:                2.421e+09     1.000   2.421e+09  9.683e+09
Flops/sec:            9.866e+08     1.000   9.866e+08  3.946e+09
MPI Msg Count:        0.000e+00     0.000   0.000e+00  0.000e+00
MPI Msg Len (bytes):  0.000e+00     0.000   0.000e+00  0.000e+00
MPI Reductions:       2.100e+01     1.000

Flop counting convention: 1 flop = 1 real number operation of type (multiply/divide/add/subtract)
                            e.g., VecAXPY() for real vectors of length N --> 2N flops
                            and VecAXPY() for complex vectors of length N --> 8N flops

Summary of Stages:   ----- Time ------  ----- Flop ------  --- Messages ---  -- Message Lengths --  -- Reductions --
                        Avg     %Total     Avg     %Total    Count   %Total     Avg         %Total    Count   %Total
 0:      Main Stage: 2.1586e+00  88.0%  1.4450e+07   0.1%  0.000e+00   0.0%  0.000e+00        0.0%  2.000e+00   9.5%
 1:          Warmup: 5.6086e-02   2.3%  8.8459e+08   9.1%  0.000e+00   0.0%  0.000e+00        0.0%  0.000e+00   0.0%
 2:           Solve: 2.3900e-01   9.7%  8.7840e+09  90.7%  0.000e+00   0.0%  0.000e+00        0.0%  0.000e+00   0.0%

------------------------------------------------------------------------------------------------------------------------
See the 'Profiling' chapter of the users' manual for details on interpreting output.
Phase summary info:
   Count: number of times phase was executed
   Time and Flop: Max - maximum over all processors
                  Ratio - ratio of maximum to minimum over all processors
   Mess: number of messages sent
   AvgLen: average message length (bytes)
   Reduct: number of global reductions
   Global: entire computation
   Stage: stages of a computation. Set stages with PetscLogStagePush() and PetscLogStagePop().
      %T - percent time in this phase         %F - percent flop in this phase
      %M - percent messages in this phase     %L - percent message lengths in this phase
      %R - percent reductions in this phase
   Total Mflop/s: 10e-6 * (sum of flop over all processors)/(max time over all processors)
   GPU Mflop/s: 10e-6 * (sum of flop on GPU over all processors)/(max GPU time over all processors)
   CpuToGpu Count: total number of CPU to GPU copies per processor
   CpuToGpu Size (Mbytes): 10e-6 * (total size of CPU to GPU copies per processor)
   GpuToCpu Count: total number of GPU to CPU copies per processor
   GpuToCpu Size (Mbytes): 10e-6 * (total size of GPU to CPU copies per processor)
   GPU %F: percent flops on GPU in this event
------------------------------------------------------------------------------------------------------------------------
Event                Count      Time (sec)     Flop                              --- Global ---  --- Stage ----  Total   GPU    - CpuToGpu -   - GpuToCpu - GPU
                   Max Ratio  Max     Ratio   Max  Ratio  Mess   AvgLen  Reduct  %T %F %M %L %R  %T %F %M %L %R Mflop/s Mflop/s Count   Size   Count   Size  %F
---------------------------------------------------------------------------------------------------------------------------------------------------------------

--- Event Stage 0: Main Stage

BuildTwoSided        135 1.0 9.0953e-05 1.1 0.00e+00 0.0 0.0e+00 0.0e+00 0.0e+00  0  0  0  0  0   0  0  0  0  0     0       0      0 0.00e+00    0 0.00e+00  0
DMConvert             18 1.0 1.3767e-03 1.0 0.00e+00 0.0 0.0e+00 0.0e+00 0.0e+00  0  0  0  0  0   0  0  0  0  0     0       0      0 0.00e+00    0 0.00e+00  0
DMCreateMat            8 1.0 2.1385e-01 1.0 0.00e+00 0.0 0.0e+00 0.0e+00 0.0e+00  8  0  0  0  0  10  0  0  0  0     0       0      0 0.00e+00    0 0.00e+00  0
DMProjectFunc         33 1.0 1.7719e-02 1.0 4.01e+05 1.0 0.0e+00 0.0e+00 0.0e+00  1  0  0  0  0   1 11  0  0  0    91       0      0 0.00e+00    0 0.00e+00  0
DMPlexInterp         124 1.0 1.5858e-03 1.0 0.00e+00 0.0 0.0e+00 0.0e+00 0.0e+00  0  0  0  0  0   0  0  0  0  0     0       0      0 0.00e+00    0 0.00e+00  0
DMPlexStratify       182 1.0 2.8297e-03 1.1 0.00e+00 0.0 0.0e+00 0.0e+00 0.0e+00  0  0  0  0  0   0  0  0  0  0     0       0      0 0.00e+00    0 0.00e+00  0
DMPlexSymmetrize     182 1.0 9.8223e-05 1.1 0.00e+00 0.0 0.0e+00 0.0e+00 0.0e+00  0  0  0  0  0   0  0  0  0  0     0       0      0 0.00e+00    0 0.00e+00  0
DMPlexPrealloc        54 1.0 1.2550e-01 1.0 0.00e+00 0.0 0.0e+00 0.0e+00 0.0e+00  5  0  0  0  0   6  0  0  0  0     0       0      0 0.00e+00    0 0.00e+00  0
DMPlexJacobianFE       6 1.0 3.5663e-02 1.0 2.13e+06 1.0 0.0e+00 0.0e+00 0.0e+00  1  0  0  0  0   2 59  0  0  0   239       0      0 0.00e+00    0 0.00e+00  0
DMPlexGenerate         3 1.0 5.6379e-04 1.5 0.00e+00 0.0 0.0e+00 0.0e+00 0.0e+00  0  0  0  0  0   0  0  0  0  0     0       0      0 0.00e+00    0 0.00e+00  0
SFSetGraph           252 1.0 4.7978e-05 1.1 0.00e+00 0.0 0.0e+00 0.0e+00 0.0e+00  0  0  0  0  0   0  0  0  0  0     0       0      0 0.00e+00    0 0.00e+00  0
SFSetUp              135 1.0 3.5879e-04 1.1 0.00e+00 0.0 0.0e+00 0.0e+00 0.0e+00  0  0  0  0  0   0  0  0  0  0     0       0      0 0.00e+00    0 0.00e+00  0
SFBcastBegin         282 1.0 3.9832e-04 1.1 0.00e+00 0.0 0.0e+00 0.0e+00 0.0e+00  0  0  0  0  0   0  0  0  0  0     0       0      0 0.00e+00    0 0.00e+00  0
SFBcastEnd           282 1.0 3.2018e-05 1.1 0.00e+00 0.0 0.0e+00 0.0e+00 0.0e+00  0  0  0  0  0   0  0  0  0  0     0       0      0 0.00e+00    0 0.00e+00  0
SFReduceBegin         54 1.0 1.1371e-04 1.0 0.00e+00 0.0 0.0e+00 0.0e+00 0.0e+00  0  0  0  0  0   0  0  0  0  0     0       0      0 0.00e+00    0 0.00e+00  0
SFReduceEnd           54 1.0 6.6460e-06 1.1 0.00e+00 0.0 0.0e+00 0.0e+00 0.0e+00  0  0  0  0  0   0  0  0  0  0     0       0      0 0.00e+00    0 0.00e+00  0
SFCreateEmbed        108 1.0 4.7318e-04 1.1 0.00e+00 0.0 0.0e+00 0.0e+00 0.0e+00  0  0  0  0  0   0  0  0  0  0     0       0      0 0.00e+00    0 0.00e+00  0
SFSectionSF          108 1.0 2.8622e-04 1.1 0.00e+00 0.0 0.0e+00 0.0e+00 0.0e+00  0  0  0  0  0   0  0  0  0  0     0       0      0 0.00e+00    0 0.00e+00  0
SFRemoteOff          108 1.0 1.1530e-03 1.1 0.00e+00 0.0 0.0e+00 0.0e+00 0.0e+00  0  0  0  0  0   0  0  0  0  0     0       0      0 0.00e+00    0 0.00e+00  0
SFPack               336 1.0 2.5273e-05 1.1 0.00e+00 0.0 0.0e+00 0.0e+00 0.0e+00  0  0  0  0  0   0  0  0  0  0     0       0      0 0.00e+00    0 0.00e+00  0
Landau Create          1 1.0 1.7553e+00 2.3 2.41e+06 1.0 0.0e+00 0.0e+00 0.0e+00 60  0  0  0  0  68 67  0  0  0     5       0      0 0.00e+00    0 0.00e+00  0
 GPU ass. setup        1 1.0 2.8786e-01 1.0 3.46e+05 1.0 0.0e+00 0.0e+00 0.0e+00 12  0  0  0  0  13 10  0  0  0     5       0      0 0.00e+00    0 0.00e+00  0
 Build matrix          1 1.0 7.5410e-02 1.0 9.26e+05 1.0 0.0e+00 0.0e+00 0.0e+00  3  0  0  0  0   3 26  0  0  0    49       0      0 0.00e+00    0 0.00e+00  0
 Assembly maps         1 1.0 1.3965e+00 3.6 1.00e+06 1.0 0.0e+00 0.0e+00 0.0e+00 45  0  0  0  0  51 28  0  0  0     3       0      0 0.00e+00    0 0.00e+00  0
Landau Mass mat        1 1.0 1.8455e-01 1.1 1.21e+06 1.0 0.0e+00 0.0e+00 0.0e+00  7  0  0  0  0   8 33  0  0  0    26       0      0 0.00e+00    0 0.00e+00  0
 static IP Data        1 1.0 1.3281e-03 1.2 1.34e+05 1.0 0.0e+00 0.0e+00 0.0e+00  0  0  0  0  0   0  4  0  0  0   405       0      0 0.00e+00    0 0.00e+00  0
VecCopy                1 1.0 2.9587e-05 1.3 0.00e+00 0.0 0.0e+00 0.0e+00 0.0e+00  0  0  0  0  0   0  0  0  0  0     0       0      0 0.00e+00    0 0.00e+00  0
VecSet                45 1.0 1.1768e-03 1.6 0.00e+00 0.0 0.0e+00 0.0e+00 0.0e+00  0  0  0  0  0   0  0  0  0  0     0       0      0 0.00e+00    0 0.00e+00  0
DualSpaceSetUp        40 1.0 2.3633e-02 1.2 8.84e+02 1.0 0.0e+00 0.0e+00 0.0e+00  1  0  0  0  0   1  0  0  0  0     0       0      0 0.00e+00    0 0.00e+00  0
FESetUp               40 1.0 1.4153e-01 164.7 0.00e+00 0.0 0.0e+00 0.0e+00 0.0e+00  1  0  0  0  0   2  0  0  0  0     0       0      0 0.00e+00    0 0.00e+00  0
MatMult             5340 1.0 5.1632e-04 1.1 3.77e+04 1.0 0.0e+00 0.0e+00 0.0e+00  0  0  0  0  0   0  1  0  0  0   292       0      0 0.00e+00    0 0.00e+00  0
MatLUFactor           30 1.0 2.6051e-04 1.1 8.19e+04 1.0 0.0e+00 0.0e+00 0.0e+00  0  0  0  0  0   0  2  0  0  0  1258       0      0 0.00e+00    0 0.00e+00  0
MatCopy              120 1.0 6.5382e-05 1.0 0.00e+00 0.0 0.0e+00 0.0e+00 0.0e+00  0  0  0  0  0   0  0  0  0  0     0       0      0 0.00e+00    0 0.00e+00  0
MatConvert            60 1.0 4.3934e-04 1.0 0.00e+00 0.0 0.0e+00 0.0e+00 0.0e+00  0  0  0  0  0   0  0  0  0  0     0       0      0 0.00e+00    0 0.00e+00  0
MatAssemblyBegin     662 1.0 5.5658e-05 1.1 0.00e+00 0.0 0.0e+00 0.0e+00 0.0e+00  0  0  0  0  0   0  0  0  0  0     0       0      0 0.00e+00    0 0.00e+00  0
MatAssemblyEnd       662 1.0 1.2451e-02 1.2 0.00e+00 0.0 0.0e+00 0.0e+00 0.0e+00  0  0  0  0  0   1  0  0  0  0     0       0      0 0.00e+00    0 0.00e+00  0
MatGetRowIJ            9 1.0 1.5010e-06 1.1 0.00e+00 0.0 0.0e+00 0.0e+00 0.0e+00  0  0  0  0  0   0  0  0  0  0     0       0      0 0.00e+00    0 0.00e+00  0
MatZeroEntries         6 1.0 8.9183e-05 1.2 0.00e+00 0.0 0.0e+00 0.0e+00 0.0e+00  0  0  0  0  0   0  0  0  0  0     0       0      0 0.00e+00    0 0.00e+00  0
MatMatSolve          120 1.0 3.5173e-04 1.0 9.52e+05 1.0 0.0e+00 0.0e+00 0.0e+00  0  0  0  0  0   0 26  0  0  0 10830       0      0 0.00e+00    0 0.00e+00  0
MatSetPreallCOO      109 1.0 3.0677e-02 1.1 0.00e+00 0.0 0.0e+00 0.0e+00 0.0e+00  1  0  0  0  0   1  0  0  0  0     0       0      0 0.00e+00    0 0.00e+00  0
MatSetValuesCOO      108 1.0 1.3762e-04 1.0 0.00e+00 0.0 0.0e+00 0.0e+00 0.0e+00  0  0  0  0  0   0  0  0  0  0     0       0      0 0.00e+00    0 0.00e+00  0
DCtxCreate             1 1.0 2.0519e-05 1.4 0.00e+00 0.0 0.0e+00 0.0e+00 0.0e+00  0  0  0  0  0   0  0  0  0  0     0       0      0 0.00e+00    0 0.00e+00  0
DCtxDestroy            1 1.0 2.5970e-05 2.0 0.00e+00 0.0 0.0e+00 0.0e+00 0.0e+00  0  0  0  0  0   0  0  0  0  0     0       0      0 0.00e+00    0 0.00e+00  0
DCtxSetUp              1 1.0 4.6530e-05 1.3 0.00e+00 0.0 0.0e+00 0.0e+00 0.0e+00  0  0  0  0  0   0  0  0  0  0     0       0      0 0.00e+00    0 0.00e+00  0
DCtxSetDevice          1 1.0 4.2492e-05 1.3 0.00e+00 0.0 0.0e+00 0.0e+00 0.0e+00  0  0  0  0  0   0  0  0  0  0     0       0      0 0.00e+00    0 0.00e+00  0

--- Event Stage 1: Warmup

Landau Operator       29 1.0 3.6248e-02 1.9 1.51e+07 1.0 0.0e+00 0.0e+00 0.0e+00  1  1  0  0  0  43  7  0  0  0  1671    1898      0 0.00e+00    0 0.00e+00  100
Landau Jacobian       15 1.0 3.3957e-02 2.0 1.51e+07 1.0 0.0e+00 0.0e+00 0.0e+00  1  1  0  0  0  39  7  0  0  0  1783    2007      0 0.00e+00    0 0.00e+00  100
Landau Mass           14 1.0 2.2813e-03 1.1 0.00e+00 0.0 0.0e+00 0.0e+00 0.0e+00  0  0  0  0  0   4  0  0  0  0     0       0      0 0.00e+00    0 0.00e+00  0
 Preamble             29 1.0 6.8234e-05 1.3 0.00e+00 0.0 0.0e+00 0.0e+00 0.0e+00  0  0  0  0  0   0  0  0  0  0     0       0      0 0.00e+00    0 0.00e+00  0
 dynamic IP-Jac       30 1.0 1.4872e-05 1.3 0.00e+00 0.0 0.0e+00 0.0e+00 0.0e+00  0  0  0  0  0   0  0  0  0  0     0       0      0 0.00e+00    0 0.00e+00  0
 Kernel-init          29 1.0 3.0240e-04 1.1 0.00e+00 0.0 0.0e+00 0.0e+00 0.0e+00  0  0  0  0  0   1  0  0  0  0     0       0      0 0.00e+00    0 0.00e+00  0
 Jac-f-df (GPU)       15 1.0 6.3857e-03 4.5 0.00e+00 0.0 0.0e+00 0.0e+00 0.0e+00  0  0  0  0  0   5  0  0  0  0     0       0      0 0.00e+00    0 0.00e+00  0
 J Kernel (GPU)       15 1.0 7.5174e-03 1.1 0.00e+00 0.0 0.0e+00 0.0e+00 0.0e+00  0  0  0  0  0  13  0  0  0  0     0       0      0 0.00e+00    0 0.00e+00  0
 M Kernel (GPU)       14 1.0 1.4203e-03 1.1 0.00e+00 0.0 0.0e+00 0.0e+00 0.0e+00  0  0  0  0  0   2  0  0  0  0     0       0      0 0.00e+00    0 0.00e+00  0
VecNorm                1 1.0 7.2781e-03 35.4 2.27e+04 1.0 0.0e+00 0.0e+00 0.0e+00  0  0  0  0  0   4  0  0  0  0    12      13      0 0.00e+00    0 0.00e+00  100
VecCopy               18 1.0 3.9264e-04 1.1 0.00e+00 0.0 0.0e+00 0.0e+00 0.0e+00  0  0  0  0  0   1  0  0  0  0     0       0      0 0.00e+00    0 0.00e+00  0
VecSet                 1 1.0 2.9688e-05 1.3 0.00e+00 0.0 0.0e+00 0.0e+00 0.0e+00  0  0  0  0  0   0  0  0  0  0     0       0      0 0.00e+00    0 0.00e+00  0
VecAXPY               16 1.0 6.6398e-03 4.6 3.64e+05 1.0 0.0e+00 0.0e+00 0.0e+00  0  0  0  0  0   5  0  0  0  0   219     235      0 0.00e+00    0 0.00e+00  100
VecAXPBYCZ            16 1.0 3.3353e-02 9.8 9.09e+05 1.0 0.0e+00 0.0e+00 0.0e+00  0  0  0  0  0  20  0  0  0  0   109     111      0 0.00e+00    0 0.00e+00  100
VecWAXPY              14 1.0 6.7953e-04 1.7 3.18e+05 1.0 0.0e+00 0.0e+00 0.0e+00  0  0  0  0  0   1  0  0  0  0  1872    2470      0 0.00e+00    0 0.00e+00  100
VecReduceArith        42 1.0 2.0938e-03 1.8 9.54e+05 1.0 0.0e+00 0.0e+00 0.0e+00  0  0  0  0  0   3  0  0  0  0  1823    3368      0 0.00e+00    0 0.00e+00  100
VecReduceComm         14 1.0 2.5460e-06 1.2 0.00e+00 0.0 0.0e+00 0.0e+00 0.0e+00  0  0  0  0  0   0  0  0  0  0     0       0      0 0.00e+00    0 0.00e+00  0
MatMult               15 1.0 1.6680e-03 2.3 7.57e+06 1.0 0.0e+00 0.0e+00 0.0e+00  0  0  0  0  0   2  3  0  0  0 18153   45754      0 0.00e+00    0 0.00e+00  100
MatMultAdd            15 1.0 1.1380e-03 1.4 7.57e+06 1.0 0.0e+00 0.0e+00 0.0e+00  0  0  0  0  0   2  3  0  0  0 26606   38112      0 0.00e+00    0 0.00e+00  100
MatAssemblyBegin      58 1.0 7.5530e-06 1.3 0.00e+00 0.0 0.0e+00 0.0e+00 0.0e+00  0  0  0  0  0   0  0  0  0  0     0       0      0 0.00e+00    0 0.00e+00  0
MatAssemblyEnd        58 1.0 1.9632e-04 1.1 0.00e+00 0.0 0.0e+00 0.0e+00 0.0e+00  0  0  0  0  0   0  0  0  0  0     0       0      0 0.00e+00    0 0.00e+00  0
MatGetRowIJ            1 1.0 4.9594e-04 1.1 0.00e+00 0.0 0.0e+00 0.0e+00 0.0e+00  0  0  0  0  0   1  0  0  0  0     0       0      0 0.00e+00    0 0.00e+00  0
MatGetOrdering         1 1.0 9.6341e-04 1.2 0.00e+00 0.0 0.0e+00 0.0e+00 0.0e+00  0  0  0  0  0   2  0  0  0  0     0       0      0 0.00e+00    0 0.00e+00  0
MatZeroEntries        15 1.0 1.2900e-04 1.2 0.00e+00 0.0 0.0e+00 0.0e+00 0.0e+00  0  0  0  0  0   0  0  0  0  0     0       0      0 0.00e+00    0 0.00e+00  0
MatView                1 0.0 4.2672e-05 0.0 0.00e+00 0.0 0.0e+00 0.0e+00 0.0e+00  0  0  0  0  0   0  0  0  0  0     0       0      0 0.00e+00    0 0.00e+00  0
MatSetValuesCOO       29 1.0 1.7214e-02 2.3 0.00e+00 0.0 0.0e+00 0.0e+00 0.0e+00  0  0  0  0  0  18  0  0  0  0     0       0      0 0.00e+00    0 0.00e+00  0
TSStep                 1 1.0 1.0232e-01 2.6 2.21e+08 1.0 0.0e+00 0.0e+00 0.0e+00  2  9  0  0  0  99 100  0  0  0  8645   11050      0 0.00e+00    0 0.00e+00  100
TSFunctionEval        15 1.0 4.0749e-02 2.2 1.55e+07 1.0 0.0e+00 0.0e+00 0.0e+00  1  1  0  0  0  44  7  0  0  0  1520    1704      0 0.00e+00    0 0.00e+00  100
TSJacobianEval        14 1.0 2.2971e-03 1.1 0.00e+00 0.0 0.0e+00 0.0e+00 0.0e+00  0  0  0  0  0   4  0  0  0  0     0       0      0 0.00e+00    0 0.00e+00  0
KSPSetUp              14 1.0 6.1300e-06 1.6 0.00e+00 0.0 0.0e+00 0.0e+00 0.0e+00  0  0  0  0  0   0  0  0  0  0     0       0      0 0.00e+00    0 0.00e+00  0
KSPSolve              14 1.0 1.0341e-02 1.1 2.03e+08 1.0 0.0e+00 0.0e+00 0.0e+00  0  8  0  0  0  18 92  0  0  0 78692       0      0 0.00e+00    0 0.00e+00  100
SNESSolve              1 1.0 1.0208e-01 2.6 2.21e+08 1.0 0.0e+00 0.0e+00 0.0e+00  2  9  0  0  0  99 100  0  0  0  8662   11060      0 0.00e+00    0 0.00e+00  100
SNESSetUp              1 1.0 3.3835e-05 1.1 0.00e+00 0.0 0.0e+00 0.0e+00 0.0e+00  0  0  0  0  0   0  0  0  0  0     0       0      0 0.00e+00    0 0.00e+00  0
SNESFunctionEval      15 1.0 7.4089e-02 3.3 1.63e+07 1.0 0.0e+00 0.0e+00 0.0e+00  1  1  0  0  0  64  7  0  0  0   882     945      0 0.00e+00    0 0.00e+00  100
SNESJacobianEval      14 1.0 2.3140e-03 1.1 0.00e+00 0.0 0.0e+00 0.0e+00 0.0e+00  0  0  0  0  0   4  0  0  0  0     0       0      0 0.00e+00    0 0.00e+00  0
SNESLineSearch        14 1.0 1.6314e-02 1.4 1.65e+07 1.0 0.0e+00 0.0e+00 0.0e+00  1  1  0  0  0  23  7  0  0  0  4049    6159      0 0.00e+00    0 0.00e+00  100
PCSetUp               14 1.0 4.1154e-03 1.5 0.00e+00 0.0 0.0e+00 0.0e+00 0.0e+00  0  0  0  0  0   6  0  0  0  0     0       0      0 0.00e+00    0 0.00e+00  0
PCApply               14 1.0 1.0299e-02 1.1 2.03e+08 1.0 0.0e+00 0.0e+00 0.0e+00  0  8  0  0  0  18 92  0  0  0 79016       0      0 0.00e+00    0 0.00e+00  100

--- Event Stage 2: Solve

Landau Operator      288 1.0 1.1664e-01 1.0 1.50e+08 1.0 0.0e+00 0.0e+00 0.0e+00  5  6  0  0  0  48  7  0  0  0  5157    6153      0 0.00e+00    0 0.00e+00  100
Landau Jacobian      149 1.0 9.5274e-02 1.0 1.50e+08 1.0 0.0e+00 0.0e+00 0.0e+00  4  6  0  0  0  39  7  0  0  0  6314    7376      0 0.00e+00    0 0.00e+00  100
Landau Mass          139 1.0 2.1295e-02 1.1 0.00e+00 0.0 0.0e+00 0.0e+00 0.0e+00  1  0  0  0  0   9  0  0  0  0     0       0      0 0.00e+00    0 0.00e+00  0
 Preamble            279 1.0 5.1672e-04 1.1 0.00e+00 0.0 0.0e+00 0.0e+00 0.0e+00  0  0  0  0  0   0  0  0  0  0     0       0      0 0.00e+00    0 0.00e+00  0
 dynamic IP-Jac      280 1.0 9.9486e-05 1.2 0.00e+00 0.0 0.0e+00 0.0e+00 0.0e+00  0  0  0  0  0   0  0  0  0  0     0       0      0 0.00e+00    0 0.00e+00  0
 Kernel-init         279 1.0 2.6998e-03 1.1 0.00e+00 0.0 0.0e+00 0.0e+00 0.0e+00  0  0  0  0  0   1  0  0  0  0     0       0      0 0.00e+00    0 0.00e+00  0
 Jac-f-df (GPU)      140 1.0 7.7539e-03 1.0 0.00e+00 0.0 0.0e+00 0.0e+00 0.0e+00  0  0  0  0  0   3  0  0  0  0     0       0      0 0.00e+00    0 0.00e+00  0
 J Kernel (GPU)      140 1.0 6.3859e-02 1.0 0.00e+00 0.0 0.0e+00 0.0e+00 0.0e+00  3  0  0  0  0  27  0  0  0  0     0       0      0 0.00e+00    0 0.00e+00  0
 M Kernel (GPU)      139 1.0 1.3207e-02 1.1 0.00e+00 0.0 0.0e+00 0.0e+00 0.0e+00  1  0  0  0  0   5  0  0  0  0     0       0      0 0.00e+00    0 0.00e+00  0
VecNorm               10 1.0 3.1382e-04 1.1 2.27e+05 1.0 0.0e+00 0.0e+00 0.0e+00  0  0  0  0  0   0  0  0  0  0  2896    4182      0 0.00e+00    0 0.00e+00  100
VecCopy              169 1.0 3.3550e-03 1.1 0.00e+00 0.0 0.0e+00 0.0e+00 0.0e+00  0  0  0  0  0   1  0  0  0  0     0       0      0 0.00e+00    0 0.00e+00  0
VecAXPY              159 1.0 3.2386e-03 1.1 3.61e+06 1.0 0.0e+00 0.0e+00 0.0e+00  0  0  0  0  0   1  0  0  0  0  4462    8948      0 0.00e+00    0 0.00e+00  100
VecAXPBYCZ           159 1.0 3.6300e-03 1.1 9.03e+06 1.0 0.0e+00 0.0e+00 0.0e+00  0  0  0  0  0   1  0  0  0  0  9952   19114      0 0.00e+00    0 0.00e+00  100
VecWAXPY             139 1.0 4.0349e-03 1.1 3.16e+06 1.0 0.0e+00 0.0e+00 0.0e+00  0  0  0  0  0   2  0  0  0  0  3131    5163      0 0.00e+00    0 0.00e+00  100
VecReduceArith       417 1.0 1.2255e-02 1.0 9.47e+06 1.0 0.0e+00 0.0e+00 0.0e+00  0  0  0  0  0   5  0  0  0  0  3092    4497      0 0.00e+00    0 0.00e+00  100
VecReduceComm        139 1.0 2.4970e-05 1.3 0.00e+00 0.0 0.0e+00 0.0e+00 0.0e+00  0  0  0  0  0   0  0  0  0  0     0       0      0 0.00e+00    0 0.00e+00  0
MatMult              149 1.0 6.0572e-03 1.1 7.52e+07 1.0 0.0e+00 0.0e+00 0.0e+00  0  3  0  0  0   2  3  0  0  0 49654   67781      0 0.00e+00    0 0.00e+00  100
MatMultAdd           149 1.0 5.2880e-03 1.0 7.52e+07 1.0 0.0e+00 0.0e+00 0.0e+00  0  3  0  0  0   2  3  0  0  0 56877   79055      0 0.00e+00    0 0.00e+00  100
MatAssemblyBegin     558 1.0 6.8060e-05 1.3 0.00e+00 0.0 0.0e+00 0.0e+00 0.0e+00  0  0  0  0  0   0  0  0  0  0     0       0      0 0.00e+00    0 0.00e+00  0
MatAssemblyEnd       558 1.0 1.9616e-04 1.1 0.00e+00 0.0 0.0e+00 0.0e+00 0.0e+00  0  0  0  0  0   0  0  0  0  0     0       0      0 0.00e+00    0 0.00e+00  0
MatZeroEntries       140 1.0 1.0237e-03 1.1 0.00e+00 0.0 0.0e+00 0.0e+00 0.0e+00  0  0  0  0  0   0  0  0  0  0     0       0      0 0.00e+00    0 0.00e+00  0
MatView                1 0.0 3.4046e-05 0.0 0.00e+00 0.0 0.0e+00 0.0e+00 0.0e+00  0  0  0  0  0   0  0  0  0  0     0       0      0 0.00e+00    0 0.00e+00  0
MatSetValuesCOO      279 1.0 1.3367e-02 1.1 0.00e+00 0.0 0.0e+00 0.0e+00 0.0e+00  1  0  0  0  0   5  0  0  0  0     0       0      0 0.00e+00    0 0.00e+00  0
TSStep                10 1.0 2.4500e-01 1.0 2.20e+09 1.0 0.0e+00 0.0e+00 0.0e+00 10 91  0  0  0 100 100  0  0  0 35853   77072      0 0.00e+00    0 0.00e+00  100
TSFunctionEval       149 1.0 9.8701e-02 1.0 1.54e+08 1.0 0.0e+00 0.0e+00 0.0e+00  4  6  0  0  0  41  7  0  0  0  6232    7404      0 0.00e+00    0 0.00e+00  100
TSJacobianEval       139 1.0 2.1412e-02 1.1 0.00e+00 0.0 0.0e+00 0.0e+00 0.0e+00  1  0  0  0  0   9  0  0  0  0     0       0      0 0.00e+00    0 0.00e+00  0
KSPSetUp             139 1.0 2.3013e-05 1.3 0.00e+00 0.0 0.0e+00 0.0e+00 0.0e+00  0  0  0  0  0   0  0  0  0  0     0       0      0 0.00e+00    0 0.00e+00  0
KSPSolve             139 1.0 9.5719e-02 1.0 2.02e+09 1.0 0.0e+00 0.0e+00 0.0e+00  4 83  0  0  0  40 92  0  0  0 84419       0      0 0.00e+00    0 0.00e+00  100
SNESSolve             10 1.0 2.4399e-01 1.0 2.20e+09 1.0 0.0e+00 0.0e+00 0.0e+00 10 91  0  0  0 100 100  0  0  0 35988   77324      0 0.00e+00    0 0.00e+00  100
SNESFunctionEval     149 1.0 1.0225e-01 1.0 1.62e+08 1.0 0.0e+00 0.0e+00 0.0e+00  4  7  0  0  0  42  7  0  0  0  6346    7653      0 0.00e+00    0 0.00e+00  100
SNESJacobianEval     139 1.0 2.1548e-02 1.1 0.00e+00 0.0 0.0e+00 0.0e+00 0.0e+00  1  0  0  0  0   9  0  0  0  0     0       0      0 0.00e+00    0 0.00e+00  0
SNESLineSearch       139 1.0 1.2012e-01 1.0 1.64e+08 1.0 0.0e+00 0.0e+00 0.0e+00  5  7  0  0  0  49  7  0  0  0  5460    6838      0 0.00e+00    0 0.00e+00  100
PCSetUp              139 1.0 1.5526e-03 1.1 0.00e+00 0.0 0.0e+00 0.0e+00 0.0e+00  0  0  0  0  0   1  0  0  0  0     0       0      0 0.00e+00    0 0.00e+00  0
PCApply              139 1.0 9.5388e-02 1.0 2.02e+09 1.0 0.0e+00 0.0e+00 0.0e+00  4 83  0  0  0  39 92  0  0  0 84712       0      0 0.00e+00    0 0.00e+00  100
---------------------------------------------------------------------------------------------------------------------------------------------------------------

Object Type          Creations   Destructions. Reports information only for process 0.

--- Event Stage 0: Main Stage

           Container   314            314
    Distributed Mesh   521            521
            DM Label  1216           1216
          Quadrature   858            858
           Index Set  4916           4916
   IS L to G Mapping   683            683
             Section  1947           1947
    Section Symmetry    80             80
   Star Forest Graph  1557           1557
     Discrete System   883            883
           Weak Form   883            883
    GraphPartitioner   191            191
              Vector   284            316
       p4est logging     1              1
        Linear Space    80             80
          Dual Space   222            222
            FE Space    52             52
              Matrix   674            674
  PetscDeviceContext     1              0
       Field over DM    18             18
             TSAdapt     1              1
                  TS     1              1
                DMTS     1              1
                SNES     1              1
              DMSNES     3              3
      SNESLineSearch     1              1
       Krylov Solver     1              2
     DMKSP interface     0              1
      Preconditioner     1              2
              Viewer     1              1

--- Event Stage 1: Warmup

           Index Set     5              5
              Vector    32              0
       Krylov Solver     1              0
     DMKSP interface     1              0
      Preconditioner     1              0

--- Event Stage 2: Solve

========================================================================================================================
Average time to get PetscTime(): 3.61e-08
Average time for MPI_Barrier(): 1.589e-06
Average time for zero size MPI_Send(): 0.000634296
#PETSc Option Table entries:
-dim 2 # (source: command line)
-dm_landau_amr_levels_max 2,2,2 # (source: command line)
-dm_landau_batch_size 8 # (source: command line)
-dm_landau_device_type kokkos # (source: file)
-dm_landau_Ez 0 # (source: file)
-dm_landau_ion_charges 1,2,3,4,5,6,7,8,9 # (source: file)
-dm_landau_ion_masses 2,182,182,182,182,182,182,182,182 # (source: file)
-dm_landau_n 1.0000044,1,1e-7,1e-7,1e-7,1e-7,1e-7,1e-7,1e-7,1e-7 # (source: file)
-dm_landau_num_species_grid 1,1,8 # (source: file)
-dm_landau_thermal_temps 2,1,1,1,1,1,1,1,1,1 # (source: file)
-dm_landau_type p4est # (source: command line)
-dm_landau_verbose 1 # (source: command line)
-dm_mat_type aijkokkos # (source: file)
-dm_preallocate_only false # (source: code)
-dm_vec_type kokkos # (source: file)
-ex2_test_type none # (source: file)
-ksp_type preonly # (source: command line)
-log_view # (source: command line)
-log_view_gpu_time # (source: command line)
-options_left # (source: command line)
-pc_bjkokkos_ksp_converged_reason # (source: command line)
-pc_bjkokkos_ksp_error_if_not_converged # (source: command line)
-pc_bjkokkos_ksp_max_it 100 # (source: command line)
-pc_bjkokkos_ksp_rtol 1.e-8 # (source: command line)
-pc_bjkokkos_ksp_type tfqmr # (source: command line)
-pc_bjkokkos_pc_type jacobi # (source: command line)
-pc_type bjkokkos # (source: command line)
-petscspace_degree 3 # (source: command line)
-snes_converged_reason # (source: file)
-snes_linesearch_type basic # (source: file)
-snes_max_it 50 # (source: file)
-snes_monitor # (source: file)
-snes_rtol 1e-14 # (source: file)
-snes_stol 1e-14 # (source: file)
-ts_adapt_clip .5,1.1 # (source: file)
-ts_adapt_dt_max 1 # (source: file)
-ts_adapt_monitor # (source: file)
-ts_adapt_scale_solve_failed 0.5 # (source: file)
-ts_adapt_time_step_increase_delay 5 # (source: file)
-ts_dt .5 # (source: file)
-ts_exact_final_time stepover # (source: file)
-ts_max_snes_failures -1 # (source: file)
-ts_max_steps 10 # (source: file)
-ts_max_time 100 # (source: file)
-ts_monitor # (source: file)
-ts_rtol 1e-2 # (source: file)
-ts_type beuler # (source: file)
-ts_view # (source: command line)
-use_gpu_aware_mpi 0 # (source: file)
#End of PETSc Option Table entries
Compiled without FORTRAN kernels
Compiled with full precision matrices (default)
sizeof(short) 2 sizeof(int) 4 sizeof(long) 8 sizeof(void*) 8 sizeof(PetscScalar) 8 sizeof(PetscInt) 4
Configure options: --CFLAGS="   -g" --CXXFLAGS=" -g" --CUDAFLAGS=-g --with-cc=cc --with-cxx=CC --with-fc=ftn --download-triangle --with-fortran-bindings=0 --COPTFLAGS="   -g -O3" --CXXOPTFLAGS=" -g -O3" --FOPTFLAGS="   -g -O3" --with-debugging=0 --with-cuda=1 --with-cuda-arch=80 --with-mpiexec="srun -G4" --download-p4est=1 --with-zlib=1 --download-kokkos --download-kokkos-kernels --with-kokkos-kernels-tpl=0 --with-make-np=8 --with-64-bit-indices=0 --with-hdf5-dir=/opt/cray/pe/hdf5-parallel/1.12.2.9/gnu/12.3 PETSC_ARCH=arch-perlmutter-opt-gcc-kokkos-cuda
-----------------------------------------
Libraries compiled on 2024-06-27 20:09:11 on login19 
Machine characteristics: Linux-5.14.21-150400.24.81_12.0.87-cray_shasta_c-x86_64-with-glibc2.3.4
Using PETSc directory: /global/u2/m/madams/petsc
Using PETSc arch: arch-perlmutter-opt-gcc-kokkos-cuda
-----------------------------------------

Using C compiler: cc -g -fPIC -g -O3  
Using Fortran compiler: ftn  -fPIC -Wall -ffree-line-length-none -ffree-line-length-0 -Wno-lto-type-mismatch -Wno-unused-dummy-argument -g -O3    
-----------------------------------------

Using include paths: -I/global/u2/m/madams/petsc/include -I/global/u2/m/madams/petsc/arch-perlmutter-opt-gcc-kokkos-cuda/include -I/opt/cray/pe/hdf5-parallel/1.12.2.9/gnu/12.3/include -I/opt/nvidia/hpc_sdk/Linux_x86_64/23.9/cuda/12.2/include -I/opt/nvidia/hpc_sdk/Linux_x86_64/23.9/math_libs/12.2/include
-----------------------------------------

Using C linker: cc
Using Fortran linker: ftn
Using libraries: -Wl,-rpath,/global/u2/m/madams/petsc/arch-perlmutter-opt-gcc-kokkos-cuda/lib -L/global/u2/m/madams/petsc/arch-perlmutter-opt-gcc-kokkos-cuda/lib -lpetsc -Wl,-rpath,/global/u2/m/madams/petsc/arch-perlmutter-opt-gcc-kokkos-cuda/lib -L/global/u2/m/madams/petsc/arch-perlmutter-opt-gcc-kokkos-cuda/lib -Wl,-rpath,/opt/cray/pe/hdf5-parallel/1.12.2.9/gnu/12.3/lib -L/opt/cray/pe/hdf5-parallel/1.12.2.9/gnu/12.3/lib -Wl,-rpath,/opt/nvidia/hpc_sdk/Linux_x86_64/23.9/math_libs/12.2/lib64 -L/opt/nvidia/hpc_sdk/Linux_x86_64/23.9/math_libs/12.2/lib64 -Wl,-rpath,/opt/nvidia/hpc_sdk/Linux_x86_64/23.9/cuda/12.2/lib64 -L/opt/nvidia/hpc_sdk/Linux_x86_64/23.9/cuda/12.2/lib64 -L/opt/nvidia/hpc_sdk/Linux_x86_64/23.9/cuda/12.2/lib64/stubs -Wl,-rpath,/opt/cray/pe/mpich/8.1.28/ofi/gnu/12.3/lib -L/opt/cray/pe/mpich/8.1.28/ofi/gnu/12.3/lib -Wl,-rpath,/opt/cray/pe/mpich/8.1.28/gtl/lib -L/opt/cray/pe/mpich/8.1.28/gtl/lib -Wl,-rpath,/opt/cray/pe/libsci/23.12.5/GNU/12.3/x86_64/lib -L/opt/cray/pe/libsci/23.12.5/GNU/12.3/x86_64/lib -Wl,-rpath,/opt/nvidia/hpc_sdk/Linux_x86_64/23.9/cuda/12.2/lib64/stubs -Wl,-rpath,/opt/nvidia/hpc_sdk/Linux_x86_64/23.9/cuda/12.2/nvvm/lib64 -L/opt/nvidia/hpc_sdk/Linux_x86_64/23.9/cuda/12.2/nvvm/lib64 -Wl,-rpath,/opt/nvidia/hpc_sdk/Linux_x86_64/23.9/cuda/12.2/extras/CUPTI/lib64 -L/opt/nvidia/hpc_sdk/Linux_x86_64/23.9/cuda/12.2/extras/CUPTI/lib64 -Wl,-rpath,/opt/nvidia/hpc_sdk/Linux_x86_64/23.9/cuda/12.2/extras/Debugger/lib64 -L/opt/nvidia/hpc_sdk/Linux_x86_64/23.9/cuda/12.2/extras/Debugger/lib64 -Wl,-rpath,/opt/cray/pe/dsmml/0.2.2/dsmml/lib -L/opt/cray/pe/dsmml/0.2.2/dsmml/lib -Wl,-rpath,/opt/cray/xpmem/2.6.2-2.5_2.38__gd067c3f.shasta/lib64 -L/opt/cray/xpmem/2.6.2-2.5_2.38__gd067c3f.shasta/lib64 -Wl,-rpath,/usr/lib64/gcc/x86_64-suse-linux/12 -L/usr/lib64/gcc/x86_64-suse-linux/12 -Wl,-rpath,/usr/x86_64-suse-linux/lib -L/usr/x86_64-suse-linux/lib -lkokkoskernels -lkokkoscontainers -lkokkoscore -lkokkossimd -lp4est -lsc -lhdf5_hl -lhdf5 -ltriangle -lz -lcufft -lcublas -lcusparse -lcusolver -lcurand -lcudart -lnvToolsExt -lcuda -lX11 -lcuda -lmpi_gtl_cuda -ldl -lxpmem -lgfortran -lm -lhdf5_hl_parallel -lhdf5_parallel -lcupti -lcudart -lhdf5hl_fortran_parallel -lhdf5_fortran_parallel -lmpifort_gnu_123 -lsci_gnu_123_mpi -lmpi_gnu_123 -lsci_gnu_123 -ldsmml -lgfortran -lquadmath -lpthread -lm -lgcc_s -lstdc++ -lquadmath
-----------------------------------------

#PETSc Option Table entries:
-dim 2 # (source: command line)
-dm_landau_amr_levels_max 2,2,2 # (source: command line)
-dm_landau_batch_size 8 # (source: command line)
-dm_landau_device_type kokkos # (source: file)
-dm_landau_Ez 0 # (source: file)
-dm_landau_ion_charges 1,2,3,4,5,6,7,8,9 # (source: file)
-dm_landau_ion_masses 2,182,182,182,182,182,182,182,182 # (source: file)
-dm_landau_n 1.0000044,1,1e-7,1e-7,1e-7,1e-7,1e-7,1e-7,1e-7,1e-7 # (source: file)
-dm_landau_num_species_grid 1,1,8 # (source: file)
-dm_landau_thermal_temps 2,1,1,1,1,1,1,1,1,1 # (source: file)
-dm_landau_type p4est # (source: command line)
-dm_landau_verbose 1 # (source: command line)
-dm_mat_type aijkokkos # (source: file)
-dm_preallocate_only false # (source: code)
-dm_vec_type kokkos # (source: file)
-ex2_test_type none # (source: file)
-ksp_type preonly # (source: command line)
-log_view # (source: command line)
-log_view_gpu_time # (source: command line)
-options_left # (source: command line)
-pc_bjkokkos_ksp_converged_reason # (source: command line)
-pc_bjkokkos_ksp_error_if_not_converged # (source: command line)
-pc_bjkokkos_ksp_max_it 100 # (source: command line)
-pc_bjkokkos_ksp_rtol 1.e-8 # (source: command line)
-pc_bjkokkos_ksp_type tfqmr # (source: command line)
-pc_bjkokkos_pc_type jacobi # (source: command line)
-pc_type bjkokkos # (source: command line)
-petscspace_degree 3 # (source: command line)
-snes_converged_reason # (source: file)
-snes_linesearch_type basic # (source: file)
-snes_max_it 50 # (source: file)
-snes_monitor # (source: file)
-snes_rtol 1e-14 # (source: file)
-snes_stol 1e-14 # (source: file)
-ts_adapt_clip .5,1.1 # (source: file)
-ts_adapt_dt_max 1 # (source: file)
-ts_adapt_monitor # (source: file)
-ts_adapt_scale_solve_failed 0.5 # (source: file)
-ts_adapt_time_step_increase_delay 5 # (source: file)
-ts_dt .5 # (source: file)
-ts_exact_final_time stepover # (source: file)
-ts_max_snes_failures -1 # (source: file)
-ts_max_steps 10 # (source: file)
-ts_max_time 100 # (source: file)
-ts_monitor # (source: file)
-ts_rtol 1e-2 # (source: file)
-ts_type beuler # (source: file)
-ts_view # (source: command line)
-use_gpu_aware_mpi 0 # (source: file)
#End of PETSc Option Table entries
There are no unused options.
