masses:        e= 9.109e-31; ions in proton mass units:    2.000e+00  1.820e+02 ...
charges:       e=-1.602e-19; charges in elementary units:  1.000e+00  2.000e+00
n:             e:  1.000e+00                           i:  1.000e+00  1.000e-07
thermal T (K): e= 2.321e+07 i= 1.160e+07  1.160e+07. Normalization grid 0: v_0= 1.876e+07 ( 6.256e-02c) n_0= 1.000e+20 t_0= 1.909e-05 32 batched, view batch 0
Domain radius (AMR levels) grid 0: par= 5.000e+00 perp= 5.000e+00 (2) , 1: par= 5.835e-02 perp= 5.835e-02 (2) , 2: par= 6.117e-03 perp= 6.117e-03 (2) 
0) FormLandau 672 IPs, 42 cells total, Nb=16, Nq=16, dim=2, Tab: Nb=16 Nf=10 Np=16 cdim=2 N=45440 nnz=1009280
0 TS dt 0.5 time 0.
    0 SNES Function norm 3.360685692829e-02
    1 SNES Function norm 3.526847576632e-04
    2 SNES Function norm 4.883273549929e-05
    3 SNES Function norm 1.234632648862e-05
    4 SNES Function norm 2.977600913597e-06
    5 SNES Function norm 7.057246567874e-07
    6 SNES Function norm 1.662964900638e-07
    7 SNES Function norm 3.910568691049e-08
    8 SNES Function norm 9.188587726108e-09
    9 SNES Function norm 2.158318408501e-09
   10 SNES Function norm 5.068854091595e-10
   11 SNES Function norm 1.190433056961e-10
   12 SNES Function norm 2.795864498568e-11
   13 SNES Function norm 6.561209450717e-12
   14 SNES Function norm 1.542424531356e-12
    Nonlinear solve converged due to CONVERGED_SNORM_RELATIVE iterations 14
      TSAdapt none beuler 0: step   0 accepted t=0          + 5.000e-01 dt=5.000e-01 
1 TS dt 0.5 time 0.5
TS Object: 1 MPI process
  type: beuler
  maximum steps=1
  maximum time=100.
  total number of I function evaluations=15
  total number of I Jacobian evaluations=14
  total number of RHS function evaluations=15
  total number of nonlinear solver iterations=14
  total number of linear solver iterations=336
  total number of nonlinear solve failures=0
  total number of rejected steps=0
  using relative error tolerance of 0.01,   using absolute error tolerance of 0.0001
  TSAdapt Object: 1 MPI process
    type: none
  SNES Object: 1 MPI process
    type: newtonls
    maximum iterations=50, maximum function evaluations=10000
    tolerances: relative=1e-14, absolute=1e-50, solution=1e-14
    total number of linear solver iterations=336
    total number of function evaluations=15
    norm schedule ALWAYS
    SNESLineSearch Object: 1 MPI process
      type: basic
      maxstep=1.000000e+08, minlambda=1.000000e-12
      tolerances: relative=1.000000e-08, absolute=1.000000e-15, lambda=1.000000e-08
      maximum iterations=40
    KSP Object: 1 MPI process
      type: preonly
      maximum iterations=10000, initial guess is zero
      tolerances: relative=1e-05, absolute=1e-50, divergence=10000.
      left preconditioning
      using NONE norm type for convergence test
    PC Object: 1 MPI process
      type: bjkokkos
        Batched device linear solver: Krylov (KSP) method with Jacobi preconditioning
      		nwork = 10, rel tol = 1.000000e-08, abs tol = 1.000000e-50, div tol = 1.000000e+04, max it =100, type = tfqmr
      linear system matrix = precond matrix:
      Mat Object: Jacobian 1 MPI process
        type: seqaijkokkos
        rows=45440, cols=45440
        total: nonzeros=1009280, allocated nonzeros=1009280
        total number of mallocs used during MatSetValues calls=0
          using I-node routines: found 21312 nodes, limit used is 5
0 TS dt 0.5 time 0.
    0 SNES Function norm 3.360685692829e-02
    1 SNES Function norm 3.526847576632e-04
    2 SNES Function norm 4.883273549929e-05
    3 SNES Function norm 1.234632648862e-05
    4 SNES Function norm 2.977600913597e-06
    5 SNES Function norm 7.057246567874e-07
    6 SNES Function norm 1.662964900638e-07
    7 SNES Function norm 3.910568691049e-08
    8 SNES Function norm 9.188587726108e-09
    9 SNES Function norm 2.158318408501e-09
   10 SNES Function norm 5.068854091595e-10
   11 SNES Function norm 1.190433056961e-10
   12 SNES Function norm 2.795864498568e-11
   13 SNES Function norm 6.561209450717e-12
   14 SNES Function norm 1.542424531356e-12
    Nonlinear solve converged due to CONVERGED_SNORM_RELATIVE iterations 14
      TSAdapt none beuler 0: step   0 accepted t=0          + 5.000e-01 dt=5.000e-01 
1 TS dt 0.5 time 0.5
    0 SNES Function norm 1.172524526979e-02
    1 SNES Function norm 2.381661030243e-04
    2 SNES Function norm 4.442274784852e-05
    3 SNES Function norm 1.067412676268e-05
    4 SNES Function norm 2.552006156732e-06
    5 SNES Function norm 6.046295944677e-07
    6 SNES Function norm 1.425884628844e-07
    7 SNES Function norm 3.355409607650e-08
    8 SNES Function norm 7.888344177225e-09
    9 SNES Function norm 1.853681691588e-09
   10 SNES Function norm 4.355184422464e-10
   11 SNES Function norm 1.023142117466e-10
   12 SNES Function norm 2.403469389907e-11
   13 SNES Function norm 5.645909361952e-12
    Nonlinear solve converged due to CONVERGED_SNORM_RELATIVE iterations 13
      TSAdapt none beuler 0: step   1 accepted t=0.5        + 5.000e-01 dt=5.000e-01 
2 TS dt 0.5 time 1.
    0 SNES Function norm 7.639181472095e-03
    1 SNES Function norm 2.654701823225e-04
    2 SNES Function norm 5.571126315129e-05
    3 SNES Function norm 1.334062418064e-05
    4 SNES Function norm 3.180025040570e-06
    5 SNES Function norm 7.527636297798e-07
    6 SNES Function norm 1.775160829813e-07
    7 SNES Function norm 4.178591306678e-08
    8 SNES Function norm 9.827942513595e-09
    9 SNES Function norm 2.310650000189e-09
   10 SNES Function norm 5.431739817644e-10
   11 SNES Function norm 1.276780003974e-10
   12 SNES Function norm 3.000580078651e-11
   13 SNES Function norm 7.047529214238e-12
   14 SNES Function norm 1.659398198286e-12
    Nonlinear solve converged due to CONVERGED_SNORM_RELATIVE iterations 14
      TSAdapt none beuler 0: step   2 accepted t=1          + 5.000e-01 dt=5.000e-01 
3 TS dt 0.5 time 1.5
    0 SNES Function norm 5.755296547285e-03
    1 SNES Function norm 3.169303404518e-04
    2 SNES Function norm 7.190926689646e-05
    3 SNES Function norm 1.725108717916e-05
    4 SNES Function norm 4.106813504866e-06
    5 SNES Function norm 9.716592708203e-07
    6 SNES Function norm 2.291650620603e-07
    7 SNES Function norm 5.396841091016e-08
    8 SNES Function norm 1.270104191522e-08
    9 SNES Function norm 2.988202703891e-09
   10 SNES Function norm 7.029351180219e-10
   11 SNES Function norm 1.653559870136e-10
   12 SNES Function norm 3.889112036584e-11
   13 SNES Function norm 9.151605061335e-12
   14 SNES Function norm 2.143522393451e-12
    Nonlinear solve converged due to CONVERGED_SNORM_RELATIVE iterations 14
      TSAdapt none beuler 0: step   3 accepted t=1.5        + 5.000e-01 dt=5.000e-01 
4 TS dt 0.5 time 2.
    0 SNES Function norm 4.728346403089e-03
    1 SNES Function norm 3.773506717393e-04
    2 SNES Function norm 8.877919791451e-05
    3 SNES Function norm 2.130110755179e-05
    4 SNES Function norm 5.066816182431e-06
    5 SNES Function norm 1.198707305399e-06
    6 SNES Function norm 2.828356160051e-07
    7 SNES Function norm 6.665330810262e-08
    8 SNES Function norm 1.569889035080e-08
    9 SNES Function norm 3.696655419690e-09
   10 SNES Function norm 8.703704557005e-10
   11 SNES Function norm 2.049149470462e-10
   12 SNES Function norm 4.824113765061e-11
   13 SNES Function norm 1.135947795554e-11
   14 SNES Function norm 2.675089461220e-12
    Nonlinear solve converged due to CONVERGED_SNORM_RELATIVE iterations 14
      TSAdapt none beuler 0: step   4 accepted t=2          + 5.000e-01 dt=5.000e-01 
5 TS dt 0.5 time 2.5
    0 SNES Function norm 4.126117566461e-03
    1 SNES Function norm 4.354386324258e-04
    2 SNES Function norm 1.040414271372e-04
    3 SNES Function norm 2.494950581484e-05
    4 SNES Function norm 5.932452412929e-06
    5 SNES Function norm 1.403912329683e-06
    6 SNES Function norm 3.314778038860e-07
    7 SNES Function norm 7.818361255514e-08
    8 SNES Function norm 1.843204820162e-08
    9 SNES Function norm 4.344511227057e-09
   10 SNES Function norm 1.023919688622e-09
   11 SNES Function norm 2.413052459648e-10
   12 SNES Function norm 5.687148286750e-11
   13 SNES Function norm 1.340395134174e-11
   14 SNES Function norm 3.154883486356e-12
    Nonlinear solve converged due to CONVERGED_SNORM_RELATIVE iterations 14
      TSAdapt none beuler 0: step   5 accepted t=2.5        + 5.000e-01 dt=5.000e-01 
6 TS dt 0.5 time 3.
    0 SNES Function norm 3.757299997062e-03
    1 SNES Function norm 4.849612444930e-04
    2 SNES Function norm 1.166330563525e-04
    3 SNES Function norm 2.795387697184e-05
    4 SNES Function norm 6.646901535415e-06
    5 SNES Function norm 1.573869570526e-06
    6 SNES Function norm 3.719223407674e-07
    7 SNES Function norm 8.780947925952e-08
    8 SNES Function norm 2.072305821884e-08
    9 SNES Function norm 4.889748848282e-09
   10 SNES Function norm 1.153672573275e-09
   11 SNES Function norm 2.721912868736e-10
   12 SNES Function norm 6.422083485943e-11
   13 SNES Function norm 1.514342754941e-11
   14 SNES Function norm 3.575196987202e-12
    Nonlinear solve converged due to CONVERGED_SNORM_RELATIVE iterations 14
      TSAdapt none beuler 0: step   6 accepted t=3          + 5.000e-01 dt=5.000e-01 
7 TS dt 0.5 time 3.5
    0 SNES Function norm 3.519847646694e-03
    1 SNES Function norm 5.234154696987e-04
    2 SNES Function norm 1.262267866587e-04
    3 SNES Function norm 3.024316717269e-05
    4 SNES Function norm 7.193408876654e-06
    5 SNES Function norm 1.704542275635e-06
    6 SNES Function norm 4.031906211878e-07
    7 SNES Function norm 9.529334680228e-08
    8 SNES Function norm 2.251425631569e-08
    9 SNES Function norm 5.318417947882e-09
   10 SNES Function norm 1.256251941977e-09
   11 SNES Function norm 2.967264642596e-10
   12 SNES Function norm 7.007898695495e-11
   13 SNES Function norm 1.655036633823e-11
   14 SNES Function norm 3.911513135154e-12
    Nonlinear solve converged due to CONVERGED_SNORM_RELATIVE iterations 14
      TSAdapt none beuler 0: step   7 accepted t=3.5        + 5.000e-01 dt=5.000e-01 
8 TS dt 0.5 time 4.
    0 SNES Function norm 3.354128915849e-03
    1 SNES Function norm 5.504812369509e-04
    2 SNES Function norm 1.329024130977e-04
    3 SNES Function norm 3.183943513711e-05
    4 SNES Function norm 7.576918914667e-06
    5 SNES Function norm 1.796972758998e-06
    6 SNES Function norm 4.254945909167e-07
    7 SNES Function norm 1.006768301253e-07
    8 SNES Function norm 2.381347414643e-08
    9 SNES Function norm 5.631869608863e-09
   10 SNES Function norm 1.331851175648e-09
   11 SNES Function norm 3.149447427387e-10
   12 SNES Function norm 7.447565011440e-11
   13 SNES Function norm 1.761330569221e-11
   14 SNES Function norm 4.161592332769e-12
    Nonlinear solve converged due to CONVERGED_SNORM_RELATIVE iterations 14
      TSAdapt none beuler 0: step   8 accepted t=4          + 5.000e-01 dt=5.000e-01 
9 TS dt 0.5 time 4.5
    0 SNES Function norm 3.224767697913e-03
    1 SNES Function norm 5.669617749932e-04
    2 SNES Function norm 1.369397455510e-04
    3 SNES Function norm 3.280998456537e-05
    4 SNES Function norm 7.812936142623e-06
    5 SNES Function norm 1.854688390973e-06
    6 SNES Function norm 4.396324625470e-07
    7 SNES Function norm 1.041399969354e-07
    8 SNES Function norm 2.466121860345e-08
    9 SNES Function norm 5.839198540147e-09
   10 SNES Function norm 1.382501902992e-09
   11 SNES Function norm 3.273159087766e-10
   12 SNES Function norm 7.749548533994e-11
   13 SNES Function norm 1.835319740582e-11
   14 SNES Function norm 4.337582629934e-12
    Nonlinear solve converged due to CONVERGED_SNORM_RELATIVE iterations 14
      TSAdapt none beuler 0: step   9 accepted t=4.5        + 5.000e-01 dt=5.000e-01 
10 TS dt 0.5 time 5.
TS Object: 1 MPI process
  type: beuler
  maximum steps=10
  maximum time=100.
  total number of I function evaluations=164
  total number of I Jacobian evaluations=153
  total number of RHS function evaluations=164
  total number of nonlinear solver iterations=139
  total number of linear solver iterations=3335
  total number of nonlinear solve failures=0
  total number of rejected steps=0
  using relative error tolerance of 0.01,   using absolute error tolerance of 0.0001
  TSAdapt Object: 1 MPI process
    type: none
  SNES Object: 1 MPI process
    type: newtonls
    maximum iterations=50, maximum function evaluations=10000
    tolerances: relative=1e-14, absolute=1e-50, solution=1e-14
    total number of linear solver iterations=337
    total number of function evaluations=15
    norm schedule ALWAYS
    SNESLineSearch Object: 1 MPI process
      type: basic
      maxstep=1.000000e+08, minlambda=1.000000e-12
      tolerances: relative=1.000000e-08, absolute=1.000000e-15, lambda=1.000000e-08
      maximum iterations=40
    KSP Object: 1 MPI process
      type: preonly
      maximum iterations=10000, initial guess is zero
      tolerances: relative=1e-05, absolute=1e-50, divergence=10000.
      left preconditioning
      using NONE norm type for convergence test
    PC Object: 1 MPI process
      type: bjkokkos
        Batched device linear solver: Krylov (KSP) method with Jacobi preconditioning
      		nwork = 10, rel tol = 1.000000e-08, abs tol = 1.000000e-50, div tol = 1.000000e+04, max it =100, type = tfqmr
      linear system matrix = precond matrix:
      Mat Object: Jacobian 1 MPI process
        type: seqaijkokkos
        rows=45440, cols=45440
        total: nonzeros=1009280, allocated nonzeros=1009280
        total number of mallocs used during MatSetValues calls=0
          using I-node routines: found 21312 nodes, limit used is 5
****************************************************************************************************************************************************************
***                                WIDEN YOUR WINDOW TO 160 CHARACTERS.  Use 'enscript -r -fCourier9' to print this document                                 ***
****************************************************************************************************************************************************************

------------------------------------------------------------------ PETSc Performance Summary: ------------------------------------------------------------------



      ##########################################################
      #                                                        #
      #                       WARNING!!!                       #
      #                                                        #
      #   This code was run with -log_view_gpu_time            #
      #   This provides accurate timing within the GPU kernels #
      #   but can slow down the entire computation by a        #
      #   measurable amount. For fastest runs we recommend     #
      #   not using this option.                               #
      #                                                        #
      ##########################################################


/global/u2/m/madams/batch_gmres_paper/landau_throughput_nsight/perlmutter/./ex2-2 on a arch-perlmutter-opt-gcc-kokkos-cuda named nid200381 with 4 processes and CUDA architecture 80, by madams on Thu Jun 27 14:39:51 2024
Using Petsc Development GIT revision: v3.21.2-329-g0f40c42b27c  GIT Date: 2024-06-27 15:17:08 -0400

                         Max       Max/Min     Avg       Total
Time (sec):           3.639e+00     1.000   3.639e+00
Objects:              0.000e+00     0.000   0.000e+00
Flops:                9.675e+09     1.000   9.675e+09  3.870e+10
Flops/sec:            2.658e+09     1.000   2.658e+09  1.063e+10
MPI Msg Count:        0.000e+00     0.000   0.000e+00  0.000e+00
MPI Msg Len (bytes):  0.000e+00     0.000   0.000e+00  0.000e+00
MPI Reductions:       2.100e+01     1.000

Flop counting convention: 1 flop = 1 real number operation of type (multiply/divide/add/subtract)
                            e.g., VecAXPY() for real vectors of length N --> 2N flops
                            and VecAXPY() for complex vectors of length N --> 8N flops

Summary of Stages:   ----- Time ------  ----- Flop ------  --- Messages ---  -- Message Lengths --  -- Reductions --
                        Avg     %Total     Avg     %Total    Count   %Total     Avg         %Total    Count   %Total
 0:      Main Stage: 3.1607e+00  86.8%  1.8216e+07   0.0%  0.000e+00   0.0%  0.000e+00        0.0%  2.000e+00   9.5%
 1:          Warmup: 6.5807e-02   1.8%  3.5403e+09   9.1%  0.000e+00   0.0%  0.000e+00        0.0%  0.000e+00   0.0%
 2:           Solve: 4.1291e-01  11.3%  3.5140e+10  90.8%  0.000e+00   0.0%  0.000e+00        0.0%  0.000e+00   0.0%

------------------------------------------------------------------------------------------------------------------------
See the 'Profiling' chapter of the users' manual for details on interpreting output.
Phase summary info:
   Count: number of times phase was executed
   Time and Flop: Max - maximum over all processors
                  Ratio - ratio of maximum to minimum over all processors
   Mess: number of messages sent
   AvgLen: average message length (bytes)
   Reduct: number of global reductions
   Global: entire computation
   Stage: stages of a computation. Set stages with PetscLogStagePush() and PetscLogStagePop().
      %T - percent time in this phase         %F - percent flop in this phase
      %M - percent messages in this phase     %L - percent message lengths in this phase
      %R - percent reductions in this phase
   Total Mflop/s: 10e-6 * (sum of flop over all processors)/(max time over all processors)
   GPU Mflop/s: 10e-6 * (sum of flop on GPU over all processors)/(max GPU time over all processors)
   CpuToGpu Count: total number of CPU to GPU copies per processor
   CpuToGpu Size (Mbytes): 10e-6 * (total size of CPU to GPU copies per processor)
   GpuToCpu Count: total number of GPU to CPU copies per processor
   GpuToCpu Size (Mbytes): 10e-6 * (total size of GPU to CPU copies per processor)
   GPU %F: percent flops on GPU in this event
------------------------------------------------------------------------------------------------------------------------
Event                Count      Time (sec)     Flop                              --- Global ---  --- Stage ----  Total   GPU    - CpuToGpu -   - GpuToCpu - GPU
                   Max Ratio  Max     Ratio   Max  Ratio  Mess   AvgLen  Reduct  %T %F %M %L %R  %T %F %M %L %R Mflop/s Mflop/s Count   Size   Count   Size  %F
---------------------------------------------------------------------------------------------------------------------------------------------------------------

--- Event Stage 0: Main Stage

BuildTwoSided        423 1.0 2.5189e-04 1.0 0.00e+00 0.0 0.0e+00 0.0e+00 0.0e+00  0  0  0  0  0   0  0  0  0  0     0       0      0 0.00e+00    0 0.00e+00  0
DMConvert             18 1.0 1.3935e-03 1.0 0.00e+00 0.0 0.0e+00 0.0e+00 0.0e+00  0  0  0  0  0   0  0  0  0  0     0       0      0 0.00e+00    0 0.00e+00  0
DMCreateMat            8 1.0 7.8113e-01 1.0 0.00e+00 0.0 0.0e+00 0.0e+00 0.0e+00 21  0  0  0  0  25  0  0  0  0     0       0      0 0.00e+00    0 0.00e+00  0
DMProjectFunc        105 1.0 4.9805e-02 1.1 1.34e+06 1.0 0.0e+00 0.0e+00 0.0e+00  1  0  0  0  0   2 29  0  0  0   108       0      0 0.00e+00    0 0.00e+00  0
DMPlexInterp         124 1.0 1.5821e-03 1.0 0.00e+00 0.0 0.0e+00 0.0e+00 0.0e+00  0  0  0  0  0   0  0  0  0  0     0       0      0 0.00e+00    0 0.00e+00  0
DMPlexStratify       182 1.0 2.7820e-03 1.0 0.00e+00 0.0 0.0e+00 0.0e+00 0.0e+00  0  0  0  0  0   0  0  0  0  0     0       0      0 0.00e+00    0 0.00e+00  0
DMPlexSymmetrize     182 1.0 9.8492e-05 1.1 0.00e+00 0.0 0.0e+00 0.0e+00 0.0e+00  0  0  0  0  0   0  0  0  0  0     0       0      0 0.00e+00    0 0.00e+00  0
DMPlexPrealloc       198 1.0 4.3735e-01 1.0 0.00e+00 0.0 0.0e+00 0.0e+00 0.0e+00 12  0  0  0  0  14  0  0  0  0     0       0      0 0.00e+00    0 0.00e+00  0
DMPlexJacobianFE       6 1.0 3.5673e-02 1.0 2.13e+06 1.0 0.0e+00 0.0e+00 0.0e+00  1  0  0  0  0   1 47  0  0  0   239       0      0 0.00e+00    0 0.00e+00  0
DMPlexGenerate         3 1.0 5.2836e-04 1.3 0.00e+00 0.0 0.0e+00 0.0e+00 0.0e+00  0  0  0  0  0   0  0  0  0  0     0       0      0 0.00e+00    0 0.00e+00  0
SFSetGraph           828 1.0 8.9598e-05 1.1 0.00e+00 0.0 0.0e+00 0.0e+00 0.0e+00  0  0  0  0  0   0  0  0  0  0     0       0      0 0.00e+00    0 0.00e+00  0
SFSetUp              423 1.0 9.5760e-04 1.0 0.00e+00 0.0 0.0e+00 0.0e+00 0.0e+00  0  0  0  0  0   0  0  0  0  0     0       0      0 0.00e+00    0 0.00e+00  0
SFBcastBegin         858 1.0 1.1525e-03 1.0 0.00e+00 0.0 0.0e+00 0.0e+00 0.0e+00  0  0  0  0  0   0  0  0  0  0     0       0      0 0.00e+00    0 0.00e+00  0
SFBcastEnd           858 1.0 9.5283e-05 1.0 0.00e+00 0.0 0.0e+00 0.0e+00 0.0e+00  0  0  0  0  0   0  0  0  0  0     0       0      0 0.00e+00    0 0.00e+00  0
SFReduceBegin         54 1.0 1.1467e-04 1.1 0.00e+00 0.0 0.0e+00 0.0e+00 0.0e+00  0  0  0  0  0   0  0  0  0  0     0       0      0 0.00e+00    0 0.00e+00  0
SFReduceEnd           54 1.0 6.4070e-06 1.1 0.00e+00 0.0 0.0e+00 0.0e+00 0.0e+00  0  0  0  0  0   0  0  0  0  0     0       0      0 0.00e+00    0 0.00e+00  0
SFCreateEmbed        396 1.0 1.7085e-03 1.0 0.00e+00 0.0 0.0e+00 0.0e+00 0.0e+00  0  0  0  0  0   0  0  0  0  0     0       0      0 0.00e+00    0 0.00e+00  0
SFSectionSF          396 1.0 9.7712e-04 1.0 0.00e+00 0.0 0.0e+00 0.0e+00 0.0e+00  0  0  0  0  0   0  0  0  0  0     0       0      0 0.00e+00    0 0.00e+00  0
SFRemoteOff          396 1.0 4.1175e-03 1.0 0.00e+00 0.0 0.0e+00 0.0e+00 0.0e+00  0  0  0  0  0   0  0  0  0  0     0       0      0 0.00e+00    0 0.00e+00  0
SFPack               912 1.0 6.4649e-05 1.0 0.00e+00 0.0 0.0e+00 0.0e+00 0.0e+00  0  0  0  0  0   0  0  0  0  0     0       0      0 0.00e+00    0 0.00e+00  0
Landau Create          1 1.0 2.3408e+00 2.0 3.35e+06 1.0 0.0e+00 0.0e+00 0.0e+00 56  0  0  0  0  65 74  0  0  0     6       0      0 0.00e+00    0 0.00e+00  0
 GPU ass. setup        1 1.0 4.0037e-01 1.0 3.46e+05 1.0 0.0e+00 0.0e+00 0.0e+00 11  0  0  0  0  13  8  0  0  0     3       0      0 0.00e+00    0 0.00e+00  0
 Build matrix          1 1.0 2.3794e-01 1.1 9.26e+05 1.0 0.0e+00 0.0e+00 0.0e+00  6  0  0  0  0   7 20  0  0  0    16       0      0 0.00e+00    0 0.00e+00  0
 Assembly maps         1 1.0 1.7013e+00 2.9 1.94e+06 1.0 0.0e+00 0.0e+00 0.0e+00 39  0  0  0  0  45 43  0  0  0     5       0      0 0.00e+00    0 0.00e+00  0
Landau Mass mat        1 1.0 6.1191e-01 1.0 1.21e+06 1.0 0.0e+00 0.0e+00 0.0e+00 17  0  0  0  0  19 26  0  0  0     8       0      0 0.00e+00    0 0.00e+00  0
 static IP Data        1 1.0 1.5158e-03 1.3 1.34e+05 1.0 0.0e+00 0.0e+00 0.0e+00  0  0  0  0  0   0  3  0  0  0   355       0      0 0.00e+00    0 0.00e+00  0
VecCopy                1 1.0 4.6670e-05 1.1 0.00e+00 0.0 0.0e+00 0.0e+00 0.0e+00  0  0  0  0  0   0  0  0  0  0     0       0      0 0.00e+00    0 0.00e+00  0
VecSet               189 1.0 3.2754e-03 1.1 0.00e+00 0.0 0.0e+00 0.0e+00 0.0e+00  0  0  0  0  0   0  0  0  0  0     0       0      0 0.00e+00    0 0.00e+00  0
DualSpaceSetUp        40 1.0 1.9785e-02 1.0 8.84e+02 1.0 0.0e+00 0.0e+00 0.0e+00  1  0  0  0  0   1  0  0  0  0     0       0      0 0.00e+00    0 0.00e+00  0
FESetUp               40 1.0 1.0161e-03 1.2 0.00e+00 0.0 0.0e+00 0.0e+00 0.0e+00  0  0  0  0  0   0  0  0  0  0     0       0      0 0.00e+00    0 0.00e+00  0
MatMult            18540 1.0 1.8262e-03 1.1 1.31e+05 1.0 0.0e+00 0.0e+00 0.0e+00  0  0  0  0  0   0  3  0  0  0   286       0      0 0.00e+00    0 0.00e+00  0
MatLUFactor           30 1.0 3.0209e-04 1.2 8.19e+04 1.0 0.0e+00 0.0e+00 0.0e+00  0  0  0  0  0   0  2  0  0  0  1085       0      0 0.00e+00    0 0.00e+00  0
MatCopy              120 1.0 7.0064e-05 1.1 0.00e+00 0.0 0.0e+00 0.0e+00 0.0e+00  0  0  0  0  0   0  0  0  0  0     0       0      0 0.00e+00    0 0.00e+00  0
MatConvert            60 1.0 4.6991e-04 1.1 0.00e+00 0.0 0.0e+00 0.0e+00 0.0e+00  0  0  0  0  0   0  0  0  0  0     0       0      0 0.00e+00    0 0.00e+00  0
MatAssemblyBegin     806 1.0 6.9054e-05 1.1 0.00e+00 0.0 0.0e+00 0.0e+00 0.0e+00  0  0  0  0  0   0  0  0  0  0     0       0      0 0.00e+00    0 0.00e+00  0
MatAssemblyEnd       806 1.0 3.9960e-02 1.0 0.00e+00 0.0 0.0e+00 0.0e+00 0.0e+00  1  0  0  0  0   1  0  0  0  0     0       0      0 0.00e+00    0 0.00e+00  0
MatGetRowIJ            9 1.0 1.8740e-06 1.2 0.00e+00 0.0 0.0e+00 0.0e+00 0.0e+00  0  0  0  0  0   0  0  0  0  0     0       0      0 0.00e+00    0 0.00e+00  0
MatZeroEntries         6 1.0 9.5425e-05 1.2 0.00e+00 0.0 0.0e+00 0.0e+00 0.0e+00  0  0  0  0  0   0  0  0  0  0     0       0      0 0.00e+00    0 0.00e+00  0
MatMatSolve          120 1.0 3.8633e-04 1.1 9.52e+05 1.0 0.0e+00 0.0e+00 0.0e+00  0  0  0  0  0   0 21  0  0  0  9860       0      0 0.00e+00    0 0.00e+00  0
MatSetPreallCOO      109 1.0 1.2102e-01 1.0 0.00e+00 0.0 0.0e+00 0.0e+00 0.0e+00  3  0  0  0  0   4  0  0  0  0     0       0      0 0.00e+00    0 0.00e+00  0
MatSetValuesCOO      108 1.0 1.3884e-04 1.1 0.00e+00 0.0 0.0e+00 0.0e+00 0.0e+00  0  0  0  0  0   0  0  0  0  0     0       0      0 0.00e+00    0 0.00e+00  0
DCtxCreate             1 1.0 1.8505e-05 1.5 0.00e+00 0.0 0.0e+00 0.0e+00 0.0e+00  0  0  0  0  0   0  0  0  0  0     0       0      0 0.00e+00    0 0.00e+00  0
DCtxDestroy            1 1.0 2.4087e-05 1.7 0.00e+00 0.0 0.0e+00 0.0e+00 0.0e+00  0  0  0  0  0   0  0  0  0  0     0       0      0 0.00e+00    0 0.00e+00  0
DCtxSetUp              1 1.0 4.5098e-05 1.7 0.00e+00 0.0 0.0e+00 0.0e+00 0.0e+00  0  0  0  0  0   0  0  0  0  0     0       0      0 0.00e+00    0 0.00e+00  0
DCtxSetDevice          1 1.0 4.1420e-05 1.7 0.00e+00 0.0 0.0e+00 0.0e+00 0.0e+00  0  0  0  0  0   0  0  0  0  0     0       0      0 0.00e+00    0 0.00e+00  0

--- Event Stage 1: Warmup

Landau Operator       29 1.0 3.7245e-02 1.0 6.06e+07 1.0 0.0e+00 0.0e+00 0.0e+00  1  1  0  0  0  56  7  0  0  0  6504    6978      0 0.00e+00    0 0.00e+00  100
Landau Jacobian       15 1.0 3.2933e-02 1.0 6.06e+07 1.0 0.0e+00 0.0e+00 0.0e+00  1  1  0  0  0  50  7  0  0  0  7355    7842      0 0.00e+00    0 0.00e+00  100
Landau Mass           14 1.0 4.4455e-03 1.0 0.00e+00 0.0 0.0e+00 0.0e+00 0.0e+00  0  0  0  0  0   7  0  0  0  0     0       0      0 0.00e+00    0 0.00e+00  0
 Preamble             29 1.0 6.6078e-05 1.2 0.00e+00 0.0 0.0e+00 0.0e+00 0.0e+00  0  0  0  0  0   0  0  0  0  0     0       0      0 0.00e+00    0 0.00e+00  0
 dynamic IP-Jac       30 1.0 1.5081e-05 1.4 0.00e+00 0.0 0.0e+00 0.0e+00 0.0e+00  0  0  0  0  0   0  0  0  0  0     0       0      0 0.00e+00    0 0.00e+00  0
 Kernel-init          29 1.0 3.0907e-04 1.1 0.00e+00 0.0 0.0e+00 0.0e+00 0.0e+00  0  0  0  0  0   0  0  0  0  0     0       0      0 0.00e+00    0 0.00e+00  0
 Jac-f-df (GPU)       15 1.0 2.2325e-03 1.1 0.00e+00 0.0 0.0e+00 0.0e+00 0.0e+00  0  0  0  0  0   3  0  0  0  0     0       0      0 0.00e+00    0 0.00e+00  0
 J Kernel (GPU)       15 1.0 1.9707e-02 1.0 0.00e+00 0.0 0.0e+00 0.0e+00 0.0e+00  1  0  0  0  0  30  0  0  0  0     0       0      0 0.00e+00    0 0.00e+00  0
 M Kernel (GPU)       14 1.0 3.0447e-03 1.0 0.00e+00 0.0 0.0e+00 0.0e+00 0.0e+00  0  0  0  0  0   5  0  0  0  0     0       0      0 0.00e+00    0 0.00e+00  0
VecNorm                1 1.0 2.9902e-04 1.4 9.09e+04 1.0 0.0e+00 0.0e+00 0.0e+00  0  0  0  0  0   0  0  0  0  0  1216    1271      0 0.00e+00    0 0.00e+00  100
VecCopy               18 1.0 4.4072e-04 1.0 0.00e+00 0.0 0.0e+00 0.0e+00 0.0e+00  0  0  0  0  0   1  0  0  0  0     0       0      0 0.00e+00    0 0.00e+00  0
VecSet                 1 1.0 2.6652e-05 1.1 0.00e+00 0.0 0.0e+00 0.0e+00 0.0e+00  0  0  0  0  0   0  0  0  0  0     0       0      0 0.00e+00    0 0.00e+00  0
VecAXPY               16 1.0 1.6125e-03 1.1 1.45e+06 1.0 0.0e+00 0.0e+00 0.0e+00  0  0  0  0  0   2  0  0  0  0  3607    3994      0 0.00e+00    0 0.00e+00  100
VecAXPBYCZ            16 1.0 3.9839e-03 1.1 3.64e+06 1.0 0.0e+00 0.0e+00 0.0e+00  0  0  0  0  0   6  0  0  0  0  3650    3880      0 0.00e+00    0 0.00e+00  100
VecWAXPY              14 1.0 4.7987e-04 1.2 1.27e+06 1.0 0.0e+00 0.0e+00 0.0e+00  0  0  0  0  0   1  0  0  0  0 10606   16255      0 0.00e+00    0 0.00e+00  100
VecReduceArith        42 1.0 1.2465e-03 1.0 3.82e+06 1.0 0.0e+00 0.0e+00 0.0e+00  0  0  0  0  0   2  0  0  0  0 12249   17651      0 0.00e+00    0 0.00e+00  100
VecReduceComm         14 1.0 2.4430e-06 1.1 0.00e+00 0.0 0.0e+00 0.0e+00 0.0e+00  0  0  0  0  0   0  0  0  0  0     0       0      0 0.00e+00    0 0.00e+00  0
MatMult               15 1.0 8.7210e-04 1.0 3.03e+07 1.0 0.0e+00 0.0e+00 0.0e+00  0  0  0  0  0   1  3  0  0  0 138876   171165      0 0.00e+00    0 0.00e+00  100
MatMultAdd            15 1.0 1.4829e-03 1.1 3.03e+07 1.0 0.0e+00 0.0e+00 0.0e+00  0  0  0  0  0   2  3  0  0  0 81672   90243      0 0.00e+00    0 0.00e+00  100
MatAssemblyBegin      58 1.0 6.4360e-06 1.3 0.00e+00 0.0 0.0e+00 0.0e+00 0.0e+00  0  0  0  0  0   0  0  0  0  0     0       0      0 0.00e+00    0 0.00e+00  0
MatAssemblyEnd        58 1.0 6.6785e-04 1.1 0.00e+00 0.0 0.0e+00 0.0e+00 0.0e+00  0  0  0  0  0   1  0  0  0  0     0       0      0 0.00e+00    0 0.00e+00  0
MatGetRowIJ            1 1.0 1.9236e-03 1.1 0.00e+00 0.0 0.0e+00 0.0e+00 0.0e+00  0  0  0  0  0   3  0  0  0  0     0       0      0 0.00e+00    0 0.00e+00  0
MatGetOrdering         1 1.0 3.3787e-03 1.1 0.00e+00 0.0 0.0e+00 0.0e+00 0.0e+00  0  0  0  0  0   5  0  0  0  0     0       0      0 0.00e+00    0 0.00e+00  0
MatZeroEntries        15 1.0 1.2165e-04 1.1 0.00e+00 0.0 0.0e+00 0.0e+00 0.0e+00  0  0  0  0  0   0  0  0  0  0     0       0      0 0.00e+00    0 0.00e+00  0
MatView                1 0.0 4.1420e-05 0.0 0.00e+00 0.0 0.0e+00 0.0e+00 0.0e+00  0  0  0  0  0   0  0  0  0  0     0       0      0 0.00e+00    0 0.00e+00  0
MatSetValuesCOO       29 1.0 9.3857e-03 1.1 0.00e+00 0.0 0.0e+00 0.0e+00 0.0e+00  0  0  0  0  0  14  0  0  0  0     0       0      0 0.00e+00    0 0.00e+00  0
TSStep                 1 1.0 6.5922e-02 1.0 8.85e+08 1.0 0.0e+00 0.0e+00 0.0e+00  2  9  0  0  0  99 100  0  0  0 53704   85750      0 0.00e+00    0 0.00e+00  100
TSFunctionEval        15 1.0 3.4670e-02 1.0 6.19e+07 1.0 0.0e+00 0.0e+00 0.0e+00  1  1  0  0  0  52  7  0  0  0  7144    7699      0 0.00e+00    0 0.00e+00  100
TSJacobianEval        14 1.0 4.4578e-03 1.0 0.00e+00 0.0 0.0e+00 0.0e+00 0.0e+00  0  0  0  0  0   7  0  0  0  0     0       0      0 0.00e+00    0 0.00e+00  0
KSPSetUp              14 1.0 4.7190e-06 1.2 0.00e+00 0.0 0.0e+00 0.0e+00 0.0e+00  0  0  0  0  0   0  0  0  0  0     0       0      0 0.00e+00    0 0.00e+00  0
KSPSolve              14 1.0 1.2038e-02 1.0 8.14e+08 1.0 0.0e+00 0.0e+00 0.0e+00  0  8  0  0  0  18 92  0  0  0 270558       0      0 0.00e+00    0 0.00e+00  100
SNESSolve              1 1.0 6.5611e-02 1.0 8.85e+08 1.0 0.0e+00 0.0e+00 0.0e+00  2  9  0  0  0  99 100  0  0  0 53939   86008      0 0.00e+00    0 0.00e+00  100
SNESSetUp              1 1.0 5.4366e-05 1.2 0.00e+00 0.0 0.0e+00 0.0e+00 0.0e+00  0  0  0  0  0   0  0  0  0  0     0       0      0 0.00e+00    0 0.00e+00  0
SNESFunctionEval      15 1.0 3.8554e-02 1.0 6.53e+07 1.0 0.0e+00 0.0e+00 0.0e+00  1  1  0  0  0  58  7  0  0  0  6778    7307      0 0.00e+00    0 0.00e+00  100
SNESJacobianEval      14 1.0 4.4715e-03 1.0 0.00e+00 0.0 0.0e+00 0.0e+00 0.0e+00  0  0  0  0  0   7  0  0  0  0     0       0      0 0.00e+00    0 0.00e+00  0
SNESLineSearch        14 1.0 2.5478e-02 1.0 6.61e+07 1.0 0.0e+00 0.0e+00 0.0e+00  1  1  0  0  0  38  7  0  0  0 10372   11507      0 0.00e+00    0 0.00e+00  100
PCSetUp               14 1.0 8.0684e-03 1.1 0.00e+00 0.0 0.0e+00 0.0e+00 0.0e+00  0  0  0  0  0  12  0  0  0  0     0       0      0 0.00e+00    0 0.00e+00  0
PCApply               14 1.0 1.1998e-02 1.0 8.14e+08 1.0 0.0e+00 0.0e+00 0.0e+00  0  8  0  0  0  18 92  0  0  0 271461       0      0 0.00e+00    0 0.00e+00  100

--- Event Stage 2: Solve

Landau Operator      288 1.0 2.7180e-01 1.0 6.02e+08 1.0 0.0e+00 0.0e+00 0.0e+00  7  6  0  0  0  65  7  0  0  0  8853    9538      0 0.00e+00    0 0.00e+00  100
Landau Jacobian      149 1.0 2.2786e-01 1.0 6.02e+08 1.0 0.0e+00 0.0e+00 0.0e+00  6  6  0  0  0  55  7  0  0  0 10560   11255      0 0.00e+00    0 0.00e+00  100
Landau Mass          139 1.0 4.3865e-02 1.1 0.00e+00 0.0 0.0e+00 0.0e+00 0.0e+00  1  0  0  0  0  10  0  0  0  0     0       0      0 0.00e+00    0 0.00e+00  0
 Preamble            279 1.0 5.8064e-04 1.2 0.00e+00 0.0 0.0e+00 0.0e+00 0.0e+00  0  0  0  0  0   0  0  0  0  0     0       0      0 0.00e+00    0 0.00e+00  0
 dynamic IP-Jac      280 1.0 1.1170e-04 1.3 0.00e+00 0.0 0.0e+00 0.0e+00 0.0e+00  0  0  0  0  0   0  0  0  0  0     0       0      0 0.00e+00    0 0.00e+00  0
 Kernel-init         279 1.0 2.7598e-03 1.1 0.00e+00 0.0 0.0e+00 0.0e+00 0.0e+00  0  0  0  0  0   1  0  0  0  0     0       0      0 0.00e+00    0 0.00e+00  0
 Jac-f-df (GPU)      140 1.0 1.4371e-02 1.0 0.00e+00 0.0 0.0e+00 0.0e+00 0.0e+00  0  0  0  0  0   3  0  0  0  0     0       0      0 0.00e+00    0 0.00e+00  0
 J Kernel (GPU)      140 1.0 1.8298e-01 1.0 0.00e+00 0.0 0.0e+00 0.0e+00 0.0e+00  5  0  0  0  0  44  0  0  0  0     0       0      0 0.00e+00    0 0.00e+00  0
 M Kernel (GPU)      139 1.0 3.0050e-02 1.0 0.00e+00 0.0 0.0e+00 0.0e+00 0.0e+00  1  0  0  0  0   7  0  0  0  0     0       0      0 0.00e+00    0 0.00e+00  0
VecNorm               10 1.0 3.2639e-04 1.1 9.09e+05 1.0 0.0e+00 0.0e+00 0.0e+00  0  0  0  0  0   0  0  0  0  0 11137   15975      0 0.00e+00    0 0.00e+00  100
VecCopy              169 1.0 3.5221e-03 1.1 0.00e+00 0.0 0.0e+00 0.0e+00 0.0e+00  0  0  0  0  0   1  0  0  0  0     0       0      0 0.00e+00    0 0.00e+00  0
VecAXPY              159 1.0 3.3729e-03 1.1 1.44e+07 1.0 0.0e+00 0.0e+00 0.0e+00  0  0  0  0  0   1  0  0  0  0 17136   33958      0 0.00e+00    0 0.00e+00  100
VecAXPBYCZ           159 1.0 3.7028e-03 1.1 3.61e+07 1.0 0.0e+00 0.0e+00 0.0e+00  0  0  0  0  0   1  0  0  0  0 39025   73961      0 0.00e+00    0 0.00e+00  100
VecWAXPY             139 1.0 4.0947e-03 1.1 1.26e+07 1.0 0.0e+00 0.0e+00 0.0e+00  0  0  0  0  0   1  0  0  0  0 12340   20046      0 0.00e+00    0 0.00e+00  100
VecReduceArith       417 1.0 1.2794e-02 1.1 3.79e+07 1.0 0.0e+00 0.0e+00 0.0e+00  0  0  0  0  0   3  0  0  0  0 11848   17042      0 0.00e+00    0 0.00e+00  100
VecReduceComm        139 1.0 2.5681e-05 1.2 0.00e+00 0.0 0.0e+00 0.0e+00 0.0e+00  0  0  0  0  0   0  0  0  0  0     0       0      0 0.00e+00    0 0.00e+00  0
MatMult              149 1.0 6.7954e-03 1.1 3.01e+08 1.0 0.0e+00 0.0e+00 0.0e+00  0  3  0  0  0   2  3  0  0  0 177040   232987      0 0.00e+00    0 0.00e+00  100
MatMultAdd           149 1.0 5.9440e-03 1.0 3.01e+08 1.0 0.0e+00 0.0e+00 0.0e+00  0  3  0  0  0   1  3  0  0  0 202400   270804      0 0.00e+00    0 0.00e+00  100
MatAssemblyBegin     558 1.0 5.8811e-05 1.2 0.00e+00 0.0 0.0e+00 0.0e+00 0.0e+00  0  0  0  0  0   0  0  0  0  0     0       0      0 0.00e+00    0 0.00e+00  0
MatAssemblyEnd       558 1.0 2.1495e-04 1.2 0.00e+00 0.0 0.0e+00 0.0e+00 0.0e+00  0  0  0  0  0   0  0  0  0  0     0       0      0 0.00e+00    0 0.00e+00  0
MatZeroEntries       140 1.0 1.0502e-03 1.1 0.00e+00 0.0 0.0e+00 0.0e+00 0.0e+00  0  0  0  0  0   0  0  0  0  0     0       0      0 0.00e+00    0 0.00e+00  0
MatView                1 0.0 3.4807e-05 0.0 0.00e+00 0.0 0.0e+00 0.0e+00 0.0e+00  0  0  0  0  0   0  0  0  0  0     0       0      0 0.00e+00    0 0.00e+00  0
MatSetValuesCOO      279 1.0 2.4579e-02 1.0 0.00e+00 0.0 0.0e+00 0.0e+00 0.0e+00  1  0  0  0  0   6  0  0  0  0     0       0      0 0.00e+00    0 0.00e+00  0
TSStep                10 1.0 4.2125e-01 1.0 8.78e+09 1.0 0.0e+00 0.0e+00 0.0e+00 11 91  0  0  0 100 100  0  0  0 83418   130481      0 0.00e+00    0 0.00e+00  100
TSFunctionEval       149 1.0 2.3143e-01 1.0 6.15e+08 1.0 0.0e+00 0.0e+00 0.0e+00  6  6  0  0  0  56  7  0  0  0 10631   11423      0 0.00e+00    0 0.00e+00  100
TSJacobianEval       139 1.0 4.3985e-02 1.1 0.00e+00 0.0 0.0e+00 0.0e+00 0.0e+00  1  0  0  0  0  10  0  0  0  0     0       0      0 0.00e+00    0 0.00e+00  0
KSPSetUp             139 1.0 2.3768e-05 1.2 0.00e+00 0.0 0.0e+00 0.0e+00 0.0e+00  0  0  0  0  0   0  0  0  0  0     0       0      0 0.00e+00    0 0.00e+00  0
KSPSolve             139 1.0 1.1542e-01 1.0 8.08e+09 1.0 0.0e+00 0.0e+00 0.0e+00  3 84  0  0  0  27 92  0  0  0 280066       0      0 0.00e+00    0 0.00e+00  100
SNESSolve             10 1.0 4.2013e-01 1.0 8.78e+09 1.0 0.0e+00 0.0e+00 0.0e+00 11 91  0  0  0 100 100  0  0  0 83609   130670      0 0.00e+00    0 0.00e+00  100
SNESFunctionEval     149 1.0 2.3501e-01 1.0 6.49e+08 1.0 0.0e+00 0.0e+00 0.0e+00  6  7  0  0  0  56  7  0  0  0 11045   11954      0 0.00e+00    0 0.00e+00  100
SNESJacobianEval     139 1.0 4.4121e-02 1.1 0.00e+00 0.0 0.0e+00 0.0e+00 0.0e+00  1  0  0  0  0  10  0  0  0  0     0       0      0 0.00e+00    0 0.00e+00  0
SNESLineSearch       139 1.0 2.5260e-01 1.0 6.56e+08 1.0 0.0e+00 0.0e+00 0.0e+00  7  7  0  0  0  60  7  0  0  0 10387   11515      0 0.00e+00    0 0.00e+00  100
PCSetUp              139 1.0 1.6843e-03 1.3 0.00e+00 0.0 0.0e+00 0.0e+00 0.0e+00  0  0  0  0  0   0  0  0  0  0     0       0      0 0.00e+00    0 0.00e+00  0
PCApply              139 1.0 1.1509e-01 1.0 8.08e+09 1.0 0.0e+00 0.0e+00 0.0e+00  3 84  0  0  0  27 92  0  0  0 280862       0      0 0.00e+00    0 0.00e+00  100
---------------------------------------------------------------------------------------------------------------------------------------------------------------

Object Type          Creations   Destructions. Reports information only for process 0.

--- Event Stage 0: Main Stage

           Container   314            314
    Distributed Mesh   521            521
            DM Label  1216           1216
          Quadrature   930            930
           Index Set  6500           6500
   IS L to G Mapping   827            827
             Section  2667           2667
    Section Symmetry    80             80
   Star Forest Graph  2133           2133
     Discrete System   883            883
           Weak Form   883            883
    GraphPartitioner   191            191
              Vector   284            388
       p4est logging     1              1
        Linear Space    80             80
          Dual Space   222            222
            FE Space    52             52
              Matrix   818            818
  PetscDeviceContext     1              0
       Field over DM    18             18
             TSAdapt     1              1
                  TS     1              1
                DMTS     1              1
                SNES     1              1
              DMSNES     3              3
      SNESLineSearch     1              1
       Krylov Solver     1              2
     DMKSP interface     0              1
      Preconditioner     1              2
              Viewer     1              1

--- Event Stage 1: Warmup

           Index Set     5              5
              Vector   104              0
       Krylov Solver     1              0
     DMKSP interface     1              0
      Preconditioner     1              0

--- Event Stage 2: Solve

========================================================================================================================
Average time to get PetscTime(): 3.4e-08
Average time for MPI_Barrier(): 1.557e-06
Average time for zero size MPI_Send(): 1.50867e-05
#PETSc Option Table entries:
-dim 2 # (source: command line)
-dm_landau_amr_levels_max 2,2,2 # (source: command line)
-dm_landau_batch_size 32 # (source: command line)
-dm_landau_device_type kokkos # (source: file)
-dm_landau_Ez 0 # (source: file)
-dm_landau_ion_charges 1,2,3,4,5,6,7,8,9 # (source: file)
-dm_landau_ion_masses 2,182,182,182,182,182,182,182,182 # (source: file)
-dm_landau_n 1.0000044,1,1e-7,1e-7,1e-7,1e-7,1e-7,1e-7,1e-7,1e-7 # (source: file)
-dm_landau_num_species_grid 1,1,8 # (source: file)
-dm_landau_thermal_temps 2,1,1,1,1,1,1,1,1,1 # (source: file)
-dm_landau_type p4est # (source: command line)
-dm_landau_verbose 1 # (source: command line)
-dm_mat_type aijkokkos # (source: file)
-dm_preallocate_only false # (source: code)
-dm_vec_type kokkos # (source: file)
-ex2_test_type none # (source: file)
-ksp_type preonly # (source: command line)
-log_view # (source: command line)
-log_view_gpu_time # (source: command line)
-options_left # (source: command line)
-pc_bjkokkos_ksp_converged_reason # (source: command line)
-pc_bjkokkos_ksp_error_if_not_converged # (source: command line)
-pc_bjkokkos_ksp_max_it 100 # (source: command line)
-pc_bjkokkos_ksp_rtol 1.e-8 # (source: command line)
-pc_bjkokkos_ksp_type tfqmr # (source: command line)
-pc_bjkokkos_pc_type jacobi # (source: command line)
-pc_type bjkokkos # (source: command line)
-petscspace_degree 3 # (source: command line)
-snes_converged_reason # (source: file)
-snes_linesearch_type basic # (source: file)
-snes_max_it 50 # (source: file)
-snes_monitor # (source: file)
-snes_rtol 1e-14 # (source: file)
-snes_stol 1e-14 # (source: file)
-ts_adapt_clip .5,1.1 # (source: file)
-ts_adapt_dt_max 1 # (source: file)
-ts_adapt_monitor # (source: file)
-ts_adapt_scale_solve_failed 0.5 # (source: file)
-ts_adapt_time_step_increase_delay 5 # (source: file)
-ts_dt .5 # (source: file)
-ts_exact_final_time stepover # (source: file)
-ts_max_snes_failures -1 # (source: file)
-ts_max_steps 10 # (source: file)
-ts_max_time 100 # (source: file)
-ts_monitor # (source: file)
-ts_rtol 1e-2 # (source: file)
-ts_type beuler # (source: file)
-ts_view # (source: command line)
-use_gpu_aware_mpi 0 # (source: file)
#End of PETSc Option Table entries
Compiled without FORTRAN kernels
Compiled with full precision matrices (default)
sizeof(short) 2 sizeof(int) 4 sizeof(long) 8 sizeof(void*) 8 sizeof(PetscScalar) 8 sizeof(PetscInt) 4
Configure options: --CFLAGS="   -g" --CXXFLAGS=" -g" --CUDAFLAGS=-g --with-cc=cc --with-cxx=CC --with-fc=ftn --download-triangle --with-fortran-bindings=0 --COPTFLAGS="   -g -O3" --CXXOPTFLAGS=" -g -O3" --FOPTFLAGS="   -g -O3" --with-debugging=0 --with-cuda=1 --with-cuda-arch=80 --with-mpiexec="srun -G4" --download-p4est=1 --with-zlib=1 --download-kokkos --download-kokkos-kernels --with-kokkos-kernels-tpl=0 --with-make-np=8 --with-64-bit-indices=0 --with-hdf5-dir=/opt/cray/pe/hdf5-parallel/1.12.2.9/gnu/12.3 PETSC_ARCH=arch-perlmutter-opt-gcc-kokkos-cuda
-----------------------------------------
Libraries compiled on 2024-06-27 20:09:11 on login19 
Machine characteristics: Linux-5.14.21-150400.24.81_12.0.87-cray_shasta_c-x86_64-with-glibc2.3.4
Using PETSc directory: /global/u2/m/madams/petsc
Using PETSc arch: arch-perlmutter-opt-gcc-kokkos-cuda
-----------------------------------------

Using C compiler: cc -g -fPIC -g -O3  
Using Fortran compiler: ftn  -fPIC -Wall -ffree-line-length-none -ffree-line-length-0 -Wno-lto-type-mismatch -Wno-unused-dummy-argument -g -O3    
-----------------------------------------

Using include paths: -I/global/u2/m/madams/petsc/include -I/global/u2/m/madams/petsc/arch-perlmutter-opt-gcc-kokkos-cuda/include -I/opt/cray/pe/hdf5-parallel/1.12.2.9/gnu/12.3/include -I/opt/nvidia/hpc_sdk/Linux_x86_64/23.9/cuda/12.2/include -I/opt/nvidia/hpc_sdk/Linux_x86_64/23.9/math_libs/12.2/include
-----------------------------------------

Using C linker: cc
Using Fortran linker: ftn
Using libraries: -Wl,-rpath,/global/u2/m/madams/petsc/arch-perlmutter-opt-gcc-kokkos-cuda/lib -L/global/u2/m/madams/petsc/arch-perlmutter-opt-gcc-kokkos-cuda/lib -lpetsc -Wl,-rpath,/global/u2/m/madams/petsc/arch-perlmutter-opt-gcc-kokkos-cuda/lib -L/global/u2/m/madams/petsc/arch-perlmutter-opt-gcc-kokkos-cuda/lib -Wl,-rpath,/opt/cray/pe/hdf5-parallel/1.12.2.9/gnu/12.3/lib -L/opt/cray/pe/hdf5-parallel/1.12.2.9/gnu/12.3/lib -Wl,-rpath,/opt/nvidia/hpc_sdk/Linux_x86_64/23.9/math_libs/12.2/lib64 -L/opt/nvidia/hpc_sdk/Linux_x86_64/23.9/math_libs/12.2/lib64 -Wl,-rpath,/opt/nvidia/hpc_sdk/Linux_x86_64/23.9/cuda/12.2/lib64 -L/opt/nvidia/hpc_sdk/Linux_x86_64/23.9/cuda/12.2/lib64 -L/opt/nvidia/hpc_sdk/Linux_x86_64/23.9/cuda/12.2/lib64/stubs -Wl,-rpath,/opt/cray/pe/mpich/8.1.28/ofi/gnu/12.3/lib -L/opt/cray/pe/mpich/8.1.28/ofi/gnu/12.3/lib -Wl,-rpath,/opt/cray/pe/mpich/8.1.28/gtl/lib -L/opt/cray/pe/mpich/8.1.28/gtl/lib -Wl,-rpath,/opt/cray/pe/libsci/23.12.5/GNU/12.3/x86_64/lib -L/opt/cray/pe/libsci/23.12.5/GNU/12.3/x86_64/lib -Wl,-rpath,/opt/nvidia/hpc_sdk/Linux_x86_64/23.9/cuda/12.2/lib64/stubs -Wl,-rpath,/opt/nvidia/hpc_sdk/Linux_x86_64/23.9/cuda/12.2/nvvm/lib64 -L/opt/nvidia/hpc_sdk/Linux_x86_64/23.9/cuda/12.2/nvvm/lib64 -Wl,-rpath,/opt/nvidia/hpc_sdk/Linux_x86_64/23.9/cuda/12.2/extras/CUPTI/lib64 -L/opt/nvidia/hpc_sdk/Linux_x86_64/23.9/cuda/12.2/extras/CUPTI/lib64 -Wl,-rpath,/opt/nvidia/hpc_sdk/Linux_x86_64/23.9/cuda/12.2/extras/Debugger/lib64 -L/opt/nvidia/hpc_sdk/Linux_x86_64/23.9/cuda/12.2/extras/Debugger/lib64 -Wl,-rpath,/opt/cray/pe/dsmml/0.2.2/dsmml/lib -L/opt/cray/pe/dsmml/0.2.2/dsmml/lib -Wl,-rpath,/opt/cray/xpmem/2.6.2-2.5_2.38__gd067c3f.shasta/lib64 -L/opt/cray/xpmem/2.6.2-2.5_2.38__gd067c3f.shasta/lib64 -Wl,-rpath,/usr/lib64/gcc/x86_64-suse-linux/12 -L/usr/lib64/gcc/x86_64-suse-linux/12 -Wl,-rpath,/usr/x86_64-suse-linux/lib -L/usr/x86_64-suse-linux/lib -lkokkoskernels -lkokkoscontainers -lkokkoscore -lkokkossimd -lp4est -lsc -lhdf5_hl -lhdf5 -ltriangle -lz -lcufft -lcublas -lcusparse -lcusolver -lcurand -lcudart -lnvToolsExt -lcuda -lX11 -lcuda -lmpi_gtl_cuda -ldl -lxpmem -lgfortran -lm -lhdf5_hl_parallel -lhdf5_parallel -lcupti -lcudart -lhdf5hl_fortran_parallel -lhdf5_fortran_parallel -lmpifort_gnu_123 -lsci_gnu_123_mpi -lmpi_gnu_123 -lsci_gnu_123 -ldsmml -lgfortran -lquadmath -lpthread -lm -lgcc_s -lstdc++ -lquadmath
-----------------------------------------

#PETSc Option Table entries:
-dim 2 # (source: command line)
-dm_landau_amr_levels_max 2,2,2 # (source: command line)
-dm_landau_batch_size 32 # (source: command line)
-dm_landau_device_type kokkos # (source: file)
-dm_landau_Ez 0 # (source: file)
-dm_landau_ion_charges 1,2,3,4,5,6,7,8,9 # (source: file)
-dm_landau_ion_masses 2,182,182,182,182,182,182,182,182 # (source: file)
-dm_landau_n 1.0000044,1,1e-7,1e-7,1e-7,1e-7,1e-7,1e-7,1e-7,1e-7 # (source: file)
-dm_landau_num_species_grid 1,1,8 # (source: file)
-dm_landau_thermal_temps 2,1,1,1,1,1,1,1,1,1 # (source: file)
-dm_landau_type p4est # (source: command line)
-dm_landau_verbose 1 # (source: command line)
-dm_mat_type aijkokkos # (source: file)
-dm_preallocate_only false # (source: code)
-dm_vec_type kokkos # (source: file)
-ex2_test_type none # (source: file)
-ksp_type preonly # (source: command line)
-log_view # (source: command line)
-log_view_gpu_time # (source: command line)
-options_left # (source: command line)
-pc_bjkokkos_ksp_converged_reason # (source: command line)
-pc_bjkokkos_ksp_error_if_not_converged # (source: command line)
-pc_bjkokkos_ksp_max_it 100 # (source: command line)
-pc_bjkokkos_ksp_rtol 1.e-8 # (source: command line)
-pc_bjkokkos_ksp_type tfqmr # (source: command line)
-pc_bjkokkos_pc_type jacobi # (source: command line)
-pc_type bjkokkos # (source: command line)
-petscspace_degree 3 # (source: command line)
-snes_converged_reason # (source: file)
-snes_linesearch_type basic # (source: file)
-snes_max_it 50 # (source: file)
-snes_monitor # (source: file)
-snes_rtol 1e-14 # (source: file)
-snes_stol 1e-14 # (source: file)
-ts_adapt_clip .5,1.1 # (source: file)
-ts_adapt_dt_max 1 # (source: file)
-ts_adapt_monitor # (source: file)
-ts_adapt_scale_solve_failed 0.5 # (source: file)
-ts_adapt_time_step_increase_delay 5 # (source: file)
-ts_dt .5 # (source: file)
-ts_exact_final_time stepover # (source: file)
-ts_max_snes_failures -1 # (source: file)
-ts_max_steps 10 # (source: file)
-ts_max_time 100 # (source: file)
-ts_monitor # (source: file)
-ts_rtol 1e-2 # (source: file)
-ts_type beuler # (source: file)
-ts_view # (source: command line)
-use_gpu_aware_mpi 0 # (source: file)
#End of PETSc Option Table entries
There are no unused options.
