masses:        e= 9.109e-31; ions in proton mass units:    2.000e+00  1.820e+02 ...
charges:       e=-1.602e-19; charges in elementary units:  1.000e+00  2.000e+00
n:             e:  1.000e+00                           i:  1.000e+00  1.000e-07
thermal T (K): e= 2.321e+07 i= 1.160e+07  1.160e+07. Normalization grid 0: v_0= 1.876e+07 ( 6.256e-02c) n_0= 1.000e+20 t_0= 1.909e-05 32 batched, view batch 0
Domain radius (AMR levels) grid 0: par= 5.000e+00 perp= 5.000e+00 (2) , 1: par= 5.835e-02 perp= 5.835e-02 (2) , 2: par= 6.117e-03 perp= 6.117e-03 (2) 
0) FormLandau 9720 IPs, 360 cells total, Nb=27, Nq=27, dim=3, Tab: Nb=27 Nf=10 Np=27 cdim=3 N=334400 nnz=18048320
0 TS dt 0.5 time 0.
    0 SNES Function norm 1.057633790894e-01
      Linear solve converged due to CONVERGED_RTOL iterations 18
    1 SNES Function norm 3.525403807234e-03
      Linear solve converged due to CONVERGED_RTOL iterations 16
    2 SNES Function norm 6.282851545809e-04
      Linear solve converged due to CONVERGED_RTOL iterations 16
    3 SNES Function norm 1.385025261874e-04
      Linear solve converged due to CONVERGED_RTOL iterations 14
    4 SNES Function norm 3.155053037379e-05
      Linear solve converged due to CONVERGED_RTOL iterations 15
    5 SNES Function norm 7.257415211000e-06
      Linear solve converged due to CONVERGED_RTOL iterations 15
    6 SNES Function norm 1.675349956203e-06
      Linear solve converged due to CONVERGED_RTOL iterations 15
    7 SNES Function norm 3.873035048983e-07
      Linear solve converged due to CONVERGED_RTOL iterations 15
    8 SNES Function norm 8.958972384775e-08
      Linear solve converged due to CONVERGED_RTOL iterations 15
    9 SNES Function norm 2.072888062939e-08
      Linear solve converged due to CONVERGED_RTOL iterations 15
   10 SNES Function norm 4.796685192493e-09
      Linear solve converged due to CONVERGED_RTOL iterations 15
   11 SNES Function norm 1.110006574776e-09
      Linear solve converged due to CONVERGED_RTOL iterations 16
   12 SNES Function norm 2.568787445677e-10
      Linear solve converged due to CONVERGED_RTOL iterations 16
   13 SNES Function norm 5.944784130068e-11
      Linear solve converged due to CONVERGED_RTOL iterations 14
   14 SNES Function norm 1.375624102272e-11
      Linear solve converged due to CONVERGED_RTOL iterations 16
   15 SNES Function norm 3.183428535644e-12
    Nonlinear solve converged due to CONVERGED_SNORM_RELATIVE iterations 15
      TSAdapt none beuler 0: step   0 accepted t=0          + 5.000e-01 dt=5.000e-01 
1 TS dt 0.5 time 0.5
TS Object: 1 MPI process
  type: beuler
  maximum steps=1
  maximum time=100.
  total number of I function evaluations=16
  total number of I Jacobian evaluations=15
  total number of RHS function evaluations=16
  total number of nonlinear solver iterations=15
  total number of linear solver iterations=231
  total number of nonlinear solve failures=0
  total number of rejected steps=0
  using relative error tolerance of 0.01,   using absolute error tolerance of 0.0001
  TSAdapt Object: 1 MPI process
    type: none
  SNES Object: 1 MPI process
    type: newtonls
    maximum iterations=50, maximum function evaluations=10000
    tolerances: relative=1e-14, absolute=1e-50, solution=1e-14
    total number of linear solver iterations=231
    total number of function evaluations=16
    norm schedule ALWAYS
    SNESLineSearch Object: 1 MPI process
      type: basic
      maxstep=1.000000e+08, minlambda=1.000000e-12
      tolerances: relative=1.000000e-08, absolute=1.000000e-15, lambda=1.000000e-08
      maximum iterations=40
    KSP Object: 1 MPI process
      type: tfqmr
      maximum iterations=100, initial guess is zero
      tolerances: relative=1e-08, absolute=1e-50, divergence=10000.
      left preconditioning
      using PRECONDITIONED norm type for convergence test
    PC Object: 1 MPI process
      type: jacobi
        type DIAGONAL
      linear system matrix = precond matrix:
      Mat Object: Jacobian 1 MPI process
        type: seqaijkokkos
        rows=334400, cols=334400
        total: nonzeros=18048320, allocated nonzeros=18048320
        total number of mallocs used during MatSetValues calls=0
          not using I-node routines
0 TS dt 0.5 time 0.
    0 SNES Function norm 1.057633790894e-01
      Linear solve converged due to CONVERGED_RTOL iterations 18
    1 SNES Function norm 3.525403807234e-03
      Linear solve converged due to CONVERGED_RTOL iterations 16
    2 SNES Function norm 6.282851545809e-04
      Linear solve converged due to CONVERGED_RTOL iterations 16
    3 SNES Function norm 1.385025261874e-04
      Linear solve converged due to CONVERGED_RTOL iterations 14
    4 SNES Function norm 3.155053037379e-05
      Linear solve converged due to CONVERGED_RTOL iterations 15
    5 SNES Function norm 7.257415211000e-06
      Linear solve converged due to CONVERGED_RTOL iterations 15
    6 SNES Function norm 1.675349956203e-06
      Linear solve converged due to CONVERGED_RTOL iterations 15
    7 SNES Function norm 3.873035048983e-07
      Linear solve converged due to CONVERGED_RTOL iterations 15
    8 SNES Function norm 8.958972384775e-08
      Linear solve converged due to CONVERGED_RTOL iterations 15
    9 SNES Function norm 2.072888062939e-08
      Linear solve converged due to CONVERGED_RTOL iterations 15
   10 SNES Function norm 4.796685192493e-09
      Linear solve converged due to CONVERGED_RTOL iterations 15
   11 SNES Function norm 1.110006574776e-09
      Linear solve converged due to CONVERGED_RTOL iterations 16
   12 SNES Function norm 2.568787445677e-10
      Linear solve converged due to CONVERGED_RTOL iterations 16
   13 SNES Function norm 5.944784130068e-11
      Linear solve converged due to CONVERGED_RTOL iterations 14
   14 SNES Function norm 1.375624102272e-11
      Linear solve converged due to CONVERGED_RTOL iterations 16
   15 SNES Function norm 3.183428535644e-12
    Nonlinear solve converged due to CONVERGED_SNORM_RELATIVE iterations 15
      TSAdapt none beuler 0: step   0 accepted t=0          + 5.000e-01 dt=5.000e-01 
1 TS dt 0.5 time 0.5
    0 SNES Function norm 1.330304775673e-02
      Linear solve converged due to CONVERGED_RTOL iterations 18
    1 SNES Function norm 1.623599999075e-03
      Linear solve converged due to CONVERGED_RTOL iterations 16
    2 SNES Function norm 3.705100862398e-04
      Linear solve converged due to CONVERGED_RTOL iterations 16
    3 SNES Function norm 8.551639009329e-05
      Linear solve converged due to CONVERGED_RTOL iterations 15
    4 SNES Function norm 1.973910528218e-05
      Linear solve converged due to CONVERGED_RTOL iterations 15
    5 SNES Function norm 4.556684560229e-06
      Linear solve converged due to CONVERGED_RTOL iterations 16
    6 SNES Function norm 1.052081482621e-06
      Linear solve converged due to CONVERGED_RTOL iterations 17
    7 SNES Function norm 2.429419723540e-07
      Linear solve converged due to CONVERGED_RTOL iterations 17
    8 SNES Function norm 5.610201894335e-08
      Linear solve converged due to CONVERGED_RTOL iterations 17
    9 SNES Function norm 1.295585639647e-08
      Linear solve converged due to CONVERGED_RTOL iterations 17
   10 SNES Function norm 2.991987878262e-09
      Linear solve converged due to CONVERGED_RTOL iterations 17
   11 SNES Function norm 6.909737815229e-10
      Linear solve converged due to CONVERGED_RTOL iterations 16
   12 SNES Function norm 1.595748750649e-10
      Linear solve converged due to CONVERGED_RTOL iterations 14
   13 SNES Function norm 3.685051411555e-11
      Linear solve converged due to CONVERGED_RTOL iterations 15
   14 SNES Function norm 8.511401548043e-12
      Linear solve converged due to CONVERGED_RTOL iterations 16
   15 SNES Function norm 1.963705625833e-12
    Nonlinear solve converged due to CONVERGED_SNORM_RELATIVE iterations 15
      TSAdapt none beuler 0: step   1 accepted t=0.5        + 5.000e-01 dt=5.000e-01 
2 TS dt 0.5 time 1.
    0 SNES Function norm 7.249453600425e-03
      Linear solve converged due to CONVERGED_RTOL iterations 17
    1 SNES Function norm 1.269182862123e-03
      Linear solve converged due to CONVERGED_RTOL iterations 16
    2 SNES Function norm 3.012983727367e-04
      Linear solve converged due to CONVERGED_RTOL iterations 16
    3 SNES Function norm 7.020140136410e-05
      Linear solve converged due to CONVERGED_RTOL iterations 15
    4 SNES Function norm 1.623324524411e-05
      Linear solve converged due to CONVERGED_RTOL iterations 15
    5 SNES Function norm 3.742986603187e-06
      Linear solve converged due to CONVERGED_RTOL iterations 15
    6 SNES Function norm 8.621059519076e-07
      Linear solve converged due to CONVERGED_RTOL iterations 18
    7 SNES Function norm 1.984811907738e-07
      Linear solve converged due to CONVERGED_RTOL iterations 18
    8 SNES Function norm 4.568772539401e-08
      Linear solve converged due to CONVERGED_RTOL iterations 18
    9 SNES Function norm 1.051594199424e-08
      Linear solve converged due to CONVERGED_RTOL iterations 18
   10 SNES Function norm 2.420373721569e-09
      Linear solve converged due to CONVERGED_RTOL iterations 15
   11 SNES Function norm 5.570787692211e-10
      Linear solve converged due to CONVERGED_RTOL iterations 14
   12 SNES Function norm 1.282147195086e-10
      Linear solve converged due to CONVERGED_RTOL iterations 14
   13 SNES Function norm 2.951031437932e-11
      Linear solve converged due to CONVERGED_RTOL iterations 18
   14 SNES Function norm 6.790983749736e-12
      Linear solve converged due to CONVERGED_RTOL iterations 16
   15 SNES Function norm 1.559952852476e-12
    Nonlinear solve converged due to CONVERGED_SNORM_RELATIVE iterations 15
      TSAdapt none beuler 0: step   2 accepted t=1          + 5.000e-01 dt=5.000e-01 
3 TS dt 0.5 time 1.5
    0 SNES Function norm 5.766009497588e-03
      Linear solve converged due to CONVERGED_RTOL iterations 16
    1 SNES Function norm 1.160162014145e-03
      Linear solve converged due to CONVERGED_RTOL iterations 16
    2 SNES Function norm 2.750565694323e-04
      Linear solve converged due to CONVERGED_RTOL iterations 16
    3 SNES Function norm 6.396881466877e-05
      Linear solve converged due to CONVERGED_RTOL iterations 15
    4 SNES Function norm 1.475413150195e-05
      Linear solve converged due to CONVERGED_RTOL iterations 15
    5 SNES Function norm 3.391356237737e-06
      Linear solve converged due to CONVERGED_RTOL iterations 18
    6 SNES Function norm 7.784437121804e-07
      Linear solve converged due to CONVERGED_RTOL iterations 15
    7 SNES Function norm 1.785861687338e-07
      Linear solve converged due to CONVERGED_RTOL iterations 15
    8 SNES Function norm 4.096014086898e-08
      Linear solve converged due to CONVERGED_RTOL iterations 15
    9 SNES Function norm 9.393563909315e-09
      Linear solve converged due to CONVERGED_RTOL iterations 17
   10 SNES Function norm 2.154121547553e-09
      Linear solve converged due to CONVERGED_RTOL iterations 18
   11 SNES Function norm 4.939697474045e-10
      Linear solve converged due to CONVERGED_RTOL iterations 14
   12 SNES Function norm 1.132757189916e-10
      Linear solve converged due to CONVERGED_RTOL iterations 17
   13 SNES Function norm 2.597491302319e-11
      Linear solve converged due to CONVERGED_RTOL iterations 15
   14 SNES Function norm 5.955200750636e-12
      Linear solve converged due to CONVERGED_RTOL iterations 14
   15 SNES Function norm 1.367547129628e-12
    Nonlinear solve converged due to CONVERGED_SNORM_RELATIVE iterations 15
      TSAdapt none beuler 0: step   3 accepted t=1.5        + 5.000e-01 dt=5.000e-01 
4 TS dt 0.5 time 2.
    0 SNES Function norm 5.177708266260e-03
      Linear solve converged due to CONVERGED_RTOL iterations 17
    1 SNES Function norm 1.093840688500e-03
      Linear solve converged due to CONVERGED_RTOL iterations 16
    2 SNES Function norm 2.578138564383e-04
      Linear solve converged due to CONVERGED_RTOL iterations 16
    3 SNES Function norm 5.971019340211e-05
      Linear solve converged due to CONVERGED_RTOL iterations 15
    4 SNES Function norm 1.372113305974e-05
      Linear solve converged due to CONVERGED_RTOL iterations 15
    5 SNES Function norm 3.142601593921e-06
      Linear solve converged due to CONVERGED_RTOL iterations 17
    6 SNES Function norm 7.187708734631e-07
      Linear solve converged due to CONVERGED_RTOL iterations 15
    7 SNES Function norm 1.643033296158e-07
      Linear solve converged due to CONVERGED_RTOL iterations 15
    8 SNES Function norm 3.754864783896e-08
      Linear solve converged due to CONVERGED_RTOL iterations 15
    9 SNES Function norm 8.580181059862e-09
      Linear solve converged due to CONVERGED_RTOL iterations 15
   10 SNES Function norm 1.960557746170e-09
      Linear solve converged due to CONVERGED_RTOL iterations 15
   11 SNES Function norm 4.479778603318e-10
      Linear solve converged due to CONVERGED_RTOL iterations 18
   12 SNES Function norm 1.023580996345e-10
      Linear solve converged due to CONVERGED_RTOL iterations 14
   13 SNES Function norm 2.339041699032e-11
      Linear solve converged due to CONVERGED_RTOL iterations 17
   14 SNES Function norm 5.342475418781e-12
      Linear solve converged due to CONVERGED_RTOL iterations 15
   15 SNES Function norm 1.220652754253e-12
    Nonlinear solve converged due to CONVERGED_SNORM_RELATIVE iterations 15
      TSAdapt none beuler 0: step   4 accepted t=2          + 5.000e-01 dt=5.000e-01 
5 TS dt 0.5 time 2.5
    0 SNES Function norm 4.801792545580e-03
      Linear solve converged due to CONVERGED_RTOL iterations 17
    1 SNES Function norm 1.029345717966e-03
      Linear solve converged due to CONVERGED_RTOL iterations 16
    2 SNES Function norm 2.412044449197e-04
      Linear solve converged due to CONVERGED_RTOL iterations 16
    3 SNES Function norm 5.561754022824e-05
      Linear solve converged due to CONVERGED_RTOL iterations 15
    4 SNES Function norm 1.273252451361e-05
      Linear solve converged due to CONVERGED_RTOL iterations 15
    5 SNES Function norm 2.905899144818e-06
      Linear solve converged due to CONVERGED_RTOL iterations 15
    6 SNES Function norm 6.623597564180e-07
      Linear solve converged due to CONVERGED_RTOL iterations 15
    7 SNES Function norm 1.508911432979e-07
      Linear solve converged due to CONVERGED_RTOL iterations 14
    8 SNES Function norm 3.436635660864e-08
      Linear solve converged due to CONVERGED_RTOL iterations 15
    9 SNES Function norm 7.826354658139e-09
      Linear solve converged due to CONVERGED_RTOL iterations 14
   10 SNES Function norm 1.782243933881e-09
      Linear solve converged due to CONVERGED_RTOL iterations 18
   11 SNES Function norm 4.058459377888e-10
      Linear solve converged due to CONVERGED_RTOL iterations 14
   12 SNES Function norm 9.241916945656e-11
      Linear solve converged due to CONVERGED_RTOL iterations 14
   13 SNES Function norm 2.104322613194e-11
      Linear solve converged due to CONVERGED_RTOL iterations 14
   14 SNES Function norm 4.789262838673e-12
      Linear solve converged due to CONVERGED_RTOL iterations 15
   15 SNES Function norm 1.090856062820e-12
    Nonlinear solve converged due to CONVERGED_SNORM_RELATIVE iterations 15
      TSAdapt none beuler 0: step   5 accepted t=2.5        + 5.000e-01 dt=5.000e-01 
6 TS dt 0.5 time 3.
    0 SNES Function norm 4.474837350717e-03
      Linear solve converged due to CONVERGED_RTOL iterations 17
    1 SNES Function norm 9.595482948262e-04
      Linear solve converged due to CONVERGED_RTOL iterations 15
    2 SNES Function norm 2.236556140477e-04
      Linear solve converged due to CONVERGED_RTOL iterations 15
    3 SNES Function norm 5.135812029702e-05
      Linear solve converged due to CONVERGED_RTOL iterations 15
    4 SNES Function norm 1.171584254853e-05
      Linear solve converged due to CONVERGED_RTOL iterations 15
    5 SNES Function norm 2.665064869614e-06
      Linear solve converged due to CONVERGED_RTOL iterations 14
    6 SNES Function norm 6.055257359975e-07
      Linear solve converged due to CONVERGED_RTOL iterations 14
    7 SNES Function norm 1.375085701276e-07
      Linear solve converged due to CONVERGED_RTOL iterations 14
    8 SNES Function norm 3.122000426452e-08
      Linear solve converged due to CONVERGED_RTOL iterations 14
    9 SNES Function norm 7.087548690598e-09
      Linear solve converged due to CONVERGED_RTOL iterations 14
   10 SNES Function norm 1.608945670748e-09
      Linear solve converged due to CONVERGED_RTOL iterations 14
   11 SNES Function norm 3.652417952607e-10
      Linear solve converged due to CONVERGED_RTOL iterations 17
   12 SNES Function norm 8.291154935035e-11
      Linear solve converged due to CONVERGED_RTOL iterations 14
   13 SNES Function norm 1.882064143213e-11
      Linear solve converged due to CONVERGED_RTOL iterations 14
   14 SNES Function norm 4.272366280403e-12
      Linear solve converged due to CONVERGED_RTOL iterations 16
   15 SNES Function norm 9.719336028627e-13
    Nonlinear solve converged due to CONVERGED_SNORM_RELATIVE iterations 15
      TSAdapt none beuler 0: step   6 accepted t=3          + 5.000e-01 dt=5.000e-01 
7 TS dt 0.5 time 3.5
    0 SNES Function norm 4.157401910552e-03
      Linear solve converged due to CONVERGED_RTOL iterations 18
    1 SNES Function norm 8.853273049565e-04
      Linear solve converged due to CONVERGED_RTOL iterations 15
    2 SNES Function norm 2.053658173698e-04
      Linear solve converged due to CONVERGED_RTOL iterations 15
    3 SNES Function norm 4.698091099209e-05
      Linear solve converged due to CONVERGED_RTOL iterations 15
    4 SNES Function norm 1.068258175889e-05
      Linear solve converged due to CONVERGED_RTOL iterations 15
    5 SNES Function norm 2.422728648924e-06
      Linear solve converged due to CONVERGED_RTOL iterations 14
    6 SNES Function norm 5.488580464992e-07
      Linear solve converged due to CONVERGED_RTOL iterations 14
    7 SNES Function norm 1.242808688601e-07
      Linear solve converged due to CONVERGED_RTOL iterations 14
    8 SNES Function norm 2.813588012632e-08
      Linear solve converged due to CONVERGED_RTOL iterations 14
    9 SNES Function norm 6.369106635756e-09
      Linear solve converged due to CONVERGED_RTOL iterations 14
   10 SNES Function norm 1.441722059081e-09
      Linear solve converged due to CONVERGED_RTOL iterations 14
   11 SNES Function norm 3.263427900535e-10
      Linear solve converged due to CONVERGED_RTOL iterations 15
   12 SNES Function norm 7.387305116730e-11
      Linear solve converged due to CONVERGED_RTOL iterations 15
   13 SNES Function norm 1.672129301994e-11
      Linear solve converged due to CONVERGED_RTOL iterations 20
   14 SNES Function norm 3.784024858597e-12
    Nonlinear solve converged due to CONVERGED_SNORM_RELATIVE iterations 14
      TSAdapt none beuler 0: step   7 accepted t=3.5        + 5.000e-01 dt=5.000e-01 
8 TS dt 0.5 time 4.
    0 SNES Function norm 3.843094883734e-03
      Linear solve converged due to CONVERGED_RTOL iterations 19
    1 SNES Function norm 8.090774106813e-04
      Linear solve converged due to CONVERGED_RTOL iterations 15
    2 SNES Function norm 1.868634057506e-04
      Linear solve converged due to CONVERGED_RTOL iterations 15
    3 SNES Function norm 4.260261463555e-05
      Linear solve converged due to CONVERGED_RTOL iterations 15
    4 SNES Function norm 9.658804854674e-06
      Linear solve converged due to CONVERGED_RTOL iterations 16
    5 SNES Function norm 2.184602106252e-06
      Linear solve converged due to CONVERGED_RTOL iterations 15
    6 SNES Function norm 4.936095419033e-07
      Linear solve converged due to CONVERGED_RTOL iterations 15
    7 SNES Function norm 1.114804732029e-07
      Linear solve converged due to CONVERGED_RTOL iterations 15
    8 SNES Function norm 2.517279296028e-08
      Linear solve converged due to CONVERGED_RTOL iterations 15
    9 SNES Function norm 5.683666823062e-09
      Linear solve converged due to CONVERGED_RTOL iterations 15
   10 SNES Function norm 1.283243825331e-09
      Linear solve converged due to CONVERGED_RTOL iterations 18
   11 SNES Function norm 2.897237382424e-10
      Linear solve converged due to CONVERGED_RTOL iterations 14
   12 SNES Function norm 6.541204170040e-11
      Linear solve converged due to CONVERGED_RTOL iterations 14
   13 SNES Function norm 1.476549635565e-11
      Linear solve converged due to CONVERGED_RTOL iterations 15
   14 SNES Function norm 3.335147653875e-12
    Nonlinear solve converged due to CONVERGED_SNORM_RELATIVE iterations 14
      TSAdapt none beuler 0: step   8 accepted t=4          + 5.000e-01 dt=5.000e-01 
9 TS dt 0.5 time 4.5
    0 SNES Function norm 3.534314458756e-03
      Linear solve converged due to CONVERGED_RTOL iterations 16
    1 SNES Function norm 7.329676337581e-04
      Linear solve converged due to CONVERGED_RTOL iterations 17
    2 SNES Function norm 1.686123775019e-04
      Linear solve converged due to CONVERGED_RTOL iterations 14
    3 SNES Function norm 3.832404531882e-05
      Linear solve converged due to CONVERGED_RTOL iterations 15
    4 SNES Function norm 8.665944366167e-06
      Linear solve converged due to CONVERGED_RTOL iterations 16
    5 SNES Function norm 1.955277770477e-06
      Linear solve converged due to CONVERGED_RTOL iterations 15
    6 SNES Function norm 4.407549570937e-07
      Linear solve converged due to CONVERGED_RTOL iterations 18
    7 SNES Function norm 9.931565085356e-08
      Linear solve converged due to CONVERGED_RTOL iterations 18
    8 SNES Function norm 2.237457911021e-08
      Linear solve converged due to CONVERGED_RTOL iterations 18
    9 SNES Function norm 5.040328787713e-09
      Linear solve converged due to CONVERGED_RTOL iterations 18
   10 SNES Function norm 1.135368321964e-09
      Linear solve converged due to CONVERGED_RTOL iterations 15
   11 SNES Function norm 2.557432915176e-10
      Linear solve converged due to CONVERGED_RTOL iterations 14
   12 SNES Function norm 5.761169468598e-11
      Linear solve converged due to CONVERGED_RTOL iterations 14
   13 SNES Function norm 1.297613028291e-11
      Linear solve converged due to CONVERGED_RTOL iterations 17
   14 SNES Function norm 2.922762810455e-12
    Nonlinear solve converged due to CONVERGED_SNORM_RELATIVE iterations 14
      TSAdapt none beuler 0: step   9 accepted t=4.5        + 5.000e-01 dt=5.000e-01 
10 TS dt 0.5 time 5.
TS Object: 1 MPI process
  type: beuler
  maximum steps=10
  maximum time=100.
  total number of I function evaluations=173
  total number of I Jacobian evaluations=162
  total number of RHS function evaluations=173
  total number of nonlinear solver iterations=147
  total number of linear solver iterations=2289
  total number of nonlinear solve failures=0
  total number of rejected steps=0
  using relative error tolerance of 0.01,   using absolute error tolerance of 0.0001
  TSAdapt Object: 1 MPI process
    type: none
  SNES Object: 1 MPI process
    type: newtonls
    maximum iterations=50, maximum function evaluations=10000
    tolerances: relative=1e-14, absolute=1e-50, solution=1e-14
    total number of linear solver iterations=225
    total number of function evaluations=15
    norm schedule ALWAYS
    SNESLineSearch Object: 1 MPI process
      type: basic
      maxstep=1.000000e+08, minlambda=1.000000e-12
      tolerances: relative=1.000000e-08, absolute=1.000000e-15, lambda=1.000000e-08
      maximum iterations=40
    KSP Object: 1 MPI process
      type: tfqmr
      maximum iterations=100, initial guess is zero
      tolerances: relative=1e-08, absolute=1e-50, divergence=10000.
      left preconditioning
      using PRECONDITIONED norm type for convergence test
    PC Object: 1 MPI process
      type: jacobi
        type DIAGONAL
      linear system matrix = precond matrix:
      Mat Object: Jacobian 1 MPI process
        type: seqaijkokkos
        rows=334400, cols=334400
        total: nonzeros=18048320, allocated nonzeros=18048320
        total number of mallocs used during MatSetValues calls=0
          not using I-node routines
****************************************************************************************************************************************************************
***                                WIDEN YOUR WINDOW TO 160 CHARACTERS.  Use 'enscript -r -fCourier9' to print this document                                 ***
****************************************************************************************************************************************************************

------------------------------------------------------------------ PETSc Performance Summary: ------------------------------------------------------------------



      ##########################################################
      #                                                        #
      #                       WARNING!!!                       #
      #                                                        #
      #   This code was run with -log_view_gpu_time            #
      #   This provides accurate timing within the GPU kernels #
      #   but can slow down the entire computation by a        #
      #   measurable amount. For fastest runs we recommend     #
      #   not using this option.                               #
      #                                                        #
      ##########################################################


/global/u2/m/madams/batch_gmres_paper/landau_throughput_nsight/perlmutter/./ex2-3 on a arch-perlmutter-opt-gcc-kokkos-cuda-3d named nid200381 with 4 processes and CUDA architecture 80, by madams on Thu Jun 27 14:59:06 2024
Using Petsc Development GIT revision: v3.21.2-329-g0f40c42b27c  GIT Date: 2024-06-27 15:17:08 -0400

                         Max       Max/Min     Avg       Total
Time (sec):           1.733e+02     1.000   1.733e+02
Objects:              0.000e+00     0.000   0.000e+00
Flops:                2.187e+11     1.000   2.187e+11  8.750e+11
Flops/sec:            1.262e+09     1.000   1.262e+09  5.048e+09
MPI Msg Count:        0.000e+00     0.000   0.000e+00  0.000e+00
MPI Msg Len (bytes):  0.000e+00     0.000   0.000e+00  0.000e+00
MPI Reductions:       2.100e+01     1.000

Flop counting convention: 1 flop = 1 real number operation of type (multiply/divide/add/subtract)
                            e.g., VecAXPY() for real vectors of length N --> 2N flops
                            and VecAXPY() for complex vectors of length N --> 8N flops

Summary of Stages:   ----- Time ------  ----- Flop ------  --- Messages ---  -- Message Lengths --  -- Reductions --
                        Avg     %Total     Avg     %Total    Count   %Total     Avg         %Total    Count   %Total
 0:      Main Stage: 1.3835e+02  79.8%  8.4119e+08   0.1%  0.000e+00   0.0%  0.000e+00        0.0%  2.000e+00   9.5%
 1:          Warmup: 3.4301e+00   2.0%  8.0179e+10   9.2%  0.000e+00   0.0%  0.000e+00        0.0%  0.000e+00   0.0%
 2:           Solve: 3.1561e+01  18.2%  7.9398e+11  90.7%  0.000e+00   0.0%  0.000e+00        0.0%  0.000e+00   0.0%

------------------------------------------------------------------------------------------------------------------------
See the 'Profiling' chapter of the users' manual for details on interpreting output.
Phase summary info:
   Count: number of times phase was executed
   Time and Flop: Max - maximum over all processors
                  Ratio - ratio of maximum to minimum over all processors
   Mess: number of messages sent
   AvgLen: average message length (bytes)
   Reduct: number of global reductions
   Global: entire computation
   Stage: stages of a computation. Set stages with PetscLogStagePush() and PetscLogStagePop().
      %T - percent time in this phase         %F - percent flop in this phase
      %M - percent messages in this phase     %L - percent message lengths in this phase
      %R - percent reductions in this phase
   Total Mflop/s: 10e-6 * (sum of flop over all processors)/(max time over all processors)
   GPU Mflop/s: 10e-6 * (sum of flop on GPU over all processors)/(max GPU time over all processors)
   CpuToGpu Count: total number of CPU to GPU copies per processor
   CpuToGpu Size (Mbytes): 10e-6 * (total size of CPU to GPU copies per processor)
   GpuToCpu Count: total number of GPU to CPU copies per processor
   GpuToCpu Size (Mbytes): 10e-6 * (total size of GPU to CPU copies per processor)
   GPU %F: percent flops on GPU in this event
------------------------------------------------------------------------------------------------------------------------
Event                Count      Time (sec)     Flop                              --- Global ---  --- Stage ----  Total   GPU    - CpuToGpu -   - GpuToCpu - GPU
                   Max Ratio  Max     Ratio   Max  Ratio  Mess   AvgLen  Reduct  %T %F %M %L %R  %T %F %M %L %R Mflop/s Mflop/s Count   Size   Count   Size  %F
---------------------------------------------------------------------------------------------------------------------------------------------------------------

--- Event Stage 0: Main Stage

BuildTwoSided        423 1.0 4.2702e-04 1.1 0.00e+00 0.0 0.0e+00 0.0e+00 0.0e+00  0  0  0  0  0   0  0  0  0  0     0       0      0 0.00e+00    0 0.00e+00  0
DMConvert             18 1.0 4.7199e-03 1.0 0.00e+00 0.0 0.0e+00 0.0e+00 0.0e+00  0  0  0  0  0   0  0  0  0  0     0       0      0 0.00e+00    0 0.00e+00  0
DMCreateMat            8 1.0 3.4139e+01 1.0 0.00e+00 0.0 0.0e+00 0.0e+00 0.0e+00 20  0  0  0  0  25  0  0  0  0     0       0      0 0.00e+00    0 0.00e+00  0
DMProjectFunc        105 1.0 1.0090e+00 1.0 7.64e+07 1.0 0.0e+00 0.0e+00 0.0e+00  1  0  0  0  0   1 36  0  0  0   303       0      0 0.00e+00    0 0.00e+00  0
DMPlexInterp         204 1.0 5.8682e-03 1.0 0.00e+00 0.0 0.0e+00 0.0e+00 0.0e+00  0  0  0  0  0   0  0  0  0  0     0       0      0 0.00e+00    0 0.00e+00  0
DMPlexStratify       318 1.0 5.8406e-03 1.1 0.00e+00 0.0 0.0e+00 0.0e+00 0.0e+00  0  0  0  0  0   0  0  0  0  0     0       0      0 0.00e+00    0 0.00e+00  0
DMPlexSymmetrize     318 1.0 4.5496e-04 1.0 0.00e+00 0.0 0.0e+00 0.0e+00 0.0e+00  0  0  0  0  0   0  0  0  0  0     0       0      0 0.00e+00    0 0.00e+00  0
DMPlexPrealloc       198 1.0 3.1083e+01 1.0 0.00e+00 0.0 0.0e+00 0.0e+00 0.0e+00 18  0  0  0  0  22  0  0  0  0     0       0      0 0.00e+00    0 0.00e+00  0
DMPlexJacobianFE       6 1.0 4.1682e+00 1.0 1.08e+08 1.0 0.0e+00 0.0e+00 0.0e+00  2  0  0  0  0   3 51  0  0  0   104       0      0 0.00e+00    0 0.00e+00  0
DMPlexGenerate         3 1.0 6.8271e-04 1.2 0.00e+00 0.0 0.0e+00 0.0e+00 0.0e+00  0  0  0  0  0   0  0  0  0  0     0       0      0 0.00e+00    0 0.00e+00  0
SFSetGraph           828 1.0 2.2191e-04 1.0 0.00e+00 0.0 0.0e+00 0.0e+00 0.0e+00  0  0  0  0  0   0  0  0  0  0     0       0      0 0.00e+00    0 0.00e+00  0
SFSetUp              423 1.0 1.7399e-03 1.1 0.00e+00 0.0 0.0e+00 0.0e+00 0.0e+00  0  0  0  0  0   0  0  0  0  0     0       0      0 0.00e+00    0 0.00e+00  0
SFBcastBegin         858 1.0 1.9927e-03 1.1 0.00e+00 0.0 0.0e+00 0.0e+00 0.0e+00  0  0  0  0  0   0  0  0  0  0     0       0      0 0.00e+00    0 0.00e+00  0
SFBcastEnd           858 1.0 1.4208e-04 1.1 0.00e+00 0.0 0.0e+00 0.0e+00 0.0e+00  0  0  0  0  0   0  0  0  0  0     0       0      0 0.00e+00    0 0.00e+00  0
SFReduceBegin         54 1.0 7.2437e-05 1.1 0.00e+00 0.0 0.0e+00 0.0e+00 0.0e+00  0  0  0  0  0   0  0  0  0  0     0       0      0 0.00e+00    0 0.00e+00  0
SFReduceEnd           54 1.0 7.5050e-06 1.1 0.00e+00 0.0 0.0e+00 0.0e+00 0.0e+00  0  0  0  0  0   0  0  0  0  0     0       0      0 0.00e+00    0 0.00e+00  0
SFCreateEmbed        396 1.0 4.7467e-03 1.2 0.00e+00 0.0 0.0e+00 0.0e+00 0.0e+00  0  0  0  0  0   0  0  0  0  0     0       0      0 0.00e+00    0 0.00e+00  0
SFSectionSF          396 1.0 1.7201e-03 1.1 0.00e+00 0.0 0.0e+00 0.0e+00 0.0e+00  0  0  0  0  0   0  0  0  0  0     0       0      0 0.00e+00    0 0.00e+00  0
SFRemoteOff          396 1.0 1.0583e-02 1.1 0.00e+00 0.0 0.0e+00 0.0e+00 0.0e+00  0  0  0  0  0   0  0  0  0  0     0       0      0 0.00e+00    0 0.00e+00  0
SFPack               912 1.0 8.8112e-05 1.0 0.00e+00 0.0 0.0e+00 0.0e+00 0.0e+00  0  0  0  0  0   0  0  0  0  0     0       0      0 0.00e+00    0 0.00e+00  0
Landau Create          1 1.0 1.1657e+02 1.0 1.41e+08 1.0 0.0e+00 0.0e+00 0.0e+00 67  0  0  0  0  84 67  0  0  0     5       0      0 0.00e+00    0 0.00e+00  0
 GPU ass. setup        1 1.0 9.3355e+01 1.0 3.23e+06 1.0 0.0e+00 0.0e+00 0.0e+00 54  0  0  0  0  67  2  0  0  0     0       0      0 0.00e+00    0 0.00e+00  0
 Build matrix          1 1.0 4.0835e+00 1.0 3.87e+07 1.0 0.0e+00 0.0e+00 0.0e+00  2  0  0  0  0   3 18  0  0  0    38       0      0 0.00e+00    0 0.00e+00  0
 Assembly maps         1 1.0 1.9296e+01 1.1 8.80e+07 1.0 0.0e+00 0.0e+00 0.0e+00 11  0  0  0  0  14 42  0  0  0    18       0      0 0.00e+00    0 0.00e+00  0
Landau Mass mat        1 1.0 2.1558e+01 1.0 6.93e+07 1.0 0.0e+00 0.0e+00 0.0e+00 12  0  0  0  0  16 33  0  0  0    13       0      0 0.00e+00    0 0.00e+00  0
 static IP Data        1 1.0 1.5194e-02 1.1 1.11e+07 1.0 0.0e+00 0.0e+00 0.0e+00  0  0  0  0  0   0  5  0  0  0  2909       0      0 0.00e+00    0 0.00e+00  0
VecCopy                1 1.0 2.5425e-04 1.2 0.00e+00 0.0 0.0e+00 0.0e+00 0.0e+00  0  0  0  0  0   0  0  0  0  0     0       0      0 0.00e+00    0 0.00e+00  0
VecSet               189 1.0 4.1390e-03 1.2 0.00e+00 0.0 0.0e+00 0.0e+00 0.0e+00  0  0  0  0  0   0  0  0  0  0     0       0      0 0.00e+00    0 0.00e+00  0
DualSpaceSetUp        52 1.0 4.3915e-02 1.1 2.36e+04 1.0 0.0e+00 0.0e+00 0.0e+00  0  0  0  0  0   0  0  0  0  0     2       0      0 0.00e+00    0 0.00e+00  0
FESetUp               52 1.0 1.6692e-03 1.1 0.00e+00 0.0 0.0e+00 0.0e+00 0.0e+00  0  0  0  0  0   0  0  0  0  0     0       0      0 0.00e+00    0 0.00e+00  0
MatMult           397080 1.0 3.7271e-02 1.0 3.10e+06 1.0 0.0e+00 0.0e+00 0.0e+00  0  0  0  0  0   0  1  0  0  0   333       0      0 0.00e+00    0 0.00e+00  0
MatLUFactor           30 1.0 5.5308e-04 1.0 3.94e+05 1.0 0.0e+00 0.0e+00 0.0e+00  0  0  0  0  0   0  0  0  0  0  2847       0      0 0.00e+00    0 0.00e+00  0
MatCopy              240 1.0 1.5334e-04 1.0 0.00e+00 0.0 0.0e+00 0.0e+00 0.0e+00  0  0  0  0  0   0  0  0  0  0     0       0      0 0.00e+00    0 0.00e+00  0
MatConvert            60 1.0 5.3320e-04 1.0 0.00e+00 0.0 0.0e+00 0.0e+00 0.0e+00  0  0  0  0  0   0  0  0  0  0     0       0      0 0.00e+00    0 0.00e+00  0
MatAssemblyBegin    1170 1.0 1.4359e-04 1.1 0.00e+00 0.0 0.0e+00 0.0e+00 0.0e+00  0  0  0  0  0   0  0  0  0  0     0       0      0 0.00e+00    0 0.00e+00  0
MatAssemblyEnd      1170 1.0 3.1318e-01 1.0 0.00e+00 0.0 0.0e+00 0.0e+00 0.0e+00  0  0  0  0  0   0  0  0  0  0     0       0      0 0.00e+00    0 0.00e+00  0
MatGetRowIJ            9 1.0 3.1140e-06 1.4 0.00e+00 0.0 0.0e+00 0.0e+00 0.0e+00  0  0  0  0  0   0  0  0  0  0     0       0      0 0.00e+00    0 0.00e+00  0
MatZeroEntries         6 1.0 1.5970e-04 1.2 0.00e+00 0.0 0.0e+00 0.0e+00 0.0e+00  0  0  0  0  0   0  0  0  0  0     0       0      0 0.00e+00    0 0.00e+00  0
MatMatSolve          240 1.0 1.6893e-03 1.0 9.27e+06 1.0 0.0e+00 0.0e+00 0.0e+00  0  0  0  0  0   0  4  0  0  0 21956       0      0 0.00e+00    0 0.00e+00  0
MatSetPreallCOO      175 1.0 1.1268e+01 1.0 0.00e+00 0.0 0.0e+00 0.0e+00 0.0e+00  6  0  0  0  0   8  0  0  0  0     0       0      0 0.00e+00    0 0.00e+00  0
MatSetValuesCOO      174 1.0 2.4376e-04 1.1 0.00e+00 0.0 0.0e+00 0.0e+00 0.0e+00  0  0  0  0  0   0  0  0  0  0     0       0      0 0.00e+00    0 0.00e+00  0
DCtxCreate             1 1.0 2.3336e-05 1.5 0.00e+00 0.0 0.0e+00 0.0e+00 0.0e+00  0  0  0  0  0   0  0  0  0  0     0       0      0 0.00e+00    0 0.00e+00  0
DCtxDestroy            1 1.0 3.3435e-05 1.7 0.00e+00 0.0 0.0e+00 0.0e+00 0.0e+00  0  0  0  0  0   0  0  0  0  0     0       0      0 0.00e+00    0 0.00e+00  0
DCtxSetUp              1 1.0 4.3975e-05 1.5 0.00e+00 0.0 0.0e+00 0.0e+00 0.0e+00  0  0  0  0  0   0  0  0  0  0     0       0      0 0.00e+00    0 0.00e+00  0
DCtxSetDevice          1 1.0 3.9437e-05 1.5 0.00e+00 0.0 0.0e+00 0.0e+00 0.0e+00  0  0  0  0  0   0  0  0  0  0     0       0      0 0.00e+00    0 0.00e+00  0

--- Event Stage 1: Warmup

Landau Operator       31 1.0 3.2173e+00 1.0 1.16e+09 1.0 0.0e+00 0.0e+00 0.0e+00  2  1  0  0  0  94  6  0  0  0  1436    1440      0 0.00e+00    0 0.00e+00  100
Landau Jacobian       16 1.0 2.9602e+00 1.0 1.16e+09 1.0 0.0e+00 0.0e+00 0.0e+00  2  1  0  0  0  86  6  0  0  0  1561    1565      0 0.00e+00    0 0.00e+00  100
Landau Mass           15 1.0 2.5747e-01 1.0 0.00e+00 0.0 0.0e+00 0.0e+00 0.0e+00  0  0  0  0  0   7  0  0  0  0     0       0      0 0.00e+00    0 0.00e+00  0
 Preamble             31 1.0 1.2666e-04 1.5 0.00e+00 0.0 0.0e+00 0.0e+00 0.0e+00  0  0  0  0  0   0  0  0  0  0     0       0      0 0.00e+00    0 0.00e+00  0
 dynamic IP-Jac       32 1.0 2.4623e-05 1.4 0.00e+00 0.0 0.0e+00 0.0e+00 0.0e+00  0  0  0  0  0   0  0  0  0  0     0       0      0 0.00e+00    0 0.00e+00  0
 Kernel-init          31 1.0 1.3241e-03 1.0 0.00e+00 0.0 0.0e+00 0.0e+00 0.0e+00  0  0  0  0  0   0  0  0  0  0     0       0      0 0.00e+00    0 0.00e+00  0
 Jac-f-df (GPU)       16 1.0 1.9290e-02 1.0 0.00e+00 0.0 0.0e+00 0.0e+00 0.0e+00  0  0  0  0  0   1  0  0  0  0     0       0      0 0.00e+00    0 0.00e+00  0
 J Kernel (GPU)       16 1.0 2.8054e+00 1.0 0.00e+00 0.0 0.0e+00 0.0e+00 0.0e+00  2  0  0  0  0  82  0  0  0  0     0       0      0 0.00e+00    0 0.00e+00  0
 M Kernel (GPU)       15 1.0 1.6198e-01 1.0 0.00e+00 0.0 0.0e+00 0.0e+00 0.0e+00  0  0  0  0  0   5  0  0  0  0     0       0      0 0.00e+00    0 0.00e+00  0
VecDot               462 1.0 1.5649e-02 1.0 3.09e+08 1.0 0.0e+00 0.0e+00 0.0e+00  0  0  0  0  0   0  2  0  0  0 78981   108633      0 0.00e+00    0 0.00e+00  100
VecNorm              247 1.0 8.1223e-03 1.0 1.65e+08 1.0 0.0e+00 0.0e+00 0.0e+00  0  0  0  0  0   0  1  0  0  0 81353   112882      0 0.00e+00    0 0.00e+00  100
VecCopy               94 1.0 3.3492e-03 1.2 0.00e+00 0.0 0.0e+00 0.0e+00 0.0e+00  0  0  0  0  0   0  0  0  0  0     0       0      0 0.00e+00    0 0.00e+00  0
VecSet                31 1.0 7.4185e-04 1.2 0.00e+00 0.0 0.0e+00 0.0e+00 0.0e+00  0  0  0  0  0   0  0  0  0  0     0       0      0 0.00e+00    0 0.00e+00  0
VecAXPY              922 1.0 1.9108e-02 1.0 6.17e+08 1.0 0.0e+00 0.0e+00 0.0e+00  0  0  0  0  0   1  3  0  0  0 129083   237377      0 0.00e+00    0 0.00e+00  100
VecAYPX              443 1.0 8.4556e-03 1.0 2.96e+08 1.0 0.0e+00 0.0e+00 0.0e+00  0  0  0  0  0   0  1  0  0  0 140158   277124      0 0.00e+00    0 0.00e+00  100
VecAXPBYCZ            17 1.0 6.8168e-03 1.5 2.84e+07 1.0 0.0e+00 0.0e+00 0.0e+00  0  0  0  0  0   0  0  0  0  0 16679   17248      0 0.00e+00    0 0.00e+00  100
VecWAXPY             909 1.0 1.9775e-02 1.0 6.08e+08 1.0 0.0e+00 0.0e+00 0.0e+00  0  0  0  0  0   1  3  0  0  0 122973   216405      0 0.00e+00    0 0.00e+00  100
VecPointwiseMult     477 1.0 1.3875e-02 1.0 1.60e+08 1.0 0.0e+00 0.0e+00 0.0e+00  0  0  0  0  0   0  1  0  0  0 45986   70270      0 0.00e+00    0 0.00e+00  100
VecReduceArith        45 1.0 1.4857e-03 1.0 3.01e+07 1.0 0.0e+00 0.0e+00 0.0e+00  0  0  0  0  0   0  0  0  0  0 81027   112195      0 0.00e+00    0 0.00e+00  100
VecReduceComm         15 1.0 5.0780e-06 1.4 0.00e+00 0.0 0.0e+00 0.0e+00 0.0e+00  0  0  0  0  0   0  0  0  0  0     0       0      0 0.00e+00    0 0.00e+00  0
MatMult              478 1.0 1.0779e-01 1.0 1.73e+10 1.0 0.0e+00 0.0e+00 0.0e+00  0  8  0  0  0   3 86  0  0  0 640297   669477      0 0.00e+00    0 0.00e+00  100
MatMultAdd            16 1.0 1.8518e-02 1.3 5.78e+08 1.0 0.0e+00 0.0e+00 0.0e+00  0  0  0  0  0   0  3  0  0  0 124752   125970      0 0.00e+00    0 0.00e+00  100
MatAssemblyBegin      62 1.0 1.0222e-05 1.4 0.00e+00 0.0 0.0e+00 0.0e+00 0.0e+00  0  0  0  0  0   0  0  0  0  0     0       0      0 0.00e+00    0 0.00e+00  0
MatAssemblyEnd        62 1.0 5.9597e-03 1.4 0.00e+00 0.0 0.0e+00 0.0e+00 0.0e+00  0  0  0  0  0   0  0  0  0  0     0       0      0 0.00e+00    0 0.00e+00  0
MatZeroEntries        16 1.0 1.7045e-04 1.3 0.00e+00 0.0 0.0e+00 0.0e+00 0.0e+00  0  0  0  0  0   0  0  0  0  0     0       0      0 0.00e+00    0 0.00e+00  0
MatView                1 0.0 3.7562e-05 0.0 0.00e+00 0.0 0.0e+00 0.0e+00 0.0e+00  0  0  0  0  0   0  0  0  0  0     0       0      0 0.00e+00    0 0.00e+00  0
MatSetValuesCOO       31 1.0 2.1026e-01 1.0 0.00e+00 0.0 0.0e+00 0.0e+00 0.0e+00  0  0  0  0  0   6  0  0  0  0     0       0      0 0.00e+00    0 0.00e+00  0
TSStep                 1 1.0 3.4345e+00 1.0 2.00e+10 1.0 0.0e+00 0.0e+00 0.0e+00  2  9  0  0  0 100 100  0  0  0 23345   23825      0 0.00e+00    0 0.00e+00  100
TSFunctionEval        16 1.0 2.9632e+00 1.0 1.17e+09 1.0 0.0e+00 0.0e+00 0.0e+00  2  1  0  0  0  86  6  0  0  0  1574    1579      0 0.00e+00    0 0.00e+00  100
TSJacobianEval        15 1.0 2.5748e-01 1.0 0.00e+00 0.0 0.0e+00 0.0e+00 0.0e+00  0  0  0  0  0   7  0  0  0  0     0       0      0 0.00e+00    0 0.00e+00  0
KSPSetUp              15 1.0 7.4327e-03 2.9 0.00e+00 0.0 0.0e+00 0.0e+00 0.0e+00  0  0  0  0  0   0  0  0  0  0     0       0      0 0.00e+00    0 0.00e+00  0
KSPSolve              15 1.0 1.9181e-01 1.0 1.88e+10 1.0 0.0e+00 0.0e+00 0.0e+00  0  9  0  0  0   6 94  0  0  0 392251   499704      0 0.00e+00    0 0.00e+00  100
SNESSolve              1 1.0 3.4321e+00 1.0 2.00e+10 1.0 0.0e+00 0.0e+00 0.0e+00  2  9  0  0  0 100 100  0  0  0 23359   23827      0 0.00e+00    0 0.00e+00  100
SNESSetUp              1 1.0 1.0608e-03 1.9 0.00e+00 0.0 0.0e+00 0.0e+00 0.0e+00  0  0  0  0  0   0  0  0  0  0     0       0      0 0.00e+00    0 0.00e+00  0
SNESFunctionEval      16 1.0 2.9676e+00 1.0 1.19e+09 1.0 0.0e+00 0.0e+00 0.0e+00  2  1  0  0  0  86  6  0  0  0  1607    1613      0 0.00e+00    0 0.00e+00  100
SNESJacobianEval      15 1.0 2.5750e-01 1.0 0.00e+00 0.0 0.0e+00 0.0e+00 0.0e+00  0  0  0  0  0   7  0  0  0  0     0       0      0 0.00e+00    0 0.00e+00  0
SNESLineSearch        15 1.0 2.7547e+00 1.0 1.16e+09 1.0 0.0e+00 0.0e+00 0.0e+00  2  1  0  0  0  80  6  0  0  0  1682    1684      0 0.00e+00    0 0.00e+00  100
PCSetUp               15 1.0 7.3946e-03 1.1 0.00e+00 0.0 0.0e+00 0.0e+00 0.0e+00  0  0  0  0  0   0  0  0  0  0     0       0      0 0.00e+00    0 0.00e+00  0
PCApply              477 1.0 1.5938e-02 1.0 1.60e+08 1.0 0.0e+00 0.0e+00 0.0e+00  0  0  0  0  0   0  1  0  0  0 40031   70058      0 0.00e+00    0 0.00e+00  100

--- Event Stage 2: Solve

Landau Operator      304 1.0 2.9659e+01 1.0 1.13e+10 1.0 0.0e+00 0.0e+00 0.0e+00 17  5  0  0  0  94  6  0  0  0  1529    1530      0 0.00e+00    0 0.00e+00  100
Landau Jacobian      157 1.0 2.7139e+01 1.0 1.13e+10 1.0 0.0e+00 0.0e+00 0.0e+00 16  5  0  0  0  86  6  0  0  0  1671    1672      0 0.00e+00    0 0.00e+00  100
Landau Mass          147 1.0 2.5195e+00 1.0 0.00e+00 0.0 0.0e+00 0.0e+00 0.0e+00  1  0  0  0  0   8  0  0  0  0     0       0      0 0.00e+00    0 0.00e+00  0
 Preamble            295 1.0 6.8892e-04 1.1 0.00e+00 0.0 0.0e+00 0.0e+00 0.0e+00  0  0  0  0  0   0  0  0  0  0     0       0      0 0.00e+00    0 0.00e+00  0
 dynamic IP-Jac      296 1.0 1.3226e-04 1.1 0.00e+00 0.0 0.0e+00 0.0e+00 0.0e+00  0  0  0  0  0   0  0  0  0  0     0       0      0 0.00e+00    0 0.00e+00  0
 Kernel-init         295 1.0 1.2647e-02 1.0 0.00e+00 0.0 0.0e+00 0.0e+00 0.0e+00  0  0  0  0  0   0  0  0  0  0     0       0      0 0.00e+00    0 0.00e+00  0
 Jac-f-df (GPU)      148 1.0 1.7326e-01 1.0 0.00e+00 0.0 0.0e+00 0.0e+00 0.0e+00  0  0  0  0  0   1  0  0  0  0     0       0      0 0.00e+00    0 0.00e+00  0
 J Kernel (GPU)      148 1.0 2.5936e+01 1.0 0.00e+00 0.0 0.0e+00 0.0e+00 0.0e+00 15  0  0  0  0  82  0  0  0  0     0       0      0 0.00e+00    0 0.00e+00  0
 M Kernel (GPU)      147 1.0 1.5839e+00 1.0 0.00e+00 0.0 0.0e+00 0.0e+00 0.0e+00  1  0  0  0  0   5  0  0  0  0     0       0      0 0.00e+00    0 0.00e+00  0
VecDot              4578 1.0 1.5148e-01 1.0 3.06e+09 1.0 0.0e+00 0.0e+00 0.0e+00  0  1  0  0  0   0  2  0  0  0 80849   111916      0 0.00e+00    0 0.00e+00  100
VecNorm             2446 1.0 7.7677e-02 1.0 1.64e+09 1.0 0.0e+00 0.0e+00 0.0e+00  0  1  0  0  0   0  1  0  0  0 84240   118193      0 0.00e+00    0 0.00e+00  100
VecCopy              912 1.0 2.0896e-02 1.0 0.00e+00 0.0 0.0e+00 0.0e+00 0.0e+00  0  0  0  0  0   0  0  0  0  0     0       0      0 0.00e+00    0 0.00e+00  0
VecSet               294 1.0 5.9183e-03 1.0 0.00e+00 0.0 0.0e+00 0.0e+00 0.0e+00  0  0  0  0  0   0  0  0  0  0     0       0      0 0.00e+00    0 0.00e+00  0
VecAXPY             9125 1.0 1.7298e-01 1.0 6.10e+09 1.0 0.0e+00 0.0e+00 0.0e+00  0  3  0  0  0   1  3  0  0  0 141123   280151      0 0.00e+00    0 0.00e+00  100
VecAYPX             4380 1.0 8.3085e-02 1.0 2.93e+09 1.0 0.0e+00 0.0e+00 0.0e+00  0  1  0  0  0   0  1  0  0  0 141029   278677      0 0.00e+00    0 0.00e+00  100
VecAXPBYCZ           167 1.0 4.6349e-03 1.1 2.79e+08 1.0 0.0e+00 0.0e+00 0.0e+00  0  0  0  0  0   0  0  0  0  0 240976   390996      0 0.00e+00    0 0.00e+00  100
VecWAXPY            9009 1.0 1.9521e-01 1.0 6.03e+09 1.0 0.0e+00 0.0e+00 0.0e+00  0  3  0  0  0   1  3  0  0  0 123459   217310      0 0.00e+00    0 0.00e+00  100
VecPointwiseMult    4725 1.0 1.3668e-01 1.0 1.58e+09 1.0 0.0e+00 0.0e+00 0.0e+00  0  1  0  0  0   0  1  0  0  0 46241   70816      0 0.00e+00    0 0.00e+00  100
VecReduceArith       441 1.0 1.4335e-02 1.0 2.95e+08 1.0 0.0e+00 0.0e+00 0.0e+00  0  0  0  0  0   0  0  0  0  0 82301   115016      0 0.00e+00    0 0.00e+00  100
VecReduceComm        147 1.0 4.2000e-05 1.2 0.00e+00 0.0 0.0e+00 0.0e+00 0.0e+00  0  0  0  0  0   0  0  0  0  0     0       0      0 0.00e+00    0 0.00e+00  0
MatMult             4735 1.0 1.0627e+00 1.0 1.71e+11 1.0 0.0e+00 0.0e+00 0.0e+00  1 78  0  0  0   3 86  0  0  0 643326   672585      0 0.00e+00    0 0.00e+00  100
MatMultAdd           157 1.0 3.8208e-02 1.0 5.67e+09 1.0 0.0e+00 0.0e+00 0.0e+00  0  3  0  0  0   0  3  0  0  0 593304   619652      0 0.00e+00    0 0.00e+00  100
MatAssemblyBegin     590 1.0 8.3120e-05 1.2 0.00e+00 0.0 0.0e+00 0.0e+00 0.0e+00  0  0  0  0  0   0  0  0  0  0     0       0      0 0.00e+00    0 0.00e+00  0
MatAssemblyEnd       590 1.0 2.5461e-04 1.1 0.00e+00 0.0 0.0e+00 0.0e+00 0.0e+00  0  0  0  0  0   0  0  0  0  0     0       0      0 0.00e+00    0 0.00e+00  0
MatZeroEntries       148 1.0 1.1209e-03 1.1 0.00e+00 0.0 0.0e+00 0.0e+00 0.0e+00  0  0  0  0  0   0  0  0  0  0     0       0      0 0.00e+00    0 0.00e+00  0
MatView                1 0.0 3.1681e-05 0.0 0.00e+00 0.0 0.0e+00 0.0e+00 0.0e+00  0  0  0  0  0   0  0  0  0  0     0       0      0 0.00e+00    0 0.00e+00  0
MatSetValuesCOO      295 1.0 1.8764e+00 1.0 0.00e+00 0.0 0.0e+00 0.0e+00 0.0e+00  1  0  0  0  0   6  0  0  0  0     0       0      0 0.00e+00    0 0.00e+00  0
TSStep                10 1.0 3.1622e+01 1.0 1.98e+11 1.0 0.0e+00 0.0e+00 0.0e+00 18 91  0  0  0 100 100  0  0  0 25109   25507      0 0.00e+00    0 0.00e+00  100
TSFunctionEval       157 1.0 2.7143e+01 1.0 1.14e+10 1.0 0.0e+00 0.0e+00 0.0e+00 16  5  0  0  0  86  6  0  0  0  1686    1687      0 0.00e+00    0 0.00e+00  100
TSJacobianEval       147 1.0 2.5196e+00 1.0 0.00e+00 0.0 0.0e+00 0.0e+00 0.0e+00  1  0  0  0  0   8  0  0  0  0     0       0      0 0.00e+00    0 0.00e+00  0
KSPSetUp             147 1.0 2.9311e-05 1.1 0.00e+00 0.0 0.0e+00 0.0e+00 0.0e+00  0  0  0  0  0   0  0  0  0  0     0       0      0 0.00e+00    0 0.00e+00  0
KSPSolve             147 1.0 1.8738e+00 1.0 1.86e+11 1.0 0.0e+00 0.0e+00 0.0e+00  1 85  0  0  0   6 94  0  0  0 397850   502261      0 0.00e+00    0 0.00e+00  100
SNESSolve             10 1.0 3.1620e+01 1.0 1.98e+11 1.0 0.0e+00 0.0e+00 0.0e+00 18 91  0  0  0 100 100  0  0  0 25107   25505      0 0.00e+00    0 0.00e+00  100
SNESFunctionEval     157 1.0 2.7148e+01 1.0 1.17e+10 1.0 0.0e+00 0.0e+00 0.0e+00 16  5  0  0  0  86  6  0  0  0  1724    1726      0 0.00e+00    0 0.00e+00  100
SNESJacobianEval     147 1.0 2.5198e+00 1.0 0.00e+00 0.0 0.0e+00 0.0e+00 0.0e+00  1  0  0  0  0   8  0  0  0  0     0       0      0 0.00e+00    0 0.00e+00  0
SNESLineSearch       147 1.0 2.6981e+01 1.0 1.13e+10 1.0 0.0e+00 0.0e+00 0.0e+00 16  5  0  0  0  85  6  0  0  0  1683    1685      0 0.00e+00    0 0.00e+00  100
PCSetUp              147 1.0 7.2208e-02 1.0 0.00e+00 0.0 0.0e+00 0.0e+00 0.0e+00  0  0  0  0  0   0  0  0  0  0     0       0      0 0.00e+00    0 0.00e+00  0
PCApply             4725 1.0 1.3841e-01 1.0 1.58e+09 1.0 0.0e+00 0.0e+00 0.0e+00  0  1  0  0  0   0  1  0  0  0 45664   70816      0 0.00e+00    0 0.00e+00  100
---------------------------------------------------------------------------------------------------------------------------------------------------------------

Object Type          Creations   Destructions. Reports information only for process 0.

--- Event Stage 0: Main Stage

           Container   497            497
    Distributed Mesh   798            798
            DM Label  1849           1849
          Quadrature  2110           2110
           Index Set 13632          13632
   IS L to G Mapping  1787           1787
             Section  3481           3481
   Star Forest Graph  2804           2804
     Discrete System  1277           1277
           Weak Form  1277           1277
    GraphPartitioner   327            327
              Vector   458            478
       p4est logging     1              1
        Linear Space   104            104
          Dual Space   366            366
            FE Space    76             76
              Matrix  1248           1248
  PetscDeviceContext     1              0
       Field over DM    18             18
             TSAdapt     1              1
                  TS     1              1
                DMTS     1              1
                SNES     1              1
              DMSNES     3              3
      SNESLineSearch     1              1
       Krylov Solver     1              1
     DMKSP interface     0              1
      Preconditioner     1              1
              Viewer     1              1

--- Event Stage 1: Warmup

              Vector    20              0
     DMKSP interface     1              0

--- Event Stage 2: Solve

========================================================================================================================
Average time to get PetscTime(): 3.41e-08
Average time for MPI_Barrier(): 1.523e-06
Average time for zero size MPI_Send(): 1.552e-05
#PETSc Option Table entries:
-dim 3 # (source: command line)
-dm_landau_amr_levels_max 2,2,2 # (source: command line)
-dm_landau_batch_size 32 # (source: command line)
-dm_landau_device_type kokkos # (source: file)
-dm_landau_Ez 0 # (source: file)
-dm_landau_ion_charges 1,2,3,4,5,6,7,8,9 # (source: file)
-dm_landau_ion_masses 2,182,182,182,182,182,182,182,182 # (source: file)
-dm_landau_n 1.0000044,1,1e-7,1e-7,1e-7,1e-7,1e-7,1e-7,1e-7,1e-7 # (source: file)
-dm_landau_num_species_grid 1,1,8 # (source: file)
-dm_landau_thermal_temps 2,1,1,1,1,1,1,1,1,1 # (source: file)
-dm_landau_type p8est # (source: command line)
-dm_landau_verbose 1 # (source: command line)
-dm_mat_type aijkokkos # (source: file)
-dm_preallocate_only false # (source: code)
-dm_vec_type kokkos # (source: file)
-ex2_test_type none # (source: file)
-ksp_converged_reason # (source: command line)
-ksp_max_it 100 # (source: command line)
-ksp_rtol 1.e-8 # (source: command line)
-ksp_type tfqmr # (source: command line)
-log_view # (source: command line)
-log_view_gpu_time # (source: command line)
-options_left # (source: command line)
-pc_type jacobi # (source: command line)
-petscspace_degree 2 # (source: command line)
-snes_converged_reason # (source: file)
-snes_linesearch_type basic # (source: file)
-snes_max_it 50 # (source: file)
-snes_monitor # (source: file)
-snes_rtol 1e-14 # (source: file)
-snes_stol 1e-14 # (source: file)
-ts_adapt_clip .5,1.1 # (source: file)
-ts_adapt_dt_max 1 # (source: file)
-ts_adapt_monitor # (source: file)
-ts_adapt_scale_solve_failed 0.5 # (source: file)
-ts_adapt_time_step_increase_delay 5 # (source: file)
-ts_dt .5 # (source: file)
-ts_exact_final_time stepover # (source: file)
-ts_max_snes_failures -1 # (source: file)
-ts_max_steps 10 # (source: file)
-ts_max_time 100 # (source: file)
-ts_monitor # (source: file)
-ts_rtol 1e-2 # (source: file)
-ts_type beuler # (source: file)
-ts_view # (source: command line)
-use_gpu_aware_mpi 0 # (source: file)
#End of PETSc Option Table entries
Compiled without FORTRAN kernels
Compiled with full precision matrices (default)
sizeof(short) 2 sizeof(int) 4 sizeof(long) 8 sizeof(void*) 8 sizeof(PetscScalar) 8 sizeof(PetscInt) 4
Configure options: --CFLAGS="   -g -DPETSC_HAVE_CUDA_NVTX" --CXXFLAGS=" -g -DPETSC_HAVE_CUDA_NVTX" --CUDAFLAGS="-g -Xcompiler -rdynamic" --LIBS=-lnvToolsExt --with-cc=cc --with-cxx=CC --with-fc=ftn --with-fortran-bindings=0 --COPTFLAGS="   -O" --CXXOPTFLAGS=" -O" --FOPTFLAGS="   -O" --with-dmlandau-3d --with-debugging=0 --with-x=0 --with-cuda=1 --with-cuda-arch=80 --with-mpiexec=srun --with-batch=0 --download-p4est=1 --with-zlib=1 --download-kokkos --download-kokkos-kernels --with-kokkos-kernels-tpl=0 --with-make-np=8 PETSC_ARCH=arch-perlmutter-opt-gcc-kokkos-cuda-3d
-----------------------------------------
Libraries compiled on 2024-06-27 20:01:11 on login19 
Machine characteristics: Linux-5.14.21-150400.24.81_12.0.87-cray_shasta_c-x86_64-with-glibc2.3.4
Using PETSc directory: /global/u2/m/madams/petsc
Using PETSc arch: arch-perlmutter-opt-gcc-kokkos-cuda-3d
-----------------------------------------

Using C compiler: cc -g -DPETSC_HAVE_CUDA_NVTX -fPIC -O  
Using Fortran compiler: ftn  -fPIC -Wall -ffree-line-length-none -ffree-line-length-0 -Wno-lto-type-mismatch -Wno-unused-dummy-argument -O    
-----------------------------------------

Using include paths: -I/global/u2/m/madams/petsc/include -I/global/u2/m/madams/petsc/arch-perlmutter-opt-gcc-kokkos-cuda-3d/include -I/opt/nvidia/hpc_sdk/Linux_x86_64/23.9/cuda/12.2/include -I/opt/nvidia/hpc_sdk/Linux_x86_64/23.9/math_libs/12.2/include
-----------------------------------------

Using C linker: cc
Using Fortran linker: ftn
Using libraries: -Wl,-rpath,/global/u2/m/madams/petsc/arch-perlmutter-opt-gcc-kokkos-cuda-3d/lib -L/global/u2/m/madams/petsc/arch-perlmutter-opt-gcc-kokkos-cuda-3d/lib -lpetsc -Wl,-rpath,/global/u2/m/madams/petsc/arch-perlmutter-opt-gcc-kokkos-cuda-3d/lib -L/global/u2/m/madams/petsc/arch-perlmutter-opt-gcc-kokkos-cuda-3d/lib -Wl,-rpath,/opt/nvidia/hpc_sdk/Linux_x86_64/23.9/math_libs/12.2/lib64 -L/opt/nvidia/hpc_sdk/Linux_x86_64/23.9/math_libs/12.2/lib64 -Wl,-rpath,/opt/nvidia/hpc_sdk/Linux_x86_64/23.9/cuda/12.2/lib64 -L/opt/nvidia/hpc_sdk/Linux_x86_64/23.9/cuda/12.2/lib64 -L/opt/nvidia/hpc_sdk/Linux_x86_64/23.9/cuda/12.2/lib64/stubs -Wl,-rpath,/opt/cray/pe/mpich/8.1.28/ofi/gnu/12.3/lib -L/opt/cray/pe/mpich/8.1.28/ofi/gnu/12.3/lib -Wl,-rpath,/opt/cray/pe/mpich/8.1.28/gtl/lib -L/opt/cray/pe/mpich/8.1.28/gtl/lib -Wl,-rpath,/opt/cray/pe/libsci/23.12.5/GNU/12.3/x86_64/lib -L/opt/cray/pe/libsci/23.12.5/GNU/12.3/x86_64/lib -Wl,-rpath,/opt/cray/pe/hdf5-parallel/1.12.2.9/gnu/12.3/lib -L/opt/cray/pe/hdf5-parallel/1.12.2.9/gnu/12.3/lib -Wl,-rpath,/opt/nvidia/hpc_sdk/Linux_x86_64/23.9/cuda/12.2/lib64/stubs -Wl,-rpath,/opt/nvidia/hpc_sdk/Linux_x86_64/23.9/cuda/12.2/nvvm/lib64 -L/opt/nvidia/hpc_sdk/Linux_x86_64/23.9/cuda/12.2/nvvm/lib64 -Wl,-rpath,/opt/nvidia/hpc_sdk/Linux_x86_64/23.9/cuda/12.2/extras/CUPTI/lib64 -L/opt/nvidia/hpc_sdk/Linux_x86_64/23.9/cuda/12.2/extras/CUPTI/lib64 -Wl,-rpath,/opt/nvidia/hpc_sdk/Linux_x86_64/23.9/cuda/12.2/extras/Debugger/lib64 -L/opt/nvidia/hpc_sdk/Linux_x86_64/23.9/cuda/12.2/extras/Debugger/lib64 -Wl,-rpath,/opt/cray/pe/dsmml/0.2.2/dsmml/lib -L/opt/cray/pe/dsmml/0.2.2/dsmml/lib -Wl,-rpath,/opt/cray/xpmem/2.6.2-2.5_2.38__gd067c3f.shasta/lib64 -L/opt/cray/xpmem/2.6.2-2.5_2.38__gd067c3f.shasta/lib64 -Wl,-rpath,/usr/lib64/gcc/x86_64-suse-linux/12 -L/usr/lib64/gcc/x86_64-suse-linux/12 -Wl,-rpath,/usr/x86_64-suse-linux/lib -L/usr/x86_64-suse-linux/lib -lkokkoskernels -lkokkoscontainers -lkokkoscore -lkokkossimd -lp4est -lsc -lz -lcufft -lcublas -lcusparse -lcusolver -lcurand -lcudart -lnvToolsExt -lcuda -lnvToolsExt -lcuda -lmpi_gtl_cuda -ldl -lxpmem -lgfortran -lm -lhdf5_hl_parallel -lhdf5_parallel -lcupti -lcudart -lhdf5hl_fortran_parallel -lhdf5_fortran_parallel -lmpifort_gnu_123 -lsci_gnu_123_mpi -lmpi_gnu_123 -lsci_gnu_123 -ldsmml -lgfortran -lquadmath -lpthread -lm -lgcc_s -lstdc++ -lquadmath -lnvToolsExt
-----------------------------------------

#PETSc Option Table entries:
-dim 3 # (source: command line)
-dm_landau_amr_levels_max 2,2,2 # (source: command line)
-dm_landau_batch_size 32 # (source: command line)
-dm_landau_device_type kokkos # (source: file)
-dm_landau_Ez 0 # (source: file)
-dm_landau_ion_charges 1,2,3,4,5,6,7,8,9 # (source: file)
-dm_landau_ion_masses 2,182,182,182,182,182,182,182,182 # (source: file)
-dm_landau_n 1.0000044,1,1e-7,1e-7,1e-7,1e-7,1e-7,1e-7,1e-7,1e-7 # (source: file)
-dm_landau_num_species_grid 1,1,8 # (source: file)
-dm_landau_thermal_temps 2,1,1,1,1,1,1,1,1,1 # (source: file)
-dm_landau_type p8est # (source: command line)
-dm_landau_verbose 1 # (source: command line)
-dm_mat_type aijkokkos # (source: file)
-dm_preallocate_only false # (source: code)
-dm_vec_type kokkos # (source: file)
-ex2_test_type none # (source: file)
-ksp_converged_reason # (source: command line)
-ksp_max_it 100 # (source: command line)
-ksp_rtol 1.e-8 # (source: command line)
-ksp_type tfqmr # (source: command line)
-log_view # (source: command line)
-log_view_gpu_time # (source: command line)
-options_left # (source: command line)
-pc_type jacobi # (source: command line)
-petscspace_degree 2 # (source: command line)
-snes_converged_reason # (source: file)
-snes_linesearch_type basic # (source: file)
-snes_max_it 50 # (source: file)
-snes_monitor # (source: file)
-snes_rtol 1e-14 # (source: file)
-snes_stol 1e-14 # (source: file)
-ts_adapt_clip .5,1.1 # (source: file)
-ts_adapt_dt_max 1 # (source: file)
-ts_adapt_monitor # (source: file)
-ts_adapt_scale_solve_failed 0.5 # (source: file)
-ts_adapt_time_step_increase_delay 5 # (source: file)
-ts_dt .5 # (source: file)
-ts_exact_final_time stepover # (source: file)
-ts_max_snes_failures -1 # (source: file)
-ts_max_steps 10 # (source: file)
-ts_max_time 100 # (source: file)
-ts_monitor # (source: file)
-ts_rtol 1e-2 # (source: file)
-ts_type beuler # (source: file)
-ts_view # (source: command line)
-use_gpu_aware_mpi 0 # (source: file)
#End of PETSc Option Table entries
There are no unused options.
