masses:        e= 9.109e-31; ions in proton mass units:    2.000e+00  1.820e+02 ...
charges:       e=-1.602e-19; charges in elementary units:  1.000e+00  2.000e+00
n:             e:  1.000e+00                           i:  1.000e+00  1.000e-07
thermal T (K): e= 2.321e+07 i= 1.160e+07  1.160e+07. Normalization grid 0: v_0= 1.876e+07 ( 6.256e-02c) n_0= 1.000e+20 t_0= 1.909e-05 4 batched, view batch 0
Domain radius (AMR levels) grid 0: par= 5.000e+00 perp= 5.000e+00 (2) , 1: par= 5.835e-02 perp= 5.835e-02 (2) , 2: par= 6.117e-03 perp= 6.117e-03 (2) 
0) FormLandau 9720 IPs, 360 cells total, Nb=27, Nq=27, dim=3, Tab: Nb=27 Nf=10 Np=27 cdim=3 N=41800 nnz=2256040
0 TS dt 0.5 time 0.
    0 SNES Function norm 3.739300127767e-02
    1 SNES Function norm 1.246418455473e-03
    2 SNES Function norm 2.221316189577e-04
    3 SNES Function norm 4.896789400681e-05
    4 SNES Function norm 1.115438004405e-05
    5 SNES Function norm 2.565811894670e-06
    6 SNES Function norm 5.923072500157e-07
    7 SNES Function norm 1.369271381478e-07
    8 SNES Function norm 3.167322479817e-08
    9 SNES Function norm 7.328345081817e-09
   10 SNES Function norm 1.695770836281e-09
   11 SNES Function norm 3.924173201716e-10
   12 SNES Function norm 9.081189989470e-11
   13 SNES Function norm 2.101493732016e-11
   14 SNES Function norm 4.862956031240e-12
   15 SNES Function norm 1.125290477347e-12
    Nonlinear solve converged due to CONVERGED_SNORM_RELATIVE iterations 15
      TSAdapt none beuler 0: step   0 accepted t=0          + 5.000e-01 dt=5.000e-01 
1 TS dt 0.5 time 0.5
TS Object: 1 MPI process
  type: beuler
  maximum steps=1
  maximum time=100.
  total number of I function evaluations=16
  total number of I Jacobian evaluations=15
  total number of RHS function evaluations=16
  total number of nonlinear solver iterations=15
  total number of linear solver iterations=250
  total number of nonlinear solve failures=0
  total number of rejected steps=0
  using relative error tolerance of 0.01,   using absolute error tolerance of 0.0001
  TSAdapt Object: 1 MPI process
    type: none
  SNES Object: 1 MPI process
    type: newtonls
    maximum iterations=50, maximum function evaluations=10000
    tolerances: relative=1e-14, absolute=1e-50, solution=1e-14
    total number of linear solver iterations=250
    total number of function evaluations=16
    norm schedule ALWAYS
    SNESLineSearch Object: 1 MPI process
      type: basic
      maxstep=1.000000e+08, minlambda=1.000000e-12
      tolerances: relative=1.000000e-08, absolute=1.000000e-15, lambda=1.000000e-08
      maximum iterations=40
    KSP Object: 1 MPI process
      type: preonly
      maximum iterations=10000, initial guess is zero
      tolerances: relative=1e-05, absolute=1e-50, divergence=10000.
      left preconditioning
      using NONE norm type for convergence test
    PC Object: 1 MPI process
      type: bjkokkos
        Batched device linear solver: Krylov (KSP) method with Jacobi preconditioning
      		nwork = 10, rel tol = 1.000000e-08, abs tol = 1.000000e-50, div tol = 1.000000e+04, max it =100, type = tfqmr
      linear system matrix = precond matrix:
      Mat Object: Jacobian 1 MPI process
        type: seqaijkokkos
        rows=41800, cols=41800
        total: nonzeros=2256040, allocated nonzeros=2256040
        total number of mallocs used during MatSetValues calls=0
          not using I-node routines
0 TS dt 0.5 time 0.
    0 SNES Function norm 3.739300127767e-02
    1 SNES Function norm 1.246418455473e-03
    2 SNES Function norm 2.221316189577e-04
    3 SNES Function norm 4.896789400681e-05
    4 SNES Function norm 1.115438004405e-05
    5 SNES Function norm 2.565811894670e-06
    6 SNES Function norm 5.923072500157e-07
    7 SNES Function norm 1.369271381478e-07
    8 SNES Function norm 3.167322479817e-08
    9 SNES Function norm 7.328345081817e-09
   10 SNES Function norm 1.695770836281e-09
   11 SNES Function norm 3.924173201716e-10
   12 SNES Function norm 9.081189989470e-11
   13 SNES Function norm 2.101493732016e-11
   14 SNES Function norm 4.862956031240e-12
   15 SNES Function norm 1.125290477347e-12
    Nonlinear solve converged due to CONVERGED_SNORM_RELATIVE iterations 15
      TSAdapt none beuler 0: step   0 accepted t=0          + 5.000e-01 dt=5.000e-01 
1 TS dt 0.5 time 0.5
    0 SNES Function norm 4.703337639617e-03
    1 SNES Function norm 5.740290718471e-04
    2 SNES Function norm 1.309946673814e-04
    3 SNES Function norm 3.023437793493e-05
    4 SNES Function norm 6.978701383686e-06
    5 SNES Function norm 1.611002217855e-06
    6 SNES Function norm 3.719569980097e-07
    7 SNES Function norm 8.588948022894e-08
    8 SNES Function norm 1.983416635125e-08
    9 SNES Function norm 4.580372113660e-09
   10 SNES Function norm 1.057774737027e-09
   11 SNES Function norm 2.442793321605e-10
   12 SNES Function norm 5.641454487578e-11
   13 SNES Function norm 1.302723271907e-11
   14 SNES Function norm 3.008965588860e-12
   15 SNES Function norm 6.942061948870e-13
    Nonlinear solve converged due to CONVERGED_SNORM_RELATIVE iterations 15
      TSAdapt none beuler 0: step   1 accepted t=0.5        + 5.000e-01 dt=5.000e-01 
2 TS dt 0.5 time 1.
    0 SNES Function norm 2.563068900379e-03
    1 SNES Function norm 4.487237073204e-04
    2 SNES Function norm 1.065247391826e-04
    3 SNES Function norm 2.481973655556e-05
    4 SNES Function norm 5.739206597918e-06
    5 SNES Function norm 1.323319277768e-06
    6 SNES Function norm 3.047903981035e-07
    7 SNES Function norm 7.016977771630e-08
    8 SNES Function norm 1.615187560413e-08
    9 SNES Function norm 3.717614064892e-09
   10 SNES Function norm 8.556438597995e-10
   11 SNES Function norm 1.969321036349e-10
   12 SNES Function norm 4.532519944750e-11
   13 SNES Function norm 1.043171994200e-11
   14 SNES Function norm 2.400801790908e-12
   15 SNES Function norm 5.515317524916e-13
    Nonlinear solve converged due to CONVERGED_SNORM_RELATIVE iterations 15
      TSAdapt none beuler 0: step   2 accepted t=1          + 5.000e-01 dt=5.000e-01 
3 TS dt 0.5 time 1.5
    0 SNES Function norm 2.038592208065e-03
    1 SNES Function norm 4.101778442091e-04
    2 SNES Function norm 9.724639036743e-05
    3 SNES Function norm 2.261607596791e-05
    4 SNES Function norm 5.216240285560e-06
    5 SNES Function norm 1.198994107662e-06
    6 SNES Function norm 2.752137275384e-07
    7 SNES Function norm 6.313537986526e-08
    8 SNES Function norm 1.448008853987e-08
    9 SNES Function norm 3.320669183191e-09
   10 SNES Function norm 7.614874422219e-10
   11 SNES Function norm 1.746185071677e-10
   12 SNES Function norm 4.004190189886e-11
   13 SNES Function norm 9.182036719220e-12
   14 SNES Function norm 2.105009181676e-12
   15 SNES Function norm 4.833541871098e-13
    Nonlinear solve converged due to CONVERGED_SNORM_RELATIVE iterations 15
      TSAdapt none beuler 0: step   3 accepted t=1.5        + 5.000e-01 dt=5.000e-01 
4 TS dt 0.5 time 2.
    0 SNES Function norm 1.830596313039e-03
    1 SNES Function norm 3.867305141719e-04
    2 SNES Function norm 9.115071227792e-05
    3 SNES Function norm 2.111036096490e-05
    4 SNES Function norm 4.851025937561e-06
    5 SNES Function norm 1.111047187292e-06
    6 SNES Function norm 2.541142376712e-07
    7 SNES Function norm 5.808620143239e-08
    8 SNES Function norm 1.327427159150e-08
    9 SNES Function norm 3.033215506484e-09
   10 SNES Function norm 6.930691063436e-10
   11 SNES Function norm 1.583595901407e-10
   12 SNES Function norm 3.618210515151e-11
   13 SNES Function norm 8.268526411238e-12
   14 SNES Function norm 1.888647374520e-12
   15 SNES Function norm 4.314480931867e-13
    Nonlinear solve converged due to CONVERGED_SNORM_RELATIVE iterations 15
      TSAdapt none beuler 0: step   4 accepted t=2          + 5.000e-01 dt=5.000e-01 
5 TS dt 0.5 time 2.5
    0 SNES Function norm 1.697690035415e-03
    1 SNES Function norm 3.639284744802e-04
    2 SNES Function norm 8.527853484548e-05
    3 SNES Function norm 1.966343594813e-05
    4 SNES Function norm 4.501518596653e-06
    5 SNES Function norm 1.027364281993e-06
    6 SNES Function norm 2.341669084783e-07
    7 SNES Function norm 5.334429528707e-08
    8 SNES Function norm 1.214924655320e-08
    9 SNES Function norm 2.766737267149e-09
   10 SNES Function norm 6.300388667484e-10
   11 SNES Function norm 1.434703864500e-10
   12 SNES Function norm 3.267048004812e-11
   13 SNES Function norm 7.438833670534e-12
   14 SNES Function norm 1.693102575140e-12
   15 SNES Function norm 3.854589379768e-13
    Nonlinear solve converged due to CONVERGED_SNORM_RELATIVE iterations 15
      TSAdapt none beuler 0: step   5 accepted t=2.5        + 5.000e-01 dt=5.000e-01 
6 TS dt 0.5 time 3.
    0 SNES Function norm 1.582093917699e-03
    1 SNES Function norm 3.392513467637e-04
    2 SNES Function norm 7.907393376843e-05
    3 SNES Function norm 1.815723997410e-05
    4 SNES Function norm 4.142001926343e-06
    5 SNES Function norm 9.422047892785e-07
    6 SNES Function norm 2.140712429805e-07
    7 SNES Function norm 4.861264018932e-08
    8 SNES Function norm 1.103685854315e-08
    9 SNES Function norm 2.505540974343e-09
   10 SNES Function norm 5.687744533309e-10
   11 SNES Function norm 1.291140138668e-10
   12 SNES Function norm 2.930864134923e-11
   13 SNES Function norm 6.652542344523e-12
   14 SNES Function norm 1.510273945844e-12
   15 SNES Function norm 3.435402218483e-13
    Nonlinear solve converged due to CONVERGED_SNORM_RELATIVE iterations 15
      TSAdapt none beuler 0: step   6 accepted t=3          + 5.000e-01 dt=5.000e-01 
7 TS dt 0.5 time 3.5
    0 SNES Function norm 1.469863541534e-03
    1 SNES Function norm 3.130101845886e-04
    2 SNES Function norm 7.260763446754e-05
    3 SNES Function norm 1.660952684451e-05
    4 SNES Function norm 3.776699827471e-06
    5 SNES Function norm 8.565282208759e-07
    6 SNES Function norm 1.940386834149e-07
    7 SNES Function norm 4.393679277224e-08
    8 SNES Function norm 9.946721070383e-09
    9 SNES Function norm 2.251611156206e-09
   10 SNES Function norm 5.096738685550e-10
   11 SNES Function norm 1.153659882217e-10
   12 SNES Function norm 2.611459871637e-11
   13 SNES Function norm 5.911450729737e-12
   14 SNES Function norm 1.337667864626e-12
    Nonlinear solve converged due to CONVERGED_SNORM_RELATIVE iterations 14
      TSAdapt none beuler 0: step   7 accepted t=3.5        + 5.000e-01 dt=5.000e-01 
8 TS dt 0.5 time 4.
    0 SNES Function norm 1.358739226516e-03
    1 SNES Function norm 2.860520438375e-04
    2 SNES Function norm 6.606617302833e-05
    3 SNES Function norm 1.506163397043e-05
    4 SNES Function norm 3.414746314466e-06
    5 SNES Function norm 7.723409264415e-07
    6 SNES Function norm 1.745070852683e-07
    7 SNES Function norm 3.941165959933e-08
    8 SNES Function norm 8.899255034285e-09
    9 SNES Function norm 2.009309609926e-09
   10 SNES Function norm 4.536538337936e-10
   11 SNES Function norm 1.024232424002e-10
   12 SNES Function norm 2.312464629861e-11
   13 SNES Function norm 5.219907664070e-12
   14 SNES Function norm 1.178757161964e-12
    Nonlinear solve converged due to CONVERGED_SNORM_RELATIVE iterations 14
      TSAdapt none beuler 0: step   8 accepted t=4          + 5.000e-01 dt=5.000e-01 
9 TS dt 0.5 time 4.5
    0 SNES Function norm 1.249568860316e-03
    1 SNES Function norm 2.591423463850e-04
    2 SNES Function norm 5.961326031552e-05
    3 SNES Function norm 1.354862791855e-05
    4 SNES Function norm 3.063663814362e-06
    5 SNES Function norm 6.912513403290e-07
    6 SNES Function norm 1.558182117500e-07
    7 SNES Function norm 3.510924980243e-08
    8 SNES Function norm 7.909474765923e-09
    9 SNES Function norm 1.781722292559e-09
   10 SNES Function norm 4.013463877424e-10
   11 SNES Function norm 9.040340855881e-11
   12 SNES Function norm 2.036481924100e-11
   13 SNES Function norm 4.586765641042e-12
   14 SNES Function norm 1.033015053182e-12
    Nonlinear solve converged due to CONVERGED_SNORM_RELATIVE iterations 14
      TSAdapt none beuler 0: step   9 accepted t=4.5        + 5.000e-01 dt=5.000e-01 
10 TS dt 0.5 time 5.
TS Object: 1 MPI process
  type: beuler
  maximum steps=10
  maximum time=100.
  total number of I function evaluations=173
  total number of I Jacobian evaluations=162
  total number of RHS function evaluations=173
  total number of nonlinear solver iterations=147
  total number of linear solver iterations=2447
  total number of nonlinear solve failures=0
  total number of rejected steps=0
  using relative error tolerance of 0.01,   using absolute error tolerance of 0.0001
  TSAdapt Object: 1 MPI process
    type: none
  SNES Object: 1 MPI process
    type: newtonls
    maximum iterations=50, maximum function evaluations=10000
    tolerances: relative=1e-14, absolute=1e-50, solution=1e-14
    total number of linear solver iterations=238
    total number of function evaluations=15
    norm schedule ALWAYS
    SNESLineSearch Object: 1 MPI process
      type: basic
      maxstep=1.000000e+08, minlambda=1.000000e-12
      tolerances: relative=1.000000e-08, absolute=1.000000e-15, lambda=1.000000e-08
      maximum iterations=40
    KSP Object: 1 MPI process
      type: preonly
      maximum iterations=10000, initial guess is zero
      tolerances: relative=1e-05, absolute=1e-50, divergence=10000.
      left preconditioning
      using NONE norm type for convergence test
    PC Object: 1 MPI process
      type: bjkokkos
        Batched device linear solver: Krylov (KSP) method with Jacobi preconditioning
      		nwork = 10, rel tol = 1.000000e-08, abs tol = 1.000000e-50, div tol = 1.000000e+04, max it =100, type = tfqmr
      linear system matrix = precond matrix:
      Mat Object: Jacobian 1 MPI process
        type: seqaijkokkos
        rows=41800, cols=41800
        total: nonzeros=2256040, allocated nonzeros=2256040
        total number of mallocs used during MatSetValues calls=0
          not using I-node routines
****************************************************************************************************************************************************************
***                                WIDEN YOUR WINDOW TO 160 CHARACTERS.  Use 'enscript -r -fCourier9' to print this document                                 ***
****************************************************************************************************************************************************************

------------------------------------------------------------------ PETSc Performance Summary: ------------------------------------------------------------------



      ##########################################################
      #                                                        #
      #                       WARNING!!!                       #
      #                                                        #
      #   This code was run with -log_view_gpu_time            #
      #   This provides accurate timing within the GPU kernels #
      #   but can slow down the entire computation by a        #
      #   measurable amount. For fastest runs we recommend     #
      #   not using this option.                               #
      #                                                        #
      ##########################################################


/global/u2/m/madams/batch_gmres_paper/landau_throughput_nsight/perlmutter/./ex2-3 on a arch-perlmutter-opt-gcc-kokkos-cuda-3d named nid200381 with 4 processes and CUDA architecture 80, by madams on Thu Jun 27 14:41:42 2024
Using Petsc Development GIT revision: v3.21.2-329-g0f40c42b27c  GIT Date: 2024-06-27 15:17:08 -0400

                         Max       Max/Min     Avg       Total
Time (sec):           9.974e+01     1.000   9.974e+01
Objects:              0.000e+00     0.000   0.000e+00
Flops:                2.552e+10     1.000   2.552e+10  1.021e+11
Flops/sec:            2.559e+08     1.000   2.559e+08  1.024e+09
MPI Msg Count:        0.000e+00     0.000   0.000e+00  0.000e+00
MPI Msg Len (bytes):  0.000e+00     0.000   0.000e+00  0.000e+00
MPI Reductions:       2.100e+01     1.000

Flop counting convention: 1 flop = 1 real number operation of type (multiply/divide/add/subtract)
                            e.g., VecAXPY() for real vectors of length N --> 2N flops
                            and VecAXPY() for complex vectors of length N --> 8N flops

Summary of Stages:   ----- Time ------  ----- Flop ------  --- Messages ---  -- Message Lengths --  -- Reductions --
                        Avg     %Total     Avg     %Total    Count   %Total     Avg         %Total    Count   %Total
 0:      Main Stage: 9.4050e+01  94.3%  5.8703e+08   0.6%  0.000e+00   0.0%  0.000e+00        0.0%  2.000e+00   9.5%
 1:          Warmup: 5.7753e-01   0.6%  9.3148e+09   9.1%  0.000e+00   0.0%  0.000e+00        0.0%  0.000e+00   0.0%
 2:           Solve: 5.1141e+00   5.1%  9.2194e+10  90.3%  0.000e+00   0.0%  0.000e+00        0.0%  0.000e+00   0.0%

------------------------------------------------------------------------------------------------------------------------
See the 'Profiling' chapter of the users' manual for details on interpreting output.
Phase summary info:
   Count: number of times phase was executed
   Time and Flop: Max - maximum over all processors
                  Ratio - ratio of maximum to minimum over all processors
   Mess: number of messages sent
   AvgLen: average message length (bytes)
   Reduct: number of global reductions
   Global: entire computation
   Stage: stages of a computation. Set stages with PetscLogStagePush() and PetscLogStagePop().
      %T - percent time in this phase         %F - percent flop in this phase
      %M - percent messages in this phase     %L - percent message lengths in this phase
      %R - percent reductions in this phase
   Total Mflop/s: 10e-6 * (sum of flop over all processors)/(max time over all processors)
   GPU Mflop/s: 10e-6 * (sum of flop on GPU over all processors)/(max GPU time over all processors)
   CpuToGpu Count: total number of CPU to GPU copies per processor
   CpuToGpu Size (Mbytes): 10e-6 * (total size of CPU to GPU copies per processor)
   GpuToCpu Count: total number of GPU to CPU copies per processor
   GpuToCpu Size (Mbytes): 10e-6 * (total size of GPU to CPU copies per processor)
   GPU %F: percent flops on GPU in this event
------------------------------------------------------------------------------------------------------------------------
Event                Count      Time (sec)     Flop                              --- Global ---  --- Stage ----  Total   GPU    - CpuToGpu -   - GpuToCpu - GPU
                   Max Ratio  Max     Ratio   Max  Ratio  Mess   AvgLen  Reduct  %T %F %M %L %R  %T %F %M %L %R Mflop/s Mflop/s Count   Size   Count   Size  %F
---------------------------------------------------------------------------------------------------------------------------------------------------------------

--- Event Stage 0: Main Stage

BuildTwoSided         87 1.0 1.0212e-04 1.3 0.00e+00 0.0 0.0e+00 0.0e+00 0.0e+00  0  0  0  0  0   0  0  0  0  0     0       0      0 0.00e+00    0 0.00e+00  0
DMConvert             18 1.0 4.9329e-03 1.1 0.00e+00 0.0 0.0e+00 0.0e+00 0.0e+00  0  0  0  0  0   0  0  0  0  0     0       0      0 0.00e+00    0 0.00e+00  0
DMCreateMat            8 1.0 5.0897e+00 1.0 0.00e+00 0.0 0.0e+00 0.0e+00 0.0e+00  5  0  0  0  0   5  0  0  0  0     0       0      0 0.00e+00    0 0.00e+00  0
DMProjectFunc         21 1.0 1.8675e-01 1.0 1.29e+07 1.0 0.0e+00 0.0e+00 0.0e+00  0  0  0  0  0   0  9  0  0  0   276       0      0 0.00e+00    0 0.00e+00  0
DMPlexInterp         204 1.0 6.1589e-03 1.1 0.00e+00 0.0 0.0e+00 0.0e+00 0.0e+00  0  0  0  0  0   0  0  0  0  0     0       0      0 0.00e+00    0 0.00e+00  0
DMPlexStratify       318 1.0 6.0905e-03 1.1 0.00e+00 0.0 0.0e+00 0.0e+00 0.0e+00  0  0  0  0  0   0  0  0  0  0     0       0      0 0.00e+00    0 0.00e+00  0
DMPlexSymmetrize     318 1.0 4.8578e-04 1.1 0.00e+00 0.0 0.0e+00 0.0e+00 0.0e+00  0  0  0  0  0   0  0  0  0  0     0       0      0 0.00e+00    0 0.00e+00  0
DMPlexPrealloc        30 1.0 4.7050e+00 1.0 0.00e+00 0.0 0.0e+00 0.0e+00 0.0e+00  5  0  0  0  0   5  0  0  0  0     0       0      0 0.00e+00    0 0.00e+00  0
DMPlexJacobianFE       6 1.0 4.1516e+00 1.0 1.08e+08 1.0 0.0e+00 0.0e+00 0.0e+00  4  0  0  0  0   4 74  0  0  0   104       0      0 0.00e+00    0 0.00e+00  0
DMPlexGenerate         3 1.0 6.7958e-04 1.2 0.00e+00 0.0 0.0e+00 0.0e+00 0.0e+00  0  0  0  0  0   0  0  0  0  0     0       0      0 0.00e+00    0 0.00e+00  0
SFSetGraph           156 1.0 1.7222e-04 1.1 0.00e+00 0.0 0.0e+00 0.0e+00 0.0e+00  0  0  0  0  0   0  0  0  0  0     0       0      0 0.00e+00    0 0.00e+00  0
SFSetUp               87 1.0 5.0660e-04 1.2 0.00e+00 0.0 0.0e+00 0.0e+00 0.0e+00  0  0  0  0  0   0  0  0  0  0     0       0      0 0.00e+00    0 0.00e+00  0
SFBcastBegin         186 1.0 4.8249e-04 1.3 0.00e+00 0.0 0.0e+00 0.0e+00 0.0e+00  0  0  0  0  0   0  0  0  0  0     0       0      0 0.00e+00    0 0.00e+00  0
SFBcastEnd           186 1.0 3.3898e-05 1.3 0.00e+00 0.0 0.0e+00 0.0e+00 0.0e+00  0  0  0  0  0   0  0  0  0  0     0       0      0 0.00e+00    0 0.00e+00  0
SFReduceBegin         54 1.0 7.6033e-05 1.1 0.00e+00 0.0 0.0e+00 0.0e+00 0.0e+00  0  0  0  0  0   0  0  0  0  0     0       0      0 0.00e+00    0 0.00e+00  0
SFReduceEnd           54 1.0 7.6550e-06 1.1 0.00e+00 0.0 0.0e+00 0.0e+00 0.0e+00  0  0  0  0  0   0  0  0  0  0     0       0      0 0.00e+00    0 0.00e+00  0
SFCreateEmbed         60 1.0 8.6885e-04 1.3 0.00e+00 0.0 0.0e+00 0.0e+00 0.0e+00  0  0  0  0  0   0  0  0  0  0     0       0      0 0.00e+00    0 0.00e+00  0
SFSectionSF           60 1.0 3.2398e-04 1.3 0.00e+00 0.0 0.0e+00 0.0e+00 0.0e+00  0  0  0  0  0   0  0  0  0  0     0       0      0 0.00e+00    0 0.00e+00  0
SFRemoteOff           60 1.0 1.8742e-03 1.3 0.00e+00 0.0 0.0e+00 0.0e+00 0.0e+00  0  0  0  0  0   0  0  0  0  0     0       0      0 0.00e+00    0 0.00e+00  0
SFPack               240 1.0 2.4807e-05 1.2 0.00e+00 0.0 0.0e+00 0.0e+00 0.0e+00  0  0  0  0  0   0  0  0  0  0     0       0      0 0.00e+00    0 0.00e+00  0
Landau Create          1 1.0 8.8518e+01 1.0 7.75e+07 1.0 0.0e+00 0.0e+00 0.0e+00 89  0  0  0  0  94 53  0  0  0     4       0      0 0.00e+00    0 0.00e+00  0
 GPU ass. setup        1 1.0 8.3114e+01 1.0 3.23e+06 1.0 0.0e+00 0.0e+00 0.0e+00 83  0  0  0  0  88  2  0  0  0     0       0      0 0.00e+00    0 0.00e+00  0
 Build matrix          1 1.0 2.3302e+00 1.0 3.87e+07 1.0 0.0e+00 0.0e+00 0.0e+00  2  0  0  0  0   2 26  0  0  0    67       0      0 0.00e+00    0 0.00e+00  0
 Assembly maps         1 1.0 3.5248e+00 1.4 2.44e+07 1.0 0.0e+00 0.0e+00 0.0e+00  3  0  0  0  0   3 17  0  0  0    28       0      0 0.00e+00    0 0.00e+00  0
Landau Mass mat        1 1.0 5.3222e+00 1.0 6.93e+07 1.0 0.0e+00 0.0e+00 0.0e+00  5  0  0  0  0   6 47  0  0  0    52       0      0 0.00e+00    0 0.00e+00  0
 static IP Data        1 1.0 1.3308e-02 1.2 1.11e+07 1.0 0.0e+00 0.0e+00 0.0e+00  0  0  0  0  0   0  8  0  0  0  3322       0      0 0.00e+00    0 0.00e+00  0
VecCopy                1 1.0 6.1699e-05 1.4 0.00e+00 0.0 0.0e+00 0.0e+00 0.0e+00  0  0  0  0  0   0  0  0  0  0     0       0      0 0.00e+00    0 0.00e+00  0
VecSet                21 1.0 5.1735e-04 1.1 0.00e+00 0.0 0.0e+00 0.0e+00 0.0e+00  0  0  0  0  0   0  0  0  0  0     0       0      0 0.00e+00    0 0.00e+00  0
DualSpaceSetUp        52 1.0 4.5126e-02 1.1 2.36e+04 1.0 0.0e+00 0.0e+00 0.0e+00  0  0  0  0  0   0  0  0  0  0     2       0      0 0.00e+00    0 0.00e+00  0
FESetUp               52 1.0 1.6356e-03 1.1 0.00e+00 0.0 0.0e+00 0.0e+00 0.0e+00  0  0  0  0  0   0  0  0  0  0     0       0      0 0.00e+00    0 0.00e+00  0
MatMult            66120 1.0 6.4470e-03 1.1 5.17e+05 1.0 0.0e+00 0.0e+00 0.0e+00  0  0  0  0  0   0  0  0  0  0   321       0      0 0.00e+00    0 0.00e+00  0
MatLUFactor           30 1.0 5.5099e-04 1.1 3.94e+05 1.0 0.0e+00 0.0e+00 0.0e+00  0  0  0  0  0   0  0  0  0  0  2858       0      0 0.00e+00    0 0.00e+00  0
MatCopy              240 1.0 1.4910e-04 1.0 0.00e+00 0.0 0.0e+00 0.0e+00 0.0e+00  0  0  0  0  0   0  0  0  0  0     0       0      0 0.00e+00    0 0.00e+00  0
MatConvert            60 1.0 5.1631e-04 1.0 0.00e+00 0.0 0.0e+00 0.0e+00 0.0e+00  0  0  0  0  0   0  0  0  0  0     0       0      0 0.00e+00    0 0.00e+00  0
MatAssemblyBegin    1002 1.0 9.4832e-05 1.1 0.00e+00 0.0 0.0e+00 0.0e+00 0.0e+00  0  0  0  0  0   0  0  0  0  0     0       0      0 0.00e+00    0 0.00e+00  0
MatAssemblyEnd      1002 1.0 4.9608e-02 1.1 0.00e+00 0.0 0.0e+00 0.0e+00 0.0e+00  0  0  0  0  0   0  0  0  0  0     0       0      0 0.00e+00    0 0.00e+00  0
MatGetRowIJ            9 1.0 3.2760e-06 1.8 0.00e+00 0.0 0.0e+00 0.0e+00 0.0e+00  0  0  0  0  0   0  0  0  0  0     0       0      0 0.00e+00    0 0.00e+00  0
MatZeroEntries         6 1.0 1.8280e-04 1.5 0.00e+00 0.0 0.0e+00 0.0e+00 0.0e+00  0  0  0  0  0   0  0  0  0  0     0       0      0 0.00e+00    0 0.00e+00  0
MatMatSolve          240 1.0 1.6601e-03 1.0 9.27e+06 1.0 0.0e+00 0.0e+00 0.0e+00  0  0  0  0  0   0  6  0  0  0 22343       0      0 0.00e+00    0 0.00e+00  0
MatSetPreallCOO      175 1.0 1.2895e+00 1.0 0.00e+00 0.0 0.0e+00 0.0e+00 0.0e+00  1  0  0  0  0   1  0  0  0  0     0       0      0 0.00e+00    0 0.00e+00  0
MatSetValuesCOO      174 1.0 2.4918e-04 1.1 0.00e+00 0.0 0.0e+00 0.0e+00 0.0e+00  0  0  0  0  0   0  0  0  0  0     0       0      0 0.00e+00    0 0.00e+00  0
DCtxCreate             1 1.0 3.3234e-05 2.0 0.00e+00 0.0 0.0e+00 0.0e+00 0.0e+00  0  0  0  0  0   0  0  0  0  0     0       0      0 0.00e+00    0 0.00e+00  0
DCtxDestroy            1 1.0 2.9507e-05 1.6 0.00e+00 0.0 0.0e+00 0.0e+00 0.0e+00  0  0  0  0  0   0  0  0  0  0     0       0      0 0.00e+00    0 0.00e+00  0
DCtxSetUp              1 1.0 4.6420e-05 1.7 0.00e+00 0.0 0.0e+00 0.0e+00 0.0e+00  0  0  0  0  0   0  0  0  0  0     0       0      0 0.00e+00    0 0.00e+00  0
DCtxSetDevice          1 1.0 5.1339e-05 2.1 0.00e+00 0.0 0.0e+00 0.0e+00 0.0e+00  0  0  0  0  0   0  0  0  0  0     0       0      0 0.00e+00    0 0.00e+00  0

--- Event Stage 1: Warmup

Landau Operator       31 1.0 4.3154e-01 1.0 1.44e+08 1.0 0.0e+00 0.0e+00 0.0e+00  0  1  0  0  0  75  6  0  0  0  1338    1348      0 0.00e+00    0 0.00e+00  100
Landau Jacobian       16 1.0 3.9430e-01 1.0 1.44e+08 1.0 0.0e+00 0.0e+00 0.0e+00  0  1  0  0  0  68  6  0  0  0  1465    1476      0 0.00e+00    0 0.00e+00  100
Landau Mass           15 1.0 3.7840e-02 1.0 0.00e+00 0.0 0.0e+00 0.0e+00 0.0e+00  0  0  0  0  0   6  0  0  0  0     0       0      0 0.00e+00    0 0.00e+00  0
 Preamble             31 1.0 1.6624e-04 2.5 0.00e+00 0.0 0.0e+00 0.0e+00 0.0e+00  0  0  0  0  0   0  0  0  0  0     0       0      0 0.00e+00    0 0.00e+00  0
 dynamic IP-Jac       32 1.0 2.1354e-05 1.3 0.00e+00 0.0 0.0e+00 0.0e+00 0.0e+00  0  0  0  0  0   0  0  0  0  0     0       0      0 0.00e+00    0 0.00e+00  0
 Kernel-init          31 1.0 3.6753e-04 1.2 0.00e+00 0.0 0.0e+00 0.0e+00 0.0e+00  0  0  0  0  0   0  0  0  0  0     0       0      0 0.00e+00    0 0.00e+00  0
 Jac-f-df (GPU)       16 1.0 3.6750e-03 1.0 0.00e+00 0.0 0.0e+00 0.0e+00 0.0e+00  0  0  0  0  0   1  0  0  0  0     0       0      0 0.00e+00    0 0.00e+00  0
 J Kernel (GPU)       16 1.0 3.6575e-01 1.0 0.00e+00 0.0 0.0e+00 0.0e+00 0.0e+00  0  0  0  0  0  63  0  0  0  0     0       0      0 0.00e+00    0 0.00e+00  0
 M Kernel (GPU)       15 1.0 2.4747e-02 1.1 0.00e+00 0.0 0.0e+00 0.0e+00 0.0e+00  0  0  0  0  0   4  0  0  0  0     0       0      0 0.00e+00    0 0.00e+00  0
VecNorm                1 1.0 2.5083e-04 1.4 8.36e+04 1.0 0.0e+00 0.0e+00 0.0e+00  0  0  0  0  0   0  0  0  0  0  1333    1400      0 0.00e+00    0 0.00e+00  100
VecCopy               19 1.0 5.8688e-04 1.3 0.00e+00 0.0 0.0e+00 0.0e+00 0.0e+00  0  0  0  0  0   0  0  0  0  0     0       0      0 0.00e+00    0 0.00e+00  0
VecSet                 1 1.0 2.8475e-05 1.1 0.00e+00 0.0 0.0e+00 0.0e+00 0.0e+00  0  0  0  0  0   0  0  0  0  0     0       0      0 0.00e+00    0 0.00e+00  0
VecAXPY               17 1.0 1.4094e-03 1.1 1.42e+06 1.0 0.0e+00 0.0e+00 0.0e+00  0  0  0  0  0   0  0  0  0  0  4033    4647      0 0.00e+00    0 0.00e+00  100
VecAXPBYCZ            17 1.0 3.9953e-03 1.1 3.55e+06 1.0 0.0e+00 0.0e+00 0.0e+00  0  0  0  0  0   1  0  0  0  0  3557    3753      0 0.00e+00    0 0.00e+00  100
VecWAXPY              15 1.0 5.4685e-04 1.2 1.25e+06 1.0 0.0e+00 0.0e+00 0.0e+00  0  0  0  0  0   0  0  0  0  0  9173   13674      0 0.00e+00    0 0.00e+00  100
VecReduceArith        45 1.0 1.4537e-03 1.1 3.76e+06 1.0 0.0e+00 0.0e+00 0.0e+00  0  0  0  0  0   0  0  0  0  0 10351   14576      0 0.00e+00    0 0.00e+00  100
VecReduceComm         15 1.0 9.1990e-06 2.9 0.00e+00 0.0 0.0e+00 0.0e+00 0.0e+00  0  0  0  0  0   0  0  0  0  0     0       0      0 0.00e+00    0 0.00e+00  0
MatMult               16 1.0 1.6054e-03 1.3 7.22e+07 1.0 0.0e+00 0.0e+00 0.0e+00  0  0  0  0  0   0  3  0  0  0 179872   205477      0 0.00e+00    0 0.00e+00  100
MatMultAdd            16 1.0 2.9190e-03 1.2 7.22e+07 1.0 0.0e+00 0.0e+00 0.0e+00  0  0  0  0  0   0  3  0  0  0 98928   104666      0 0.00e+00    0 0.00e+00  100
MatAssemblyBegin      62 1.0 8.7440e-06 1.4 0.00e+00 0.0 0.0e+00 0.0e+00 0.0e+00  0  0  0  0  0   0  0  0  0  0     0       0      0 0.00e+00    0 0.00e+00  0
MatAssemblyEnd        62 1.0 7.0009e-04 1.1 0.00e+00 0.0 0.0e+00 0.0e+00 0.0e+00  0  0  0  0  0   0  0  0  0  0     0       0      0 0.00e+00    0 0.00e+00  0
MatGetRowIJ            1 1.0 7.6155e-03 1.1 0.00e+00 0.0 0.0e+00 0.0e+00 0.0e+00  0  0  0  0  0   1  0  0  0  0     0       0      0 0.00e+00    0 0.00e+00  0
MatGetOrdering         1 1.0 1.7721e-02 1.1 0.00e+00 0.0 0.0e+00 0.0e+00 0.0e+00  0  0  0  0  0   3  0  0  0  0     0       0      0 0.00e+00    0 0.00e+00  0
MatZeroEntries        16 1.0 1.7712e-04 1.5 0.00e+00 0.0 0.0e+00 0.0e+00 0.0e+00  0  0  0  0  0   0  0  0  0  0     0       0      0 0.00e+00    0 0.00e+00  0
MatView                1 0.0 5.5507e-05 0.0 0.00e+00 0.0 0.0e+00 0.0e+00 0.0e+00  0  0  0  0  0   0  0  0  0  0     0       0      0 0.00e+00    0 0.00e+00  0
MatSetValuesCOO       31 1.0 3.2325e-02 1.0 0.00e+00 0.0 0.0e+00 0.0e+00 0.0e+00  0  0  0  0  0   6  0  0  0  0     0       0      0 0.00e+00    0 0.00e+00  0
TSStep                 1 1.0 5.7923e-01 1.0 2.33e+09 1.0 0.0e+00 0.0e+00 0.0e+00  1  9  0  0  0 100 100  0  0  0 16081   21428      0 0.00e+00    0 0.00e+00  100
TSFunctionEval        16 1.0 3.9590e-01 1.0 1.46e+08 1.0 0.0e+00 0.0e+00 0.0e+00  0  1  0  0  0  68  6  0  0  0  1472    1485      0 0.00e+00    0 0.00e+00  100
TSJacobianEval        15 1.0 3.7856e-02 1.0 0.00e+00 0.0 0.0e+00 0.0e+00 0.0e+00  0  0  0  0  0   6  0  0  0  0     0       0      0 0.00e+00    0 0.00e+00  0
KSPSetUp              15 1.0 8.2680e-06 1.8 0.00e+00 0.0 0.0e+00 0.0e+00 0.0e+00  0  0  0  0  0   0  0  0  0  0     0       0      0 0.00e+00    0 0.00e+00  0
KSPSolve              15 1.0 1.2066e-01 1.0 2.17e+09 1.0 0.0e+00 0.0e+00 0.0e+00  0  9  0  0  0  21 93  0  0  0 72081       0      0 0.00e+00    0 0.00e+00  100
SNESSolve              1 1.0 5.7883e-01 1.0 2.33e+09 1.0 0.0e+00 0.0e+00 0.0e+00  1  9  0  0  0 100 100  0  0  0 16090   21432      0 0.00e+00    0 0.00e+00  100
SNESSetUp              1 1.0 5.8232e-05 1.1 0.00e+00 0.0 0.0e+00 0.0e+00 0.0e+00  0  0  0  0  0   0  0  0  0  0     0       0      0 0.00e+00    0 0.00e+00  0
SNESFunctionEval      16 1.0 3.9981e-01 1.0 1.49e+08 1.0 0.0e+00 0.0e+00 0.0e+00  0  1  0  0  0  69  6  0  0  0  1491    1505      0 0.00e+00    0 0.00e+00  100
SNESJacobianEval      15 1.0 3.7881e-02 1.0 0.00e+00 0.0 0.0e+00 0.0e+00 0.0e+00  0  0  0  0  0   6  0  0  0  0     0       0      0 0.00e+00    0 0.00e+00  0
SNESLineSearch        15 1.0 3.6562e-01 1.0 1.45e+08 1.0 0.0e+00 0.0e+00 0.0e+00  0  1  0  0  0  63  6  0  0  0  1584    1599      0 0.00e+00    0 0.00e+00  100
PCSetUp               15 1.0 1.9509e-02 1.1 0.00e+00 0.0 0.0e+00 0.0e+00 0.0e+00  0  0  0  0  0   3  0  0  0  0     0       0      0 0.00e+00    0 0.00e+00  0
PCApply               15 1.0 1.2056e-01 1.0 2.17e+09 1.0 0.0e+00 0.0e+00 0.0e+00  0  9  0  0  0  21 93  0  0  0 72136       0      0 0.00e+00    0 0.00e+00  100

--- Event Stage 2: Solve

Landau Operator      304 1.0 3.9225e+00 1.0 1.42e+09 1.0 0.0e+00 0.0e+00 0.0e+00  4  6  0  0  0  77  6  0  0  0  1445    1452      0 0.00e+00    0 0.00e+00  100
Landau Jacobian      157 1.0 3.5607e+00 1.0 1.42e+09 1.0 0.0e+00 0.0e+00 0.0e+00  4  6  0  0  0  70  6  0  0  0  1592    1598      0 0.00e+00    0 0.00e+00  100
Landau Mass          147 1.0 3.6330e-01 1.0 0.00e+00 0.0 0.0e+00 0.0e+00 0.0e+00  0  0  0  0  0   7  0  0  0  0     0       0      0 0.00e+00    0 0.00e+00  0
 Preamble            295 1.0 6.4462e-04 1.2 0.00e+00 0.0 0.0e+00 0.0e+00 0.0e+00  0  0  0  0  0   0  0  0  0  0     0       0      0 0.00e+00    0 0.00e+00  0
 dynamic IP-Jac      296 1.0 1.2067e-04 1.0 0.00e+00 0.0 0.0e+00 0.0e+00 0.0e+00  0  0  0  0  0   0  0  0  0  0     0       0      0 0.00e+00    0 0.00e+00  0
 Kernel-init         295 1.0 2.9200e-03 1.0 0.00e+00 0.0 0.0e+00 0.0e+00 0.0e+00  0  0  0  0  0   0  0  0  0  0     0       0      0 0.00e+00    0 0.00e+00  0
 Jac-f-df (GPU)      148 1.0 2.9086e-02 1.0 0.00e+00 0.0 0.0e+00 0.0e+00 0.0e+00  0  0  0  0  0   1  0  0  0  0     0       0      0 0.00e+00    0 0.00e+00  0
 J Kernel (GPU)      148 1.0 3.3801e+00 1.0 0.00e+00 0.0 0.0e+00 0.0e+00 0.0e+00  3  0  0  0  0  66  0  0  0  0     0       0      0 0.00e+00    0 0.00e+00  0
 M Kernel (GPU)      147 1.0 2.3720e-01 1.0 0.00e+00 0.0 0.0e+00 0.0e+00 0.0e+00  0  0  0  0  0   5  0  0  0  0     0       0      0 0.00e+00    0 0.00e+00  0
VecNorm               10 1.0 3.2586e-04 1.1 8.36e+05 1.0 0.0e+00 0.0e+00 0.0e+00  0  0  0  0  0   0  0  0  0  0 10262   14514      0 0.00e+00    0 0.00e+00  100
VecCopy              177 1.0 3.7249e-03 1.1 0.00e+00 0.0 0.0e+00 0.0e+00 0.0e+00  0  0  0  0  0   0  0  0  0  0     0       0      0 0.00e+00    0 0.00e+00  0
VecAXPY              167 1.0 3.4574e-03 1.1 1.40e+07 1.0 0.0e+00 0.0e+00 0.0e+00  0  0  0  0  0   0  0  0  0  0 16152   32038      0 0.00e+00    0 0.00e+00  100
VecAXPBYCZ           167 1.0 3.8391e-03 1.1 3.49e+07 1.0 0.0e+00 0.0e+00 0.0e+00  0  0  0  0  0   0  0  0  0  0 36366   68913      0 0.00e+00    0 0.00e+00  100
VecWAXPY             147 1.0 4.2310e-03 1.0 1.23e+07 1.0 0.0e+00 0.0e+00 0.0e+00  0  0  0  0  0   0  0  0  0  0 11618   19180      0 0.00e+00    0 0.00e+00  100
VecReduceArith       441 1.0 1.3108e-02 1.0 3.69e+07 1.0 0.0e+00 0.0e+00 0.0e+00  0  0  0  0  0   0  0  0  0  0 11250   16257      0 0.00e+00    0 0.00e+00  100
VecReduceComm        147 1.0 3.6063e-05 1.1 0.00e+00 0.0 0.0e+00 0.0e+00 0.0e+00  0  0  0  0  0   0  0  0  0  0     0       0      0 0.00e+00    0 0.00e+00  0
MatMult              157 1.0 1.0143e-02 1.0 7.08e+08 1.0 0.0e+00 0.0e+00 0.0e+00  0  3  0  0  0   0  3  0  0  0 279363   336701      0 0.00e+00    0 0.00e+00  100
MatMultAdd           157 1.0 9.1060e-03 1.0 7.08e+08 1.0 0.0e+00 0.0e+00 0.0e+00  0  3  0  0  0   0  3  0  0  0 311176   375242      0 0.00e+00    0 0.00e+00  100
MatAssemblyBegin     590 1.0 8.1654e-05 1.4 0.00e+00 0.0 0.0e+00 0.0e+00 0.0e+00  0  0  0  0  0   0  0  0  0  0     0       0      0 0.00e+00    0 0.00e+00  0
MatAssemblyEnd       590 1.0 2.5248e-04 1.2 0.00e+00 0.0 0.0e+00 0.0e+00 0.0e+00  0  0  0  0  0   0  0  0  0  0     0       0      0 0.00e+00    0 0.00e+00  0
MatZeroEntries       148 1.0 1.0720e-03 1.1 0.00e+00 0.0 0.0e+00 0.0e+00 0.0e+00  0  0  0  0  0   0  0  0  0  0     0       0      0 0.00e+00    0 0.00e+00  0
MatView                1 0.0 4.5939e-05 0.0 0.00e+00 0.0 0.0e+00 0.0e+00 0.0e+00  0  0  0  0  0   0  0  0  0  0     0       0      0 0.00e+00    0 0.00e+00  0
MatSetValuesCOO      295 1.0 2.5208e-01 1.0 0.00e+00 0.0 0.0e+00 0.0e+00 0.0e+00  0  0  0  0  0   5  0  0  0  0     0       0      0 0.00e+00    0 0.00e+00  0
TSStep                10 1.0 5.1229e+00 1.0 2.30e+10 1.0 0.0e+00 0.0e+00 0.0e+00  5 90  0  0  0 100 100  0  0  0 17996   23520      0 0.00e+00    0 0.00e+00  100
TSFunctionEval       157 1.0 3.5643e+00 1.0 1.43e+09 1.0 0.0e+00 0.0e+00 0.0e+00  4  6  0  0  0  70  6  0  0  0  1605    1612      0 0.00e+00    0 0.00e+00  100
TSJacobianEval       147 1.0 3.6342e-01 1.0 0.00e+00 0.0 0.0e+00 0.0e+00 0.0e+00  0  0  0  0  0   7  0  0  0  0     0       0      0 0.00e+00    0 0.00e+00  0
KSPSetUp             147 1.0 2.9335e-05 1.1 0.00e+00 0.0 0.0e+00 0.0e+00 0.0e+00  0  0  0  0  0   0  0  0  0  0     0       0      0 0.00e+00    0 0.00e+00  0
KSPSolve             147 1.0 1.1665e+00 1.0 2.15e+10 1.0 0.0e+00 0.0e+00 0.0e+00  1 84  0  0  0  23 93  0  0  0 73836       0      0 0.00e+00    0 0.00e+00  100
SNESSolve             10 1.0 5.1216e+00 1.0 2.30e+10 1.0 0.0e+00 0.0e+00 0.0e+00  5 90  0  0  0 100 100  0  0  0 17999   23519      0 0.00e+00    0 0.00e+00  100
SNESFunctionEval     157 1.0 3.5681e+00 1.0 1.46e+09 1.0 0.0e+00 0.0e+00 0.0e+00  4  6  0  0  0  70  6  0  0  0  1640    1649      0 0.00e+00    0 0.00e+00  100
SNESJacobianEval     147 1.0 3.6356e-01 1.0 0.00e+00 0.0 0.0e+00 0.0e+00 0.0e+00  0  0  0  0  0   7  0  0  0  0     0       0      0 0.00e+00    0 0.00e+00  0
SNESLineSearch       147 1.0 3.5630e+00 1.0 1.42e+09 1.0 0.0e+00 0.0e+00 0.0e+00  4  6  0  0  0  70  6  0  0  0  1593    1605      0 0.00e+00    0 0.00e+00  100
PCSetUp              147 1.0 1.9115e-03 1.2 0.00e+00 0.0 0.0e+00 0.0e+00 0.0e+00  0  0  0  0  0   0  0  0  0  0     0       0      0 0.00e+00    0 0.00e+00  0
PCApply              147 1.0 1.1662e+00 1.0 2.15e+10 1.0 0.0e+00 0.0e+00 0.0e+00  1 84  0  0  0  23 93  0  0  0 73859       0      0 0.00e+00    0 0.00e+00  100
---------------------------------------------------------------------------------------------------------------------------------------------------------------

Object Type          Creations   Destructions. Reports information only for process 0.

--- Event Stage 0: Main Stage

           Container   497            497
    Distributed Mesh   798            798
            DM Label  1849           1849
          Quadrature  2026           2026
           Index Set 10944          10944
   IS L to G Mapping  1619           1619
             Section  2641           2641
   Star Forest Graph  2132           2132
     Discrete System  1277           1277
           Weak Form  1277           1277
    GraphPartitioner   327            327
              Vector   458            478
       p4est logging     1              1
        Linear Space   104            104
          Dual Space   366            366
            FE Space    76             76
              Matrix  1080           1080
  PetscDeviceContext     1              0
       Field over DM    18             18
             TSAdapt     1              1
                  TS     1              1
                DMTS     1              1
                SNES     1              1
              DMSNES     3              3
      SNESLineSearch     1              1
       Krylov Solver     1              2
     DMKSP interface     0              1
      Preconditioner     1              2
              Viewer     1              1

--- Event Stage 1: Warmup

           Index Set     3              3
              Vector    20              0
       Krylov Solver     1              0
     DMKSP interface     1              0
      Preconditioner     1              0

--- Event Stage 2: Solve

========================================================================================================================
Average time to get PetscTime(): 3.6e-08
Average time for MPI_Barrier(): 1.9118e-06
Average time for zero size MPI_Send(): 1.61138e-05
#PETSc Option Table entries:
-dim 3 # (source: command line)
-dm_landau_amr_levels_max 2,2,2 # (source: command line)
-dm_landau_batch_size 4 # (source: command line)
-dm_landau_device_type kokkos # (source: file)
-dm_landau_Ez 0 # (source: file)
-dm_landau_ion_charges 1,2,3,4,5,6,7,8,9 # (source: file)
-dm_landau_ion_masses 2,182,182,182,182,182,182,182,182 # (source: file)
-dm_landau_n 1.0000044,1,1e-7,1e-7,1e-7,1e-7,1e-7,1e-7,1e-7,1e-7 # (source: file)
-dm_landau_num_species_grid 1,1,8 # (source: file)
-dm_landau_thermal_temps 2,1,1,1,1,1,1,1,1,1 # (source: file)
-dm_landau_type p8est # (source: command line)
-dm_landau_verbose 1 # (source: command line)
-dm_mat_type aijkokkos # (source: file)
-dm_preallocate_only false # (source: code)
-dm_vec_type kokkos # (source: file)
-ex2_test_type none # (source: file)
-ksp_type preonly # (source: command line)
-log_view # (source: command line)
-log_view_gpu_time # (source: command line)
-options_left # (source: command line)
-pc_bjkokkos_ksp_converged_reason # (source: command line)
-pc_bjkokkos_ksp_error_if_not_converged # (source: command line)
-pc_bjkokkos_ksp_max_it 100 # (source: command line)
-pc_bjkokkos_ksp_rtol 1.e-8 # (source: command line)
-pc_bjkokkos_ksp_type tfqmr # (source: command line)
-pc_bjkokkos_pc_type jacobi # (source: command line)
-pc_type bjkokkos # (source: command line)
-petscspace_degree 2 # (source: command line)
-snes_converged_reason # (source: file)
-snes_linesearch_type basic # (source: file)
-snes_max_it 50 # (source: file)
-snes_monitor # (source: file)
-snes_rtol 1e-14 # (source: file)
-snes_stol 1e-14 # (source: file)
-ts_adapt_clip .5,1.1 # (source: file)
-ts_adapt_dt_max 1 # (source: file)
-ts_adapt_monitor # (source: file)
-ts_adapt_scale_solve_failed 0.5 # (source: file)
-ts_adapt_time_step_increase_delay 5 # (source: file)
-ts_dt .5 # (source: file)
-ts_exact_final_time stepover # (source: file)
-ts_max_snes_failures -1 # (source: file)
-ts_max_steps 10 # (source: file)
-ts_max_time 100 # (source: file)
-ts_monitor # (source: file)
-ts_rtol 1e-2 # (source: file)
-ts_type beuler # (source: file)
-ts_view # (source: command line)
-use_gpu_aware_mpi 0 # (source: file)
#End of PETSc Option Table entries
Compiled without FORTRAN kernels
Compiled with full precision matrices (default)
sizeof(short) 2 sizeof(int) 4 sizeof(long) 8 sizeof(void*) 8 sizeof(PetscScalar) 8 sizeof(PetscInt) 4
Configure options: --CFLAGS="   -g -DPETSC_HAVE_CUDA_NVTX" --CXXFLAGS=" -g -DPETSC_HAVE_CUDA_NVTX" --CUDAFLAGS="-g -Xcompiler -rdynamic" --LIBS=-lnvToolsExt --with-cc=cc --with-cxx=CC --with-fc=ftn --with-fortran-bindings=0 --COPTFLAGS="   -O" --CXXOPTFLAGS=" -O" --FOPTFLAGS="   -O" --with-dmlandau-3d --with-debugging=0 --with-x=0 --with-cuda=1 --with-cuda-arch=80 --with-mpiexec=srun --with-batch=0 --download-p4est=1 --with-zlib=1 --download-kokkos --download-kokkos-kernels --with-kokkos-kernels-tpl=0 --with-make-np=8 PETSC_ARCH=arch-perlmutter-opt-gcc-kokkos-cuda-3d
-----------------------------------------
Libraries compiled on 2024-06-27 20:01:11 on login19 
Machine characteristics: Linux-5.14.21-150400.24.81_12.0.87-cray_shasta_c-x86_64-with-glibc2.3.4
Using PETSc directory: /global/u2/m/madams/petsc
Using PETSc arch: arch-perlmutter-opt-gcc-kokkos-cuda-3d
-----------------------------------------

Using C compiler: cc -g -DPETSC_HAVE_CUDA_NVTX -fPIC -O  
Using Fortran compiler: ftn  -fPIC -Wall -ffree-line-length-none -ffree-line-length-0 -Wno-lto-type-mismatch -Wno-unused-dummy-argument -O    
-----------------------------------------

Using include paths: -I/global/u2/m/madams/petsc/include -I/global/u2/m/madams/petsc/arch-perlmutter-opt-gcc-kokkos-cuda-3d/include -I/opt/nvidia/hpc_sdk/Linux_x86_64/23.9/cuda/12.2/include -I/opt/nvidia/hpc_sdk/Linux_x86_64/23.9/math_libs/12.2/include
-----------------------------------------

Using C linker: cc
Using Fortran linker: ftn
Using libraries: -Wl,-rpath,/global/u2/m/madams/petsc/arch-perlmutter-opt-gcc-kokkos-cuda-3d/lib -L/global/u2/m/madams/petsc/arch-perlmutter-opt-gcc-kokkos-cuda-3d/lib -lpetsc -Wl,-rpath,/global/u2/m/madams/petsc/arch-perlmutter-opt-gcc-kokkos-cuda-3d/lib -L/global/u2/m/madams/petsc/arch-perlmutter-opt-gcc-kokkos-cuda-3d/lib -Wl,-rpath,/opt/nvidia/hpc_sdk/Linux_x86_64/23.9/math_libs/12.2/lib64 -L/opt/nvidia/hpc_sdk/Linux_x86_64/23.9/math_libs/12.2/lib64 -Wl,-rpath,/opt/nvidia/hpc_sdk/Linux_x86_64/23.9/cuda/12.2/lib64 -L/opt/nvidia/hpc_sdk/Linux_x86_64/23.9/cuda/12.2/lib64 -L/opt/nvidia/hpc_sdk/Linux_x86_64/23.9/cuda/12.2/lib64/stubs -Wl,-rpath,/opt/cray/pe/mpich/8.1.28/ofi/gnu/12.3/lib -L/opt/cray/pe/mpich/8.1.28/ofi/gnu/12.3/lib -Wl,-rpath,/opt/cray/pe/mpich/8.1.28/gtl/lib -L/opt/cray/pe/mpich/8.1.28/gtl/lib -Wl,-rpath,/opt/cray/pe/libsci/23.12.5/GNU/12.3/x86_64/lib -L/opt/cray/pe/libsci/23.12.5/GNU/12.3/x86_64/lib -Wl,-rpath,/opt/cray/pe/hdf5-parallel/1.12.2.9/gnu/12.3/lib -L/opt/cray/pe/hdf5-parallel/1.12.2.9/gnu/12.3/lib -Wl,-rpath,/opt/nvidia/hpc_sdk/Linux_x86_64/23.9/cuda/12.2/lib64/stubs -Wl,-rpath,/opt/nvidia/hpc_sdk/Linux_x86_64/23.9/cuda/12.2/nvvm/lib64 -L/opt/nvidia/hpc_sdk/Linux_x86_64/23.9/cuda/12.2/nvvm/lib64 -Wl,-rpath,/opt/nvidia/hpc_sdk/Linux_x86_64/23.9/cuda/12.2/extras/CUPTI/lib64 -L/opt/nvidia/hpc_sdk/Linux_x86_64/23.9/cuda/12.2/extras/CUPTI/lib64 -Wl,-rpath,/opt/nvidia/hpc_sdk/Linux_x86_64/23.9/cuda/12.2/extras/Debugger/lib64 -L/opt/nvidia/hpc_sdk/Linux_x86_64/23.9/cuda/12.2/extras/Debugger/lib64 -Wl,-rpath,/opt/cray/pe/dsmml/0.2.2/dsmml/lib -L/opt/cray/pe/dsmml/0.2.2/dsmml/lib -Wl,-rpath,/opt/cray/xpmem/2.6.2-2.5_2.38__gd067c3f.shasta/lib64 -L/opt/cray/xpmem/2.6.2-2.5_2.38__gd067c3f.shasta/lib64 -Wl,-rpath,/usr/lib64/gcc/x86_64-suse-linux/12 -L/usr/lib64/gcc/x86_64-suse-linux/12 -Wl,-rpath,/usr/x86_64-suse-linux/lib -L/usr/x86_64-suse-linux/lib -lkokkoskernels -lkokkoscontainers -lkokkoscore -lkokkossimd -lp4est -lsc -lz -lcufft -lcublas -lcusparse -lcusolver -lcurand -lcudart -lnvToolsExt -lcuda -lnvToolsExt -lcuda -lmpi_gtl_cuda -ldl -lxpmem -lgfortran -lm -lhdf5_hl_parallel -lhdf5_parallel -lcupti -lcudart -lhdf5hl_fortran_parallel -lhdf5_fortran_parallel -lmpifort_gnu_123 -lsci_gnu_123_mpi -lmpi_gnu_123 -lsci_gnu_123 -ldsmml -lgfortran -lquadmath -lpthread -lm -lgcc_s -lstdc++ -lquadmath -lnvToolsExt
-----------------------------------------

#PETSc Option Table entries:
-dim 3 # (source: command line)
-dm_landau_amr_levels_max 2,2,2 # (source: command line)
-dm_landau_batch_size 4 # (source: command line)
-dm_landau_device_type kokkos # (source: file)
-dm_landau_Ez 0 # (source: file)
-dm_landau_ion_charges 1,2,3,4,5,6,7,8,9 # (source: file)
-dm_landau_ion_masses 2,182,182,182,182,182,182,182,182 # (source: file)
-dm_landau_n 1.0000044,1,1e-7,1e-7,1e-7,1e-7,1e-7,1e-7,1e-7,1e-7 # (source: file)
-dm_landau_num_species_grid 1,1,8 # (source: file)
-dm_landau_thermal_temps 2,1,1,1,1,1,1,1,1,1 # (source: file)
-dm_landau_type p8est # (source: command line)
-dm_landau_verbose 1 # (source: command line)
-dm_mat_type aijkokkos # (source: file)
-dm_preallocate_only false # (source: code)
-dm_vec_type kokkos # (source: file)
-ex2_test_type none # (source: file)
-ksp_type preonly # (source: command line)
-log_view # (source: command line)
-log_view_gpu_time # (source: command line)
-options_left # (source: command line)
-pc_bjkokkos_ksp_converged_reason # (source: command line)
-pc_bjkokkos_ksp_error_if_not_converged # (source: command line)
-pc_bjkokkos_ksp_max_it 100 # (source: command line)
-pc_bjkokkos_ksp_rtol 1.e-8 # (source: command line)
-pc_bjkokkos_ksp_type tfqmr # (source: command line)
-pc_bjkokkos_pc_type jacobi # (source: command line)
-pc_type bjkokkos # (source: command line)
-petscspace_degree 2 # (source: command line)
-snes_converged_reason # (source: file)
-snes_linesearch_type basic # (source: file)
-snes_max_it 50 # (source: file)
-snes_monitor # (source: file)
-snes_rtol 1e-14 # (source: file)
-snes_stol 1e-14 # (source: file)
-ts_adapt_clip .5,1.1 # (source: file)
-ts_adapt_dt_max 1 # (source: file)
-ts_adapt_monitor # (source: file)
-ts_adapt_scale_solve_failed 0.5 # (source: file)
-ts_adapt_time_step_increase_delay 5 # (source: file)
-ts_dt .5 # (source: file)
-ts_exact_final_time stepover # (source: file)
-ts_max_snes_failures -1 # (source: file)
-ts_max_steps 10 # (source: file)
-ts_max_time 100 # (source: file)
-ts_monitor # (source: file)
-ts_rtol 1e-2 # (source: file)
-ts_type beuler # (source: file)
-ts_view # (source: command line)
-use_gpu_aware_mpi 0 # (source: file)
#End of PETSc Option Table entries
There are no unused options.
