masses:        e= 9.109e-31; ions in proton mass units:    2.000e+00  1.820e+02 ...
charges:       e=-1.602e-19; charges in elementary units:  1.000e+00  2.000e+00
n:             e:  1.000e+00                           i:  1.000e+00  1.000e-07
thermal T (K): e= 2.321e+07 i= 1.160e+07  1.160e+07. Normalization grid 0: v_0= 1.876e+07 ( 6.256e-02c) n_0= 1.000e+20 t_0= 1.909e-05 16 batched, view batch 0
Domain radius (AMR levels) grid 0: par= 5.000e+00 perp= 5.000e+00 (2) , 1: par= 5.835e-02 perp= 5.835e-02 (2) , 2: par= 6.117e-03 perp= 6.117e-03 (2) 
0) FormLandau 9720 IPs, 360 cells total, Nb=27, Nq=27, dim=3, Tab: Nb=27 Nf=10 Np=27 cdim=3 N=167200 nnz=9024160
0 TS dt 0.5 time 0.
    0 SNES Function norm 7.478600255534e-02
      Linear solve converged due to CONVERGED_RTOL iterations 18
    1 SNES Function norm 2.492836938516e-03
      Linear solve converged due to CONVERGED_RTOL iterations 16
    2 SNES Function norm 4.442646933230e-04
      Linear solve converged due to CONVERGED_RTOL iterations 16
    3 SNES Function norm 9.793607547863e-05
      Linear solve converged due to CONVERGED_RTOL iterations 14
    4 SNES Function norm 2.230959397728e-05
      Linear solve converged due to CONVERGED_RTOL iterations 15
    5 SNES Function norm 5.131767509601e-06
      Linear solve converged due to CONVERGED_RTOL iterations 15
    6 SNES Function norm 1.184651314889e-06
      Linear solve converged due to CONVERGED_RTOL iterations 15
    7 SNES Function norm 2.738649347557e-07
      Linear solve converged due to CONVERGED_RTOL iterations 15
    8 SNES Function norm 6.334950128165e-08
      Linear solve converged due to CONVERGED_RTOL iterations 15
    9 SNES Function norm 1.465753206698e-08
      Linear solve converged due to CONVERGED_RTOL iterations 15
   10 SNES Function norm 3.391768543492e-09
      Linear solve converged due to CONVERGED_RTOL iterations 15
   11 SNES Function norm 7.848931413132e-10
      Linear solve converged due to CONVERGED_RTOL iterations 16
   12 SNES Function norm 1.816403482435e-10
      Linear solve converged due to CONVERGED_RTOL iterations 17
   13 SNES Function norm 4.203563206047e-11
      Linear solve converged due to CONVERGED_RTOL iterations 14
   14 SNES Function norm 9.726924807524e-12
      Linear solve converged due to CONVERGED_RTOL iterations 15
   15 SNES Function norm 2.250982347997e-12
    Nonlinear solve converged due to CONVERGED_SNORM_RELATIVE iterations 15
      TSAdapt none beuler 0: step   0 accepted t=0          + 5.000e-01 dt=5.000e-01 
1 TS dt 0.5 time 0.5
TS Object: 1 MPI process
  type: beuler
  maximum steps=1
  maximum time=100.
  total number of I function evaluations=16
  total number of I Jacobian evaluations=15
  total number of RHS function evaluations=16
  total number of nonlinear solver iterations=15
  total number of linear solver iterations=231
  total number of nonlinear solve failures=0
  total number of rejected steps=0
  using relative error tolerance of 0.01,   using absolute error tolerance of 0.0001
  TSAdapt Object: 1 MPI process
    type: none
  SNES Object: 1 MPI process
    type: newtonls
    maximum iterations=50, maximum function evaluations=10000
    tolerances: relative=1e-14, absolute=1e-50, solution=1e-14
    total number of linear solver iterations=231
    total number of function evaluations=16
    norm schedule ALWAYS
    SNESLineSearch Object: 1 MPI process
      type: basic
      maxstep=1.000000e+08, minlambda=1.000000e-12
      tolerances: relative=1.000000e-08, absolute=1.000000e-15, lambda=1.000000e-08
      maximum iterations=40
    KSP Object: 1 MPI process
      type: tfqmr
      maximum iterations=100, initial guess is zero
      tolerances: relative=1e-08, absolute=1e-50, divergence=10000.
      left preconditioning
      using PRECONDITIONED norm type for convergence test
    PC Object: 1 MPI process
      type: jacobi
        type DIAGONAL
      linear system matrix = precond matrix:
      Mat Object: Jacobian 1 MPI process
        type: seqaijkokkos
        rows=167200, cols=167200
        total: nonzeros=9024160, allocated nonzeros=9024160
        total number of mallocs used during MatSetValues calls=0
          not using I-node routines
0 TS dt 0.5 time 0.
    0 SNES Function norm 7.478600255534e-02
      Linear solve converged due to CONVERGED_RTOL iterations 18
    1 SNES Function norm 2.492836938516e-03
      Linear solve converged due to CONVERGED_RTOL iterations 16
    2 SNES Function norm 4.442646933230e-04
      Linear solve converged due to CONVERGED_RTOL iterations 16
    3 SNES Function norm 9.793607547863e-05
      Linear solve converged due to CONVERGED_RTOL iterations 14
    4 SNES Function norm 2.230959397728e-05
      Linear solve converged due to CONVERGED_RTOL iterations 15
    5 SNES Function norm 5.131767509601e-06
      Linear solve converged due to CONVERGED_RTOL iterations 15
    6 SNES Function norm 1.184651314889e-06
      Linear solve converged due to CONVERGED_RTOL iterations 15
    7 SNES Function norm 2.738649347557e-07
      Linear solve converged due to CONVERGED_RTOL iterations 15
    8 SNES Function norm 6.334950128165e-08
      Linear solve converged due to CONVERGED_RTOL iterations 15
    9 SNES Function norm 1.465753206698e-08
      Linear solve converged due to CONVERGED_RTOL iterations 15
   10 SNES Function norm 3.391768543492e-09
      Linear solve converged due to CONVERGED_RTOL iterations 15
   11 SNES Function norm 7.848931413132e-10
      Linear solve converged due to CONVERGED_RTOL iterations 16
   12 SNES Function norm 1.816403482435e-10
      Linear solve converged due to CONVERGED_RTOL iterations 17
   13 SNES Function norm 4.203563206047e-11
      Linear solve converged due to CONVERGED_RTOL iterations 14
   14 SNES Function norm 9.726924807524e-12
      Linear solve converged due to CONVERGED_RTOL iterations 15
   15 SNES Function norm 2.250982347997e-12
    Nonlinear solve converged due to CONVERGED_SNORM_RELATIVE iterations 15
      TSAdapt none beuler 0: step   0 accepted t=0          + 5.000e-01 dt=5.000e-01 
1 TS dt 0.5 time 0.5
    0 SNES Function norm 9.406675279234e-03
      Linear solve converged due to CONVERGED_RTOL iterations 18
    1 SNES Function norm 1.148058569280e-03
      Linear solve converged due to CONVERGED_RTOL iterations 16
    2 SNES Function norm 2.619901944781e-04
      Linear solve converged due to CONVERGED_RTOL iterations 16
    3 SNES Function norm 6.046921933760e-05
      Linear solve converged due to CONVERGED_RTOL iterations 15
    4 SNES Function norm 1.395765519961e-05
      Linear solve converged due to CONVERGED_RTOL iterations 15
    5 SNES Function norm 3.222062552255e-06
      Linear solve converged due to CONVERGED_RTOL iterations 16
    6 SNES Function norm 7.439339508732e-07
      Linear solve converged due to CONVERGED_RTOL iterations 17
    7 SNES Function norm 1.717859159968e-07
      Linear solve converged due to CONVERGED_RTOL iterations 17
    8 SNES Function norm 3.967011799773e-08
      Linear solve converged due to CONVERGED_RTOL iterations 17
    9 SNES Function norm 9.161173931496e-09
      Linear solve converged due to CONVERGED_RTOL iterations 17
   10 SNES Function norm 2.115654892609e-09
      Linear solve converged due to CONVERGED_RTOL iterations 17
   11 SNES Function norm 4.885918292335e-10
      Linear solve converged due to CONVERGED_RTOL iterations 16
   12 SNES Function norm 1.128362912020e-10
      Linear solve converged due to CONVERGED_RTOL iterations 14
   13 SNES Function norm 2.605729695109e-11
      Linear solve converged due to CONVERGED_RTOL iterations 15
   14 SNES Function norm 6.018506976466e-12
      Linear solve converged due to CONVERGED_RTOL iterations 16
   15 SNES Function norm 1.388557215936e-12
    Nonlinear solve converged due to CONVERGED_SNORM_RELATIVE iterations 15
      TSAdapt none beuler 0: step   1 accepted t=0.5        + 5.000e-01 dt=5.000e-01 
2 TS dt 0.5 time 1.
    0 SNES Function norm 5.126137800758e-03
      Linear solve converged due to CONVERGED_RTOL iterations 17
    1 SNES Function norm 8.974478083729e-04
      Linear solve converged due to CONVERGED_RTOL iterations 16
    2 SNES Function norm 2.130501225227e-04
      Linear solve converged due to CONVERGED_RTOL iterations 16
    3 SNES Function norm 4.963988695333e-05
      Linear solve converged due to CONVERGED_RTOL iterations 15
    4 SNES Function norm 1.147863779283e-05
      Linear solve converged due to CONVERGED_RTOL iterations 15
    5 SNES Function norm 2.646691208929e-06
      Linear solve converged due to CONVERGED_RTOL iterations 15
    6 SNES Function norm 6.096009647414e-07
      Linear solve converged due to CONVERGED_RTOL iterations 18
    7 SNES Function norm 1.403473943679e-07
      Linear solve converged due to CONVERGED_RTOL iterations 18
    8 SNES Function norm 3.230610030203e-08
      Linear solve converged due to CONVERGED_RTOL iterations 18
    9 SNES Function norm 7.435894052410e-09
      Linear solve converged due to CONVERGED_RTOL iterations 18
   10 SNES Function norm 1.711462338018e-09
      Linear solve converged due to CONVERGED_RTOL iterations 15
   11 SNES Function norm 3.939140900364e-10
      Linear solve converged due to CONVERGED_RTOL iterations 14
   12 SNES Function norm 9.066145016076e-11
      Linear solve converged due to CONVERGED_RTOL iterations 14
   13 SNES Function norm 2.086697857741e-11
      Linear solve converged due to CONVERGED_RTOL iterations 17
   14 SNES Function norm 4.801902516944e-12
      Linear solve converged due to CONVERGED_RTOL iterations 16
   15 SNES Function norm 1.103079525230e-12
    Nonlinear solve converged due to CONVERGED_SNORM_RELATIVE iterations 15
      TSAdapt none beuler 0: step   2 accepted t=1          + 5.000e-01 dt=5.000e-01 
3 TS dt 0.5 time 1.5
    0 SNES Function norm 4.077184416130e-03
      Linear solve converged due to CONVERGED_RTOL iterations 16
    1 SNES Function norm 8.203584274767e-04
      Linear solve converged due to CONVERGED_RTOL iterations 16
    2 SNES Function norm 1.944943654555e-04
      Linear solve converged due to CONVERGED_RTOL iterations 16
    3 SNES Function norm 4.523278263673e-05
      Linear solve converged due to CONVERGED_RTOL iterations 15
    4 SNES Function norm 1.043274643554e-05
      Linear solve converged due to CONVERGED_RTOL iterations 15
    5 SNES Function norm 2.398050993122e-06
      Linear solve converged due to CONVERGED_RTOL iterations 18
    6 SNES Function norm 5.504428277285e-07
      Linear solve converged due to CONVERGED_RTOL iterations 15
    7 SNES Function norm 1.262794907053e-07
      Linear solve converged due to CONVERGED_RTOL iterations 15
    8 SNES Function norm 2.896319292502e-08
      Linear solve converged due to CONVERGED_RTOL iterations 15
    9 SNES Function norm 6.642252858678e-09
      Linear solve converged due to CONVERGED_RTOL iterations 17
   10 SNES Function norm 1.523193663390e-09
      Linear solve converged due to CONVERGED_RTOL iterations 18
   11 SNES Function norm 3.492894835813e-10
      Linear solve converged due to CONVERGED_RTOL iterations 14
   12 SNES Function norm 8.009811251745e-11
      Linear solve converged due to CONVERGED_RTOL iterations 17
   13 SNES Function norm 1.836697090301e-11
      Linear solve converged due to CONVERGED_RTOL iterations 15
   14 SNES Function norm 4.210761507890e-12
      Linear solve converged due to CONVERGED_RTOL iterations 14
   15 SNES Function norm 9.669214049164e-13
    Nonlinear solve converged due to CONVERGED_SNORM_RELATIVE iterations 15
      TSAdapt none beuler 0: step   3 accepted t=1.5        + 5.000e-01 dt=5.000e-01 
4 TS dt 0.5 time 2.
    0 SNES Function norm 3.661192626078e-03
      Linear solve converged due to CONVERGED_RTOL iterations 17
    1 SNES Function norm 7.734621683762e-04
      Linear solve converged due to CONVERGED_RTOL iterations 16
    2 SNES Function norm 1.823019261714e-04
      Linear solve converged due to CONVERGED_RTOL iterations 16
    3 SNES Function norm 4.222148266065e-05
      Linear solve converged due to CONVERGED_RTOL iterations 15
    4 SNES Function norm 9.702306232142e-06
      Linear solve converged due to CONVERGED_RTOL iterations 15
    5 SNES Function norm 2.222154897562e-06
      Linear solve converged due to CONVERGED_RTOL iterations 17
    6 SNES Function norm 5.082477578969e-07
      Linear solve converged due to CONVERGED_RTOL iterations 15
    7 SNES Function norm 1.161799983664e-07
      Linear solve converged due to CONVERGED_RTOL iterations 15
    8 SNES Function norm 2.655090347363e-08
      Linear solve converged due to CONVERGED_RTOL iterations 15
    9 SNES Function norm 6.067104178332e-09
      Linear solve converged due to CONVERGED_RTOL iterations 15
   10 SNES Function norm 1.386323349280e-09
      Linear solve converged due to CONVERGED_RTOL iterations 15
   11 SNES Function norm 3.167683470910e-10
      Linear solve converged due to CONVERGED_RTOL iterations 18
   12 SNES Function norm 7.237785321060e-11
      Linear solve converged due to CONVERGED_RTOL iterations 14
   13 SNES Function norm 1.653943801760e-11
      Linear solve converged due to CONVERGED_RTOL iterations 17
   14 SNES Function norm 3.777808006706e-12
      Linear solve converged due to CONVERGED_RTOL iterations 16
   15 SNES Function norm 8.630956052613e-13
    Nonlinear solve converged due to CONVERGED_SNORM_RELATIVE iterations 15
      TSAdapt none beuler 0: step   4 accepted t=2          + 5.000e-01 dt=5.000e-01 
5 TS dt 0.5 time 2.5
    0 SNES Function norm 3.395380070830e-03
      Linear solve converged due to CONVERGED_RTOL iterations 17
    1 SNES Function norm 7.278573373590e-04
      Linear solve converged due to CONVERGED_RTOL iterations 16
    2 SNES Function norm 1.705572986550e-04
      Linear solve converged due to CONVERGED_RTOL iterations 16
    3 SNES Function norm 3.932753984837e-05
      Linear solve converged due to CONVERGED_RTOL iterations 15
    4 SNES Function norm 9.003254425186e-06
      Linear solve converged due to CONVERGED_RTOL iterations 15
    5 SNES Function norm 2.054780990750e-06
      Linear solve converged due to CONVERGED_RTOL iterations 15
    6 SNES Function norm 4.683590754290e-07
      Linear solve converged due to CONVERGED_RTOL iterations 15
    7 SNES Function norm 1.066961507797e-07
      Linear solve converged due to CONVERGED_RTOL iterations 14
    8 SNES Function norm 2.430068360447e-08
      Linear solve converged due to CONVERGED_RTOL iterations 15
    9 SNES Function norm 5.534068437107e-09
      Linear solve converged due to CONVERGED_RTOL iterations 14
   10 SNES Function norm 1.260236820560e-09
      Linear solve converged due to CONVERGED_RTOL iterations 18
   11 SNES Function norm 2.869770636398e-10
      Linear solve converged due to CONVERGED_RTOL iterations 14
   12 SNES Function norm 6.535030947414e-11
      Linear solve converged due to CONVERGED_RTOL iterations 14
   13 SNES Function norm 1.487984804556e-11
      Linear solve converged due to CONVERGED_RTOL iterations 14
   14 SNES Function norm 3.386509876820e-12
      Linear solve converged due to CONVERGED_RTOL iterations 15
   15 SNES Function norm 7.713290749719e-13
    Nonlinear solve converged due to CONVERGED_SNORM_RELATIVE iterations 15
      TSAdapt none beuler 0: step   5 accepted t=2.5        + 5.000e-01 dt=5.000e-01 
6 TS dt 0.5 time 3.
    0 SNES Function norm 3.164187835399e-03
      Linear solve converged due to CONVERGED_RTOL iterations 17
    1 SNES Function norm 6.785031061477e-04
      Linear solve converged due to CONVERGED_RTOL iterations 15
    2 SNES Function norm 1.581484013436e-04
      Linear solve converged due to CONVERGED_RTOL iterations 15
    3 SNES Function norm 3.631567513101e-05
      Linear solve converged due to CONVERGED_RTOL iterations 15
    4 SNES Function norm 8.284351713389e-06
      Linear solve converged due to CONVERGED_RTOL iterations 15
    5 SNES Function norm 1.884485441618e-06
      Linear solve converged due to CONVERGED_RTOL iterations 14
    6 SNES Function norm 4.281713540653e-07
      Linear solve converged due to CONVERGED_RTOL iterations 14
    7 SNES Function norm 9.723324244609e-08
      Linear solve converged due to CONVERGED_RTOL iterations 14
    8 SNES Function norm 2.207587669698e-08
      Linear solve converged due to CONVERGED_RTOL iterations 14
    9 SNES Function norm 5.011653777577e-09
      Linear solve converged due to CONVERGED_RTOL iterations 14
   10 SNES Function norm 1.137696316756e-09
      Linear solve converged due to CONVERGED_RTOL iterations 14
   11 SNES Function norm 2.582650226847e-10
      Linear solve converged due to CONVERGED_RTOL iterations 18
   12 SNES Function norm 5.862655246746e-11
      Linear solve converged due to CONVERGED_RTOL iterations 14
   13 SNES Function norm 1.330788336124e-11
      Linear solve converged due to CONVERGED_RTOL iterations 14
   14 SNES Function norm 3.020962684726e-12
      Linear solve converged due to CONVERGED_RTOL iterations 16
   15 SNES Function norm 6.872457970837e-13
    Nonlinear solve converged due to CONVERGED_SNORM_RELATIVE iterations 15
      TSAdapt none beuler 0: step   6 accepted t=3          + 5.000e-01 dt=5.000e-01 
7 TS dt 0.5 time 3.5
    0 SNES Function norm 2.939727083069e-03
      Linear solve converged due to CONVERGED_RTOL iterations 18
    1 SNES Function norm 6.260209409043e-04
      Linear solve converged due to CONVERGED_RTOL iterations 15
    2 SNES Function norm 1.452155620861e-04
      Linear solve converged due to CONVERGED_RTOL iterations 15
    3 SNES Function norm 3.322052074882e-05
      Linear solve converged due to CONVERGED_RTOL iterations 15
    4 SNES Function norm 7.553726002312e-06
      Linear solve converged due to CONVERGED_RTOL iterations 15
    5 SNES Function norm 1.713127856589e-06
      Linear solve converged due to CONVERGED_RTOL iterations 14
    6 SNES Function norm 3.881012466184e-07
      Linear solve converged due to CONVERGED_RTOL iterations 14
    7 SNES Function norm 8.787984515150e-08
      Linear solve converged due to CONVERGED_RTOL iterations 14
    8 SNES Function norm 1.989507170028e-08
      Linear solve converged due to CONVERGED_RTOL iterations 14
    9 SNES Function norm 4.503638448481e-09
      Linear solve converged due to CONVERGED_RTOL iterations 14
   10 SNES Function norm 1.019451405504e-09
      Linear solve converged due to CONVERGED_RTOL iterations 14
   11 SNES Function norm 2.307592539854e-10
      Linear solve converged due to CONVERGED_RTOL iterations 15
   12 SNES Function norm 5.223607243333e-11
      Linear solve converged due to CONVERGED_RTOL iterations 15
   13 SNES Function norm 1.182370412880e-11
      Linear solve converged due to CONVERGED_RTOL iterations 20
   14 SNES Function norm 2.675737439930e-12
    Nonlinear solve converged due to CONVERGED_SNORM_RELATIVE iterations 14
      TSAdapt none beuler 0: step   7 accepted t=3.5        + 5.000e-01 dt=5.000e-01 
8 TS dt 0.5 time 4.
    0 SNES Function norm 2.717478453031e-03
      Linear solve converged due to CONVERGED_RTOL iterations 19
    1 SNES Function norm 5.721041235976e-04
      Linear solve converged due to CONVERGED_RTOL iterations 15
    2 SNES Function norm 1.321323813619e-04
      Linear solve converged due to CONVERGED_RTOL iterations 15
    3 SNES Function norm 3.012459770508e-05
      Linear solve converged due to CONVERGED_RTOL iterations 15
    4 SNES Function norm 6.829806410902e-06
      Linear solve converged due to CONVERGED_RTOL iterations 16
    5 SNES Function norm 1.544746963453e-06
      Linear solve converged due to CONVERGED_RTOL iterations 15
    6 SNES Function norm 3.490346544222e-07
      Linear solve converged due to CONVERGED_RTOL iterations 15
    7 SNES Function norm 7.882859855185e-08
      Linear solve converged due to CONVERGED_RTOL iterations 15
    8 SNES Function norm 1.779985259737e-08
      Linear solve converged due to CONVERGED_RTOL iterations 15
    9 SNES Function norm 4.018959311143e-09
      Linear solve converged due to CONVERGED_RTOL iterations 15
   10 SNES Function norm 9.073904868074e-10
      Linear solve converged due to CONVERGED_RTOL iterations 18
   11 SNES Function norm 2.048655413381e-10
      Linear solve converged due to CONVERGED_RTOL iterations 14
   12 SNES Function norm 4.625335113824e-11
      Linear solve converged due to CONVERGED_RTOL iterations 14
   13 SNES Function norm 1.044077407754e-11
      Linear solve converged due to CONVERGED_RTOL iterations 15
   14 SNES Function norm 2.358346437748e-12
    Nonlinear solve converged due to CONVERGED_SNORM_RELATIVE iterations 14
      TSAdapt none beuler 0: step   8 accepted t=4          + 5.000e-01 dt=5.000e-01 
9 TS dt 0.5 time 4.5
    0 SNES Function norm 2.499137720632e-03
      Linear solve converged due to CONVERGED_RTOL iterations 16
    1 SNES Function norm 5.182863842206e-04
      Linear solve converged due to CONVERGED_RTOL iterations 17
    2 SNES Function norm 1.192269555236e-04
      Linear solve converged due to CONVERGED_RTOL iterations 14
    3 SNES Function norm 2.709919232744e-05
      Linear solve converged due to CONVERGED_RTOL iterations 15
    4 SNES Function norm 6.127748026718e-06
      Linear solve converged due to CONVERGED_RTOL iterations 16
    5 SNES Function norm 1.382590170632e-06
      Linear solve converged due to CONVERGED_RTOL iterations 15
    6 SNES Function norm 3.116608190465e-07
      Linear solve converged due to CONVERGED_RTOL iterations 18
    7 SNES Function norm 7.022676992918e-08
      Linear solve converged due to CONVERGED_RTOL iterations 18
    8 SNES Function norm 1.582121667024e-08
      Linear solve converged due to CONVERGED_RTOL iterations 18
    9 SNES Function norm 3.564050700732e-09
      Linear solve converged due to CONVERGED_RTOL iterations 18
   10 SNES Function norm 8.028266518048e-10
      Linear solve converged due to CONVERGED_RTOL iterations 15
   11 SNES Function norm 1.808378164515e-10
      Linear solve converged due to CONVERGED_RTOL iterations 14
   12 SNES Function norm 4.073760622446e-11
      Linear solve converged due to CONVERGED_RTOL iterations 14
   13 SNES Function norm 9.175524563194e-12
      Linear solve converged due to CONVERGED_RTOL iterations 17
   14 SNES Function norm 2.066707722634e-12
    Nonlinear solve converged due to CONVERGED_SNORM_RELATIVE iterations 14
      TSAdapt none beuler 0: step   9 accepted t=4.5        + 5.000e-01 dt=5.000e-01 
10 TS dt 0.5 time 5.
TS Object: 1 MPI process
  type: beuler
  maximum steps=10
  maximum time=100.
  total number of I function evaluations=173
  total number of I Jacobian evaluations=162
  total number of RHS function evaluations=173
  total number of nonlinear solver iterations=147
  total number of linear solver iterations=2290
  total number of nonlinear solve failures=0
  total number of rejected steps=0
  using relative error tolerance of 0.01,   using absolute error tolerance of 0.0001
  TSAdapt Object: 1 MPI process
    type: none
  SNES Object: 1 MPI process
    type: newtonls
    maximum iterations=50, maximum function evaluations=10000
    tolerances: relative=1e-14, absolute=1e-50, solution=1e-14
    total number of linear solver iterations=225
    total number of function evaluations=15
    norm schedule ALWAYS
    SNESLineSearch Object: 1 MPI process
      type: basic
      maxstep=1.000000e+08, minlambda=1.000000e-12
      tolerances: relative=1.000000e-08, absolute=1.000000e-15, lambda=1.000000e-08
      maximum iterations=40
    KSP Object: 1 MPI process
      type: tfqmr
      maximum iterations=100, initial guess is zero
      tolerances: relative=1e-08, absolute=1e-50, divergence=10000.
      left preconditioning
      using PRECONDITIONED norm type for convergence test
    PC Object: 1 MPI process
      type: jacobi
        type DIAGONAL
      linear system matrix = precond matrix:
      Mat Object: Jacobian 1 MPI process
        type: seqaijkokkos
        rows=167200, cols=167200
        total: nonzeros=9024160, allocated nonzeros=9024160
        total number of mallocs used during MatSetValues calls=0
          not using I-node routines
****************************************************************************************************************************************************************
***                                WIDEN YOUR WINDOW TO 160 CHARACTERS.  Use 'enscript -r -fCourier9' to print this document                                 ***
****************************************************************************************************************************************************************

------------------------------------------------------------------ PETSc Performance Summary: ------------------------------------------------------------------



      ##########################################################
      #                                                        #
      #                       WARNING!!!                       #
      #                                                        #
      #   This code was run with -log_view_gpu_time            #
      #   This provides accurate timing within the GPU kernels #
      #   but can slow down the entire computation by a        #
      #   measurable amount. For fastest runs we recommend     #
      #   not using this option.                               #
      #                                                        #
      ##########################################################


/global/u2/m/madams/batch_gmres_paper/landau_throughput_nsight/perlmutter/./ex2-3 on a arch-perlmutter-opt-gcc-kokkos-cuda-3d named nid200381 with 4 processes and CUDA architecture 80, by madams on Thu Jun 27 14:52:32 2024
Using Petsc Development GIT revision: v3.21.2-329-g0f40c42b27c  GIT Date: 2024-06-27 15:17:08 -0400

                         Max       Max/Min     Avg       Total
Time (sec):           1.312e+02     1.000   1.312e+02
Objects:              0.000e+00     0.000   0.000e+00
Flops:                1.095e+11     1.000   1.095e+11  4.379e+11
Flops/sec:            8.342e+08     1.000   8.342e+08  3.337e+09
MPI Msg Count:        0.000e+00     0.000   0.000e+00  0.000e+00
MPI Msg Len (bytes):  0.000e+00     0.000   0.000e+00  0.000e+00
MPI Reductions:       2.100e+01     1.000

Flop counting convention: 1 flop = 1 real number operation of type (multiply/divide/add/subtract)
                            e.g., VecAXPY() for real vectors of length N --> 2N flops
                            and VecAXPY() for complex vectors of length N --> 8N flops

Summary of Stages:   ----- Time ------  ----- Flop ------  --- Messages ---  -- Message Lengths --  -- Reductions --
                        Avg     %Total     Avg     %Total    Count   %Total     Avg         %Total    Count   %Total
 0:      Main Stage: 1.1314e+02  86.2%  6.9596e+08   0.2%  0.000e+00   0.0%  0.000e+00        0.0%  2.000e+00   9.5%
 1:          Warmup: 1.7725e+00   1.4%  4.0090e+10   9.2%  0.000e+00   0.0%  0.000e+00        0.0%  0.000e+00   0.0%
 2:           Solve: 1.6327e+01  12.4%  3.9715e+11  90.7%  0.000e+00   0.0%  0.000e+00        0.0%  0.000e+00   0.0%

------------------------------------------------------------------------------------------------------------------------
See the 'Profiling' chapter of the users' manual for details on interpreting output.
Phase summary info:
   Count: number of times phase was executed
   Time and Flop: Max - maximum over all processors
                  Ratio - ratio of maximum to minimum over all processors
   Mess: number of messages sent
   AvgLen: average message length (bytes)
   Reduct: number of global reductions
   Global: entire computation
   Stage: stages of a computation. Set stages with PetscLogStagePush() and PetscLogStagePop().
      %T - percent time in this phase         %F - percent flop in this phase
      %M - percent messages in this phase     %L - percent message lengths in this phase
      %R - percent reductions in this phase
   Total Mflop/s: 10e-6 * (sum of flop over all processors)/(max time over all processors)
   GPU Mflop/s: 10e-6 * (sum of flop on GPU over all processors)/(max GPU time over all processors)
   CpuToGpu Count: total number of CPU to GPU copies per processor
   CpuToGpu Size (Mbytes): 10e-6 * (total size of CPU to GPU copies per processor)
   GpuToCpu Count: total number of GPU to CPU copies per processor
   GpuToCpu Size (Mbytes): 10e-6 * (total size of GPU to CPU copies per processor)
   GPU %F: percent flops on GPU in this event
------------------------------------------------------------------------------------------------------------------------
Event                Count      Time (sec)     Flop                              --- Global ---  --- Stage ----  Total   GPU    - CpuToGpu -   - GpuToCpu - GPU
                   Max Ratio  Max     Ratio   Max  Ratio  Mess   AvgLen  Reduct  %T %F %M %L %R  %T %F %M %L %R Mflop/s Mflop/s Count   Size   Count   Size  %F
---------------------------------------------------------------------------------------------------------------------------------------------------------------

--- Event Stage 0: Main Stage

BuildTwoSided        231 1.0 2.6789e-04 1.4 0.00e+00 0.0 0.0e+00 0.0e+00 0.0e+00  0  0  0  0  0   0  0  0  0  0     0       0      0 0.00e+00    0 0.00e+00  0
DMConvert             18 1.0 5.0156e-03 1.1 0.00e+00 0.0 0.0e+00 0.0e+00 0.0e+00  0  0  0  0  0   0  0  0  0  0     0       0      0 0.00e+00    0 0.00e+00  0
DMCreateMat            8 1.0 1.7600e+01 1.0 0.00e+00 0.0 0.0e+00 0.0e+00 0.0e+00 13  0  0  0  0  15  0  0  0  0     0       0      0 0.00e+00    0 0.00e+00  0
DMProjectFunc         57 1.0 5.3647e-01 1.0 4.01e+07 1.0 0.0e+00 0.0e+00 0.0e+00  0  0  0  0  0   0 23  0  0  0   299       0      0 0.00e+00    0 0.00e+00  0
DMPlexInterp         204 1.0 5.9331e-03 1.1 0.00e+00 0.0 0.0e+00 0.0e+00 0.0e+00  0  0  0  0  0   0  0  0  0  0     0       0      0 0.00e+00    0 0.00e+00  0
DMPlexStratify       318 1.0 5.8953e-03 1.1 0.00e+00 0.0 0.0e+00 0.0e+00 0.0e+00  0  0  0  0  0   0  0  0  0  0     0       0      0 0.00e+00    0 0.00e+00  0
DMPlexSymmetrize     318 1.0 4.6373e-04 1.1 0.00e+00 0.0 0.0e+00 0.0e+00 0.0e+00  0  0  0  0  0   0  0  0  0  0     0       0      0 0.00e+00    0 0.00e+00  0
DMPlexPrealloc       102 1.0 1.6056e+01 1.0 0.00e+00 0.0 0.0e+00 0.0e+00 0.0e+00 12  0  0  0  0  14  0  0  0  0     0       0      0 0.00e+00    0 0.00e+00  0
DMPlexJacobianFE       6 1.0 4.1958e+00 1.0 1.08e+08 1.0 0.0e+00 0.0e+00 0.0e+00  3  0  0  0  0   4 62  0  0  0   103       0      0 0.00e+00    0 0.00e+00  0
DMPlexGenerate         3 1.0 6.8841e-04 1.3 0.00e+00 0.0 0.0e+00 0.0e+00 0.0e+00  0  0  0  0  0   0  0  0  0  0     0       0      0 0.00e+00    0 0.00e+00  0
SFSetGraph           444 1.0 1.9575e-04 1.1 0.00e+00 0.0 0.0e+00 0.0e+00 0.0e+00  0  0  0  0  0   0  0  0  0  0     0       0      0 0.00e+00    0 0.00e+00  0
SFSetUp              231 1.0 1.1468e-03 1.3 0.00e+00 0.0 0.0e+00 0.0e+00 0.0e+00  0  0  0  0  0   0  0  0  0  0     0       0      0 0.00e+00    0 0.00e+00  0
SFBcastBegin         474 1.0 1.2442e-03 1.3 0.00e+00 0.0 0.0e+00 0.0e+00 0.0e+00  0  0  0  0  0   0  0  0  0  0     0       0      0 0.00e+00    0 0.00e+00  0
SFBcastEnd           474 1.0 8.2362e-05 1.3 0.00e+00 0.0 0.0e+00 0.0e+00 0.0e+00  0  0  0  0  0   0  0  0  0  0     0       0      0 0.00e+00    0 0.00e+00  0
SFReduceBegin         54 1.0 7.4884e-05 1.1 0.00e+00 0.0 0.0e+00 0.0e+00 0.0e+00  0  0  0  0  0   0  0  0  0  0     0       0      0 0.00e+00    0 0.00e+00  0
SFReduceEnd           54 1.0 7.7050e-06 1.1 0.00e+00 0.0 0.0e+00 0.0e+00 0.0e+00  0  0  0  0  0   0  0  0  0  0     0       0      0 0.00e+00    0 0.00e+00  0
SFCreateEmbed        204 1.0 2.7049e-03 1.3 0.00e+00 0.0 0.0e+00 0.0e+00 0.0e+00  0  0  0  0  0   0  0  0  0  0     0       0      0 0.00e+00    0 0.00e+00  0
SFSectionSF          204 1.0 1.0202e-03 1.3 0.00e+00 0.0 0.0e+00 0.0e+00 0.0e+00  0  0  0  0  0   0  0  0  0  0     0       0      0 0.00e+00    0 0.00e+00  0
SFRemoteOff          204 1.0 6.0006e-03 1.3 0.00e+00 0.0 0.0e+00 0.0e+00 0.0e+00  0  0  0  0  0   0  0  0  0  0     0       0      0 0.00e+00    0 0.00e+00  0
SFPack               528 1.0 5.6795e-05 1.2 0.00e+00 0.0 0.0e+00 0.0e+00 0.0e+00  0  0  0  0  0   0  0  0  0  0     0       0      0 0.00e+00    0 0.00e+00  0
Landau Create          1 1.0 1.0058e+02 1.0 1.05e+08 1.0 0.0e+00 0.0e+00 0.0e+00 76  0  0  0  0  89 60  0  0  0     4       0      0 0.00e+00    0 0.00e+00  0
 GPU ass. setup        1 1.0 8.7365e+01 1.0 3.23e+06 1.0 0.0e+00 0.0e+00 0.0e+00 66  0  0  0  0  77  2  0  0  0     0       0      0 0.00e+00    0 0.00e+00  0
 Build matrix          1 1.0 3.0711e+00 1.0 3.87e+07 1.0 0.0e+00 0.0e+00 0.0e+00  2  0  0  0  0   3 22  0  0  0    50       0      0 0.00e+00    0 0.00e+00  0
 Assembly maps         1 1.0 1.0262e+01 1.1 5.17e+07 1.0 0.0e+00 0.0e+00 0.0e+00  8  0  0  0  0   9 30  0  0  0    20       0      0 0.00e+00    0 0.00e+00  0
Landau Mass mat        1 1.0 1.2345e+01 1.0 6.93e+07 1.0 0.0e+00 0.0e+00 0.0e+00  9  0  0  0  0  11 40  0  0  0    22       0      0 0.00e+00    0 0.00e+00  0
 static IP Data        1 1.0 1.3631e-02 1.1 1.11e+07 1.0 0.0e+00 0.0e+00 0.0e+00  0  0  0  0  0   0  6  0  0  0  3243       0      0 0.00e+00    0 0.00e+00  0
VecCopy                1 1.0 1.3780e-04 1.2 0.00e+00 0.0 0.0e+00 0.0e+00 0.0e+00  0  0  0  0  0   0  0  0  0  0     0       0      0 0.00e+00    0 0.00e+00  0
VecSet                93 1.0 2.1165e-03 1.2 0.00e+00 0.0 0.0e+00 0.0e+00 0.0e+00  0  0  0  0  0   0  0  0  0  0     0       0      0 0.00e+00    0 0.00e+00  0
DualSpaceSetUp        52 1.0 4.3856e-02 1.1 2.36e+04 1.0 0.0e+00 0.0e+00 0.0e+00  0  0  0  0  0   0  0  0  0  0     2       0      0 0.00e+00    0 0.00e+00  0
FESetUp               52 1.0 1.5544e-03 1.1 0.00e+00 0.0 0.0e+00 0.0e+00 0.0e+00  0  0  0  0  0   0  0  0  0  0     0       0      0 0.00e+00    0 0.00e+00  0
MatMult           207960 1.0 1.9876e-02 1.0 1.62e+06 1.0 0.0e+00 0.0e+00 0.0e+00  0  0  0  0  0   0  1  0  0  0   327       0      0 0.00e+00    0 0.00e+00  0
MatLUFactor           30 1.0 5.8678e-04 1.2 3.94e+05 1.0 0.0e+00 0.0e+00 0.0e+00  0  0  0  0  0   0  0  0  0  0  2684       0      0 0.00e+00    0 0.00e+00  0
MatCopy              240 1.0 1.5338e-04 1.0 0.00e+00 0.0 0.0e+00 0.0e+00 0.0e+00  0  0  0  0  0   0  0  0  0  0     0       0      0 0.00e+00    0 0.00e+00  0
MatConvert            60 1.0 5.3673e-04 1.0 0.00e+00 0.0 0.0e+00 0.0e+00 0.0e+00  0  0  0  0  0   0  0  0  0  0     0       0      0 0.00e+00    0 0.00e+00  0
MatAssemblyBegin    1074 1.0 1.1632e-04 1.1 0.00e+00 0.0 0.0e+00 0.0e+00 0.0e+00  0  0  0  0  0   0  0  0  0  0     0       0      0 0.00e+00    0 0.00e+00  0
MatAssemblyEnd      1074 1.0 1.7921e-01 1.2 0.00e+00 0.0 0.0e+00 0.0e+00 0.0e+00  0  0  0  0  0   0  0  0  0  0     0       0      0 0.00e+00    0 0.00e+00  0
MatGetRowIJ            9 1.0 3.0690e-06 1.3 0.00e+00 0.0 0.0e+00 0.0e+00 0.0e+00  0  0  0  0  0   0  0  0  0  0     0       0      0 0.00e+00    0 0.00e+00  0
MatZeroEntries         6 1.0 1.6681e-04 1.2 0.00e+00 0.0 0.0e+00 0.0e+00 0.0e+00  0  0  0  0  0   0  0  0  0  0     0       0      0 0.00e+00    0 0.00e+00  0
MatMatSolve          240 1.0 1.6966e-03 1.0 9.27e+06 1.0 0.0e+00 0.0e+00 0.0e+00  0  0  0  0  0   0  5  0  0  0 21863       0      0 0.00e+00    0 0.00e+00  0
MatSetPreallCOO      175 1.0 5.6023e+00 1.0 0.00e+00 0.0 0.0e+00 0.0e+00 0.0e+00  4  0  0  0  0   5  0  0  0  0     0       0      0 0.00e+00    0 0.00e+00  0
MatSetValuesCOO      174 1.0 2.4778e-04 1.1 0.00e+00 0.0 0.0e+00 0.0e+00 0.0e+00  0  0  0  0  0   0  0  0  0  0     0       0      0 0.00e+00    0 0.00e+00  0
DCtxCreate             1 1.0 2.1401e-05 1.6 0.00e+00 0.0 0.0e+00 0.0e+00 0.0e+00  0  0  0  0  0   0  0  0  0  0     0       0      0 0.00e+00    0 0.00e+00  0
DCtxDestroy            1 1.0 2.8205e-05 1.2 0.00e+00 0.0 0.0e+00 0.0e+00 0.0e+00  0  0  0  0  0   0  0  0  0  0     0       0      0 0.00e+00    0 0.00e+00  0
DCtxSetUp              1 1.0 4.6419e-05 1.7 0.00e+00 0.0 0.0e+00 0.0e+00 0.0e+00  0  0  0  0  0   0  0  0  0  0     0       0      0 0.00e+00    0 0.00e+00  0
DCtxSetDevice          1 1.0 4.0839e-05 1.7 0.00e+00 0.0 0.0e+00 0.0e+00 0.0e+00  0  0  0  0  0   0  0  0  0  0     0       0      0 0.00e+00    0 0.00e+00  0

--- Event Stage 1: Warmup

Landau Operator       31 1.0 1.6170e+00 1.0 5.78e+08 1.0 0.0e+00 0.0e+00 0.0e+00  1  1  0  0  0  91  6  0  0  0  1429    1433      0 0.00e+00    0 0.00e+00  100
Landau Jacobian       16 1.0 1.4852e+00 1.0 5.78e+08 1.0 0.0e+00 0.0e+00 0.0e+00  1  1  0  0  0  84  6  0  0  0  1555    1560      0 0.00e+00    0 0.00e+00  100
Landau Mass           15 1.0 1.3182e-01 1.0 0.00e+00 0.0 0.0e+00 0.0e+00 0.0e+00  0  0  0  0  0   7  0  0  0  0     0       0      0 0.00e+00    0 0.00e+00  0
 Preamble             31 1.0 1.8377e-04 2.5 0.00e+00 0.0 0.0e+00 0.0e+00 0.0e+00  0  0  0  0  0   0  0  0  0  0     0       0      0 0.00e+00    0 0.00e+00  0
 dynamic IP-Jac       32 1.0 2.6742e-05 1.4 0.00e+00 0.0 0.0e+00 0.0e+00 0.0e+00  0  0  0  0  0   0  0  0  0  0     0       0      0 0.00e+00    0 0.00e+00  0
 Kernel-init          31 1.0 7.3697e-04 1.0 0.00e+00 0.0 0.0e+00 0.0e+00 0.0e+00  0  0  0  0  0   0  0  0  0  0     0       0      0 0.00e+00    0 0.00e+00  0
 Jac-f-df (GPU)       16 1.0 1.0349e-02 1.0 0.00e+00 0.0 0.0e+00 0.0e+00 0.0e+00  0  0  0  0  0   1  0  0  0  0     0       0      0 0.00e+00    0 0.00e+00  0
 J Kernel (GPU)       16 1.0 1.4055e+00 1.0 0.00e+00 0.0 0.0e+00 0.0e+00 0.0e+00  1  0  0  0  0  79  0  0  0  0     0       0      0 0.00e+00    0 0.00e+00  0
 M Kernel (GPU)       15 1.0 8.3399e-02 1.0 0.00e+00 0.0 0.0e+00 0.0e+00 0.0e+00  0  0  0  0  0   5  0  0  0  0     0       0      0 0.00e+00    0 0.00e+00  0
VecDot               462 1.0 1.4902e-02 1.0 1.54e+08 1.0 0.0e+00 0.0e+00 0.0e+00  0  0  0  0  0   1  2  0  0  0 41470   58176      0 0.00e+00    0 0.00e+00  100
VecNorm              247 1.0 7.7829e-03 1.0 8.26e+07 1.0 0.0e+00 0.0e+00 0.0e+00  0  0  0  0  0   0  1  0  0  0 42450   59903      0 0.00e+00    0 0.00e+00  100
VecCopy               94 1.0 2.6049e-03 1.2 0.00e+00 0.0 0.0e+00 0.0e+00 0.0e+00  0  0  0  0  0   0  0  0  0  0     0       0      0 0.00e+00    0 0.00e+00  0
VecSet                31 1.0 7.1116e-04 1.2 0.00e+00 0.0 0.0e+00 0.0e+00 0.0e+00  0  0  0  0  0   0  0  0  0  0     0       0      0 0.00e+00    0 0.00e+00  0
VecAXPY              922 1.0 1.7794e-02 1.1 3.08e+08 1.0 0.0e+00 0.0e+00 0.0e+00  0  0  0  0  0   1  3  0  0  0 69307   135491      0 0.00e+00    0 0.00e+00  100
VecAYPX              443 1.0 7.9970e-03 1.0 1.48e+08 1.0 0.0e+00 0.0e+00 0.0e+00  0  0  0  0  0   0  1  0  0  0 74098   154803      0 0.00e+00    0 0.00e+00  100
VecAXPBYCZ            17 1.0 4.3775e-03 1.1 1.42e+07 1.0 0.0e+00 0.0e+00 0.0e+00  0  0  0  0  0   0  0  0  0  0 12987   13688      0 0.00e+00    0 0.00e+00  100
VecWAXPY             909 1.0 1.8999e-02 1.0 3.04e+08 1.0 0.0e+00 0.0e+00 0.0e+00  0  0  0  0  0   1  3  0  0  0 63997   116136      0 0.00e+00    0 0.00e+00  100
VecPointwiseMult     477 1.0 1.2182e-02 1.0 7.98e+07 1.0 0.0e+00 0.0e+00 0.0e+00  0  0  0  0  0   1  1  0  0  0 26188   42940      0 0.00e+00    0 0.00e+00  100
VecReduceArith        45 1.0 1.4882e-03 1.1 1.50e+07 1.0 0.0e+00 0.0e+00 0.0e+00  0  0  0  0  0   0  0  0  0  0 40447   56539      0 0.00e+00    0 0.00e+00  100
VecReduceComm         15 1.0 6.7400e-06 1.8 0.00e+00 0.0 0.0e+00 0.0e+00 0.0e+00  0  0  0  0  0   0  0  0  0  0     0       0      0 0.00e+00    0 0.00e+00  0
MatMult              478 1.0 6.2184e-02 1.0 8.63e+09 1.0 0.0e+00 0.0e+00 0.0e+00  0  8  0  0  0   3 86  0  0  0 554943   599826      0 0.00e+00    0 0.00e+00  100
MatMultAdd            16 1.0 8.1548e-03 1.1 2.89e+08 1.0 0.0e+00 0.0e+00 0.0e+00  0  0  0  0  0   0  3  0  0  0 141646   144734      0 0.00e+00    0 0.00e+00  100
MatAssemblyBegin      62 1.0 9.6570e-06 1.3 0.00e+00 0.0 0.0e+00 0.0e+00 0.0e+00  0  0  0  0  0   0  0  0  0  0     0       0      0 0.00e+00    0 0.00e+00  0
MatAssemblyEnd        62 1.0 2.4749e-03 1.1 0.00e+00 0.0 0.0e+00 0.0e+00 0.0e+00  0  0  0  0  0   0  0  0  0  0     0       0      0 0.00e+00    0 0.00e+00  0
MatZeroEntries        16 1.0 1.7842e-04 1.4 0.00e+00 0.0 0.0e+00 0.0e+00 0.0e+00  0  0  0  0  0   0  0  0  0  0     0       0      0 0.00e+00    0 0.00e+00  0
MatView                1 0.0 4.2052e-05 0.0 0.00e+00 0.0 0.0e+00 0.0e+00 0.0e+00  0  0  0  0  0   0  0  0  0  0     0       0      0 0.00e+00    0 0.00e+00  0
MatSetValuesCOO       31 1.0 1.0779e-01 1.0 0.00e+00 0.0 0.0e+00 0.0e+00 0.0e+00  0  0  0  0  0   6  0  0  0  0     0       0      0 0.00e+00    0 0.00e+00  0
TSStep                 1 1.0 1.7734e+00 1.0 1.00e+10 1.0 0.0e+00 0.0e+00 0.0e+00  1  9  0  0  0 100 100  0  0  0 22606   23312      0 0.00e+00    0 0.00e+00  100
TSFunctionEval        16 1.0 1.4874e+00 1.0 5.83e+08 1.0 0.0e+00 0.0e+00 0.0e+00  1  1  0  0  0  84  6  0  0  0  1568    1573      0 0.00e+00    0 0.00e+00  100
TSJacobianEval        15 1.0 1.3183e-01 1.0 0.00e+00 0.0 0.0e+00 0.0e+00 0.0e+00  0  0  0  0  0   7  0  0  0  0     0       0      0 0.00e+00    0 0.00e+00  0
KSPSetUp              15 1.0 2.1480e-03 1.2 0.00e+00 0.0 0.0e+00 0.0e+00 0.0e+00  0  0  0  0  0   0  0  0  0  0     0       0      0 0.00e+00    0 0.00e+00  0
KSPSolve              15 1.0 1.4195e-01 1.0 9.40e+09 1.0 0.0e+00 0.0e+00 0.0e+00  0  9  0  0  0   8 94  0  0  0 265008   370395      0 0.00e+00    0 0.00e+00  100
SNESSolve              1 1.0 1.7726e+00 1.0 1.00e+10 1.0 0.0e+00 0.0e+00 0.0e+00  1  9  0  0  0 100 100  0  0  0 22613   23312      0 0.00e+00    0 0.00e+00  100
SNESSetUp              1 1.0 1.2610e-04 1.1 0.00e+00 0.0 0.0e+00 0.0e+00 0.0e+00  0  0  0  0  0   0  0  0  0  0     0       0      0 0.00e+00    0 0.00e+00  0
SNESFunctionEval      16 1.0 1.4914e+00 1.0 5.96e+08 1.0 0.0e+00 0.0e+00 0.0e+00  1  1  0  0  0  84  6  0  0  0  1599    1605      0 0.00e+00    0 0.00e+00  100
SNESJacobianEval      15 1.0 1.3185e-01 1.0 0.00e+00 0.0 0.0e+00 0.0e+00 0.0e+00  0  0  0  0  0   7  0  0  0  0     0       0      0 0.00e+00    0 0.00e+00  0
SNESLineSearch        15 1.0 1.3826e+00 1.0 5.79e+08 1.0 0.0e+00 0.0e+00 0.0e+00  1  1  0  0  0  78  6  0  0  0  1675    1679      0 0.00e+00    0 0.00e+00  100
PCSetUp               15 1.0 4.4883e-03 1.2 0.00e+00 0.0 0.0e+00 0.0e+00 0.0e+00  0  0  0  0  0   0  0  0  0  0     0       0      0 0.00e+00    0 0.00e+00  0
PCApply              477 1.0 1.3217e-02 1.0 7.98e+07 1.0 0.0e+00 0.0e+00 0.0e+00  0  0  0  0  0   1  1  0  0  0 24137   42761      0 0.00e+00    0 0.00e+00  100

--- Event Stage 2: Solve

Landau Operator      304 1.0 1.4902e+01 1.0 5.67e+09 1.0 0.0e+00 0.0e+00 0.0e+00 11  5  0  0  0  91  6  0  0  0  1521    1524      0 0.00e+00    0 0.00e+00  100
Landau Jacobian      157 1.0 1.3612e+01 1.0 5.67e+09 1.0 0.0e+00 0.0e+00 0.0e+00 10  5  0  0  0  83  6  0  0  0  1665    1668      0 0.00e+00    0 0.00e+00  100
Landau Mass          147 1.0 1.2895e+00 1.0 0.00e+00 0.0 0.0e+00 0.0e+00 0.0e+00  1  0  0  0  0   8  0  0  0  0     0       0      0 0.00e+00    0 0.00e+00  0
 Preamble            295 1.0 6.2482e-04 1.1 0.00e+00 0.0 0.0e+00 0.0e+00 0.0e+00  0  0  0  0  0   0  0  0  0  0     0       0      0 0.00e+00    0 0.00e+00  0
 dynamic IP-Jac      296 1.0 1.2980e-04 1.1 0.00e+00 0.0 0.0e+00 0.0e+00 0.0e+00  0  0  0  0  0   0  0  0  0  0     0       0      0 0.00e+00    0 0.00e+00  0
 Kernel-init         295 1.0 6.9843e-03 1.0 0.00e+00 0.0 0.0e+00 0.0e+00 0.0e+00  0  0  0  0  0   0  0  0  0  0     0       0      0 0.00e+00    0 0.00e+00  0
 Jac-f-df (GPU)      148 1.0 9.0240e-02 1.0 0.00e+00 0.0 0.0e+00 0.0e+00 0.0e+00  0  0  0  0  0   1  0  0  0  0     0       0      0 0.00e+00    0 0.00e+00  0
 J Kernel (GPU)      148 1.0 1.2994e+01 1.0 0.00e+00 0.0 0.0e+00 0.0e+00 0.0e+00 10  0  0  0  0  80  0  0  0  0     0       0      0 0.00e+00    0 0.00e+00  0
 M Kernel (GPU)      147 1.0 8.1620e-01 1.0 0.00e+00 0.0 0.0e+00 0.0e+00 0.0e+00  1  0  0  0  0   5  0  0  0  0     0       0      0 0.00e+00    0 0.00e+00  0
VecDot              4580 1.0 1.4409e-01 1.0 1.53e+09 1.0 0.0e+00 0.0e+00 0.0e+00  0  1  0  0  0   1  2  0  0  0 42517   60195      0 0.00e+00    0 0.00e+00  100
VecNorm             2447 1.0 7.4866e-02 1.0 8.18e+08 1.0 0.0e+00 0.0e+00 0.0e+00  0  1  0  0  0   0  1  0  0  0 43719   62434      0 0.00e+00    0 0.00e+00  100
VecCopy              912 1.0 2.0341e-02 1.0 0.00e+00 0.0 0.0e+00 0.0e+00 0.0e+00  0  0  0  0  0   0  0  0  0  0     0       0      0 0.00e+00    0 0.00e+00  0
VecSet               294 1.0 5.7404e-03 1.0 0.00e+00 0.0 0.0e+00 0.0e+00 0.0e+00  0  0  0  0  0   0  0  0  0  0     0       0      0 0.00e+00    0 0.00e+00  0
VecAXPY             9128 1.0 1.6343e-01 1.0 3.05e+09 1.0 0.0e+00 0.0e+00 0.0e+00  0  3  0  0  0   1  3  0  0  0 74711   157468      0 0.00e+00    0 0.00e+00  100
VecAYPX             4381 1.0 7.8479e-02 1.0 1.47e+09 1.0 0.0e+00 0.0e+00 0.0e+00  0  1  0  0  0   0  1  0  0  0 74670   156377      0 0.00e+00    0 0.00e+00  100
VecAXPBYCZ           167 1.0 4.1125e-03 1.1 1.40e+08 1.0 0.0e+00 0.0e+00 0.0e+00  0  0  0  0  0   0  0  0  0  0 135794   239459      0 0.00e+00    0 0.00e+00  100
VecWAXPY            9013 1.0 1.8671e-01 1.0 3.01e+09 1.0 0.0e+00 0.0e+00 0.0e+00  0  3  0  0  0   1  3  0  0  0 64571   117813      0 0.00e+00    0 0.00e+00  100
VecPointwiseMult    4727 1.0 1.1993e-01 1.0 7.90e+08 1.0 0.0e+00 0.0e+00 0.0e+00  0  1  0  0  0   1  1  0  0  0 26361   43298      0 0.00e+00    0 0.00e+00  100
VecReduceArith       441 1.0 1.3608e-02 1.0 1.47e+08 1.0 0.0e+00 0.0e+00 0.0e+00  0  0  0  0  0   0  0  0  0  0 43347   61829      0 0.00e+00    0 0.00e+00  100
VecReduceComm        147 1.0 4.0389e-05 1.1 0.00e+00 0.0 0.0e+00 0.0e+00 0.0e+00  0  0  0  0  0   0  0  0  0  0     0       0      0 0.00e+00    0 0.00e+00  0
MatMult             4737 1.0 6.0914e-01 1.0 8.55e+10 1.0 0.0e+00 0.0e+00 0.0e+00  0 78  0  0  0   4 86  0  0  0 561417   606738      0 0.00e+00    0 0.00e+00  100
MatMultAdd           157 1.0 2.1587e-02 1.0 2.83e+09 1.0 0.0e+00 0.0e+00 0.0e+00  0  3  0  0  0   0  3  0  0  0 525046   566790      0 0.00e+00    0 0.00e+00  100
MatAssemblyBegin     590 1.0 7.7675e-05 1.3 0.00e+00 0.0 0.0e+00 0.0e+00 0.0e+00  0  0  0  0  0   0  0  0  0  0     0       0      0 0.00e+00    0 0.00e+00  0
MatAssemblyEnd       590 1.0 2.3340e-04 1.0 0.00e+00 0.0 0.0e+00 0.0e+00 0.0e+00  0  0  0  0  0   0  0  0  0  0     0       0      0 0.00e+00    0 0.00e+00  0
MatZeroEntries       148 1.0 1.0717e-03 1.1 0.00e+00 0.0 0.0e+00 0.0e+00 0.0e+00  0  0  0  0  0   0  0  0  0  0     0       0      0 0.00e+00    0 0.00e+00  0
MatView                1 0.0 3.4828e-05 0.0 0.00e+00 0.0 0.0e+00 0.0e+00 0.0e+00  0  0  0  0  0   0  0  0  0  0     0       0      0 0.00e+00    0 0.00e+00  0
MatSetValuesCOO      295 1.0 9.4842e-01 1.0 0.00e+00 0.0 0.0e+00 0.0e+00 0.0e+00  1  0  0  0  0   6  0  0  0  0     0       0      0 0.00e+00    0 0.00e+00  0
TSStep                10 1.0 1.6340e+01 1.0 9.93e+10 1.0 0.0e+00 0.0e+00 0.0e+00 12 91  0  0  0 100 100  0  0  0 24305   25003      0 0.00e+00    0 0.00e+00  100
TSFunctionEval       157 1.0 1.3616e+01 1.0 5.72e+09 1.0 0.0e+00 0.0e+00 0.0e+00 10  5  0  0  0  83  6  0  0  0  1680    1683      0 0.00e+00    0 0.00e+00  100
TSJacobianEval       147 1.0 1.2896e+00 1.0 0.00e+00 0.0 0.0e+00 0.0e+00 0.0e+00  1  0  0  0  0   8  0  0  0  0     0       0      0 0.00e+00    0 0.00e+00  0
KSPSetUp             147 1.0 3.0512e-05 1.2 0.00e+00 0.0 0.0e+00 0.0e+00 0.0e+00  0  0  0  0  0   0  0  0  0  0     0       0      0 0.00e+00    0 0.00e+00  0
KSPSolve             147 1.0 1.3847e+00 1.0 9.32e+10 1.0 0.0e+00 0.0e+00 0.0e+00  1 85  0  0  0   8 94  0  0  0 269292   374206      0 0.00e+00    0 0.00e+00  100
SNESSolve             10 1.0 1.6339e+01 1.0 9.93e+10 1.0 0.0e+00 0.0e+00 0.0e+00 12 91  0  0  0 100 100  0  0  0 24304   25001      0 0.00e+00    0 0.00e+00  100
SNESFunctionEval     157 1.0 1.3620e+01 1.0 5.85e+09 1.0 0.0e+00 0.0e+00 0.0e+00 10  5  0  0  0  83  6  0  0  0  1718    1721      0 0.00e+00    0 0.00e+00  100
SNESJacobianEval     147 1.0 1.2898e+00 1.0 0.00e+00 0.0 0.0e+00 0.0e+00 0.0e+00  1  0  0  0  0   8  0  0  0  0     0       0      0 0.00e+00    0 0.00e+00  0
SNESLineSearch       147 1.0 1.3545e+01 1.0 5.67e+09 1.0 0.0e+00 0.0e+00 0.0e+00 10  5  0  0  0  83  6  0  0  0  1676    1679      0 0.00e+00    0 0.00e+00  100
PCSetUp              147 1.0 4.0607e-02 1.0 0.00e+00 0.0 0.0e+00 0.0e+00 0.0e+00  0  0  0  0  0   0  0  0  0  0     0       0      0 0.00e+00    0 0.00e+00  0
PCApply             4727 1.0 1.2146e-01 1.0 7.90e+08 1.0 0.0e+00 0.0e+00 0.0e+00  0  1  0  0  0   1  1  0  0  0 26028   43298      0 0.00e+00    0 0.00e+00  100
---------------------------------------------------------------------------------------------------------------------------------------------------------------

Object Type          Creations   Destructions. Reports information only for process 0.

--- Event Stage 0: Main Stage

           Container   497            497
    Distributed Mesh   798            798
            DM Label  1849           1849
          Quadrature  2062           2062
           Index Set 12096          12096
   IS L to G Mapping  1691           1691
             Section  3001           3001
   Star Forest Graph  2420           2420
     Discrete System  1277           1277
           Weak Form  1277           1277
    GraphPartitioner   327            327
              Vector   458            478
       p4est logging     1              1
        Linear Space   104            104
          Dual Space   366            366
            FE Space    76             76
              Matrix  1152           1152
  PetscDeviceContext     1              0
       Field over DM    18             18
             TSAdapt     1              1
                  TS     1              1
                DMTS     1              1
                SNES     1              1
              DMSNES     3              3
      SNESLineSearch     1              1
       Krylov Solver     1              1
     DMKSP interface     0              1
      Preconditioner     1              1
              Viewer     1              1

--- Event Stage 1: Warmup

              Vector    20              0
     DMKSP interface     1              0

--- Event Stage 2: Solve

========================================================================================================================
Average time to get PetscTime(): 3.4e-08
Average time for MPI_Barrier(): 2.1662e-06
Average time for zero size MPI_Send(): 1.51417e-05
#PETSc Option Table entries:
-dim 3 # (source: command line)
-dm_landau_amr_levels_max 2,2,2 # (source: command line)
-dm_landau_batch_size 16 # (source: command line)
-dm_landau_device_type kokkos # (source: file)
-dm_landau_Ez 0 # (source: file)
-dm_landau_ion_charges 1,2,3,4,5,6,7,8,9 # (source: file)
-dm_landau_ion_masses 2,182,182,182,182,182,182,182,182 # (source: file)
-dm_landau_n 1.0000044,1,1e-7,1e-7,1e-7,1e-7,1e-7,1e-7,1e-7,1e-7 # (source: file)
-dm_landau_num_species_grid 1,1,8 # (source: file)
-dm_landau_thermal_temps 2,1,1,1,1,1,1,1,1,1 # (source: file)
-dm_landau_type p8est # (source: command line)
-dm_landau_verbose 1 # (source: command line)
-dm_mat_type aijkokkos # (source: file)
-dm_preallocate_only false # (source: code)
-dm_vec_type kokkos # (source: file)
-ex2_test_type none # (source: file)
-ksp_converged_reason # (source: command line)
-ksp_max_it 100 # (source: command line)
-ksp_rtol 1.e-8 # (source: command line)
-ksp_type tfqmr # (source: command line)
-log_view # (source: command line)
-log_view_gpu_time # (source: command line)
-options_left # (source: command line)
-pc_type jacobi # (source: command line)
-petscspace_degree 2 # (source: command line)
-snes_converged_reason # (source: file)
-snes_linesearch_type basic # (source: file)
-snes_max_it 50 # (source: file)
-snes_monitor # (source: file)
-snes_rtol 1e-14 # (source: file)
-snes_stol 1e-14 # (source: file)
-ts_adapt_clip .5,1.1 # (source: file)
-ts_adapt_dt_max 1 # (source: file)
-ts_adapt_monitor # (source: file)
-ts_adapt_scale_solve_failed 0.5 # (source: file)
-ts_adapt_time_step_increase_delay 5 # (source: file)
-ts_dt .5 # (source: file)
-ts_exact_final_time stepover # (source: file)
-ts_max_snes_failures -1 # (source: file)
-ts_max_steps 10 # (source: file)
-ts_max_time 100 # (source: file)
-ts_monitor # (source: file)
-ts_rtol 1e-2 # (source: file)
-ts_type beuler # (source: file)
-ts_view # (source: command line)
-use_gpu_aware_mpi 0 # (source: file)
#End of PETSc Option Table entries
Compiled without FORTRAN kernels
Compiled with full precision matrices (default)
sizeof(short) 2 sizeof(int) 4 sizeof(long) 8 sizeof(void*) 8 sizeof(PetscScalar) 8 sizeof(PetscInt) 4
Configure options: --CFLAGS="   -g -DPETSC_HAVE_CUDA_NVTX" --CXXFLAGS=" -g -DPETSC_HAVE_CUDA_NVTX" --CUDAFLAGS="-g -Xcompiler -rdynamic" --LIBS=-lnvToolsExt --with-cc=cc --with-cxx=CC --with-fc=ftn --with-fortran-bindings=0 --COPTFLAGS="   -O" --CXXOPTFLAGS=" -O" --FOPTFLAGS="   -O" --with-dmlandau-3d --with-debugging=0 --with-x=0 --with-cuda=1 --with-cuda-arch=80 --with-mpiexec=srun --with-batch=0 --download-p4est=1 --with-zlib=1 --download-kokkos --download-kokkos-kernels --with-kokkos-kernels-tpl=0 --with-make-np=8 PETSC_ARCH=arch-perlmutter-opt-gcc-kokkos-cuda-3d
-----------------------------------------
Libraries compiled on 2024-06-27 20:01:11 on login19 
Machine characteristics: Linux-5.14.21-150400.24.81_12.0.87-cray_shasta_c-x86_64-with-glibc2.3.4
Using PETSc directory: /global/u2/m/madams/petsc
Using PETSc arch: arch-perlmutter-opt-gcc-kokkos-cuda-3d
-----------------------------------------

Using C compiler: cc -g -DPETSC_HAVE_CUDA_NVTX -fPIC -O  
Using Fortran compiler: ftn  -fPIC -Wall -ffree-line-length-none -ffree-line-length-0 -Wno-lto-type-mismatch -Wno-unused-dummy-argument -O    
-----------------------------------------

Using include paths: -I/global/u2/m/madams/petsc/include -I/global/u2/m/madams/petsc/arch-perlmutter-opt-gcc-kokkos-cuda-3d/include -I/opt/nvidia/hpc_sdk/Linux_x86_64/23.9/cuda/12.2/include -I/opt/nvidia/hpc_sdk/Linux_x86_64/23.9/math_libs/12.2/include
-----------------------------------------

Using C linker: cc
Using Fortran linker: ftn
Using libraries: -Wl,-rpath,/global/u2/m/madams/petsc/arch-perlmutter-opt-gcc-kokkos-cuda-3d/lib -L/global/u2/m/madams/petsc/arch-perlmutter-opt-gcc-kokkos-cuda-3d/lib -lpetsc -Wl,-rpath,/global/u2/m/madams/petsc/arch-perlmutter-opt-gcc-kokkos-cuda-3d/lib -L/global/u2/m/madams/petsc/arch-perlmutter-opt-gcc-kokkos-cuda-3d/lib -Wl,-rpath,/opt/nvidia/hpc_sdk/Linux_x86_64/23.9/math_libs/12.2/lib64 -L/opt/nvidia/hpc_sdk/Linux_x86_64/23.9/math_libs/12.2/lib64 -Wl,-rpath,/opt/nvidia/hpc_sdk/Linux_x86_64/23.9/cuda/12.2/lib64 -L/opt/nvidia/hpc_sdk/Linux_x86_64/23.9/cuda/12.2/lib64 -L/opt/nvidia/hpc_sdk/Linux_x86_64/23.9/cuda/12.2/lib64/stubs -Wl,-rpath,/opt/cray/pe/mpich/8.1.28/ofi/gnu/12.3/lib -L/opt/cray/pe/mpich/8.1.28/ofi/gnu/12.3/lib -Wl,-rpath,/opt/cray/pe/mpich/8.1.28/gtl/lib -L/opt/cray/pe/mpich/8.1.28/gtl/lib -Wl,-rpath,/opt/cray/pe/libsci/23.12.5/GNU/12.3/x86_64/lib -L/opt/cray/pe/libsci/23.12.5/GNU/12.3/x86_64/lib -Wl,-rpath,/opt/cray/pe/hdf5-parallel/1.12.2.9/gnu/12.3/lib -L/opt/cray/pe/hdf5-parallel/1.12.2.9/gnu/12.3/lib -Wl,-rpath,/opt/nvidia/hpc_sdk/Linux_x86_64/23.9/cuda/12.2/lib64/stubs -Wl,-rpath,/opt/nvidia/hpc_sdk/Linux_x86_64/23.9/cuda/12.2/nvvm/lib64 -L/opt/nvidia/hpc_sdk/Linux_x86_64/23.9/cuda/12.2/nvvm/lib64 -Wl,-rpath,/opt/nvidia/hpc_sdk/Linux_x86_64/23.9/cuda/12.2/extras/CUPTI/lib64 -L/opt/nvidia/hpc_sdk/Linux_x86_64/23.9/cuda/12.2/extras/CUPTI/lib64 -Wl,-rpath,/opt/nvidia/hpc_sdk/Linux_x86_64/23.9/cuda/12.2/extras/Debugger/lib64 -L/opt/nvidia/hpc_sdk/Linux_x86_64/23.9/cuda/12.2/extras/Debugger/lib64 -Wl,-rpath,/opt/cray/pe/dsmml/0.2.2/dsmml/lib -L/opt/cray/pe/dsmml/0.2.2/dsmml/lib -Wl,-rpath,/opt/cray/xpmem/2.6.2-2.5_2.38__gd067c3f.shasta/lib64 -L/opt/cray/xpmem/2.6.2-2.5_2.38__gd067c3f.shasta/lib64 -Wl,-rpath,/usr/lib64/gcc/x86_64-suse-linux/12 -L/usr/lib64/gcc/x86_64-suse-linux/12 -Wl,-rpath,/usr/x86_64-suse-linux/lib -L/usr/x86_64-suse-linux/lib -lkokkoskernels -lkokkoscontainers -lkokkoscore -lkokkossimd -lp4est -lsc -lz -lcufft -lcublas -lcusparse -lcusolver -lcurand -lcudart -lnvToolsExt -lcuda -lnvToolsExt -lcuda -lmpi_gtl_cuda -ldl -lxpmem -lgfortran -lm -lhdf5_hl_parallel -lhdf5_parallel -lcupti -lcudart -lhdf5hl_fortran_parallel -lhdf5_fortran_parallel -lmpifort_gnu_123 -lsci_gnu_123_mpi -lmpi_gnu_123 -lsci_gnu_123 -ldsmml -lgfortran -lquadmath -lpthread -lm -lgcc_s -lstdc++ -lquadmath -lnvToolsExt
-----------------------------------------

#PETSc Option Table entries:
-dim 3 # (source: command line)
-dm_landau_amr_levels_max 2,2,2 # (source: command line)
-dm_landau_batch_size 16 # (source: command line)
-dm_landau_device_type kokkos # (source: file)
-dm_landau_Ez 0 # (source: file)
-dm_landau_ion_charges 1,2,3,4,5,6,7,8,9 # (source: file)
-dm_landau_ion_masses 2,182,182,182,182,182,182,182,182 # (source: file)
-dm_landau_n 1.0000044,1,1e-7,1e-7,1e-7,1e-7,1e-7,1e-7,1e-7,1e-7 # (source: file)
-dm_landau_num_species_grid 1,1,8 # (source: file)
-dm_landau_thermal_temps 2,1,1,1,1,1,1,1,1,1 # (source: file)
-dm_landau_type p8est # (source: command line)
-dm_landau_verbose 1 # (source: command line)
-dm_mat_type aijkokkos # (source: file)
-dm_preallocate_only false # (source: code)
-dm_vec_type kokkos # (source: file)
-ex2_test_type none # (source: file)
-ksp_converged_reason # (source: command line)
-ksp_max_it 100 # (source: command line)
-ksp_rtol 1.e-8 # (source: command line)
-ksp_type tfqmr # (source: command line)
-log_view # (source: command line)
-log_view_gpu_time # (source: command line)
-options_left # (source: command line)
-pc_type jacobi # (source: command line)
-petscspace_degree 2 # (source: command line)
-snes_converged_reason # (source: file)
-snes_linesearch_type basic # (source: file)
-snes_max_it 50 # (source: file)
-snes_monitor # (source: file)
-snes_rtol 1e-14 # (source: file)
-snes_stol 1e-14 # (source: file)
-ts_adapt_clip .5,1.1 # (source: file)
-ts_adapt_dt_max 1 # (source: file)
-ts_adapt_monitor # (source: file)
-ts_adapt_scale_solve_failed 0.5 # (source: file)
-ts_adapt_time_step_increase_delay 5 # (source: file)
-ts_dt .5 # (source: file)
-ts_exact_final_time stepover # (source: file)
-ts_max_snes_failures -1 # (source: file)
-ts_max_steps 10 # (source: file)
-ts_max_time 100 # (source: file)
-ts_monitor # (source: file)
-ts_rtol 1e-2 # (source: file)
-ts_type beuler # (source: file)
-ts_view # (source: command line)
-use_gpu_aware_mpi 0 # (source: file)
#End of PETSc Option Table entries
There are no unused options.
