masses:        e= 9.109e-31; ions in proton mass units:    2.000e+00  1.820e+02 ...
charges:       e=-1.602e-19; charges in elementary units:  1.000e+00  2.000e+00
n:             e:  1.000e+00                           i:  1.000e+00  1.000e-07
thermal T (K): e= 2.321e+07 i= 1.160e+07  1.160e+07. Normalization grid 0: v_0= 1.876e+07 ( 6.256e-02c) n_0= 1.000e+20 t_0= 1.909e-05 64 batched, view batch 0
Domain radius (AMR levels) grid 0: par= 5.000e+00 perp= 5.000e+00 (2) , 1: par= 5.835e-02 perp= 5.835e-02 (2) , 2: par= 6.117e-03 perp= 6.117e-03 (2) 
0) FormLandau 9720 IPs, 360 cells total, Nb=27, Nq=27, dim=3, Tab: Nb=27 Nf=10 Np=27 cdim=3 N=668800 nnz=36096640
0 TS dt 0.5 time 0.
    0 SNES Function norm 1.495720051107e-01
      Linear solve converged due to CONVERGED_RTOL iterations 18
    1 SNES Function norm 4.985673877032e-03
      Linear solve converged due to CONVERGED_RTOL iterations 16
    2 SNES Function norm 8.885293866460e-04
      Linear solve converged due to CONVERGED_RTOL iterations 16
    3 SNES Function norm 1.958721509572e-04
      Linear solve converged due to CONVERGED_RTOL iterations 14
    4 SNES Function norm 4.461918795465e-05
      Linear solve converged due to CONVERGED_RTOL iterations 15
    5 SNES Function norm 1.026353501919e-05
      Linear solve converged due to CONVERGED_RTOL iterations 15
    6 SNES Function norm 2.369302629771e-06
      Linear solve converged due to CONVERGED_RTOL iterations 15
    7 SNES Function norm 5.477298692845e-07
      Linear solve converged due to CONVERGED_RTOL iterations 15
    8 SNES Function norm 1.266990026787e-07
      Linear solve converged due to CONVERGED_RTOL iterations 15
    9 SNES Function norm 2.931506392723e-08
      Linear solve converged due to CONVERGED_RTOL iterations 15
   10 SNES Function norm 6.783537228866e-09
      Linear solve converged due to CONVERGED_RTOL iterations 15
   11 SNES Function norm 1.569786255308e-09
      Linear solve converged due to CONVERGED_RTOL iterations 16
   12 SNES Function norm 3.632822393630e-10
      Linear solve converged due to CONVERGED_RTOL iterations 16
   13 SNES Function norm 8.407242902836e-11
      Linear solve converged due to CONVERGED_RTOL iterations 14
   14 SNES Function norm 1.945434223280e-11
      Linear solve converged due to CONVERGED_RTOL iterations 16
   15 SNES Function norm 4.502104826228e-12
    Nonlinear solve converged due to CONVERGED_SNORM_RELATIVE iterations 15
      TSAdapt none beuler 0: step   0 accepted t=0          + 5.000e-01 dt=5.000e-01 
1 TS dt 0.5 time 0.5
TS Object: 1 MPI process
  type: beuler
  maximum steps=1
  maximum time=100.
  total number of I function evaluations=16
  total number of I Jacobian evaluations=15
  total number of RHS function evaluations=16
  total number of nonlinear solver iterations=15
  total number of linear solver iterations=231
  total number of nonlinear solve failures=0
  total number of rejected steps=0
  using relative error tolerance of 0.01,   using absolute error tolerance of 0.0001
  TSAdapt Object: 1 MPI process
    type: none
  SNES Object: 1 MPI process
    type: newtonls
    maximum iterations=50, maximum function evaluations=10000
    tolerances: relative=1e-14, absolute=1e-50, solution=1e-14
    total number of linear solver iterations=231
    total number of function evaluations=16
    norm schedule ALWAYS
    SNESLineSearch Object: 1 MPI process
      type: basic
      maxstep=1.000000e+08, minlambda=1.000000e-12
      tolerances: relative=1.000000e-08, absolute=1.000000e-15, lambda=1.000000e-08
      maximum iterations=40
    KSP Object: 1 MPI process
      type: tfqmr
      maximum iterations=100, initial guess is zero
      tolerances: relative=1e-08, absolute=1e-50, divergence=10000.
      left preconditioning
      using PRECONDITIONED norm type for convergence test
    PC Object: 1 MPI process
      type: jacobi
        type DIAGONAL
      linear system matrix = precond matrix:
      Mat Object: Jacobian 1 MPI process
        type: seqaijkokkos
        rows=668800, cols=668800
        total: nonzeros=36096640, allocated nonzeros=36096640
        total number of mallocs used during MatSetValues calls=0
          not using I-node routines
0 TS dt 0.5 time 0.
    0 SNES Function norm 1.495720051107e-01
      Linear solve converged due to CONVERGED_RTOL iterations 18
    1 SNES Function norm 4.985673877032e-03
      Linear solve converged due to CONVERGED_RTOL iterations 16
    2 SNES Function norm 8.885293866460e-04
      Linear solve converged due to CONVERGED_RTOL iterations 16
    3 SNES Function norm 1.958721509572e-04
      Linear solve converged due to CONVERGED_RTOL iterations 14
    4 SNES Function norm 4.461918795465e-05
      Linear solve converged due to CONVERGED_RTOL iterations 15
    5 SNES Function norm 1.026353501919e-05
      Linear solve converged due to CONVERGED_RTOL iterations 15
    6 SNES Function norm 2.369302629771e-06
      Linear solve converged due to CONVERGED_RTOL iterations 15
    7 SNES Function norm 5.477298692845e-07
      Linear solve converged due to CONVERGED_RTOL iterations 15
    8 SNES Function norm 1.266990026787e-07
      Linear solve converged due to CONVERGED_RTOL iterations 15
    9 SNES Function norm 2.931506392723e-08
      Linear solve converged due to CONVERGED_RTOL iterations 15
   10 SNES Function norm 6.783537228866e-09
      Linear solve converged due to CONVERGED_RTOL iterations 15
   11 SNES Function norm 1.569786255308e-09
      Linear solve converged due to CONVERGED_RTOL iterations 16
   12 SNES Function norm 3.632822393630e-10
      Linear solve converged due to CONVERGED_RTOL iterations 16
   13 SNES Function norm 8.407242902836e-11
      Linear solve converged due to CONVERGED_RTOL iterations 14
   14 SNES Function norm 1.945434223280e-11
      Linear solve converged due to CONVERGED_RTOL iterations 16
   15 SNES Function norm 4.502104826228e-12
    Nonlinear solve converged due to CONVERGED_SNORM_RELATIVE iterations 15
      TSAdapt none beuler 0: step   0 accepted t=0          + 5.000e-01 dt=5.000e-01 
1 TS dt 0.5 time 0.5
    0 SNES Function norm 1.881335055847e-02
      Linear solve converged due to CONVERGED_RTOL iterations 18
    1 SNES Function norm 2.296117138560e-03
      Linear solve converged due to CONVERGED_RTOL iterations 16
    2 SNES Function norm 5.239803889562e-04
      Linear solve converged due to CONVERGED_RTOL iterations 16
    3 SNES Function norm 1.209384386751e-04
      Linear solve converged due to CONVERGED_RTOL iterations 15
    4 SNES Function norm 2.791531039916e-05
      Linear solve converged due to CONVERGED_RTOL iterations 15
    5 SNES Function norm 6.444125104524e-06
      Linear solve converged due to CONVERGED_RTOL iterations 16
    6 SNES Function norm 1.487867901681e-06
      Linear solve converged due to CONVERGED_RTOL iterations 17
    7 SNES Function norm 3.435718323028e-07
      Linear solve converged due to CONVERGED_RTOL iterations 17
    8 SNES Function norm 7.934023605082e-08
      Linear solve converged due to CONVERGED_RTOL iterations 17
    9 SNES Function norm 1.832234784612e-08
      Linear solve converged due to CONVERGED_RTOL iterations 17
   10 SNES Function norm 4.231309909226e-09
      Linear solve converged due to CONVERGED_RTOL iterations 17
   11 SNES Function norm 9.771833386182e-10
      Linear solve converged due to CONVERGED_RTOL iterations 16
   12 SNES Function norm 2.256725460894e-10
      Linear solve converged due to CONVERGED_RTOL iterations 14
   13 SNES Function norm 5.211462583006e-11
      Linear solve converged due to CONVERGED_RTOL iterations 15
   14 SNES Function norm 1.203690050191e-11
      Linear solve converged due to CONVERGED_RTOL iterations 16
   15 SNES Function norm 2.777143050371e-12
    Nonlinear solve converged due to CONVERGED_SNORM_RELATIVE iterations 15
      TSAdapt none beuler 0: step   1 accepted t=0.5        + 5.000e-01 dt=5.000e-01 
2 TS dt 0.5 time 1.
    0 SNES Function norm 1.025227560152e-02
      Linear solve converged due to CONVERGED_RTOL iterations 17
    1 SNES Function norm 1.794895616746e-03
      Linear solve converged due to CONVERGED_RTOL iterations 16
    2 SNES Function norm 4.261002450453e-04
      Linear solve converged due to CONVERGED_RTOL iterations 16
    3 SNES Function norm 9.927977390667e-05
      Linear solve converged due to CONVERGED_RTOL iterations 15
    4 SNES Function norm 2.295727558560e-05
      Linear solve converged due to CONVERGED_RTOL iterations 15
    5 SNES Function norm 5.293382417983e-06
      Linear solve converged due to CONVERGED_RTOL iterations 15
    6 SNES Function norm 1.219201929460e-06
      Linear solve converged due to CONVERGED_RTOL iterations 18
    7 SNES Function norm 2.806947907604e-07
      Linear solve converged due to CONVERGED_RTOL iterations 18
    8 SNES Function norm 6.461220026574e-08
      Linear solve converged due to CONVERGED_RTOL iterations 18
    9 SNES Function norm 1.487178856679e-08
      Linear solve converged due to CONVERGED_RTOL iterations 18
   10 SNES Function norm 3.422924306894e-09
      Linear solve converged due to CONVERGED_RTOL iterations 15
   11 SNES Function norm 7.878281724098e-10
      Linear solve converged due to CONVERGED_RTOL iterations 14
   12 SNES Function norm 1.813229863606e-10
      Linear solve converged due to CONVERGED_RTOL iterations 14
   13 SNES Function norm 4.173387914016e-11
      Linear solve converged due to CONVERGED_RTOL iterations 18
   14 SNES Function norm 9.603830290268e-12
      Linear solve converged due to CONVERGED_RTOL iterations 16
   15 SNES Function norm 2.206140148844e-12
    Nonlinear solve converged due to CONVERGED_SNORM_RELATIVE iterations 15
      TSAdapt none beuler 0: step   2 accepted t=1          + 5.000e-01 dt=5.000e-01 
3 TS dt 0.5 time 1.5
    0 SNES Function norm 8.154368832261e-03
      Linear solve converged due to CONVERGED_RTOL iterations 16
    1 SNES Function norm 1.640716854953e-03
      Linear solve converged due to CONVERGED_RTOL iterations 16
    2 SNES Function norm 3.889887309111e-04
      Linear solve converged due to CONVERGED_RTOL iterations 16
    3 SNES Function norm 9.046556527349e-05
      Linear solve converged due to CONVERGED_RTOL iterations 15
    4 SNES Function norm 2.086549287108e-05
      Linear solve converged due to CONVERGED_RTOL iterations 15
    5 SNES Function norm 4.796101986246e-06
      Linear solve converged due to CONVERGED_RTOL iterations 18
    6 SNES Function norm 1.100885655444e-06
      Linear solve converged due to CONVERGED_RTOL iterations 15
    7 SNES Function norm 2.525589806178e-07
      Linear solve converged due to CONVERGED_RTOL iterations 15
    8 SNES Function norm 5.792638627103e-08
      Linear solve converged due to CONVERGED_RTOL iterations 15
    9 SNES Function norm 1.328450588550e-08
      Linear solve converged due to CONVERGED_RTOL iterations 17
   10 SNES Function norm 3.046387538473e-09
      Linear solve converged due to CONVERGED_RTOL iterations 18
   11 SNES Function norm 6.985787167094e-10
      Linear solve converged due to CONVERGED_RTOL iterations 14
   12 SNES Function norm 1.601960930982e-10
      Linear solve converged due to CONVERGED_RTOL iterations 15
   13 SNES Function norm 3.673421655422e-11
      Linear solve converged due to CONVERGED_RTOL iterations 15
   14 SNES Function norm 8.421910583439e-12
      Linear solve converged due to CONVERGED_RTOL iterations 14
   15 SNES Function norm 1.934008761272e-12
    Nonlinear solve converged due to CONVERGED_SNORM_RELATIVE iterations 15
      TSAdapt none beuler 0: step   3 accepted t=1.5        + 5.000e-01 dt=5.000e-01 
4 TS dt 0.5 time 2.
    0 SNES Function norm 7.322385252155e-03
      Linear solve converged due to CONVERGED_RTOL iterations 17
    1 SNES Function norm 1.546924336753e-03
      Linear solve converged due to CONVERGED_RTOL iterations 16
    2 SNES Function norm 3.646038523427e-04
      Linear solve converged due to CONVERGED_RTOL iterations 16
    3 SNES Function norm 8.444296532127e-05
      Linear solve converged due to CONVERGED_RTOL iterations 15
    4 SNES Function norm 1.940461246414e-05
      Linear solve converged due to CONVERGED_RTOL iterations 15
    5 SNES Function norm 4.444309795248e-06
      Linear solve converged due to CONVERGED_RTOL iterations 17
    6 SNES Function norm 1.016495517197e-06
      Linear solve converged due to CONVERGED_RTOL iterations 15
    7 SNES Function norm 2.323599966550e-07
      Linear solve converged due to CONVERGED_RTOL iterations 15
    8 SNES Function norm 5.310180684484e-08
      Linear solve converged due to CONVERGED_RTOL iterations 15
    9 SNES Function norm 1.213420841614e-08
      Linear solve converged due to CONVERGED_RTOL iterations 15
   10 SNES Function norm 2.772647383547e-09
      Linear solve converged due to CONVERGED_RTOL iterations 15
   11 SNES Function norm 6.335360310488e-10
      Linear solve converged due to CONVERGED_RTOL iterations 18
   12 SNES Function norm 1.447570952977e-10
      Linear solve converged due to CONVERGED_RTOL iterations 14
   13 SNES Function norm 3.307936922344e-11
      Linear solve converged due to CONVERGED_RTOL iterations 17
   14 SNES Function norm 7.555677089837e-12
      Linear solve converged due to CONVERGED_RTOL iterations 15
   15 SNES Function norm 1.726176836788e-12
    Nonlinear solve converged due to CONVERGED_SNORM_RELATIVE iterations 15
      TSAdapt none beuler 0: step   4 accepted t=2          + 5.000e-01 dt=5.000e-01 
5 TS dt 0.5 time 2.5
    0 SNES Function norm 6.790760141661e-03
      Linear solve converged due to CONVERGED_RTOL iterations 17
    1 SNES Function norm 1.455714674718e-03
      Linear solve converged due to CONVERGED_RTOL iterations 16
    2 SNES Function norm 3.411145973101e-04
      Linear solve converged due to CONVERGED_RTOL iterations 16
    3 SNES Function norm 7.865507969667e-05
      Linear solve converged due to CONVERGED_RTOL iterations 15
    4 SNES Function norm 1.800650885034e-05
      Linear solve converged due to CONVERGED_RTOL iterations 15
    5 SNES Function norm 4.109561981452e-06
      Linear solve converged due to CONVERGED_RTOL iterations 15
    6 SNES Function norm 9.367181509308e-07
      Linear solve converged due to CONVERGED_RTOL iterations 15
    7 SNES Function norm 2.133923013125e-07
      Linear solve converged due to CONVERGED_RTOL iterations 14
    8 SNES Function norm 4.860136750066e-08
      Linear solve converged due to CONVERGED_RTOL iterations 15
    9 SNES Function norm 1.106813680665e-08
      Linear solve converged due to CONVERGED_RTOL iterations 14
   10 SNES Function norm 2.520473606723e-09
      Linear solve converged due to CONVERGED_RTOL iterations 18
   11 SNES Function norm 5.739530353373e-10
      Linear solve converged due to CONVERGED_RTOL iterations 14
   12 SNES Function norm 1.307003962025e-10
      Linear solve converged due to CONVERGED_RTOL iterations 14
   13 SNES Function norm 2.975969934909e-11
      Linear solve converged due to CONVERGED_RTOL iterations 14
   14 SNES Function norm 6.773029621456e-12
      Linear solve converged due to CONVERGED_RTOL iterations 15
   15 SNES Function norm 1.542632688796e-12
    Nonlinear solve converged due to CONVERGED_SNORM_RELATIVE iterations 15
      TSAdapt none beuler 0: step   5 accepted t=2.5        + 5.000e-01 dt=5.000e-01 
6 TS dt 0.5 time 3.
    0 SNES Function norm 6.328375670798e-03
      Linear solve converged due to CONVERGED_RTOL iterations 17
    1 SNES Function norm 1.357006212295e-03
      Linear solve converged due to CONVERGED_RTOL iterations 15
    2 SNES Function norm 3.162968026872e-04
      Linear solve converged due to CONVERGED_RTOL iterations 15
    3 SNES Function norm 7.263135026205e-05
      Linear solve converged due to CONVERGED_RTOL iterations 15
    4 SNES Function norm 1.656870342679e-05
      Linear solve converged due to CONVERGED_RTOL iterations 15
    5 SNES Function norm 3.768970883198e-06
      Linear solve converged due to CONVERGED_RTOL iterations 14
    6 SNES Function norm 8.563427081556e-07
      Linear solve converged due to CONVERGED_RTOL iterations 14
    7 SNES Function norm 1.944664849262e-07
      Linear solve converged due to CONVERGED_RTOL iterations 14
    8 SNES Function norm 4.415175323606e-08
      Linear solve converged due to CONVERGED_RTOL iterations 14
    9 SNES Function norm 1.002330758938e-08
      Linear solve converged due to CONVERGED_RTOL iterations 14
   10 SNES Function norm 2.275392697258e-09
      Linear solve converged due to CONVERGED_RTOL iterations 14
   11 SNES Function norm 5.165300247966e-10
      Linear solve converged due to CONVERGED_RTOL iterations 18
   12 SNES Function norm 1.172529963296e-10
      Linear solve converged due to CONVERGED_RTOL iterations 14
   13 SNES Function norm 2.661578482100e-11
      Linear solve converged due to CONVERGED_RTOL iterations 14
   14 SNES Function norm 6.041883649774e-12
      Linear solve converged due to CONVERGED_RTOL iterations 16
   15 SNES Function norm 1.374461845843e-12
    Nonlinear solve converged due to CONVERGED_SNORM_RELATIVE iterations 15
      TSAdapt none beuler 0: step   6 accepted t=3          + 5.000e-01 dt=5.000e-01 
7 TS dt 0.5 time 3.5
    0 SNES Function norm 5.879454166138e-03
      Linear solve converged due to CONVERGED_RTOL iterations 18
    1 SNES Function norm 1.252041881809e-03
      Linear solve converged due to CONVERGED_RTOL iterations 15
    2 SNES Function norm 2.904311241722e-04
      Linear solve converged due to CONVERGED_RTOL iterations 15
    3 SNES Function norm 6.644104149765e-05
      Linear solve converged due to CONVERGED_RTOL iterations 15
    4 SNES Function norm 1.510745200457e-05
      Linear solve converged due to CONVERGED_RTOL iterations 15
    5 SNES Function norm 3.426255713110e-06
      Linear solve converged due to CONVERGED_RTOL iterations 14
    6 SNES Function norm 7.762024931468e-07
      Linear solve converged due to CONVERGED_RTOL iterations 14
    7 SNES Function norm 1.757596902696e-07
      Linear solve converged due to CONVERGED_RTOL iterations 14
    8 SNES Function norm 3.979014335870e-08
      Linear solve converged due to CONVERGED_RTOL iterations 14
    9 SNES Function norm 9.007276902105e-09
      Linear solve converged due to CONVERGED_RTOL iterations 14
   10 SNES Function norm 2.038902923017e-09
      Linear solve converged due to CONVERGED_RTOL iterations 14
   11 SNES Function norm 4.615183778659e-10
      Linear solve converged due to CONVERGED_RTOL iterations 15
   12 SNES Function norm 1.044723975305e-10
      Linear solve converged due to CONVERGED_RTOL iterations 15
   13 SNES Function norm 2.364743825906e-11
      Linear solve converged due to CONVERGED_RTOL iterations 20
   14 SNES Function norm 5.351407691007e-12
    Nonlinear solve converged due to CONVERGED_SNORM_RELATIVE iterations 14
      TSAdapt none beuler 0: step   7 accepted t=3.5        + 5.000e-01 dt=5.000e-01 
8 TS dt 0.5 time 4.
    0 SNES Function norm 5.434956906063e-03
      Linear solve converged due to CONVERGED_RTOL iterations 19
    1 SNES Function norm 1.144208247195e-03
      Linear solve converged due to CONVERGED_RTOL iterations 15
    2 SNES Function norm 2.642647627237e-04
      Linear solve converged due to CONVERGED_RTOL iterations 15
    3 SNES Function norm 6.024919541008e-05
      Linear solve converged due to CONVERGED_RTOL iterations 15
    4 SNES Function norm 1.365961282185e-05
      Linear solve converged due to CONVERGED_RTOL iterations 16
    5 SNES Function norm 3.089493926992e-06
      Linear solve converged due to CONVERGED_RTOL iterations 15
    6 SNES Function norm 6.980693087519e-07
      Linear solve converged due to CONVERGED_RTOL iterations 15
    7 SNES Function norm 1.576571971663e-07
      Linear solve converged due to CONVERGED_RTOL iterations 15
    8 SNES Function norm 3.559970520048e-08
      Linear solve converged due to CONVERGED_RTOL iterations 15
    9 SNES Function norm 8.037918700581e-09
      Linear solve converged due to CONVERGED_RTOL iterations 15
   10 SNES Function norm 1.814780779112e-09
      Linear solve converged due to CONVERGED_RTOL iterations 18
   11 SNES Function norm 4.097311516325e-10
      Linear solve converged due to CONVERGED_RTOL iterations 14
   12 SNES Function norm 9.250665202371e-11
      Linear solve converged due to CONVERGED_RTOL iterations 14
   13 SNES Function norm 2.088157766659e-11
      Linear solve converged due to CONVERGED_RTOL iterations 14
   14 SNES Function norm 4.716576478136e-12
    Nonlinear solve converged due to CONVERGED_SNORM_RELATIVE iterations 14
      TSAdapt none beuler 0: step   8 accepted t=4          + 5.000e-01 dt=5.000e-01 
9 TS dt 0.5 time 4.5
    0 SNES Function norm 4.998275441264e-03
      Linear solve converged due to CONVERGED_RTOL iterations 16
    1 SNES Function norm 1.036572768441e-03
      Linear solve converged due to CONVERGED_RTOL iterations 17
    2 SNES Function norm 2.384539110472e-04
      Linear solve converged due to CONVERGED_RTOL iterations 14
    3 SNES Function norm 5.419838465495e-05
      Linear solve converged due to CONVERGED_RTOL iterations 15
    4 SNES Function norm 1.225549605342e-05
      Linear solve converged due to CONVERGED_RTOL iterations 16
    5 SNES Function norm 2.765180341163e-06
      Linear solve converged due to CONVERGED_RTOL iterations 15
    6 SNES Function norm 6.233216381766e-07
      Linear solve converged due to CONVERGED_RTOL iterations 18
    7 SNES Function norm 1.404535397787e-07
      Linear solve converged due to CONVERGED_RTOL iterations 18
    8 SNES Function norm 3.164243348337e-08
      Linear solve converged due to CONVERGED_RTOL iterations 18
    9 SNES Function norm 7.128101381452e-09
      Linear solve converged due to CONVERGED_RTOL iterations 18
   10 SNES Function norm 1.605653210949e-09
      Linear solve converged due to CONVERGED_RTOL iterations 15
   11 SNES Function norm 3.616757235934e-10
      Linear solve converged due to CONVERGED_RTOL iterations 14
   12 SNES Function norm 8.147523789235e-11
      Linear solve converged due to CONVERGED_RTOL iterations 14
   13 SNES Function norm 1.835102073992e-11
      Linear solve converged due to CONVERGED_RTOL iterations 17
   14 SNES Function norm 4.133376232169e-12
    Nonlinear solve converged due to CONVERGED_SNORM_RELATIVE iterations 14
      TSAdapt none beuler 0: step   9 accepted t=4.5        + 5.000e-01 dt=5.000e-01 
10 TS dt 0.5 time 5.
TS Object: 1 MPI process
  type: beuler
  maximum steps=10
  maximum time=100.
  total number of I function evaluations=173
  total number of I Jacobian evaluations=162
  total number of RHS function evaluations=173
  total number of nonlinear solver iterations=147
  total number of linear solver iterations=2287
  total number of nonlinear solve failures=0
  total number of rejected steps=0
  using relative error tolerance of 0.01,   using absolute error tolerance of 0.0001
  TSAdapt Object: 1 MPI process
    type: none
  SNES Object: 1 MPI process
    type: newtonls
    maximum iterations=50, maximum function evaluations=10000
    tolerances: relative=1e-14, absolute=1e-50, solution=1e-14
    total number of linear solver iterations=225
    total number of function evaluations=15
    norm schedule ALWAYS
    SNESLineSearch Object: 1 MPI process
      type: basic
      maxstep=1.000000e+08, minlambda=1.000000e-12
      tolerances: relative=1.000000e-08, absolute=1.000000e-15, lambda=1.000000e-08
      maximum iterations=40
    KSP Object: 1 MPI process
      type: tfqmr
      maximum iterations=100, initial guess is zero
      tolerances: relative=1e-08, absolute=1e-50, divergence=10000.
      left preconditioning
      using PRECONDITIONED norm type for convergence test
    PC Object: 1 MPI process
      type: jacobi
        type DIAGONAL
      linear system matrix = precond matrix:
      Mat Object: Jacobian 1 MPI process
        type: seqaijkokkos
        rows=668800, cols=668800
        total: nonzeros=36096640, allocated nonzeros=36096640
        total number of mallocs used during MatSetValues calls=0
          not using I-node routines
****************************************************************************************************************************************************************
***                                WIDEN YOUR WINDOW TO 160 CHARACTERS.  Use 'enscript -r -fCourier9' to print this document                                 ***
****************************************************************************************************************************************************************

------------------------------------------------------------------ PETSc Performance Summary: ------------------------------------------------------------------



      ##########################################################
      #                                                        #
      #                       WARNING!!!                       #
      #                                                        #
      #   This code was run with -log_view_gpu_time            #
      #   This provides accurate timing within the GPU kernels #
      #   but can slow down the entire computation by a        #
      #   measurable amount. For fastest runs we recommend     #
      #   not using this option.                               #
      #                                                        #
      ##########################################################


/global/u2/m/madams/batch_gmres_paper/landau_throughput_nsight/perlmutter/./ex2-3 on a arch-perlmutter-opt-gcc-kokkos-cuda-3d named nid200381 with 4 processes and CUDA architecture 80, by madams on Thu Jun 27 15:08:56 2024
Using Petsc Development GIT revision: v3.21.2-329-g0f40c42b27c  GIT Date: 2024-06-27 15:17:08 -0400

                         Max       Max/Min     Avg       Total
Time (sec):           2.584e+02     1.000   2.584e+02
Objects:              0.000e+00     0.000   0.000e+00
Flops:                4.370e+11     1.000   4.370e+11  1.748e+12
Flops/sec:            1.692e+09     1.000   1.692e+09  6.766e+09
MPI Msg Count:        0.000e+00     0.000   0.000e+00  0.000e+00
MPI Msg Len (bytes):  0.000e+00     0.000   0.000e+00  0.000e+00
MPI Reductions:       2.100e+01     1.000

Flop counting convention: 1 flop = 1 real number operation of type (multiply/divide/add/subtract)
                            e.g., VecAXPY() for real vectors of length N --> 2N flops
                            and VecAXPY() for complex vectors of length N --> 8N flops

Summary of Stages:   ----- Time ------  ----- Flop ------  --- Messages ---  -- Message Lengths --  -- Reductions --
                        Avg     %Total     Avg     %Total    Count   %Total     Avg         %Total    Count   %Total
 0:      Main Stage: 1.9021e+02  73.6%  1.1317e+09   0.1%  0.000e+00   0.0%  0.000e+00        0.0%  2.000e+00   9.5%
 1:          Warmup: 6.6657e+00   2.6%  1.6036e+11   9.2%  0.000e+00   0.0%  0.000e+00        0.0%  0.000e+00   0.0%
 2:           Solve: 6.1493e+01  23.8%  1.5867e+12  90.8%  0.000e+00   0.0%  0.000e+00        0.0%  0.000e+00   0.0%

------------------------------------------------------------------------------------------------------------------------
See the 'Profiling' chapter of the users' manual for details on interpreting output.
Phase summary info:
   Count: number of times phase was executed
   Time and Flop: Max - maximum over all processors
                  Ratio - ratio of maximum to minimum over all processors
   Mess: number of messages sent
   AvgLen: average message length (bytes)
   Reduct: number of global reductions
   Global: entire computation
   Stage: stages of a computation. Set stages with PetscLogStagePush() and PetscLogStagePop().
      %T - percent time in this phase         %F - percent flop in this phase
      %M - percent messages in this phase     %L - percent message lengths in this phase
      %R - percent reductions in this phase
   Total Mflop/s: 10e-6 * (sum of flop over all processors)/(max time over all processors)
   GPU Mflop/s: 10e-6 * (sum of flop on GPU over all processors)/(max GPU time over all processors)
   CpuToGpu Count: total number of CPU to GPU copies per processor
   CpuToGpu Size (Mbytes): 10e-6 * (total size of CPU to GPU copies per processor)
   GpuToCpu Count: total number of GPU to CPU copies per processor
   GpuToCpu Size (Mbytes): 10e-6 * (total size of GPU to CPU copies per processor)
   GPU %F: percent flops on GPU in this event
------------------------------------------------------------------------------------------------------------------------
Event                Count      Time (sec)     Flop                              --- Global ---  --- Stage ----  Total   GPU    - CpuToGpu -   - GpuToCpu - GPU
                   Max Ratio  Max     Ratio   Max  Ratio  Mess   AvgLen  Reduct  %T %F %M %L %R  %T %F %M %L %R Mflop/s Mflop/s Count   Size   Count   Size  %F
---------------------------------------------------------------------------------------------------------------------------------------------------------------

--- Event Stage 0: Main Stage

BuildTwoSided        807 1.0 9.4990e-04 1.4 0.00e+00 0.0 0.0e+00 0.0e+00 0.0e+00  0  0  0  0  0   0  0  0  0  0     0       0      0 0.00e+00    0 0.00e+00  0
DMConvert             18 1.0 4.8049e-03 1.1 0.00e+00 0.0 0.0e+00 0.0e+00 0.0e+00  0  0  0  0  0   0  0  0  0  0     0       0      0 0.00e+00    0 0.00e+00  0
DMCreateMat            8 1.0 6.7540e+01 1.0 0.00e+00 0.0 0.0e+00 0.0e+00 0.0e+00 26  0  0  0  0  35  0  0  0  0     0       0      0 0.00e+00    0 0.00e+00  0
DMProjectFunc        201 1.0 1.9460e+00 1.0 1.49e+08 1.0 0.0e+00 0.0e+00 0.0e+00  1  0  0  0  0   1 53  0  0  0   306       0      0 0.00e+00    0 0.00e+00  0
DMPlexInterp         204 1.0 5.9292e-03 1.1 0.00e+00 0.0 0.0e+00 0.0e+00 0.0e+00  0  0  0  0  0   0  0  0  0  0     0       0      0 0.00e+00    0 0.00e+00  0
DMPlexStratify       318 1.0 5.9069e-03 1.1 0.00e+00 0.0 0.0e+00 0.0e+00 0.0e+00  0  0  0  0  0   0  0  0  0  0     0       0      0 0.00e+00    0 0.00e+00  0
DMPlexSymmetrize     318 1.0 4.7570e-04 1.1 0.00e+00 0.0 0.0e+00 0.0e+00 0.0e+00  0  0  0  0  0   0  0  0  0  0     0       0      0 0.00e+00    0 0.00e+00  0
DMPlexPrealloc       390 1.0 6.1410e+01 1.0 0.00e+00 0.0 0.0e+00 0.0e+00 0.0e+00 24  0  0  0  0  32  0  0  0  0     0       0      0 0.00e+00    0 0.00e+00  0
DMPlexJacobianFE       6 1.0 4.1764e+00 1.0 1.08e+08 1.0 0.0e+00 0.0e+00 0.0e+00  2  0  0  0  0   2 38  0  0  0   103       0      0 0.00e+00    0 0.00e+00  0
DMPlexGenerate         3 1.0 6.7918e-04 1.3 0.00e+00 0.0 0.0e+00 0.0e+00 0.0e+00  0  0  0  0  0   0  0  0  0  0     0       0      0 0.00e+00    0 0.00e+00  0
SFSetGraph          1596 1.0 3.0224e-04 1.1 0.00e+00 0.0 0.0e+00 0.0e+00 0.0e+00  0  0  0  0  0   0  0  0  0  0     0       0      0 0.00e+00    0 0.00e+00  0
SFSetUp              807 1.0 3.6681e-03 1.3 0.00e+00 0.0 0.0e+00 0.0e+00 0.0e+00  0  0  0  0  0   0  0  0  0  0     0       0      0 0.00e+00    0 0.00e+00  0
SFBcastBegin        1626 1.0 4.3060e-03 1.3 0.00e+00 0.0 0.0e+00 0.0e+00 0.0e+00  0  0  0  0  0   0  0  0  0  0     0       0      0 0.00e+00    0 0.00e+00  0
SFBcastEnd          1626 1.0 2.9393e-04 1.3 0.00e+00 0.0 0.0e+00 0.0e+00 0.0e+00  0  0  0  0  0   0  0  0  0  0     0       0      0 0.00e+00    0 0.00e+00  0
SFReduceBegin         54 1.0 7.2480e-05 1.0 0.00e+00 0.0 0.0e+00 0.0e+00 0.0e+00  0  0  0  0  0   0  0  0  0  0     0       0      0 0.00e+00    0 0.00e+00  0
SFReduceEnd           54 1.0 8.0240e-06 1.1 0.00e+00 0.0 0.0e+00 0.0e+00 0.0e+00  0  0  0  0  0   0  0  0  0  0     0       0      0 0.00e+00    0 0.00e+00  0
SFCreateEmbed        780 1.0 1.0239e-02 1.3 0.00e+00 0.0 0.0e+00 0.0e+00 0.0e+00  0  0  0  0  0   0  0  0  0  0     0       0      0 0.00e+00    0 0.00e+00  0
SFSectionSF          780 1.0 3.8075e-03 1.3 0.00e+00 0.0 0.0e+00 0.0e+00 0.0e+00  0  0  0  0  0   0  0  0  0  0     0       0      0 0.00e+00    0 0.00e+00  0
SFRemoteOff          780 1.0 2.2298e-02 1.2 0.00e+00 0.0 0.0e+00 0.0e+00 0.0e+00  0  0  0  0  0   0  0  0  0  0     0       0      0 0.00e+00    0 0.00e+00  0
SFPack              1680 1.0 1.8075e-04 1.2 0.00e+00 0.0 0.0e+00 0.0e+00 0.0e+00  0  0  0  0  0   0  0  0  0  0     0       0      0 0.00e+00    0 0.00e+00  0
Landau Create          1 1.0 1.5006e+02 1.0 2.14e+08 1.0 0.0e+00 0.0e+00 0.0e+00 58  0  0  0  0  79 76  0  0  0     6       0      0 0.00e+00    0 0.00e+00  0
 GPU ass. setup        1 1.0 1.0703e+02 1.0 3.23e+06 1.0 0.0e+00 0.0e+00 0.0e+00 41  0  0  0  0  56  1  0  0  0     0       0      0 0.00e+00    0 0.00e+00  0
 Build matrix          1 1.0 6.0373e+00 1.0 3.87e+07 1.0 0.0e+00 0.0e+00 0.0e+00  2  0  0  0  0   3 14  0  0  0    26       0      0 0.00e+00    0 0.00e+00  0
 Assembly maps         1 1.0 3.7228e+01 1.0 1.61e+08 1.0 0.0e+00 0.0e+00 0.0e+00 14  0  0  0  0  19 57  0  0  0    17       0      0 0.00e+00    0 0.00e+00  0
Landau Mass mat        1 1.0 4.0307e+01 1.0 6.93e+07 1.0 0.0e+00 0.0e+00 0.0e+00 15  0  0  0  0  21 24  0  0  0     7       0      0 0.00e+00    0 0.00e+00  0
 static IP Data        1 1.0 2.1816e-02 1.3 1.11e+07 1.0 0.0e+00 0.0e+00 0.0e+00  0  0  0  0  0   0  4  0  0  0  2026       0      0 0.00e+00    0 0.00e+00  0
VecCopy                1 1.0 4.6293e-04 1.2 0.00e+00 0.0 0.0e+00 0.0e+00 0.0e+00  0  0  0  0  0   0  0  0  0  0     0       0      0 0.00e+00    0 0.00e+00  0
VecSet               381 1.0 7.3908e-03 1.1 0.00e+00 0.0 0.0e+00 0.0e+00 0.0e+00  0  0  0  0  0   0  0  0  0  0     0       0      0 0.00e+00    0 0.00e+00  0
DualSpaceSetUp        52 1.0 4.4215e-02 1.1 2.36e+04 1.0 0.0e+00 0.0e+00 0.0e+00  0  0  0  0  0   0  0  0  0  0     2       0      0 0.00e+00    0 0.00e+00  0
FESetUp               52 1.0 1.6304e-03 1.1 0.00e+00 0.0 0.0e+00 0.0e+00 0.0e+00  0  0  0  0  0   0  0  0  0  0     0       0      0 0.00e+00    0 0.00e+00  0
MatMult           775320 1.0 7.7409e-02 1.1 6.06e+06 1.0 0.0e+00 0.0e+00 0.0e+00  0  0  0  0  0   0  2  0  0  0   313       0      0 0.00e+00    0 0.00e+00  0
MatLUFactor           30 1.0 5.5851e-04 1.1 3.94e+05 1.0 0.0e+00 0.0e+00 0.0e+00  0  0  0  0  0   0  0  0  0  0  2819       0      0 0.00e+00    0 0.00e+00  0
MatCopy              240 1.0 1.5418e-04 1.0 0.00e+00 0.0 0.0e+00 0.0e+00 0.0e+00  0  0  0  0  0   0  0  0  0  0     0       0      0 0.00e+00    0 0.00e+00  0
MatConvert            60 1.0 5.3583e-04 1.0 0.00e+00 0.0 0.0e+00 0.0e+00 0.0e+00  0  0  0  0  0   0  0  0  0  0     0       0      0 0.00e+00    0 0.00e+00  0
MatAssemblyBegin    1362 1.0 1.9611e-04 1.1 0.00e+00 0.0 0.0e+00 0.0e+00 0.0e+00  0  0  0  0  0   0  0  0  0  0     0       0      0 0.00e+00    0 0.00e+00  0
MatAssemblyEnd      1362 1.0 6.7722e-01 1.1 0.00e+00 0.0 0.0e+00 0.0e+00 0.0e+00  0  0  0  0  0   0  0  0  0  0     0       0      0 0.00e+00    0 0.00e+00  0
MatGetRowIJ            9 1.0 3.0770e-06 1.4 0.00e+00 0.0 0.0e+00 0.0e+00 0.0e+00  0  0  0  0  0   0  0  0  0  0     0       0      0 0.00e+00    0 0.00e+00  0
MatZeroEntries         6 1.0 1.5673e-04 1.3 0.00e+00 0.0 0.0e+00 0.0e+00 0.0e+00  0  0  0  0  0   0  0  0  0  0     0       0      0 0.00e+00    0 0.00e+00  0
MatMatSolve          240 1.0 1.6971e-03 1.0 9.27e+06 1.0 0.0e+00 0.0e+00 0.0e+00  0  0  0  0  0   0  3  0  0  0 21856       0      0 0.00e+00    0 0.00e+00  0
MatSetPreallCOO      175 1.0 2.3829e+01 1.0 0.00e+00 0.0 0.0e+00 0.0e+00 0.0e+00  9  0  0  0  0  12  0  0  0  0     0       0      0 0.00e+00    0 0.00e+00  0
MatSetValuesCOO      174 1.0 2.4876e-04 1.1 0.00e+00 0.0 0.0e+00 0.0e+00 0.0e+00  0  0  0  0  0   0  0  0  0  0     0       0      0 0.00e+00    0 0.00e+00  0
DCtxCreate             1 1.0 2.5450e-05 1.9 0.00e+00 0.0 0.0e+00 0.0e+00 0.0e+00  0  0  0  0  0   0  0  0  0  0     0       0      0 0.00e+00    0 0.00e+00  0
DCtxDestroy            1 1.0 3.4517e-05 1.2 0.00e+00 0.0 0.0e+00 0.0e+00 0.0e+00  0  0  0  0  0   0  0  0  0  0     0       0      0 0.00e+00    0 0.00e+00  0
DCtxSetUp              1 1.0 4.9146e-05 1.8 0.00e+00 0.0 0.0e+00 0.0e+00 0.0e+00  0  0  0  0  0   0  0  0  0  0     0       0      0 0.00e+00    0 0.00e+00  0
DCtxSetDevice          1 1.0 4.2412e-05 1.7 0.00e+00 0.0 0.0e+00 0.0e+00 0.0e+00  0  0  0  0  0   0  0  0  0  0     0       0      0 0.00e+00    0 0.00e+00  0

--- Event Stage 1: Warmup

Landau Operator       31 1.0 6.3399e+00 1.0 2.31e+09 1.0 0.0e+00 0.0e+00 0.0e+00  2  1  0  0  0  95  6  0  0  0  1458    1462      0 0.00e+00    0 0.00e+00  100
Landau Jacobian       16 1.0 5.8264e+00 1.0 2.31e+09 1.0 0.0e+00 0.0e+00 0.0e+00  2  1  0  0  0  87  6  0  0  0  1586    1590      0 0.00e+00    0 0.00e+00  100
Landau Mass           15 1.0 5.1343e-01 1.0 0.00e+00 0.0 0.0e+00 0.0e+00 0.0e+00  0  0  0  0  0   8  0  0  0  0     0       0      0 0.00e+00    0 0.00e+00  0
 Preamble             31 1.0 1.2047e-04 1.3 0.00e+00 0.0 0.0e+00 0.0e+00 0.0e+00  0  0  0  0  0   0  0  0  0  0     0       0      0 0.00e+00    0 0.00e+00  0
 dynamic IP-Jac       32 1.0 2.4676e-05 1.4 0.00e+00 0.0 0.0e+00 0.0e+00 0.0e+00  0  0  0  0  0   0  0  0  0  0     0       0      0 0.00e+00    0 0.00e+00  0
 Kernel-init          31 1.0 2.5532e-03 1.0 0.00e+00 0.0 0.0e+00 0.0e+00 0.0e+00  0  0  0  0  0   0  0  0  0  0     0       0      0 0.00e+00    0 0.00e+00  0
 Jac-f-df (GPU)       16 1.0 3.8116e-02 1.0 0.00e+00 0.0 0.0e+00 0.0e+00 0.0e+00  0  0  0  0  0   1  0  0  0  0     0       0      0 0.00e+00    0 0.00e+00  0
 J Kernel (GPU)       16 1.0 5.5242e+00 1.0 0.00e+00 0.0 0.0e+00 0.0e+00 0.0e+00  2  0  0  0  0  83  0  0  0  0     0       0      0 0.00e+00    0 0.00e+00  0
 M Kernel (GPU)       15 1.0 3.2329e-01 1.0 0.00e+00 0.0 0.0e+00 0.0e+00 0.0e+00  0  0  0  0  0   5  0  0  0  0     0       0      0 0.00e+00    0 0.00e+00  0
VecDot               462 1.0 1.7614e-02 1.0 6.18e+08 1.0 0.0e+00 0.0e+00 0.0e+00  0  0  0  0  0   0  2  0  0  0 140334   185389      0 0.00e+00    0 0.00e+00  100
VecNorm              247 1.0 8.5025e-03 1.0 3.30e+08 1.0 0.0e+00 0.0e+00 0.0e+00  0  0  0  0  0   0  1  0  0  0 155431   212250      0 0.00e+00    0 0.00e+00  100
VecCopy               94 1.0 7.5616e-03 2.1 0.00e+00 0.0 0.0e+00 0.0e+00 0.0e+00  0  0  0  0  0   0  0  0  0  0     0       0      0 0.00e+00    0 0.00e+00  0
VecSet                31 1.0 7.2946e-04 1.1 0.00e+00 0.0 0.0e+00 0.0e+00 0.0e+00  0  0  0  0  0   0  0  0  0  0     0       0      0 0.00e+00    0 0.00e+00  0
VecAXPY              922 1.0 2.1404e-02 1.0 1.23e+09 1.0 0.0e+00 0.0e+00 0.0e+00  0  0  0  0  0   0  3  0  0  0 230475   391890      0 0.00e+00    0 0.00e+00  100
VecAYPX              443 1.0 9.9204e-03 1.0 5.93e+08 1.0 0.0e+00 0.0e+00 0.0e+00  0  0  0  0  0   0  1  0  0  0 238924   418300      0 0.00e+00    0 0.00e+00  100
VecAXPBYCZ            17 1.0 8.6876e-03 1.5 5.68e+07 1.0 0.0e+00 0.0e+00 0.0e+00  0  0  0  0  0   0  0  0  0  0 26174   26964      0 0.00e+00    0 0.00e+00  100
VecWAXPY             909 1.0 2.1838e-02 1.0 1.22e+09 1.0 0.0e+00 0.0e+00 0.0e+00  0  0  0  0  0   0  3  0  0  0 222707   364709      0 0.00e+00    0 0.00e+00  100
VecPointwiseMult     477 1.0 1.7060e-02 1.0 3.19e+08 1.0 0.0e+00 0.0e+00 0.0e+00  0  0  0  0  0   0  1  0  0  0 74799   103631      0 0.00e+00    0 0.00e+00  100
VecReduceArith        45 1.0 1.6030e-03 1.0 6.02e+07 1.0 0.0e+00 0.0e+00 0.0e+00  0  0  0  0  0   0  0  0  0  0 150203   203412      0 0.00e+00    0 0.00e+00  100
VecReduceComm         15 1.0 5.2700e-06 1.2 0.00e+00 0.0 0.0e+00 0.0e+00 0.0e+00  0  0  0  0  0   0  0  0  0  0     0       0      0 0.00e+00    0 0.00e+00  0
MatMult              478 1.0 1.9752e-01 1.0 3.45e+10 1.0 0.0e+00 0.0e+00 0.0e+00  0  8  0  0  0   3 86  0  0  0 698824   715894      0 0.00e+00    0 0.00e+00  100
MatMultAdd            16 1.0 3.3175e-02 1.2 1.16e+09 1.0 0.0e+00 0.0e+00 0.0e+00  0  0  0  0  0   0  3  0  0  0 139274   140025      0 0.00e+00    0 0.00e+00  100
MatAssemblyBegin      62 1.0 9.9360e-06 1.2 0.00e+00 0.0 0.0e+00 0.0e+00 0.0e+00  0  0  0  0  0   0  0  0  0  0     0       0      0 0.00e+00    0 0.00e+00  0
MatAssemblyEnd        62 1.0 1.5268e-02 1.8 0.00e+00 0.0 0.0e+00 0.0e+00 0.0e+00  0  0  0  0  0   0  0  0  0  0     0       0      0 0.00e+00    0 0.00e+00  0
MatZeroEntries        16 1.0 1.6971e-04 1.3 0.00e+00 0.0 0.0e+00 0.0e+00 0.0e+00  0  0  0  0  0   0  0  0  0  0     0       0      0 0.00e+00    0 0.00e+00  0
MatView                1 0.0 4.1591e-05 0.0 0.00e+00 0.0 0.0e+00 0.0e+00 0.0e+00  0  0  0  0  0   0  0  0  0  0     0       0      0 0.00e+00    0 0.00e+00  0
MatSetValuesCOO       31 1.0 4.1348e-01 1.0 0.00e+00 0.0 0.0e+00 0.0e+00 0.0e+00  0  0  0  0  0   6  0  0  0  0     0       0      0 0.00e+00    0 0.00e+00  0
TSStep                 1 1.0 6.6686e+00 1.0 4.01e+10 1.0 0.0e+00 0.0e+00 0.0e+00  3  9  0  0  0 100 100  0  0  0 24047   24364      0 0.00e+00    0 0.00e+00  100
TSFunctionEval        16 1.0 5.8295e+00 1.0 2.33e+09 1.0 0.0e+00 0.0e+00 0.0e+00  2  1  0  0  0  87  6  0  0  0  1600    1605      0 0.00e+00    0 0.00e+00  100
TSJacobianEval        15 1.0 5.1345e-01 1.0 0.00e+00 0.0 0.0e+00 0.0e+00 0.0e+00  0  0  0  0  0   8  0  0  0  0     0       0      0 0.00e+00    0 0.00e+00  0
KSPSetUp              15 1.0 6.7882e-03 1.4 0.00e+00 0.0 0.0e+00 0.0e+00 0.0e+00  0  0  0  0  0   0  0  0  0  0     0       0      0 0.00e+00    0 0.00e+00  0
KSPSolve              15 1.0 2.9120e-01 1.0 3.76e+10 1.0 0.0e+00 0.0e+00 0.0e+00  0  9  0  0  0   4 94  0  0  0 516733   604778      0 0.00e+00    0 0.00e+00  100
SNESSolve              1 1.0 6.6645e+00 1.0 4.01e+10 1.0 0.0e+00 0.0e+00 0.0e+00  3  9  0  0  0 100 100  0  0  0 24059   24366      0 0.00e+00    0 0.00e+00  100
SNESSetUp              1 1.0 1.8402e-03 1.6 0.00e+00 0.0 0.0e+00 0.0e+00 0.0e+00  0  0  0  0  0   0  0  0  0  0     0       0      0 0.00e+00    0 0.00e+00  0
SNESFunctionEval      16 1.0 5.8349e+00 1.0 2.39e+09 1.0 0.0e+00 0.0e+00 0.0e+00  2  1  0  0  0  87  6  0  0  0  1635    1640      0 0.00e+00    0 0.00e+00  100
SNESJacobianEval      15 1.0 5.1348e-01 1.0 0.00e+00 0.0 0.0e+00 0.0e+00 0.0e+00  0  0  0  0  0   8  0  0  0  0     0       0      0 0.00e+00    0 0.00e+00  0
SNESLineSearch        15 1.0 5.4234e+00 1.0 2.32e+09 1.0 0.0e+00 0.0e+00 0.0e+00  2  1  0  0  0  81  6  0  0  0  1708    1710      0 0.00e+00    0 0.00e+00  100
PCSetUp               15 1.0 1.3009e-02 1.0 0.00e+00 0.0 0.0e+00 0.0e+00 0.0e+00  0  0  0  0  0   0  0  0  0  0     0       0      0 0.00e+00    0 0.00e+00  0
PCApply              477 1.0 1.9790e-02 1.1 3.19e+08 1.0 0.0e+00 0.0e+00 0.0e+00  0  0  0  0  0   0  1  0  0  0 64480   103502      0 0.00e+00    0 0.00e+00  100

--- Event Stage 2: Solve

Landau Operator      304 1.0 5.8538e+01 1.0 2.27e+10 1.0 0.0e+00 0.0e+00 0.0e+00 23  5  0  0  0  95  6  0  0  0  1549    1550      0 0.00e+00    0 0.00e+00  100
Landau Jacobian      157 1.0 5.3511e+01 1.0 2.27e+10 1.0 0.0e+00 0.0e+00 0.0e+00 21  5  0  0  0  87  6  0  0  0  1695    1696      0 0.00e+00    0 0.00e+00  100
Landau Mass          147 1.0 5.0266e+00 1.0 0.00e+00 0.0 0.0e+00 0.0e+00 0.0e+00  2  0  0  0  0   8  0  0  0  0     0       0      0 0.00e+00    0 0.00e+00  0
 Preamble            295 1.0 8.4897e-04 1.2 0.00e+00 0.0 0.0e+00 0.0e+00 0.0e+00  0  0  0  0  0   0  0  0  0  0     0       0      0 0.00e+00    0 0.00e+00  0
 dynamic IP-Jac      296 1.0 1.4645e-04 1.2 0.00e+00 0.0 0.0e+00 0.0e+00 0.0e+00  0  0  0  0  0   0  0  0  0  0     0       0      0 0.00e+00    0 0.00e+00  0
 Kernel-init         295 1.0 2.3917e-02 1.0 0.00e+00 0.0 0.0e+00 0.0e+00 0.0e+00  0  0  0  0  0   0  0  0  0  0     0       0      0 0.00e+00    0 0.00e+00  0
 Jac-f-df (GPU)      148 1.0 3.4837e-01 1.0 0.00e+00 0.0 0.0e+00 0.0e+00 0.0e+00  0  0  0  0  0   1  0  0  0  0     0       0      0 0.00e+00    0 0.00e+00  0
 J Kernel (GPU)      148 1.0 5.1124e+01 1.0 0.00e+00 0.0 0.0e+00 0.0e+00 0.0e+00 20  0  0  0  0  83  0  0  0  0     0       0      0 0.00e+00    0 0.00e+00  0
 M Kernel (GPU)      147 1.0 3.1648e+00 1.0 0.00e+00 0.0 0.0e+00 0.0e+00 0.0e+00  1  0  0  0  0   5  0  0  0  0     0       0      0 0.00e+00    0 0.00e+00  0
VecDot              4574 1.0 1.7116e-01 1.0 6.12e+09 1.0 0.0e+00 0.0e+00 0.0e+00  0  1  0  0  0   0  2  0  0  0 142983   190041      0 0.00e+00    0 0.00e+00  100
VecNorm             2444 1.0 8.1707e-02 1.0 3.27e+09 1.0 0.0e+00 0.0e+00 0.0e+00  0  1  0  0  0   0  1  0  0  0 160039   220865      0 0.00e+00    0 0.00e+00  100
VecCopy              912 1.0 2.4490e-02 1.0 0.00e+00 0.0 0.0e+00 0.0e+00 0.0e+00  0  0  0  0  0   0  0  0  0  0     0       0      0 0.00e+00    0 0.00e+00  0
VecSet               294 1.0 6.5405e-03 1.0 0.00e+00 0.0 0.0e+00 0.0e+00 0.0e+00  0  0  0  0  0   0  0  0  0  0     0       0      0 0.00e+00    0 0.00e+00  0
VecAXPY             9119 1.0 1.9831e-01 1.0 1.22e+10 1.0 0.0e+00 0.0e+00 0.0e+00  0  3  0  0  0   0  3  0  0  0 246032   438289      0 0.00e+00    0 0.00e+00  100
VecAYPX             4378 1.0 9.7403e-02 1.0 5.86e+09 1.0 0.0e+00 0.0e+00 0.0e+00  0  1  0  0  0   0  1  0  0  0 240486   419916      0 0.00e+00    0 0.00e+00  100
VecAXPBYCZ           167 1.0 5.8018e-03 1.1 5.58e+08 1.0 0.0e+00 0.0e+00 0.0e+00  0  0  0  0  0   0  0  0  0  0 385019   558216      0 0.00e+00    0 0.00e+00  100
VecWAXPY            9001 1.0 2.1535e-01 1.0 1.20e+10 1.0 0.0e+00 0.0e+00 0.0e+00  0  3  0  0  0   0  3  0  0  0 223632   365936      0 0.00e+00    0 0.00e+00  100
VecPointwiseMult    4721 1.0 1.6865e-01 1.0 3.16e+09 1.0 0.0e+00 0.0e+00 0.0e+00  0  1  0  0  0   0  1  0  0  0 74887   103750      0 0.00e+00    0 0.00e+00  100
VecReduceArith       441 1.0 1.5557e-02 1.0 5.90e+08 1.0 0.0e+00 0.0e+00 0.0e+00  0  0  0  0  0   0  0  0  0  0 151674   205540      0 0.00e+00    0 0.00e+00  100
VecReduceComm        147 1.0 5.9926e-05 1.5 0.00e+00 0.0 0.0e+00 0.0e+00 0.0e+00  0  0  0  0  0   0  0  0  0  0     0       0      0 0.00e+00    0 0.00e+00  0
MatMult             4731 1.0 1.9503e+00 1.0 3.42e+11 1.0 0.0e+00 0.0e+00 0.0e+00  1 78  0  0  0   3 86  0  0  0 700516   717502      0 0.00e+00    0 0.00e+00  100
MatMultAdd           157 1.0 7.1510e-02 1.0 1.13e+10 1.0 0.0e+00 0.0e+00 0.0e+00  0  3  0  0  0   0  3  0  0  0 634004   649230      0 0.00e+00    0 0.00e+00  100
MatAssemblyBegin     590 1.0 8.3024e-05 1.1 0.00e+00 0.0 0.0e+00 0.0e+00 0.0e+00  0  0  0  0  0   0  0  0  0  0     0       0      0 0.00e+00    0 0.00e+00  0
MatAssemblyEnd       590 1.0 2.8342e-04 1.1 0.00e+00 0.0 0.0e+00 0.0e+00 0.0e+00  0  0  0  0  0   0  0  0  0  0     0       0      0 0.00e+00    0 0.00e+00  0
MatZeroEntries       148 1.0 1.2779e-03 1.1 0.00e+00 0.0 0.0e+00 0.0e+00 0.0e+00  0  0  0  0  0   0  0  0  0  0     0       0      0 0.00e+00    0 0.00e+00  0
MatView                1 0.0 3.4617e-05 0.0 0.00e+00 0.0 0.0e+00 0.0e+00 0.0e+00  0  0  0  0  0   0  0  0  0  0     0       0      0 0.00e+00    0 0.00e+00  0
MatSetValuesCOO      295 1.0 3.7351e+00 1.0 0.00e+00 0.0 0.0e+00 0.0e+00 0.0e+00  1  0  0  0  0   6  0  0  0  0     0       0      0 0.00e+00    0 0.00e+00  0
TSStep                10 1.0 6.1566e+01 1.0 3.97e+11 1.0 0.0e+00 0.0e+00 0.0e+00 24 91  0  0  0 100 100  0  0  0 25772   26021      0 0.00e+00    0 0.00e+00  100
TSFunctionEval       157 1.0 5.3516e+01 1.0 2.29e+10 1.0 0.0e+00 0.0e+00 0.0e+00 21  5  0  0  0  87  6  0  0  0  1710    1711      0 0.00e+00    0 0.00e+00  100
TSJacobianEval       147 1.0 5.0268e+00 1.0 0.00e+00 0.0 0.0e+00 0.0e+00 0.0e+00  2  0  0  0  0   8  0  0  0  0     0       0      0 0.00e+00    0 0.00e+00  0
KSPSetUp             147 1.0 4.0241e-05 1.4 0.00e+00 0.0 0.0e+00 0.0e+00 0.0e+00  0  0  0  0  0   0  0  0  0  0     0       0      0 0.00e+00    0 0.00e+00  0
KSPSolve             147 1.0 2.8498e+00 1.0 3.72e+11 1.0 0.0e+00 0.0e+00 0.0e+00  1 85  0  0  0   5 94  0  0  0 522724   606247      0 0.00e+00    0 0.00e+00  100
SNESSolve             10 1.0 6.1564e+01 1.0 3.97e+11 1.0 0.0e+00 0.0e+00 0.0e+00 24 91  0  0  0 100 100  0  0  0 25770   26019      0 0.00e+00    0 0.00e+00  100
SNESFunctionEval     157 1.0 5.3521e+01 1.0 2.34e+10 1.0 0.0e+00 0.0e+00 0.0e+00 21  5  0  0  0  87  6  0  0  0  1749    1750      0 0.00e+00    0 0.00e+00  100
SNESJacobianEval     147 1.0 5.0270e+00 1.0 0.00e+00 0.0 0.0e+00 0.0e+00 0.0e+00  2  0  0  0  0   8  0  0  0  0     0       0      0 0.00e+00    0 0.00e+00  0
SNESLineSearch       147 1.0 5.3175e+01 1.0 2.27e+10 1.0 0.0e+00 0.0e+00 0.0e+00 21  5  0  0  0  86  6  0  0  0  1708    1709      0 0.00e+00    0 0.00e+00  100
PCSetUp              147 1.0 1.3715e-01 1.0 0.00e+00 0.0 0.0e+00 0.0e+00 0.0e+00  0  0  0  0  0   0  0  0  0  0     0       0      0 0.00e+00    0 0.00e+00  0
PCApply             4721 1.0 1.7031e-01 1.0 3.16e+09 1.0 0.0e+00 0.0e+00 0.0e+00  0  1  0  0  0   0  1  0  0  0 74155   103750      0 0.00e+00    0 0.00e+00  100
---------------------------------------------------------------------------------------------------------------------------------------------------------------

Object Type          Creations   Destructions. Reports information only for process 0.

--- Event Stage 0: Main Stage

           Container   497            497
    Distributed Mesh   798            798
            DM Label  1849           1849
          Quadrature  2206           2206
           Index Set 16704          16704
   IS L to G Mapping  1979           1979
             Section  4441           4441
   Star Forest Graph  3572           3572
     Discrete System  1277           1277
           Weak Form  1277           1277
    GraphPartitioner   327            327
              Vector   458            478
       p4est logging     1              1
        Linear Space   104            104
          Dual Space   366            366
            FE Space    76             76
              Matrix  1440           1440
  PetscDeviceContext     1              0
       Field over DM    18             18
             TSAdapt     1              1
                  TS     1              1
                DMTS     1              1
                SNES     1              1
              DMSNES     3              3
      SNESLineSearch     1              1
       Krylov Solver     1              1
     DMKSP interface     0              1
      Preconditioner     1              1
              Viewer     1              1

--- Event Stage 1: Warmup

              Vector    20              0
     DMKSP interface     1              0

--- Event Stage 2: Solve

========================================================================================================================
Average time to get PetscTime(): 3.41e-08
Average time for MPI_Barrier(): 1.521e-06
Average time for zero size MPI_Send(): 1.46533e-05
#PETSc Option Table entries:
-dim 3 # (source: command line)
-dm_landau_amr_levels_max 2,2,2 # (source: command line)
-dm_landau_batch_size 64 # (source: command line)
-dm_landau_device_type kokkos # (source: file)
-dm_landau_Ez 0 # (source: file)
-dm_landau_ion_charges 1,2,3,4,5,6,7,8,9 # (source: file)
-dm_landau_ion_masses 2,182,182,182,182,182,182,182,182 # (source: file)
-dm_landau_n 1.0000044,1,1e-7,1e-7,1e-7,1e-7,1e-7,1e-7,1e-7,1e-7 # (source: file)
-dm_landau_num_species_grid 1,1,8 # (source: file)
-dm_landau_thermal_temps 2,1,1,1,1,1,1,1,1,1 # (source: file)
-dm_landau_type p8est # (source: command line)
-dm_landau_verbose 1 # (source: command line)
-dm_mat_type aijkokkos # (source: file)
-dm_preallocate_only false # (source: code)
-dm_vec_type kokkos # (source: file)
-ex2_test_type none # (source: file)
-ksp_converged_reason # (source: command line)
-ksp_max_it 100 # (source: command line)
-ksp_rtol 1.e-8 # (source: command line)
-ksp_type tfqmr # (source: command line)
-log_view # (source: command line)
-log_view_gpu_time # (source: command line)
-options_left # (source: command line)
-pc_type jacobi # (source: command line)
-petscspace_degree 2 # (source: command line)
-snes_converged_reason # (source: file)
-snes_linesearch_type basic # (source: file)
-snes_max_it 50 # (source: file)
-snes_monitor # (source: file)
-snes_rtol 1e-14 # (source: file)
-snes_stol 1e-14 # (source: file)
-ts_adapt_clip .5,1.1 # (source: file)
-ts_adapt_dt_max 1 # (source: file)
-ts_adapt_monitor # (source: file)
-ts_adapt_scale_solve_failed 0.5 # (source: file)
-ts_adapt_time_step_increase_delay 5 # (source: file)
-ts_dt .5 # (source: file)
-ts_exact_final_time stepover # (source: file)
-ts_max_snes_failures -1 # (source: file)
-ts_max_steps 10 # (source: file)
-ts_max_time 100 # (source: file)
-ts_monitor # (source: file)
-ts_rtol 1e-2 # (source: file)
-ts_type beuler # (source: file)
-ts_view # (source: command line)
-use_gpu_aware_mpi 0 # (source: file)
#End of PETSc Option Table entries
Compiled without FORTRAN kernels
Compiled with full precision matrices (default)
sizeof(short) 2 sizeof(int) 4 sizeof(long) 8 sizeof(void*) 8 sizeof(PetscScalar) 8 sizeof(PetscInt) 4
Configure options: --CFLAGS="   -g -DPETSC_HAVE_CUDA_NVTX" --CXXFLAGS=" -g -DPETSC_HAVE_CUDA_NVTX" --CUDAFLAGS="-g -Xcompiler -rdynamic" --LIBS=-lnvToolsExt --with-cc=cc --with-cxx=CC --with-fc=ftn --with-fortran-bindings=0 --COPTFLAGS="   -O" --CXXOPTFLAGS=" -O" --FOPTFLAGS="   -O" --with-dmlandau-3d --with-debugging=0 --with-x=0 --with-cuda=1 --with-cuda-arch=80 --with-mpiexec=srun --with-batch=0 --download-p4est=1 --with-zlib=1 --download-kokkos --download-kokkos-kernels --with-kokkos-kernels-tpl=0 --with-make-np=8 PETSC_ARCH=arch-perlmutter-opt-gcc-kokkos-cuda-3d
-----------------------------------------
Libraries compiled on 2024-06-27 20:01:11 on login19 
Machine characteristics: Linux-5.14.21-150400.24.81_12.0.87-cray_shasta_c-x86_64-with-glibc2.3.4
Using PETSc directory: /global/u2/m/madams/petsc
Using PETSc arch: arch-perlmutter-opt-gcc-kokkos-cuda-3d
-----------------------------------------

Using C compiler: cc -g -DPETSC_HAVE_CUDA_NVTX -fPIC -O  
Using Fortran compiler: ftn  -fPIC -Wall -ffree-line-length-none -ffree-line-length-0 -Wno-lto-type-mismatch -Wno-unused-dummy-argument -O    
-----------------------------------------

Using include paths: -I/global/u2/m/madams/petsc/include -I/global/u2/m/madams/petsc/arch-perlmutter-opt-gcc-kokkos-cuda-3d/include -I/opt/nvidia/hpc_sdk/Linux_x86_64/23.9/cuda/12.2/include -I/opt/nvidia/hpc_sdk/Linux_x86_64/23.9/math_libs/12.2/include
-----------------------------------------

Using C linker: cc
Using Fortran linker: ftn
Using libraries: -Wl,-rpath,/global/u2/m/madams/petsc/arch-perlmutter-opt-gcc-kokkos-cuda-3d/lib -L/global/u2/m/madams/petsc/arch-perlmutter-opt-gcc-kokkos-cuda-3d/lib -lpetsc -Wl,-rpath,/global/u2/m/madams/petsc/arch-perlmutter-opt-gcc-kokkos-cuda-3d/lib -L/global/u2/m/madams/petsc/arch-perlmutter-opt-gcc-kokkos-cuda-3d/lib -Wl,-rpath,/opt/nvidia/hpc_sdk/Linux_x86_64/23.9/math_libs/12.2/lib64 -L/opt/nvidia/hpc_sdk/Linux_x86_64/23.9/math_libs/12.2/lib64 -Wl,-rpath,/opt/nvidia/hpc_sdk/Linux_x86_64/23.9/cuda/12.2/lib64 -L/opt/nvidia/hpc_sdk/Linux_x86_64/23.9/cuda/12.2/lib64 -L/opt/nvidia/hpc_sdk/Linux_x86_64/23.9/cuda/12.2/lib64/stubs -Wl,-rpath,/opt/cray/pe/mpich/8.1.28/ofi/gnu/12.3/lib -L/opt/cray/pe/mpich/8.1.28/ofi/gnu/12.3/lib -Wl,-rpath,/opt/cray/pe/mpich/8.1.28/gtl/lib -L/opt/cray/pe/mpich/8.1.28/gtl/lib -Wl,-rpath,/opt/cray/pe/libsci/23.12.5/GNU/12.3/x86_64/lib -L/opt/cray/pe/libsci/23.12.5/GNU/12.3/x86_64/lib -Wl,-rpath,/opt/cray/pe/hdf5-parallel/1.12.2.9/gnu/12.3/lib -L/opt/cray/pe/hdf5-parallel/1.12.2.9/gnu/12.3/lib -Wl,-rpath,/opt/nvidia/hpc_sdk/Linux_x86_64/23.9/cuda/12.2/lib64/stubs -Wl,-rpath,/opt/nvidia/hpc_sdk/Linux_x86_64/23.9/cuda/12.2/nvvm/lib64 -L/opt/nvidia/hpc_sdk/Linux_x86_64/23.9/cuda/12.2/nvvm/lib64 -Wl,-rpath,/opt/nvidia/hpc_sdk/Linux_x86_64/23.9/cuda/12.2/extras/CUPTI/lib64 -L/opt/nvidia/hpc_sdk/Linux_x86_64/23.9/cuda/12.2/extras/CUPTI/lib64 -Wl,-rpath,/opt/nvidia/hpc_sdk/Linux_x86_64/23.9/cuda/12.2/extras/Debugger/lib64 -L/opt/nvidia/hpc_sdk/Linux_x86_64/23.9/cuda/12.2/extras/Debugger/lib64 -Wl,-rpath,/opt/cray/pe/dsmml/0.2.2/dsmml/lib -L/opt/cray/pe/dsmml/0.2.2/dsmml/lib -Wl,-rpath,/opt/cray/xpmem/2.6.2-2.5_2.38__gd067c3f.shasta/lib64 -L/opt/cray/xpmem/2.6.2-2.5_2.38__gd067c3f.shasta/lib64 -Wl,-rpath,/usr/lib64/gcc/x86_64-suse-linux/12 -L/usr/lib64/gcc/x86_64-suse-linux/12 -Wl,-rpath,/usr/x86_64-suse-linux/lib -L/usr/x86_64-suse-linux/lib -lkokkoskernels -lkokkoscontainers -lkokkoscore -lkokkossimd -lp4est -lsc -lz -lcufft -lcublas -lcusparse -lcusolver -lcurand -lcudart -lnvToolsExt -lcuda -lnvToolsExt -lcuda -lmpi_gtl_cuda -ldl -lxpmem -lgfortran -lm -lhdf5_hl_parallel -lhdf5_parallel -lcupti -lcudart -lhdf5hl_fortran_parallel -lhdf5_fortran_parallel -lmpifort_gnu_123 -lsci_gnu_123_mpi -lmpi_gnu_123 -lsci_gnu_123 -ldsmml -lgfortran -lquadmath -lpthread -lm -lgcc_s -lstdc++ -lquadmath -lnvToolsExt
-----------------------------------------

#PETSc Option Table entries:
-dim 3 # (source: command line)
-dm_landau_amr_levels_max 2,2,2 # (source: command line)
-dm_landau_batch_size 64 # (source: command line)
-dm_landau_device_type kokkos # (source: file)
-dm_landau_Ez 0 # (source: file)
-dm_landau_ion_charges 1,2,3,4,5,6,7,8,9 # (source: file)
-dm_landau_ion_masses 2,182,182,182,182,182,182,182,182 # (source: file)
-dm_landau_n 1.0000044,1,1e-7,1e-7,1e-7,1e-7,1e-7,1e-7,1e-7,1e-7 # (source: file)
-dm_landau_num_species_grid 1,1,8 # (source: file)
-dm_landau_thermal_temps 2,1,1,1,1,1,1,1,1,1 # (source: file)
-dm_landau_type p8est # (source: command line)
-dm_landau_verbose 1 # (source: command line)
-dm_mat_type aijkokkos # (source: file)
-dm_preallocate_only false # (source: code)
-dm_vec_type kokkos # (source: file)
-ex2_test_type none # (source: file)
-ksp_converged_reason # (source: command line)
-ksp_max_it 100 # (source: command line)
-ksp_rtol 1.e-8 # (source: command line)
-ksp_type tfqmr # (source: command line)
-log_view # (source: command line)
-log_view_gpu_time # (source: command line)
-options_left # (source: command line)
-pc_type jacobi # (source: command line)
-petscspace_degree 2 # (source: command line)
-snes_converged_reason # (source: file)
-snes_linesearch_type basic # (source: file)
-snes_max_it 50 # (source: file)
-snes_monitor # (source: file)
-snes_rtol 1e-14 # (source: file)
-snes_stol 1e-14 # (source: file)
-ts_adapt_clip .5,1.1 # (source: file)
-ts_adapt_dt_max 1 # (source: file)
-ts_adapt_monitor # (source: file)
-ts_adapt_scale_solve_failed 0.5 # (source: file)
-ts_adapt_time_step_increase_delay 5 # (source: file)
-ts_dt .5 # (source: file)
-ts_exact_final_time stepover # (source: file)
-ts_max_snes_failures -1 # (source: file)
-ts_max_steps 10 # (source: file)
-ts_max_time 100 # (source: file)
-ts_monitor # (source: file)
-ts_rtol 1e-2 # (source: file)
-ts_type beuler # (source: file)
-ts_view # (source: command line)
-use_gpu_aware_mpi 0 # (source: file)
#End of PETSc Option Table entries
There are no unused options.
