masses:        e= 9.109e-31; ions in proton mass units:    2.000e+00  1.820e+02 ...
charges:       e=-1.602e-19; charges in elementary units:  1.000e+00  2.000e+00
n:             e:  1.000e+00                           i:  1.000e+00  1.000e-07
thermal T (K): e= 2.321e+07 i= 1.160e+07  1.160e+07. Normalization grid 0: v_0= 1.876e+07 ( 6.256e-02c) n_0= 1.000e+20 t_0= 1.909e-05 1 batched, view batch 0
Domain radius (AMR levels) grid 0: par= 5.000e+00 perp= 5.000e+00 (2) , 1: par= 5.835e-02 perp= 5.835e-02 (2) , 2: par= 6.117e-03 perp= 6.117e-03 (2) 
0) FormLandau 9720 IPs, 360 cells total, Nb=27, Nq=27, dim=3, Tab: Nb=27 Nf=10 Np=27 cdim=3 N=10450 nnz=564010
0 TS dt 0.5 time 0.
    0 SNES Function norm 1.869650063883e-02
      Linear solve converged due to CONVERGED_RTOL iterations 18
    1 SNES Function norm 6.232092346291e-04
      Linear solve converged due to CONVERGED_RTOL iterations 16
    2 SNES Function norm 1.110661733307e-04
      Linear solve converged due to CONVERGED_RTOL iterations 16
    3 SNES Function norm 2.448401886969e-05
      Linear solve converged due to CONVERGED_RTOL iterations 14
    4 SNES Function norm 5.577398494304e-06
      Linear solve converged due to CONVERGED_RTOL iterations 15
    5 SNES Function norm 1.282941877391e-06
      Linear solve converged due to CONVERGED_RTOL iterations 15
    6 SNES Function norm 2.961628287225e-07
      Linear solve converged due to CONVERGED_RTOL iterations 15
    7 SNES Function norm 6.846623372370e-08
      Linear solve converged due to CONVERGED_RTOL iterations 15
    8 SNES Function norm 1.583737535312e-08
      Linear solve converged due to CONVERGED_RTOL iterations 15
    9 SNES Function norm 3.664382936922e-09
      Linear solve converged due to CONVERGED_RTOL iterations 15
   10 SNES Function norm 8.479422674306e-10
      Linear solve converged due to CONVERGED_RTOL iterations 15
   11 SNES Function norm 1.962232242882e-10
      Linear solve converged due to CONVERGED_RTOL iterations 16
   12 SNES Function norm 4.541006928452e-11
      Linear solve converged due to CONVERGED_RTOL iterations 15
   13 SNES Function norm 1.050888386959e-11
      Linear solve converged due to CONVERGED_RTOL iterations 14
   14 SNES Function norm 2.431727261827e-12
      Linear solve converged due to CONVERGED_RTOL iterations 15
   15 SNES Function norm 5.627363978659e-13
    Nonlinear solve converged due to CONVERGED_SNORM_RELATIVE iterations 15
      TSAdapt none beuler 0: step   0 accepted t=0          + 5.000e-01 dt=5.000e-01 
1 TS dt 0.5 time 0.5
TS Object: 1 MPI process
  type: beuler
  maximum steps=1
  maximum time=100.
  total number of I function evaluations=16
  total number of I Jacobian evaluations=15
  total number of RHS function evaluations=16
  total number of nonlinear solver iterations=15
  total number of linear solver iterations=229
  total number of nonlinear solve failures=0
  total number of rejected steps=0
  using relative error tolerance of 0.01,   using absolute error tolerance of 0.0001
  TSAdapt Object: 1 MPI process
    type: none
  SNES Object: 1 MPI process
    type: newtonls
    maximum iterations=50, maximum function evaluations=10000
    tolerances: relative=1e-14, absolute=1e-50, solution=1e-14
    total number of linear solver iterations=229
    total number of function evaluations=16
    norm schedule ALWAYS
    SNESLineSearch Object: 1 MPI process
      type: basic
      maxstep=1.000000e+08, minlambda=1.000000e-12
      tolerances: relative=1.000000e-08, absolute=1.000000e-15, lambda=1.000000e-08
      maximum iterations=40
    KSP Object: 1 MPI process
      type: tfqmr
      maximum iterations=100, initial guess is zero
      tolerances: relative=1e-08, absolute=1e-50, divergence=10000.
      left preconditioning
      using PRECONDITIONED norm type for convergence test
    PC Object: 1 MPI process
      type: jacobi
        type DIAGONAL
      linear system matrix = precond matrix:
      Mat Object: Jacobian 1 MPI process
        type: seqaijkokkos
        rows=10450, cols=10450
        total: nonzeros=564010, allocated nonzeros=564010
        total number of mallocs used during MatSetValues calls=0
          not using I-node routines
0 TS dt 0.5 time 0.
    0 SNES Function norm 1.869650063883e-02
      Linear solve converged due to CONVERGED_RTOL iterations 18
    1 SNES Function norm 6.232092346291e-04
      Linear solve converged due to CONVERGED_RTOL iterations 16
    2 SNES Function norm 1.110661733307e-04
      Linear solve converged due to CONVERGED_RTOL iterations 16
    3 SNES Function norm 2.448401886969e-05
      Linear solve converged due to CONVERGED_RTOL iterations 14
    4 SNES Function norm 5.577398494304e-06
      Linear solve converged due to CONVERGED_RTOL iterations 15
    5 SNES Function norm 1.282941877391e-06
      Linear solve converged due to CONVERGED_RTOL iterations 15
    6 SNES Function norm 2.961628287225e-07
      Linear solve converged due to CONVERGED_RTOL iterations 15
    7 SNES Function norm 6.846623372370e-08
      Linear solve converged due to CONVERGED_RTOL iterations 15
    8 SNES Function norm 1.583737535312e-08
      Linear solve converged due to CONVERGED_RTOL iterations 15
    9 SNES Function norm 3.664382936922e-09
      Linear solve converged due to CONVERGED_RTOL iterations 15
   10 SNES Function norm 8.479422674306e-10
      Linear solve converged due to CONVERGED_RTOL iterations 15
   11 SNES Function norm 1.962232242882e-10
      Linear solve converged due to CONVERGED_RTOL iterations 16
   12 SNES Function norm 4.541006928452e-11
      Linear solve converged due to CONVERGED_RTOL iterations 15
   13 SNES Function norm 1.050888386959e-11
      Linear solve converged due to CONVERGED_RTOL iterations 14
   14 SNES Function norm 2.431727261827e-12
      Linear solve converged due to CONVERGED_RTOL iterations 15
   15 SNES Function norm 5.627363978659e-13
    Nonlinear solve converged due to CONVERGED_SNORM_RELATIVE iterations 15
      TSAdapt none beuler 0: step   0 accepted t=0          + 5.000e-01 dt=5.000e-01 
1 TS dt 0.5 time 0.5
    0 SNES Function norm 2.351668819809e-03
      Linear solve converged due to CONVERGED_RTOL iterations 18
    1 SNES Function norm 2.870146423200e-04
      Linear solve converged due to CONVERGED_RTOL iterations 16
    2 SNES Function norm 6.549754861950e-05
      Linear solve converged due to CONVERGED_RTOL iterations 16
    3 SNES Function norm 1.511730483442e-05
      Linear solve converged due to CONVERGED_RTOL iterations 15
    4 SNES Function norm 3.489413799892e-06
      Linear solve converged due to CONVERGED_RTOL iterations 15
    5 SNES Function norm 8.055156380641e-07
      Linear solve converged due to CONVERGED_RTOL iterations 16
    6 SNES Function norm 1.859834877612e-07
      Linear solve converged due to CONVERGED_RTOL iterations 17
    7 SNES Function norm 4.294647908384e-08
      Linear solve converged due to CONVERGED_RTOL iterations 17
    8 SNES Function norm 9.917529527436e-09
      Linear solve converged due to CONVERGED_RTOL iterations 17
    9 SNES Function norm 2.290293498794e-09
      Linear solve converged due to CONVERGED_RTOL iterations 17
   10 SNES Function norm 5.289136885673e-10
      Linear solve converged due to CONVERGED_RTOL iterations 17
   11 SNES Function norm 1.221482292315e-10
      Linear solve converged due to CONVERGED_RTOL iterations 17
   12 SNES Function norm 2.820896803356e-11
      Linear solve converged due to CONVERGED_RTOL iterations 14
   13 SNES Function norm 6.514327938911e-12
      Linear solve converged due to CONVERGED_RTOL iterations 15
   14 SNES Function norm 1.504582591532e-12
      Linear solve converged due to CONVERGED_RTOL iterations 16
   15 SNES Function norm 3.471002073725e-13
    Nonlinear solve converged due to CONVERGED_SNORM_RELATIVE iterations 15
      TSAdapt none beuler 0: step   1 accepted t=0.5        + 5.000e-01 dt=5.000e-01 
2 TS dt 0.5 time 1.
    0 SNES Function norm 1.281534450189e-03
      Linear solve converged due to CONVERGED_RTOL iterations 17
    1 SNES Function norm 2.243619520933e-04
      Linear solve converged due to CONVERGED_RTOL iterations 16
    2 SNES Function norm 5.326253063064e-05
      Linear solve converged due to CONVERGED_RTOL iterations 16
    3 SNES Function norm 1.240997173838e-05
      Linear solve converged due to CONVERGED_RTOL iterations 15
    4 SNES Function norm 2.869659448198e-06
      Linear solve converged due to CONVERGED_RTOL iterations 15
    5 SNES Function norm 6.616728022228e-07
      Linear solve converged due to CONVERGED_RTOL iterations 15
    6 SNES Function norm 1.524002411284e-07
      Linear solve converged due to CONVERGED_RTOL iterations 18
    7 SNES Function norm 3.508684838983e-08
      Linear solve converged due to CONVERGED_RTOL iterations 18
    8 SNES Function norm 8.076525599901e-09
      Linear solve converged due to CONVERGED_RTOL iterations 18
    9 SNES Function norm 1.858973068893e-09
      Linear solve converged due to CONVERGED_RTOL iterations 18
   10 SNES Function norm 4.278655410053e-10
      Linear solve converged due to CONVERGED_RTOL iterations 15
   11 SNES Function norm 9.847854642785e-11
      Linear solve converged due to CONVERGED_RTOL iterations 14
   12 SNES Function norm 2.266535974806e-11
      Linear solve converged due to CONVERGED_RTOL iterations 14
   13 SNES Function norm 5.216797057576e-12
      Linear solve converged due to CONVERGED_RTOL iterations 17
   14 SNES Function norm 1.200437989710e-12
      Linear solve converged due to CONVERGED_RTOL iterations 19
   15 SNES Function norm 2.757633826347e-13
    Nonlinear solve converged due to CONVERGED_SNORM_RELATIVE iterations 15
      TSAdapt none beuler 0: step   2 accepted t=1          + 5.000e-01 dt=5.000e-01 
3 TS dt 0.5 time 1.5
    0 SNES Function norm 1.019296104033e-03
      Linear solve converged due to CONVERGED_RTOL iterations 16
    1 SNES Function norm 2.050896068692e-04
      Linear solve converged due to CONVERGED_RTOL iterations 16
    2 SNES Function norm 4.862359136394e-05
      Linear solve converged due to CONVERGED_RTOL iterations 16
    3 SNES Function norm 1.130819565914e-05
      Linear solve converged due to CONVERGED_RTOL iterations 15
    4 SNES Function norm 2.608186608920e-06
      Linear solve converged due to CONVERGED_RTOL iterations 15
    5 SNES Function norm 5.995127482393e-07
      Linear solve converged due to CONVERGED_RTOL iterations 18
    6 SNES Function norm 1.376107068623e-07
      Linear solve converged due to CONVERGED_RTOL iterations 15
    7 SNES Function norm 3.156987305247e-08
      Linear solve converged due to CONVERGED_RTOL iterations 15
    8 SNES Function norm 7.240798648613e-09
      Linear solve converged due to CONVERGED_RTOL iterations 15
    9 SNES Function norm 1.660563107377e-09
      Linear solve converged due to CONVERGED_RTOL iterations 17
   10 SNES Function norm 3.807984067694e-10
      Linear solve converged due to CONVERGED_RTOL iterations 18
   11 SNES Function norm 8.732239575351e-11
      Linear solve converged due to CONVERGED_RTOL iterations 14
   12 SNES Function norm 2.002456335886e-11
      Linear solve converged due to CONVERGED_RTOL iterations 17
   13 SNES Function norm 4.591755668591e-12
      Linear solve converged due to CONVERGED_RTOL iterations 15
   14 SNES Function norm 1.052679334472e-12
      Linear solve converged due to CONVERGED_RTOL iterations 16
   15 SNES Function norm 2.417126564808e-13
    Nonlinear solve converged due to CONVERGED_SNORM_RELATIVE iterations 15
      TSAdapt none beuler 0: step   3 accepted t=1.5        + 5.000e-01 dt=5.000e-01 
4 TS dt 0.5 time 2.
    0 SNES Function norm 9.152981565194e-04
      Linear solve converged due to CONVERGED_RTOL iterations 17
    1 SNES Function norm 1.933655420941e-04
      Linear solve converged due to CONVERGED_RTOL iterations 16
    2 SNES Function norm 4.557548154285e-05
      Linear solve converged due to CONVERGED_RTOL iterations 16
    3 SNES Function norm 1.055537066517e-05
      Linear solve converged due to CONVERGED_RTOL iterations 15
    4 SNES Function norm 2.425576557969e-06
      Linear solve converged due to CONVERGED_RTOL iterations 15
    5 SNES Function norm 5.555387244415e-07
      Linear solve converged due to CONVERGED_RTOL iterations 17
    6 SNES Function norm 1.270619396055e-07
      Linear solve converged due to CONVERGED_RTOL iterations 15
    7 SNES Function norm 2.904499952721e-08
      Linear solve converged due to CONVERGED_RTOL iterations 15
    8 SNES Function norm 6.637726008084e-09
      Linear solve converged due to CONVERGED_RTOL iterations 15
    9 SNES Function norm 1.516776109513e-09
      Linear solve converged due to CONVERGED_RTOL iterations 15
   10 SNES Function norm 3.465808211908e-10
      Linear solve converged due to CONVERGED_RTOL iterations 15
   11 SNES Function norm 7.919200505668e-11
      Linear solve converged due to CONVERGED_RTOL iterations 18
   12 SNES Function norm 1.809441025937e-11
      Linear solve converged due to CONVERGED_RTOL iterations 14
   13 SNES Function norm 4.134821314516e-12
      Linear solve converged due to CONVERGED_RTOL iterations 19
   14 SNES Function norm 9.444940413315e-13
      Linear solve converged due to CONVERGED_RTOL iterations 17
   15 SNES Function norm 2.157273497096e-13
    Nonlinear solve converged due to CONVERGED_SNORM_RELATIVE iterations 15
      TSAdapt none beuler 0: step   4 accepted t=2          + 5.000e-01 dt=5.000e-01 
5 TS dt 0.5 time 2.5
    0 SNES Function norm 8.488450177076e-04
      Linear solve converged due to CONVERGED_RTOL iterations 17
    1 SNES Function norm 1.819643343397e-04
      Linear solve converged due to CONVERGED_RTOL iterations 16
    2 SNES Function norm 4.263932466374e-05
      Linear solve converged due to CONVERGED_RTOL iterations 16
    3 SNES Function norm 9.831884962142e-06
      Linear solve converged due to CONVERGED_RTOL iterations 15
    4 SNES Function norm 2.250813606226e-06
      Linear solve converged due to CONVERGED_RTOL iterations 15
    5 SNES Function norm 5.136952476973e-07
      Linear solve converged due to CONVERGED_RTOL iterations 15
    6 SNES Function norm 1.170897688881e-07
      Linear solve converged due to CONVERGED_RTOL iterations 15
    7 SNES Function norm 2.667403766846e-08
      Linear solve converged due to CONVERGED_RTOL iterations 14
    8 SNES Function norm 6.075171029318e-09
      Linear solve converged due to CONVERGED_RTOL iterations 15
    9 SNES Function norm 1.383517111746e-09
      Linear solve converged due to CONVERGED_RTOL iterations 14
   10 SNES Function norm 3.150591145079e-10
      Linear solve converged due to CONVERGED_RTOL iterations 17
   11 SNES Function norm 7.174507074949e-11
      Linear solve converged due to CONVERGED_RTOL iterations 14
   12 SNES Function norm 1.633788017884e-11
      Linear solve converged due to CONVERGED_RTOL iterations 14
   13 SNES Function norm 3.719957725483e-12
      Linear solve converged due to CONVERGED_RTOL iterations 14
   14 SNES Function norm 8.466792306887e-13
      Linear solve converged due to CONVERGED_RTOL iterations 15
   15 SNES Function norm 1.928326724573e-13
    Nonlinear solve converged due to CONVERGED_SNORM_RELATIVE iterations 15
      TSAdapt none beuler 0: step   5 accepted t=2.5        + 5.000e-01 dt=5.000e-01 
6 TS dt 0.5 time 3.
    0 SNES Function norm 7.910469588498e-04
      Linear solve converged due to CONVERGED_RTOL iterations 17
    1 SNES Function norm 1.696257765369e-04
      Linear solve converged due to CONVERGED_RTOL iterations 15
    2 SNES Function norm 3.953710033589e-05
      Linear solve converged due to CONVERGED_RTOL iterations 15
    3 SNES Function norm 9.078918782693e-06
      Linear solve converged due to CONVERGED_RTOL iterations 15
    4 SNES Function norm 2.071087928391e-06
      Linear solve converged due to CONVERGED_RTOL iterations 15
    5 SNES Function norm 4.711213603725e-07
      Linear solve converged due to CONVERGED_RTOL iterations 14
    6 SNES Function norm 1.070428385920e-07
      Linear solve converged due to CONVERGED_RTOL iterations 14
    7 SNES Function norm 2.430831059920e-08
      Linear solve converged due to CONVERGED_RTOL iterations 14
    8 SNES Function norm 5.518969179762e-09
      Linear solve converged due to CONVERGED_RTOL iterations 14
    9 SNES Function norm 1.252913404204e-09
      Linear solve converged due to CONVERGED_RTOL iterations 14
   10 SNES Function norm 2.844240182413e-10
      Linear solve converged due to CONVERGED_RTOL iterations 14
   11 SNES Function norm 6.456633008661e-11
      Linear solve converged due to CONVERGED_RTOL iterations 17
   12 SNES Function norm 1.465657493874e-11
      Linear solve converged due to CONVERGED_RTOL iterations 14
   13 SNES Function norm 3.326950337946e-12
      Linear solve converged due to CONVERGED_RTOL iterations 14
   14 SNES Function norm 7.552183337347e-13
      Linear solve converged due to CONVERGED_RTOL iterations 16
   15 SNES Function norm 1.718195601885e-13
    Nonlinear solve converged due to CONVERGED_SNORM_RELATIVE iterations 15
      TSAdapt none beuler 0: step   6 accepted t=3          + 5.000e-01 dt=5.000e-01 
7 TS dt 0.5 time 3.5
    0 SNES Function norm 7.349317707672e-04
      Linear solve converged due to CONVERGED_RTOL iterations 18
    1 SNES Function norm 1.565052352261e-04
      Linear solve converged due to CONVERGED_RTOL iterations 15
    2 SNES Function norm 3.630389052156e-05
      Linear solve converged due to CONVERGED_RTOL iterations 15
    3 SNES Function norm 8.305130187195e-06
      Linear solve converged due to CONVERGED_RTOL iterations 15
    4 SNES Function norm 1.888431500533e-06
      Linear solve converged due to CONVERGED_RTOL iterations 15
    5 SNES Function norm 4.282819643994e-07
      Linear solve converged due to CONVERGED_RTOL iterations 14
    6 SNES Function norm 9.702531169784e-08
      Linear solve converged due to CONVERGED_RTOL iterations 14
    7 SNES Function norm 2.196996132781e-08
      Linear solve converged due to CONVERGED_RTOL iterations 14
    8 SNES Function norm 4.973767916308e-09
      Linear solve converged due to CONVERGED_RTOL iterations 14
    9 SNES Function norm 1.125909598373e-09
      Linear solve converged due to CONVERGED_RTOL iterations 14
   10 SNES Function norm 2.548628283394e-10
      Linear solve converged due to CONVERGED_RTOL iterations 14
   11 SNES Function norm 5.768980465563e-11
      Linear solve converged due to CONVERGED_RTOL iterations 14
   12 SNES Function norm 1.305905225308e-11
      Linear solve converged due to CONVERGED_RTOL iterations 15
   13 SNES Function norm 2.955924695028e-12
      Linear solve converged due to CONVERGED_RTOL iterations 20
   14 SNES Function norm 6.689441961969e-13
    Nonlinear solve converged due to CONVERGED_SNORM_RELATIVE iterations 14
      TSAdapt none beuler 0: step   7 accepted t=3.5        + 5.000e-01 dt=5.000e-01 
8 TS dt 0.5 time 4.
    0 SNES Function norm 6.793696132579e-04
      Linear solve converged due to CONVERGED_RTOL iterations 19
    1 SNES Function norm 1.430260308994e-04
      Linear solve converged due to CONVERGED_RTOL iterations 15
    2 SNES Function norm 3.303309534049e-05
      Linear solve converged due to CONVERGED_RTOL iterations 15
    3 SNES Function norm 7.531149426263e-06
      Linear solve converged due to CONVERGED_RTOL iterations 15
    4 SNES Function norm 1.707451602762e-06
      Linear solve converged due to CONVERGED_RTOL iterations 16
    5 SNES Function norm 3.861867408225e-07
      Linear solve converged due to CONVERGED_RTOL iterations 15
    6 SNES Function norm 8.725866358641e-08
      Linear solve converged due to CONVERGED_RTOL iterations 15
    7 SNES Function norm 1.970714965220e-08
      Linear solve converged due to CONVERGED_RTOL iterations 15
    8 SNES Function norm 4.449963145599e-09
      Linear solve converged due to CONVERGED_RTOL iterations 15
    9 SNES Function norm 1.004739824349e-09
      Linear solve converged due to CONVERGED_RTOL iterations 15
   10 SNES Function norm 2.268476199314e-10
      Linear solve converged due to CONVERGED_RTOL iterations 18
   11 SNES Function norm 5.121637691497e-11
      Linear solve converged due to CONVERGED_RTOL iterations 14
   12 SNES Function norm 1.156335280586e-11
      Linear solve converged due to CONVERGED_RTOL iterations 14
   13 SNES Function norm 2.610197162376e-12
      Linear solve converged due to CONVERGED_RTOL iterations 17
   14 SNES Function norm 5.895441936767e-13
    Nonlinear solve converged due to CONVERGED_SNORM_RELATIVE iterations 14
      TSAdapt none beuler 0: step   8 accepted t=4          + 5.000e-01 dt=5.000e-01 
9 TS dt 0.5 time 4.5
    0 SNES Function norm 6.247844301580e-04
      Linear solve converged due to CONVERGED_RTOL iterations 16
    1 SNES Function norm 1.295715960552e-04
      Linear solve converged due to CONVERGED_RTOL iterations 17
    2 SNES Function norm 2.980673888092e-05
      Linear solve converged due to CONVERGED_RTOL iterations 14
    3 SNES Function norm 6.774798081866e-06
      Linear solve converged due to CONVERGED_RTOL iterations 15
    4 SNES Function norm 1.531937006688e-06
      Linear solve converged due to CONVERGED_RTOL iterations 16
    5 SNES Function norm 3.456475426178e-07
      Linear solve converged due to CONVERGED_RTOL iterations 15
    6 SNES Function norm 7.791520464912e-08
      Linear solve converged due to CONVERGED_RTOL iterations 18
    7 SNES Function norm 1.755669287195e-08
      Linear solve converged due to CONVERGED_RTOL iterations 18
    8 SNES Function norm 3.955303741334e-09
      Linear solve converged due to CONVERGED_RTOL iterations 18
    9 SNES Function norm 8.910122798334e-10
      Linear solve converged due to CONVERGED_RTOL iterations 18
   10 SNES Function norm 2.007066406293e-10
      Linear solve converged due to CONVERGED_RTOL iterations 15
   11 SNES Function norm 4.520945570566e-11
      Linear solve converged due to CONVERGED_RTOL iterations 14
   12 SNES Function norm 1.018437263995e-11
      Linear solve converged due to CONVERGED_RTOL iterations 14
   13 SNES Function norm 2.293905767982e-12
      Linear solve converged due to CONVERGED_RTOL iterations 14
   14 SNES Function norm 5.166943920671e-13
    Nonlinear solve converged due to CONVERGED_SNORM_RELATIVE iterations 14
      TSAdapt none beuler 0: step   9 accepted t=4.5        + 5.000e-01 dt=5.000e-01 
10 TS dt 0.5 time 5.
TS Object: 1 MPI process
  type: beuler
  maximum steps=10
  maximum time=100.
  total number of I function evaluations=173
  total number of I Jacobian evaluations=162
  total number of RHS function evaluations=173
  total number of nonlinear solver iterations=147
  total number of linear solver iterations=2293
  total number of nonlinear solve failures=0
  total number of rejected steps=0
  using relative error tolerance of 0.01,   using absolute error tolerance of 0.0001
  TSAdapt Object: 1 MPI process
    type: none
  SNES Object: 1 MPI process
    type: newtonls
    maximum iterations=50, maximum function evaluations=10000
    tolerances: relative=1e-14, absolute=1e-50, solution=1e-14
    total number of linear solver iterations=222
    total number of function evaluations=15
    norm schedule ALWAYS
    SNESLineSearch Object: 1 MPI process
      type: basic
      maxstep=1.000000e+08, minlambda=1.000000e-12
      tolerances: relative=1.000000e-08, absolute=1.000000e-15, lambda=1.000000e-08
      maximum iterations=40
    KSP Object: 1 MPI process
      type: tfqmr
      maximum iterations=100, initial guess is zero
      tolerances: relative=1e-08, absolute=1e-50, divergence=10000.
      left preconditioning
      using PRECONDITIONED norm type for convergence test
    PC Object: 1 MPI process
      type: jacobi
        type DIAGONAL
      linear system matrix = precond matrix:
      Mat Object: Jacobian 1 MPI process
        type: seqaijkokkos
        rows=10450, cols=10450
        total: nonzeros=564010, allocated nonzeros=564010
        total number of mallocs used during MatSetValues calls=0
          not using I-node routines
****************************************************************************************************************************************************************
***                                WIDEN YOUR WINDOW TO 160 CHARACTERS.  Use 'enscript -r -fCourier9' to print this document                                 ***
****************************************************************************************************************************************************************

------------------------------------------------------------------ PETSc Performance Summary: ------------------------------------------------------------------



      ##########################################################
      #                                                        #
      #                       WARNING!!!                       #
      #                                                        #
      #   This code was run with -log_view_gpu_time            #
      #   This provides accurate timing within the GPU kernels #
      #   but can slow down the entire computation by a        #
      #   measurable amount. For fastest runs we recommend     #
      #   not using this option.                               #
      #                                                        #
      ##########################################################


/global/u2/m/madams/batch_gmres_paper/landau_throughput_nsight/perlmutter/./ex2-3 on a arch-perlmutter-opt-gcc-kokkos-cuda-3d named nid200381 with 4 processes and CUDA architecture 80, by madams on Thu Jun 27 14:36:12 2024
Using Petsc Development GIT revision: v3.21.2-329-g0f40c42b27c  GIT Date: 2024-06-27 15:17:08 -0400

                         Max       Max/Min     Avg       Total
Time (sec):           9.150e+01     1.000   9.150e+01
Objects:              0.000e+00     0.000   0.000e+00
Flops:                6.975e+09     1.000   6.975e+09  2.790e+10
Flops/sec:            7.622e+07     1.000   7.622e+07  3.049e+08
MPI Msg Count:        0.000e+00     0.000   0.000e+00  0.000e+00
MPI Msg Len (bytes):  0.000e+00     0.000   0.000e+00  0.000e+00
MPI Reductions:       2.100e+01     1.000

Flop counting convention: 1 flop = 1 real number operation of type (multiply/divide/add/subtract)
                            e.g., VecAXPY() for real vectors of length N --> 2N flops
                            and VecAXPY() for complex vectors of length N --> 8N flops

Summary of Stages:   ----- Time ------  ----- Flop ------  --- Messages ---  -- Message Lengths --  -- Reductions --
                        Avg     %Total     Avg     %Total    Count   %Total     Avg         %Total    Count   %Total
 0:      Main Stage: 8.9216e+01  97.5%  5.5980e+08   2.0%  0.000e+00   0.0%  0.000e+00        0.0%  2.000e+00   9.5%
 1:          Warmup: 2.2874e-01   0.2%  2.4852e+09   8.9%  0.000e+00   0.0%  0.000e+00        0.0%  0.000e+00   0.0%
 2:           Solve: 2.0585e+00   2.2%  2.4853e+10  89.1%  0.000e+00   0.0%  0.000e+00        0.0%  0.000e+00   0.0%

------------------------------------------------------------------------------------------------------------------------
See the 'Profiling' chapter of the users' manual for details on interpreting output.
Phase summary info:
   Count: number of times phase was executed
   Time and Flop: Max - maximum over all processors
                  Ratio - ratio of maximum to minimum over all processors
   Mess: number of messages sent
   AvgLen: average message length (bytes)
   Reduct: number of global reductions
   Global: entire computation
   Stage: stages of a computation. Set stages with PetscLogStagePush() and PetscLogStagePop().
      %T - percent time in this phase         %F - percent flop in this phase
      %M - percent messages in this phase     %L - percent message lengths in this phase
      %R - percent reductions in this phase
   Total Mflop/s: 10e-6 * (sum of flop over all processors)/(max time over all processors)
   GPU Mflop/s: 10e-6 * (sum of flop on GPU over all processors)/(max GPU time over all processors)
   CpuToGpu Count: total number of CPU to GPU copies per processor
   CpuToGpu Size (Mbytes): 10e-6 * (total size of CPU to GPU copies per processor)
   GpuToCpu Count: total number of GPU to CPU copies per processor
   GpuToCpu Size (Mbytes): 10e-6 * (total size of GPU to CPU copies per processor)
   GPU %F: percent flops on GPU in this event
------------------------------------------------------------------------------------------------------------------------
Event                Count      Time (sec)     Flop                              --- Global ---  --- Stage ----  Total   GPU    - CpuToGpu -   - GpuToCpu - GPU
                   Max Ratio  Max     Ratio   Max  Ratio  Mess   AvgLen  Reduct  %T %F %M %L %R  %T %F %M %L %R Mflop/s Mflop/s Count   Size   Count   Size  %F
---------------------------------------------------------------------------------------------------------------------------------------------------------------

--- Event Stage 0: Main Stage

BuildTwoSided         51 1.0 6.2220e-05 1.3 0.00e+00 0.0 0.0e+00 0.0e+00 0.0e+00  0  0  0  0  0   0  0  0  0  0     0       0      0 0.00e+00    0 0.00e+00  0
DMConvert             18 1.0 4.8457e-03 1.1 0.00e+00 0.0 0.0e+00 0.0e+00 0.0e+00  0  0  0  0  0   0  0  0  0  0     0       0      0 0.00e+00    0 0.00e+00  0
DMCreateMat            8 1.0 1.9752e+00 1.0 0.00e+00 0.0 0.0e+00 0.0e+00 0.0e+00  2  0  0  0  0   2  0  0  0  0     0       0      0 0.00e+00    0 0.00e+00  0
DMProjectFunc         12 1.0 9.5224e-02 1.0 6.09e+06 1.0 0.0e+00 0.0e+00 0.0e+00  0  0  0  0  0   0  4  0  0  0   256       0      0 0.00e+00    0 0.00e+00  0
DMPlexInterp         204 1.0 5.8176e-03 1.0 0.00e+00 0.0 0.0e+00 0.0e+00 0.0e+00  0  0  0  0  0   0  0  0  0  0     0       0      0 0.00e+00    0 0.00e+00  0
DMPlexStratify       318 1.0 5.8091e-03 1.1 0.00e+00 0.0 0.0e+00 0.0e+00 0.0e+00  0  0  0  0  0   0  0  0  0  0     0       0      0 0.00e+00    0 0.00e+00  0
DMPlexSymmetrize     318 1.0 4.9086e-04 1.1 0.00e+00 0.0 0.0e+00 0.0e+00 0.0e+00  0  0  0  0  0   0  0  0  0  0     0       0      0 0.00e+00    0 0.00e+00  0
DMPlexPrealloc        12 1.0 1.8790e+00 1.0 0.00e+00 0.0 0.0e+00 0.0e+00 0.0e+00  2  0  0  0  0   2  0  0  0  0     0       0      0 0.00e+00    0 0.00e+00  0
DMPlexJacobianFE       6 1.0 4.1784e+00 1.0 1.08e+08 1.0 0.0e+00 0.0e+00 0.0e+00  5  2  0  0  0   5 77  0  0  0   103       0      0 0.00e+00    0 0.00e+00  0
DMPlexGenerate         3 1.0 6.7041e-04 1.3 0.00e+00 0.0 0.0e+00 0.0e+00 0.0e+00  0  0  0  0  0   0  0  0  0  0     0       0      0 0.00e+00    0 0.00e+00  0
SFSetGraph            84 1.0 1.5447e-04 1.0 0.00e+00 0.0 0.0e+00 0.0e+00 0.0e+00  0  0  0  0  0   0  0  0  0  0     0       0      0 0.00e+00    0 0.00e+00  0
SFSetUp               51 1.0 3.4309e-04 1.2 0.00e+00 0.0 0.0e+00 0.0e+00 0.0e+00  0  0  0  0  0   0  0  0  0  0     0       0      0 0.00e+00    0 0.00e+00  0
SFBcastBegin         114 1.0 2.8556e-04 1.3 0.00e+00 0.0 0.0e+00 0.0e+00 0.0e+00  0  0  0  0  0   0  0  0  0  0     0       0      0 0.00e+00    0 0.00e+00  0
SFBcastEnd           114 1.0 2.0728e-05 1.3 0.00e+00 0.0 0.0e+00 0.0e+00 0.0e+00  0  0  0  0  0   0  0  0  0  0     0       0      0 0.00e+00    0 0.00e+00  0
SFReduceBegin         54 1.0 7.2063e-05 1.0 0.00e+00 0.0 0.0e+00 0.0e+00 0.0e+00  0  0  0  0  0   0  0  0  0  0     0       0      0 0.00e+00    0 0.00e+00  0
SFReduceEnd           54 1.0 7.5140e-06 1.1 0.00e+00 0.0 0.0e+00 0.0e+00 0.0e+00  0  0  0  0  0   0  0  0  0  0     0       0      0 0.00e+00    0 0.00e+00  0
SFCreateEmbed         24 1.0 3.8335e-04 1.5 0.00e+00 0.0 0.0e+00 0.0e+00 0.0e+00  0  0  0  0  0   0  0  0  0  0     0       0      0 0.00e+00    0 0.00e+00  0
SFSectionSF           24 1.0 1.5535e-04 1.5 0.00e+00 0.0 0.0e+00 0.0e+00 0.0e+00  0  0  0  0  0   0  0  0  0  0     0       0      0 0.00e+00    0 0.00e+00  0
SFRemoteOff           24 1.0 8.2306e-04 1.4 0.00e+00 0.0 0.0e+00 0.0e+00 0.0e+00  0  0  0  0  0   0  0  0  0  0     0       0      0 0.00e+00    0 0.00e+00  0
SFPack               168 1.0 1.7232e-05 1.3 0.00e+00 0.0 0.0e+00 0.0e+00 0.0e+00  0  0  0  0  0   0  0  0  0  0     0       0      0 0.00e+00    0 0.00e+00  0
Landau Create          1 1.0 8.5362e+01 1.0 7.07e+07 1.0 0.0e+00 0.0e+00 0.0e+00 93  1  0  0  0  95 50  0  0  0     3       0      0 0.00e+00    0 0.00e+00  0
 GPU ass. setup        1 1.0 8.1858e+01 1.0 3.23e+06 1.0 0.0e+00 0.0e+00 0.0e+00 89  0  0  0  0  91  2  0  0  0     0       0      0 0.00e+00    0 0.00e+00  0
 Build matrix          1 1.0 2.1482e+00 1.0 3.87e+07 1.0 0.0e+00 0.0e+00 0.0e+00  2  1  0  0  0   2 28  0  0  0    72       0      0 0.00e+00    0 0.00e+00  0
 Assembly maps         1 1.0 1.8413e+00 2.5 1.76e+07 1.0 0.0e+00 0.0e+00 0.0e+00  2  0  0  0  0   2 13  0  0  0    38       0      0 0.00e+00    0 0.00e+00  0
Landau Mass mat        1 1.0 3.6010e+00 1.0 6.93e+07 1.0 0.0e+00 0.0e+00 0.0e+00  4  1  0  0  0   4 50  0  0  0    77       0      0 0.00e+00    0 0.00e+00  0
 static IP Data        1 1.0 1.1054e-02 1.1 1.11e+07 1.0 0.0e+00 0.0e+00 0.0e+00  0  0  0  0  0   0  8  0  0  0  3999       0      0 0.00e+00    0 0.00e+00  0
VecCopy                1 1.0 2.7824e-05 1.2 0.00e+00 0.0 0.0e+00 0.0e+00 0.0e+00  0  0  0  0  0   0  0  0  0  0     0       0      0 0.00e+00    0 0.00e+00  0
VecSet                 3 1.0 1.7453e-04 1.4 0.00e+00 0.0 0.0e+00 0.0e+00 0.0e+00  0  0  0  0  0   0  0  0  0  0     0       0      0 0.00e+00    0 0.00e+00  0
DualSpaceSetUp        52 1.0 4.3148e-02 1.0 2.36e+04 1.0 0.0e+00 0.0e+00 0.0e+00  0  0  0  0  0   0  0  0  0  0     2       0      0 0.00e+00    0 0.00e+00  0
FESetUp               52 1.0 1.6861e-03 1.1 0.00e+00 0.0 0.0e+00 0.0e+00 0.0e+00  0  0  0  0  0   0  0  0  0  0     0       0      0 0.00e+00    0 0.00e+00  0
MatMult            30660 1.0 2.9401e-03 1.0 2.40e+05 1.0 0.0e+00 0.0e+00 0.0e+00  0  0  0  0  0   0  0  0  0  0   326       0      0 0.00e+00    0 0.00e+00  0
MatLUFactor           30 1.0 5.2353e-04 1.0 3.94e+05 1.0 0.0e+00 0.0e+00 0.0e+00  0  0  0  0  0   0  0  0  0  0  3008       0      0 0.00e+00    0 0.00e+00  0
MatCopy              240 1.0 1.5007e-04 1.0 0.00e+00 0.0 0.0e+00 0.0e+00 0.0e+00  0  0  0  0  0   0  0  0  0  0     0       0      0 0.00e+00    0 0.00e+00  0
MatConvert            60 1.0 5.1520e-04 1.0 0.00e+00 0.0 0.0e+00 0.0e+00 0.0e+00  0  0  0  0  0   0  0  0  0  0     0       0      0 0.00e+00    0 0.00e+00  0
MatAssemblyBegin     984 1.0 8.8270e-05 1.1 0.00e+00 0.0 0.0e+00 0.0e+00 0.0e+00  0  0  0  0  0   0  0  0  0  0     0       0      0 0.00e+00    0 0.00e+00  0
MatAssemblyEnd       984 1.0 1.9727e-02 1.2 0.00e+00 0.0 0.0e+00 0.0e+00 0.0e+00  0  0  0  0  0   0  0  0  0  0     0       0      0 0.00e+00    0 0.00e+00  0
MatGetRowIJ            9 1.0 2.6170e-06 1.3 0.00e+00 0.0 0.0e+00 0.0e+00 0.0e+00  0  0  0  0  0   0  0  0  0  0     0       0      0 0.00e+00    0 0.00e+00  0
MatZeroEntries         6 1.0 1.7739e-04 1.4 0.00e+00 0.0 0.0e+00 0.0e+00 0.0e+00  0  0  0  0  0   0  0  0  0  0     0       0      0 0.00e+00    0 0.00e+00  0
MatMatSolve          240 1.0 1.6723e-03 1.0 9.27e+06 1.0 0.0e+00 0.0e+00 0.0e+00  0  0  0  0  0   0  7  0  0  0 22180       0      0 0.00e+00    0 0.00e+00  0
MatSetPreallCOO      175 1.0 3.1423e-01 1.0 0.00e+00 0.0 0.0e+00 0.0e+00 0.0e+00  0  0  0  0  0   0  0  0  0  0     0       0      0 0.00e+00    0 0.00e+00  0
MatSetValuesCOO      174 1.0 2.3635e-04 1.1 0.00e+00 0.0 0.0e+00 0.0e+00 0.0e+00  0  0  0  0  0   0  0  0  0  0     0       0      0 0.00e+00    0 0.00e+00  0
DCtxCreate             1 1.0 2.4498e-05 1.7 0.00e+00 0.0 0.0e+00 0.0e+00 0.0e+00  0  0  0  0  0   0  0  0  0  0     0       0      0 0.00e+00    0 0.00e+00  0
DCtxDestroy            1 1.0 2.6691e-05 1.6 0.00e+00 0.0 0.0e+00 0.0e+00 0.0e+00  0  0  0  0  0   0  0  0  0  0     0       0      0 0.00e+00    0 0.00e+00  0
DCtxSetUp              1 1.0 4.7732e-05 1.6 0.00e+00 0.0 0.0e+00 0.0e+00 0.0e+00  0  0  0  0  0   0  0  0  0  0     0       0      0 0.00e+00    0 0.00e+00  0
DCtxSetDevice          1 1.0 4.4376e-05 1.7 0.00e+00 0.0 0.0e+00 0.0e+00 0.0e+00  0  0  0  0  0   0  0  0  0  0     0       0      0 0.00e+00    0 0.00e+00  0

--- Event Stage 1: Warmup

Landau Operator       31 1.0 1.3309e-01 1.0 3.61e+07 1.0 0.0e+00 0.0e+00 0.0e+00  0  1  0  0  0  58  6  0  0  0  1085    1107      0 0.00e+00    0 0.00e+00  100
Landau Jacobian       16 1.0 1.2123e-01 1.0 3.61e+07 1.0 0.0e+00 0.0e+00 0.0e+00  0  1  0  0  0  53  6  0  0  0  1191    1210      0 0.00e+00    0 0.00e+00  100
Landau Mass           15 1.0 1.1852e-02 1.1 0.00e+00 0.0 0.0e+00 0.0e+00 0.0e+00  0  0  0  0  0   5  0  0  0  0     0       0      0 0.00e+00    0 0.00e+00  0
 Preamble             31 1.0 8.3274e-05 1.3 0.00e+00 0.0 0.0e+00 0.0e+00 0.0e+00  0  0  0  0  0   0  0  0  0  0     0       0      0 0.00e+00    0 0.00e+00  0
 dynamic IP-Jac       32 1.0 2.1231e-05 1.2 0.00e+00 0.0 0.0e+00 0.0e+00 0.0e+00  0  0  0  0  0   0  0  0  0  0     0       0      0 0.00e+00    0 0.00e+00  0
 Kernel-init          31 1.0 3.7379e-04 1.2 0.00e+00 0.0 0.0e+00 0.0e+00 0.0e+00  0  0  0  0  0   0  0  0  0  0     0       0      0 0.00e+00    0 0.00e+00  0
 Jac-f-df (GPU)       16 1.0 1.9253e-03 1.0 0.00e+00 0.0 0.0e+00 0.0e+00 0.0e+00  0  0  0  0  0   1  0  0  0  0     0       0      0 0.00e+00    0 0.00e+00  0
 J Kernel (GPU)       16 1.0 1.0763e-01 1.0 0.00e+00 0.0 0.0e+00 0.0e+00 0.0e+00  0  0  0  0  0  47  0  0  0  0     0       0      0 0.00e+00    0 0.00e+00  0
 M Kernel (GPU)       15 1.0 7.8599e-03 1.1 0.00e+00 0.0 0.0e+00 0.0e+00 0.0e+00  0  0  0  0  0   3  0  0  0  0     0       0      0 0.00e+00    0 0.00e+00  0
VecDot               458 1.0 1.3593e-02 1.0 9.57e+06 1.0 0.0e+00 0.0e+00 0.0e+00  0  0  0  0  0   6  2  0  0  0  2817    4092      0 0.00e+00    0 0.00e+00  100
VecNorm              245 1.0 7.5045e-03 1.0 5.12e+06 1.0 0.0e+00 0.0e+00 0.0e+00  0  0  0  0  0   3  1  0  0  0  2729    3920      0 0.00e+00    0 0.00e+00  100
VecCopy               94 1.0 1.7950e-03 1.1 0.00e+00 0.0 0.0e+00 0.0e+00 0.0e+00  0  0  0  0  0   1  0  0  0  0     0       0      0 0.00e+00    0 0.00e+00  0
VecSet                31 1.0 6.3771e-04 1.1 0.00e+00 0.0 0.0e+00 0.0e+00 0.0e+00  0  0  0  0  0   0  0  0  0  0     0       0      0 0.00e+00    0 0.00e+00  0
VecAXPY              914 1.0 1.6057e-02 1.0 1.91e+07 1.0 0.0e+00 0.0e+00 0.0e+00  0  0  0  0  0   7  3  0  0  0  4759   10216      0 0.00e+00    0 0.00e+00  100
VecAYPX              439 1.0 7.1452e-03 1.0 9.18e+06 1.0 0.0e+00 0.0e+00 0.0e+00  0  0  0  0  0   3  1  0  0  0  5136   12195      0 0.00e+00    0 0.00e+00  100
VecAXPBYCZ            17 1.0 5.5221e-03 1.5 8.88e+05 1.0 0.0e+00 0.0e+00 0.0e+00  0  0  0  0  0   2  0  0  0  0   643     669      0 0.00e+00    0 0.00e+00  100
VecWAXPY             901 1.0 1.7867e-02 1.0 1.88e+07 1.0 0.0e+00 0.0e+00 0.0e+00  0  0  0  0  0   8  3  0  0  0  4216    7967      0 0.00e+00    0 0.00e+00  100
VecPointwiseMult     473 1.0 9.9101e-03 1.0 4.94e+06 1.0 0.0e+00 0.0e+00 0.0e+00  0  0  0  0  0   4  1  0  0  0  1995    3681      0 0.00e+00    0 0.00e+00  100
VecReduceArith        45 1.0 1.2913e-03 1.0 9.40e+05 1.0 0.0e+00 0.0e+00 0.0e+00  0  0  0  0  0   1  0  0  0  0  2913    4260      0 0.00e+00    0 0.00e+00  100
VecReduceComm         15 1.0 4.6170e-06 1.2 0.00e+00 0.0 0.0e+00 0.0e+00 0.0e+00  0  0  0  0  0   0  0  0  0  0     0       0      0 0.00e+00    0 0.00e+00  0
MatMult              474 1.0 1.5305e-02 1.0 5.35e+08 1.0 0.0e+00 0.0e+00 0.0e+00  0  8  0  0  0   7 86  0  0  0 139743   198629      0 0.00e+00    0 0.00e+00  100
MatMultAdd            16 1.0 1.1078e-03 1.1 1.80e+07 1.0 0.0e+00 0.0e+00 0.0e+00  0  0  0  0  0   0  3  0  0  0 65166   76248      0 0.00e+00    0 0.00e+00  100
MatAssemblyBegin      62 1.0 7.7850e-06 1.2 0.00e+00 0.0 0.0e+00 0.0e+00 0.0e+00  0  0  0  0  0   0  0  0  0  0     0       0      0 0.00e+00    0 0.00e+00  0
MatAssemblyEnd        62 1.0 1.8194e-04 1.1 0.00e+00 0.0 0.0e+00 0.0e+00 0.0e+00  0  0  0  0  0   0  0  0  0  0     0       0      0 0.00e+00    0 0.00e+00  0
MatZeroEntries        16 1.0 1.5763e-04 1.3 0.00e+00 0.0 0.0e+00 0.0e+00 0.0e+00  0  0  0  0  0   0  0  0  0  0     0       0      0 0.00e+00    0 0.00e+00  0
MatView                1 0.0 3.7252e-05 0.0 0.00e+00 0.0 0.0e+00 0.0e+00 0.0e+00  0  0  0  0  0   0  0  0  0  0     0       0      0 0.00e+00    0 0.00e+00  0
MatSetValuesCOO       31 1.0 1.2944e-02 1.0 0.00e+00 0.0 0.0e+00 0.0e+00 0.0e+00  0  0  0  0  0   6  0  0  0  0     0       0      0 0.00e+00    0 0.00e+00  0
TSStep                 1 1.0 2.3152e-01 1.0 6.21e+08 1.0 0.0e+00 0.0e+00 0.0e+00  0  9  0  0  0 100 100  0  0  0 10734   13343      0 0.00e+00    0 0.00e+00  100
TSFunctionEval        16 1.0 1.2270e-01 1.0 3.64e+07 1.0 0.0e+00 0.0e+00 0.0e+00  0  1  0  0  0  53  6  0  0  0  1188    1211      0 0.00e+00    0 0.00e+00  100
TSJacobianEval        15 1.0 1.1868e-02 1.1 0.00e+00 0.0 0.0e+00 0.0e+00 0.0e+00  0  0  0  0  0   5  0  0  0  0     0       0      0 0.00e+00    0 0.00e+00  0
KSPSetUp              15 1.0 3.9709e-04 1.0 0.00e+00 0.0 0.0e+00 0.0e+00 0.0e+00  0  0  0  0  0   0  0  0  0  0     0       0      0 0.00e+00    0 0.00e+00  0
KSPSolve              15 1.0 8.8367e-02 1.0 5.83e+08 1.0 0.0e+00 0.0e+00 0.0e+00  0  8  0  0  0  38 94  0  0  0 26376   47251      0 0.00e+00    0 0.00e+00  100
SNESSolve              1 1.0 2.3129e-01 1.0 6.21e+08 1.0 0.0e+00 0.0e+00 0.0e+00  0  9  0  0  0 100 100  0  0  0 10744   13346      0 0.00e+00    0 0.00e+00  100
SNESSetUp              1 1.0 4.1670e-05 1.1 0.00e+00 0.0 0.0e+00 0.0e+00 0.0e+00  0  0  0  0  0   0  0  0  0  0     0       0      0 0.00e+00    0 0.00e+00  0
SNESFunctionEval      16 1.0 1.2664e-01 1.0 3.73e+07 1.0 0.0e+00 0.0e+00 0.0e+00  0  1  0  0  0  55  6  0  0  0  1177    1200      0 0.00e+00    0 0.00e+00  100
SNESJacobianEval      15 1.0 1.1895e-02 1.1 0.00e+00 0.0 0.0e+00 0.0e+00 0.0e+00  0  0  0  0  0   5  0  0  0  0     0       0      0 0.00e+00    0 0.00e+00  0
SNESLineSearch        15 1.0 1.1075e-01 1.0 3.62e+07 1.0 0.0e+00 0.0e+00 0.0e+00  0  1  0  0  0  48  6  0  0  0  1307    1342      0 0.00e+00    0 0.00e+00  100
PCSetUp               15 1.0 1.1239e-03 1.2 0.00e+00 0.0 0.0e+00 0.0e+00 0.0e+00  0  0  0  0  0   0  0  0  0  0     0       0      0 0.00e+00    0 0.00e+00  0
PCApply              473 1.0 1.0288e-02 1.0 4.94e+06 1.0 0.0e+00 0.0e+00 0.0e+00  0  0  0  0  0   4  1  0  0  0  1922    3654      0 0.00e+00    0 0.00e+00  100

--- Event Stage 2: Solve

Landau Operator      304 1.0 1.1743e+00 1.0 3.54e+08 1.0 0.0e+00 0.0e+00 0.0e+00  1  5  0  0  0  57  6  0  0  0  1206    1228      0 0.00e+00    0 0.00e+00  100
Landau Jacobian      157 1.0 1.0601e+00 1.0 3.54e+08 1.0 0.0e+00 0.0e+00 0.0e+00  1  5  0  0  0  51  6  0  0  0  1336    1356      0 0.00e+00    0 0.00e+00  100
Landau Mass          147 1.0 1.1417e-01 1.0 0.00e+00 0.0 0.0e+00 0.0e+00 0.0e+00  0  0  0  0  0   5  0  0  0  0     0       0      0 0.00e+00    0 0.00e+00  0
 Preamble            295 1.0 5.7821e-04 1.1 0.00e+00 0.0 0.0e+00 0.0e+00 0.0e+00  0  0  0  0  0   0  0  0  0  0     0       0      0 0.00e+00    0 0.00e+00  0
 dynamic IP-Jac      296 1.0 1.3532e-04 1.1 0.00e+00 0.0 0.0e+00 0.0e+00 0.0e+00  0  0  0  0  0   0  0  0  0  0     0       0      0 0.00e+00    0 0.00e+00  0
 Kernel-init         295 1.0 3.0669e-03 1.1 0.00e+00 0.0 0.0e+00 0.0e+00 0.0e+00  0  0  0  0  0   0  0  0  0  0     0       0      0 0.00e+00    0 0.00e+00  0
 Jac-f-df (GPU)      148 1.0 1.2982e-02 1.0 0.00e+00 0.0 0.0e+00 0.0e+00 0.0e+00  0  0  0  0  0   1  0  0  0  0     0       0      0 0.00e+00    0 0.00e+00  0
 J Kernel (GPU)      148 1.0 9.9068e-01 1.0 0.00e+00 0.0 0.0e+00 0.0e+00 0.0e+00  1  0  0  0  0  48  0  0  0  0     0       0      0 0.00e+00    0 0.00e+00  0
 M Kernel (GPU)      147 1.0 7.5817e-02 1.1 0.00e+00 0.0 0.0e+00 0.0e+00 0.0e+00  0  0  0  0  0   4  0  0  0  0     0       0      0 0.00e+00    0 0.00e+00  0
VecDot              4586 1.0 1.3260e-01 1.0 9.58e+07 1.0 0.0e+00 0.0e+00 0.0e+00  0  1  0  0  0   6  2  0  0  0  2891    4254      0 0.00e+00    0 0.00e+00  100
VecNorm             2450 1.0 7.2335e-02 1.0 5.12e+07 1.0 0.0e+00 0.0e+00 0.0e+00  0  1  0  0  0   3  1  0  0  0  2831    4117      0 0.00e+00    0 0.00e+00  100
VecCopy              912 1.0 1.6138e-02 1.0 0.00e+00 0.0 0.0e+00 0.0e+00 0.0e+00  0  0  0  0  0   1  0  0  0  0     0       0      0 0.00e+00    0 0.00e+00  0
VecSet               294 1.0 5.6734e-03 1.1 0.00e+00 0.0 0.0e+00 0.0e+00 0.0e+00  0  0  0  0  0   0  0  0  0  0     0       0      0 0.00e+00    0 0.00e+00  0
VecAXPY             9145 1.0 1.5013e-01 1.0 1.91e+08 1.0 0.0e+00 0.0e+00 0.0e+00  0  3  0  0  0   7  3  0  0  0  5092   11876      0 0.00e+00    0 0.00e+00  100
VecAYPX             4392 1.0 7.0778e-02 1.0 9.18e+07 1.0 0.0e+00 0.0e+00 0.0e+00  0  1  0  0  0   3  1  0  0  0  5188   12340      0 0.00e+00    0 0.00e+00  100
VecAXPBYCZ           167 1.0 3.6565e-03 1.1 8.73e+06 1.0 0.0e+00 0.0e+00 0.0e+00  0  0  0  0  0   0  0  0  0  0  9545   18387      0 0.00e+00    0 0.00e+00  100
VecWAXPY            9025 1.0 1.7756e-01 1.0 1.89e+08 1.0 0.0e+00 0.0e+00 0.0e+00  0  3  0  0  0   8  3  0  0  0  4249    8077      0 0.00e+00    0 0.00e+00  100
VecPointwiseMult    4733 1.0 9.8118e-02 1.0 4.95e+07 1.0 0.0e+00 0.0e+00 0.0e+00  0  1  0  0  0   5  1  0  0  0  2016    3750      0 0.00e+00    0 0.00e+00  100
VecReduceArith       441 1.0 1.2667e-02 1.0 9.22e+06 1.0 0.0e+00 0.0e+00 0.0e+00  0  0  0  0  0   1  0  0  0  0  2910    4271      0 0.00e+00    0 0.00e+00  100
VecReduceComm        147 1.0 3.6332e-05 1.1 0.00e+00 0.0 0.0e+00 0.0e+00 0.0e+00  0  0  0  0  0   0  0  0  0  0     0       0      0 0.00e+00    0 0.00e+00  0
MatMult             4743 1.0 1.5017e-01 1.0 5.35e+09 1.0 0.0e+00 0.0e+00 0.0e+00  0 77  0  0  0   7 86  0  0  0 142507   204296      0 0.00e+00    0 0.00e+00  100
MatMultAdd           157 1.0 5.7637e-03 1.0 1.77e+08 1.0 0.0e+00 0.0e+00 0.0e+00  0  3  0  0  0   0  3  0  0  0 122907   168842      0 0.00e+00    0 0.00e+00  100
MatAssemblyBegin     590 1.0 6.7905e-05 1.1 0.00e+00 0.0 0.0e+00 0.0e+00 0.0e+00  0  0  0  0  0   0  0  0  0  0     0       0      0 0.00e+00    0 0.00e+00  0
MatAssemblyEnd       590 1.0 2.4751e-04 1.2 0.00e+00 0.0 0.0e+00 0.0e+00 0.0e+00  0  0  0  0  0   0  0  0  0  0     0       0      0 0.00e+00    0 0.00e+00  0
MatZeroEntries       148 1.0 1.1519e-03 1.1 0.00e+00 0.0 0.0e+00 0.0e+00 0.0e+00  0  0  0  0  0   0  0  0  0  0     0       0      0 0.00e+00    0 0.00e+00  0
MatView                1 0.0 3.1140e-05 0.0 0.00e+00 0.0 0.0e+00 0.0e+00 0.0e+00  0  0  0  0  0   0  0  0  0  0     0       0      0 0.00e+00    0 0.00e+00  0
MatSetValuesCOO      295 1.0 7.4202e-02 1.0 0.00e+00 0.0 0.0e+00 0.0e+00 0.0e+00  0  0  0  0  0   4  0  0  0  0     0       0      0 0.00e+00    0 0.00e+00  0
TSStep                10 1.0 2.0880e+00 1.0 6.21e+09 1.0 0.0e+00 0.0e+00 0.0e+00  2 89  0  0  0 100 100  0  0  0 11903   15012      0 0.00e+00    0 0.00e+00  100
TSFunctionEval       157 1.0 1.0637e+00 1.0 3.57e+08 1.0 0.0e+00 0.0e+00 0.0e+00  1  5  0  0  0  51  6  0  0  0  1344    1366      0 0.00e+00    0 0.00e+00  100
TSJacobianEval       147 1.0 1.1430e-01 1.0 0.00e+00 0.0 0.0e+00 0.0e+00 0.0e+00  0  0  0  0  0   5  0  0  0  0     0       0      0 0.00e+00    0 0.00e+00  0
KSPSetUp             147 1.0 3.3186e-05 1.3 0.00e+00 0.0 0.0e+00 0.0e+00 0.0e+00  0  0  0  0  0   0  0  0  0  0     0       0      0 0.00e+00    0 0.00e+00  0
KSPSolve             147 1.0 8.7163e-01 1.0 5.83e+09 1.0 0.0e+00 0.0e+00 0.0e+00  1 84  0  0  0  41 94  0  0  0 26774   48176      0 0.00e+00    0 0.00e+00  100
SNESSolve             10 1.0 2.0870e+00 1.0 6.21e+09 1.0 0.0e+00 0.0e+00 0.0e+00  2 89  0  0  0 100 100  0  0  0 11907   15013      0 0.00e+00    0 0.00e+00  100
SNESFunctionEval     157 1.0 1.0673e+00 1.0 3.66e+08 1.0 0.0e+00 0.0e+00 0.0e+00  1  5  0  0  0  52  6  0  0  0  1370    1395      0 0.00e+00    0 0.00e+00  100
SNESJacobianEval     147 1.0 1.1446e-01 1.0 0.00e+00 0.0 0.0e+00 0.0e+00 0.0e+00  0  0  0  0  0   5  0  0  0  0     0       0      0 0.00e+00    0 0.00e+00  0
SNESLineSearch       147 1.0 1.0786e+00 1.0 3.55e+08 1.0 0.0e+00 0.0e+00 0.0e+00  1  5  0  0  0  52  6  0  0  0  1315    1348      0 0.00e+00    0 0.00e+00  100
PCSetUp              147 1.0 1.0498e-02 1.1 0.00e+00 0.0 0.0e+00 0.0e+00 0.0e+00  0  0  0  0  0   0  0  0  0  0     0       0      0 0.00e+00    0 0.00e+00  0
PCApply             4733 1.0 9.9694e-02 1.0 4.95e+07 1.0 0.0e+00 0.0e+00 0.0e+00  0  1  0  0  0   5  1  0  0  0  1984    3750      0 0.00e+00    0 0.00e+00  100
---------------------------------------------------------------------------------------------------------------------------------------------------------------

Object Type          Creations   Destructions. Reports information only for process 0.

--- Event Stage 0: Main Stage

           Container   497            497
    Distributed Mesh   798            798
            DM Label  1849           1849
          Quadrature  2017           2017
           Index Set 10656          10656
   IS L to G Mapping  1601           1601
             Section  2551           2551
   Star Forest Graph  2060           2060
     Discrete System  1277           1277
           Weak Form  1277           1277
    GraphPartitioner   327            327
              Vector   458            478
       p4est logging     1              1
        Linear Space   104            104
          Dual Space   366            366
            FE Space    76             76
              Matrix  1062           1062
  PetscDeviceContext     1              0
       Field over DM    18             18
             TSAdapt     1              1
                  TS     1              1
                DMTS     1              1
                SNES     1              1
              DMSNES     3              3
      SNESLineSearch     1              1
       Krylov Solver     1              1
     DMKSP interface     0              1
      Preconditioner     1              1
              Viewer     1              1

--- Event Stage 1: Warmup

              Vector    20              0
     DMKSP interface     1              0

--- Event Stage 2: Solve

========================================================================================================================
Average time to get PetscTime(): 3.41e-08
Average time for MPI_Barrier(): 2.3986e-06
Average time for zero size MPI_Send(): 1.48613e-05
#PETSc Option Table entries:
-dim 3 # (source: command line)
-dm_landau_amr_levels_max 2,2,2 # (source: command line)
-dm_landau_batch_size 1 # (source: command line)
-dm_landau_device_type kokkos # (source: file)
-dm_landau_Ez 0 # (source: file)
-dm_landau_ion_charges 1,2,3,4,5,6,7,8,9 # (source: file)
-dm_landau_ion_masses 2,182,182,182,182,182,182,182,182 # (source: file)
-dm_landau_n 1.0000044,1,1e-7,1e-7,1e-7,1e-7,1e-7,1e-7,1e-7,1e-7 # (source: file)
-dm_landau_num_species_grid 1,1,8 # (source: file)
-dm_landau_thermal_temps 2,1,1,1,1,1,1,1,1,1 # (source: file)
-dm_landau_type p8est # (source: command line)
-dm_landau_verbose 1 # (source: command line)
-dm_mat_type aijkokkos # (source: file)
-dm_preallocate_only false # (source: code)
-dm_vec_type kokkos # (source: file)
-ex2_test_type none # (source: file)
-ksp_converged_reason # (source: command line)
-ksp_max_it 100 # (source: command line)
-ksp_rtol 1.e-8 # (source: command line)
-ksp_type tfqmr # (source: command line)
-log_view # (source: command line)
-log_view_gpu_time # (source: command line)
-options_left # (source: command line)
-pc_type jacobi # (source: command line)
-petscspace_degree 2 # (source: command line)
-snes_converged_reason # (source: file)
-snes_linesearch_type basic # (source: file)
-snes_max_it 50 # (source: file)
-snes_monitor # (source: file)
-snes_rtol 1e-14 # (source: file)
-snes_stol 1e-14 # (source: file)
-ts_adapt_clip .5,1.1 # (source: file)
-ts_adapt_dt_max 1 # (source: file)
-ts_adapt_monitor # (source: file)
-ts_adapt_scale_solve_failed 0.5 # (source: file)
-ts_adapt_time_step_increase_delay 5 # (source: file)
-ts_dt .5 # (source: file)
-ts_exact_final_time stepover # (source: file)
-ts_max_snes_failures -1 # (source: file)
-ts_max_steps 10 # (source: file)
-ts_max_time 100 # (source: file)
-ts_monitor # (source: file)
-ts_rtol 1e-2 # (source: file)
-ts_type beuler # (source: file)
-ts_view # (source: command line)
-use_gpu_aware_mpi 0 # (source: file)
#End of PETSc Option Table entries
Compiled without FORTRAN kernels
Compiled with full precision matrices (default)
sizeof(short) 2 sizeof(int) 4 sizeof(long) 8 sizeof(void*) 8 sizeof(PetscScalar) 8 sizeof(PetscInt) 4
Configure options: --CFLAGS="   -g -DPETSC_HAVE_CUDA_NVTX" --CXXFLAGS=" -g -DPETSC_HAVE_CUDA_NVTX" --CUDAFLAGS="-g -Xcompiler -rdynamic" --LIBS=-lnvToolsExt --with-cc=cc --with-cxx=CC --with-fc=ftn --with-fortran-bindings=0 --COPTFLAGS="   -O" --CXXOPTFLAGS=" -O" --FOPTFLAGS="   -O" --with-dmlandau-3d --with-debugging=0 --with-x=0 --with-cuda=1 --with-cuda-arch=80 --with-mpiexec=srun --with-batch=0 --download-p4est=1 --with-zlib=1 --download-kokkos --download-kokkos-kernels --with-kokkos-kernels-tpl=0 --with-make-np=8 PETSC_ARCH=arch-perlmutter-opt-gcc-kokkos-cuda-3d
-----------------------------------------
Libraries compiled on 2024-06-27 20:01:11 on login19 
Machine characteristics: Linux-5.14.21-150400.24.81_12.0.87-cray_shasta_c-x86_64-with-glibc2.3.4
Using PETSc directory: /global/u2/m/madams/petsc
Using PETSc arch: arch-perlmutter-opt-gcc-kokkos-cuda-3d
-----------------------------------------

Using C compiler: cc -g -DPETSC_HAVE_CUDA_NVTX -fPIC -O  
Using Fortran compiler: ftn  -fPIC -Wall -ffree-line-length-none -ffree-line-length-0 -Wno-lto-type-mismatch -Wno-unused-dummy-argument -O    
-----------------------------------------

Using include paths: -I/global/u2/m/madams/petsc/include -I/global/u2/m/madams/petsc/arch-perlmutter-opt-gcc-kokkos-cuda-3d/include -I/opt/nvidia/hpc_sdk/Linux_x86_64/23.9/cuda/12.2/include -I/opt/nvidia/hpc_sdk/Linux_x86_64/23.9/math_libs/12.2/include
-----------------------------------------

Using C linker: cc
Using Fortran linker: ftn
Using libraries: -Wl,-rpath,/global/u2/m/madams/petsc/arch-perlmutter-opt-gcc-kokkos-cuda-3d/lib -L/global/u2/m/madams/petsc/arch-perlmutter-opt-gcc-kokkos-cuda-3d/lib -lpetsc -Wl,-rpath,/global/u2/m/madams/petsc/arch-perlmutter-opt-gcc-kokkos-cuda-3d/lib -L/global/u2/m/madams/petsc/arch-perlmutter-opt-gcc-kokkos-cuda-3d/lib -Wl,-rpath,/opt/nvidia/hpc_sdk/Linux_x86_64/23.9/math_libs/12.2/lib64 -L/opt/nvidia/hpc_sdk/Linux_x86_64/23.9/math_libs/12.2/lib64 -Wl,-rpath,/opt/nvidia/hpc_sdk/Linux_x86_64/23.9/cuda/12.2/lib64 -L/opt/nvidia/hpc_sdk/Linux_x86_64/23.9/cuda/12.2/lib64 -L/opt/nvidia/hpc_sdk/Linux_x86_64/23.9/cuda/12.2/lib64/stubs -Wl,-rpath,/opt/cray/pe/mpich/8.1.28/ofi/gnu/12.3/lib -L/opt/cray/pe/mpich/8.1.28/ofi/gnu/12.3/lib -Wl,-rpath,/opt/cray/pe/mpich/8.1.28/gtl/lib -L/opt/cray/pe/mpich/8.1.28/gtl/lib -Wl,-rpath,/opt/cray/pe/libsci/23.12.5/GNU/12.3/x86_64/lib -L/opt/cray/pe/libsci/23.12.5/GNU/12.3/x86_64/lib -Wl,-rpath,/opt/cray/pe/hdf5-parallel/1.12.2.9/gnu/12.3/lib -L/opt/cray/pe/hdf5-parallel/1.12.2.9/gnu/12.3/lib -Wl,-rpath,/opt/nvidia/hpc_sdk/Linux_x86_64/23.9/cuda/12.2/lib64/stubs -Wl,-rpath,/opt/nvidia/hpc_sdk/Linux_x86_64/23.9/cuda/12.2/nvvm/lib64 -L/opt/nvidia/hpc_sdk/Linux_x86_64/23.9/cuda/12.2/nvvm/lib64 -Wl,-rpath,/opt/nvidia/hpc_sdk/Linux_x86_64/23.9/cuda/12.2/extras/CUPTI/lib64 -L/opt/nvidia/hpc_sdk/Linux_x86_64/23.9/cuda/12.2/extras/CUPTI/lib64 -Wl,-rpath,/opt/nvidia/hpc_sdk/Linux_x86_64/23.9/cuda/12.2/extras/Debugger/lib64 -L/opt/nvidia/hpc_sdk/Linux_x86_64/23.9/cuda/12.2/extras/Debugger/lib64 -Wl,-rpath,/opt/cray/pe/dsmml/0.2.2/dsmml/lib -L/opt/cray/pe/dsmml/0.2.2/dsmml/lib -Wl,-rpath,/opt/cray/xpmem/2.6.2-2.5_2.38__gd067c3f.shasta/lib64 -L/opt/cray/xpmem/2.6.2-2.5_2.38__gd067c3f.shasta/lib64 -Wl,-rpath,/usr/lib64/gcc/x86_64-suse-linux/12 -L/usr/lib64/gcc/x86_64-suse-linux/12 -Wl,-rpath,/usr/x86_64-suse-linux/lib -L/usr/x86_64-suse-linux/lib -lkokkoskernels -lkokkoscontainers -lkokkoscore -lkokkossimd -lp4est -lsc -lz -lcufft -lcublas -lcusparse -lcusolver -lcurand -lcudart -lnvToolsExt -lcuda -lnvToolsExt -lcuda -lmpi_gtl_cuda -ldl -lxpmem -lgfortran -lm -lhdf5_hl_parallel -lhdf5_parallel -lcupti -lcudart -lhdf5hl_fortran_parallel -lhdf5_fortran_parallel -lmpifort_gnu_123 -lsci_gnu_123_mpi -lmpi_gnu_123 -lsci_gnu_123 -ldsmml -lgfortran -lquadmath -lpthread -lm -lgcc_s -lstdc++ -lquadmath -lnvToolsExt
-----------------------------------------

#PETSc Option Table entries:
-dim 3 # (source: command line)
-dm_landau_amr_levels_max 2,2,2 # (source: command line)
-dm_landau_batch_size 1 # (source: command line)
-dm_landau_device_type kokkos # (source: file)
-dm_landau_Ez 0 # (source: file)
-dm_landau_ion_charges 1,2,3,4,5,6,7,8,9 # (source: file)
-dm_landau_ion_masses 2,182,182,182,182,182,182,182,182 # (source: file)
-dm_landau_n 1.0000044,1,1e-7,1e-7,1e-7,1e-7,1e-7,1e-7,1e-7,1e-7 # (source: file)
-dm_landau_num_species_grid 1,1,8 # (source: file)
-dm_landau_thermal_temps 2,1,1,1,1,1,1,1,1,1 # (source: file)
-dm_landau_type p8est # (source: command line)
-dm_landau_verbose 1 # (source: command line)
-dm_mat_type aijkokkos # (source: file)
-dm_preallocate_only false # (source: code)
-dm_vec_type kokkos # (source: file)
-ex2_test_type none # (source: file)
-ksp_converged_reason # (source: command line)
-ksp_max_it 100 # (source: command line)
-ksp_rtol 1.e-8 # (source: command line)
-ksp_type tfqmr # (source: command line)
-log_view # (source: command line)
-log_view_gpu_time # (source: command line)
-options_left # (source: command line)
-pc_type jacobi # (source: command line)
-petscspace_degree 2 # (source: command line)
-snes_converged_reason # (source: file)
-snes_linesearch_type basic # (source: file)
-snes_max_it 50 # (source: file)
-snes_monitor # (source: file)
-snes_rtol 1e-14 # (source: file)
-snes_stol 1e-14 # (source: file)
-ts_adapt_clip .5,1.1 # (source: file)
-ts_adapt_dt_max 1 # (source: file)
-ts_adapt_monitor # (source: file)
-ts_adapt_scale_solve_failed 0.5 # (source: file)
-ts_adapt_time_step_increase_delay 5 # (source: file)
-ts_dt .5 # (source: file)
-ts_exact_final_time stepover # (source: file)
-ts_max_snes_failures -1 # (source: file)
-ts_max_steps 10 # (source: file)
-ts_max_time 100 # (source: file)
-ts_monitor # (source: file)
-ts_rtol 1e-2 # (source: file)
-ts_type beuler # (source: file)
-ts_view # (source: command line)
-use_gpu_aware_mpi 0 # (source: file)
#End of PETSc Option Table entries
There are no unused options.
