masses:        e= 9.109e-31; ions in proton mass units:    2.000e+00  1.820e+02 ...
charges:       e=-1.602e-19; charges in elementary units:  1.000e+00  2.000e+00
n:             e:  1.000e+00                           i:  1.000e+00  1.000e-07
thermal T (K): e= 2.321e+07 i= 1.160e+07  1.160e+07. v_0= 1.876e+07 ( 6.256e-02c) n_0= 1.000e+20 t_0= 1.637e-05, classical, Intuitive, 64 batched
Domain radius (AMR levels) grid 0:  5.000e+00 (2) , 1:  5.835e-02 (2) , 2:  6.117e-03 (2) 
Using default Plex order for all matrices
0) FormLandau 9720 IPs, 360 cells total, Nb=27, Nq=27, dim=3, Tab: Nb=27 Nf=10 Np=27 cdim=3 N=668800
0 TS dt 0.5 time 0.
    0 SNES Function norm 1.650290436850e-01 
    Linear solve converged due to CONVERGED_RTOL iterations 18
    1 SNES Function norm 5.583442763752e-03 
    Linear solve converged due to CONVERGED_RTOL iterations 16
    2 SNES Function norm 1.028286565295e-03 
    Linear solve converged due to CONVERGED_RTOL iterations 16
    3 SNES Function norm 2.343632604989e-04 
    Linear solve converged due to CONVERGED_RTOL iterations 15
    4 SNES Function norm 5.523545949957e-05 
    Linear solve converged due to CONVERGED_RTOL iterations 16
    5 SNES Function norm 1.315446875298e-05 
    Linear solve converged due to CONVERGED_RTOL iterations 15
    6 SNES Function norm 3.145960457861e-06 
    Linear solve converged due to CONVERGED_RTOL iterations 15
    7 SNES Function norm 7.539022861844e-07 
    Linear solve converged due to CONVERGED_RTOL iterations 15
    8 SNES Function norm 1.808786897289e-07 
    Linear solve converged due to CONVERGED_RTOL iterations 15
    9 SNES Function norm 4.343245268347e-08 
    Linear solve converged due to CONVERGED_RTOL iterations 15
   10 SNES Function norm 1.043585037656e-08 
    Linear solve converged due to CONVERGED_RTOL iterations 15
   11 SNES Function norm 2.508976991317e-09 
    Linear solve converged due to CONVERGED_RTOL iterations 15
   12 SNES Function norm 6.035379261704e-10 
    Linear solve converged due to CONVERGED_RTOL iterations 16
   13 SNES Function norm 1.452604471392e-10 
    Linear solve converged due to CONVERGED_RTOL iterations 15
   14 SNES Function norm 3.497845560406e-11 
    Linear solve converged due to CONVERGED_RTOL iterations 15
   15 SNES Function norm 8.427373334073e-12 
    Linear solve converged due to CONVERGED_RTOL iterations 15
   16 SNES Function norm 2.031352206924e-12 
  Nonlinear solve converged due to CONVERGED_SNORM_RELATIVE iterations 16
      TSAdapt none beuler 0: step   0 accepted t=0          + 5.000e-01 dt=5.000e-01 
1 TS dt 0.5 time 0.5
TS Object: 1 MPI process
  type: beuler
  maximum steps=1
  maximum time=100.
  total number of I function evaluations=17
  total number of I Jacobian evaluations=16
  total number of RHS function evaluations=17
  total number of nonlinear solver iterations=16
  total number of linear solver iterations=247
  total number of nonlinear solve failures=0
  total number of rejected steps=0
  using relative error tolerance of 0.01,   using absolute error tolerance of 0.0001
  TSAdapt Object: 1 MPI process
    type: none
  SNES Object: 1 MPI process
    type: newtonls
    maximum iterations=50, maximum function evaluations=10000
    tolerances: relative=1e-14, absolute=1e-50, solution=1e-14
    total number of linear solver iterations=247
    total number of function evaluations=17
    norm schedule ALWAYS
    SNESLineSearch Object: 1 MPI process
      type: basic
      maxstep=1.000000e+08, minlambda=1.000000e-12
      tolerances: relative=1.000000e-08, absolute=1.000000e-15, lambda=1.000000e-08
      maximum iterations=40
    KSP Object: 1 MPI process
      type: tfqmr
      maximum iterations=100, initial guess is zero
      tolerances:  relative=1e-08, absolute=1e-50, divergence=10000.
      left preconditioning
      using PRECONDITIONED norm type for convergence test
    PC Object: 1 MPI process
      type: jacobi
        type DIAGONAL
      linear system matrix = precond matrix:
      Mat Object: Jacobian 1 MPI process
        type: seqaijkokkos
        rows=668800, cols=668800
        total: nonzeros=36096640, allocated nonzeros=36096640
        total number of mallocs used during MatSetValues calls=0
          not using I-node routines
0 TS dt 0.5 time 0.
    0 SNES Function norm 1.650290436850e-01 
    Linear solve converged due to CONVERGED_RTOL iterations 18
    1 SNES Function norm 5.583442763752e-03 
    Linear solve converged due to CONVERGED_RTOL iterations 16
    2 SNES Function norm 1.028286565295e-03 
    Linear solve converged due to CONVERGED_RTOL iterations 16
    3 SNES Function norm 2.343632604989e-04 
    Linear solve converged due to CONVERGED_RTOL iterations 15
    4 SNES Function norm 5.523545949957e-05 
    Linear solve converged due to CONVERGED_RTOL iterations 16
    5 SNES Function norm 1.315446875298e-05 
    Linear solve converged due to CONVERGED_RTOL iterations 15
    6 SNES Function norm 3.145960457861e-06 
    Linear solve converged due to CONVERGED_RTOL iterations 15
    7 SNES Function norm 7.539022861844e-07 
    Linear solve converged due to CONVERGED_RTOL iterations 15
    8 SNES Function norm 1.808786897289e-07 
    Linear solve converged due to CONVERGED_RTOL iterations 15
    9 SNES Function norm 4.343245268347e-08 
    Linear solve converged due to CONVERGED_RTOL iterations 15
   10 SNES Function norm 1.043585037656e-08 
    Linear solve converged due to CONVERGED_RTOL iterations 15
   11 SNES Function norm 2.508976991317e-09 
    Linear solve converged due to CONVERGED_RTOL iterations 15
   12 SNES Function norm 6.035379261704e-10 
    Linear solve converged due to CONVERGED_RTOL iterations 16
   13 SNES Function norm 1.452604471392e-10 
    Linear solve converged due to CONVERGED_RTOL iterations 15
   14 SNES Function norm 3.497845560406e-11 
    Linear solve converged due to CONVERGED_RTOL iterations 15
   15 SNES Function norm 8.427373334073e-12 
    Linear solve converged due to CONVERGED_RTOL iterations 15
   16 SNES Function norm 2.031352206924e-12 
  Nonlinear solve converged due to CONVERGED_SNORM_RELATIVE iterations 16
      TSAdapt none beuler 0: step   0 accepted t=0          + 5.000e-01 dt=5.000e-01 
1 TS dt 0.5 time 0.5
    0 SNES Function norm 2.018504429147e-02 
    Linear solve converged due to CONVERGED_RTOL iterations 20
    1 SNES Function norm 2.577651682974e-03 
    Linear solve converged due to CONVERGED_RTOL iterations 16
    2 SNES Function norm 6.101479860302e-04 
    Linear solve converged due to CONVERGED_RTOL iterations 17
    3 SNES Function norm 1.457590812359e-04 
    Linear solve converged due to CONVERGED_RTOL iterations 17
    4 SNES Function norm 3.482269247750e-05 
    Linear solve converged due to CONVERGED_RTOL iterations 14
    5 SNES Function norm 8.323612815826e-06 
    Linear solve converged due to CONVERGED_RTOL iterations 15
    6 SNES Function norm 1.990937620536e-06 
    Linear solve converged due to CONVERGED_RTOL iterations 15
    7 SNES Function norm 4.765255893136e-07 
    Linear solve converged due to CONVERGED_RTOL iterations 15
    8 SNES Function norm 1.141244770860e-07 
    Linear solve converged due to CONVERGED_RTOL iterations 15
    9 SNES Function norm 2.734769800310e-08 
    Linear solve converged due to CONVERGED_RTOL iterations 15
   10 SNES Function norm 6.556961660271e-09 
    Linear solve converged due to CONVERGED_RTOL iterations 15
   11 SNES Function norm 1.572960125188e-09 
    Linear solve converged due to CONVERGED_RTOL iterations 15
   12 SNES Function norm 3.775380722668e-10 
    Linear solve converged due to CONVERGED_RTOL iterations 15
   13 SNES Function norm 9.066249453461e-11 
    Linear solve converged due to CONVERGED_RTOL iterations 15
   14 SNES Function norm 2.178301623539e-11 
    Linear solve converged due to CONVERGED_RTOL iterations 16
   15 SNES Function norm 5.235725892982e-12 
  Nonlinear solve converged due to CONVERGED_SNORM_RELATIVE iterations 15
      TSAdapt none beuler 0: step   1 accepted t=0.5        + 5.000e-01 dt=5.000e-01 
2 TS dt 0.5 time 1.
    0 SNES Function norm 1.102998197474e-02 
    Linear solve converged due to CONVERGED_RTOL iterations 18
    1 SNES Function norm 2.034597699633e-03 
    Linear solve converged due to CONVERGED_RTOL iterations 16
    2 SNES Function norm 4.999857512978e-04 
    Linear solve converged due to CONVERGED_RTOL iterations 17
    3 SNES Function norm 1.205210592377e-04 
    Linear solve converged due to CONVERGED_RTOL iterations 16
    4 SNES Function norm 2.883999053569e-05 
    Linear solve converged due to CONVERGED_RTOL iterations 14
    5 SNES Function norm 6.884552227689e-06 
    Linear solve converged due to CONVERGED_RTOL iterations 15
    6 SNES Function norm 1.642504209277e-06 
    Linear solve converged due to CONVERGED_RTOL iterations 19
    7 SNES Function norm 3.919080847898e-07 
    Linear solve converged due to CONVERGED_RTOL iterations 19
    8 SNES Function norm 9.354553239908e-08 
    Linear solve converged due to CONVERGED_RTOL iterations 19
    9 SNES Function norm 2.233908742258e-08 
    Linear solve converged due to CONVERGED_RTOL iterations 19
   10 SNES Function norm 5.337359952717e-09 
    Linear solve converged due to CONVERGED_RTOL iterations 19
   11 SNES Function norm 1.275881260471e-09 
    Linear solve converged due to CONVERGED_RTOL iterations 15
   12 SNES Function norm 3.051546666045e-10 
    Linear solve converged due to CONVERGED_RTOL iterations 19
   13 SNES Function norm 7.302086656483e-11 
    Linear solve converged due to CONVERGED_RTOL iterations 15
   14 SNES Function norm 1.748081978740e-11 
    Linear solve converged due to CONVERGED_RTOL iterations 15
   15 SNES Function norm 4.187902638630e-12 
  Nonlinear solve converged due to CONVERGED_SNORM_RELATIVE iterations 15
      TSAdapt none beuler 0: step   2 accepted t=1          + 5.000e-01 dt=5.000e-01 
3 TS dt 0.5 time 1.5
    0 SNES Function norm 8.830359894705e-03 
    Linear solve converged due to CONVERGED_RTOL iterations 17
    1 SNES Function norm 1.862182404941e-03 
    Linear solve converged due to CONVERGED_RTOL iterations 16
    2 SNES Function norm 4.566851153391e-04 
    Linear solve converged due to CONVERGED_RTOL iterations 16
    3 SNES Function norm 1.098399277188e-04 
    Linear solve converged due to CONVERGED_RTOL iterations 15
    4 SNES Function norm 2.620943549870e-05 
    Linear solve converged due to CONVERGED_RTOL iterations 16
    5 SNES Function norm 6.235720384809e-06 
    Linear solve converged due to CONVERGED_RTOL iterations 18
    6 SNES Function norm 1.482390053209e-06 
    Linear solve converged due to CONVERGED_RTOL iterations 15
    7 SNES Function norm 3.523907898669e-07 
    Linear solve converged due to CONVERGED_RTOL iterations 15
    8 SNES Function norm 8.379465735117e-08 
    Linear solve converged due to CONVERGED_RTOL iterations 15
    9 SNES Function norm 1.993422535273e-08 
    Linear solve converged due to CONVERGED_RTOL iterations 15
   10 SNES Function norm 4.744547365961e-09 
    Linear solve converged due to CONVERGED_RTOL iterations 15
   11 SNES Function norm 1.129819211561e-09 
    Linear solve converged due to CONVERGED_RTOL iterations 15
   12 SNES Function norm 2.691805226583e-10 
    Linear solve converged due to CONVERGED_RTOL iterations 19
   13 SNES Function norm 6.416313231356e-11 
    Linear solve converged due to CONVERGED_RTOL iterations 15
   14 SNES Function norm 1.530143690302e-11 
    Linear solve converged due to CONVERGED_RTOL iterations 15
   15 SNES Function norm 3.651626859495e-12 
  Nonlinear solve converged due to CONVERGED_SNORM_RELATIVE iterations 15
      TSAdapt none beuler 0: step   3 accepted t=1.5        + 5.000e-01 dt=5.000e-01 
4 TS dt 0.5 time 2.
    0 SNES Function norm 7.939819404618e-03 
    Linear solve converged due to CONVERGED_RTOL iterations 16
    1 SNES Function norm 1.749128778952e-03 
    Linear solve converged due to CONVERGED_RTOL iterations 16
    2 SNES Function norm 4.262639738951e-04 
    Linear solve converged due to CONVERGED_RTOL iterations 16
    3 SNES Function norm 1.020626927672e-04 
    Linear solve converged due to CONVERGED_RTOL iterations 15
    4 SNES Function norm 2.425753291644e-05 
    Linear solve converged due to CONVERGED_RTOL iterations 15
    5 SNES Function norm 5.749400992225e-06 
    Linear solve converged due to CONVERGED_RTOL iterations 15
    6 SNES Function norm 1.361590141805e-06 
    Linear solve converged due to CONVERGED_RTOL iterations 15
    7 SNES Function norm 3.224493383414e-07 
    Linear solve converged due to CONVERGED_RTOL iterations 15
    8 SNES Function norm 7.638512595239e-08 
    Linear solve converged due to CONVERGED_RTOL iterations 15
    9 SNES Function norm 1.810281400558e-08 
    Linear solve converged due to CONVERGED_RTOL iterations 15
   10 SNES Function norm 4.292345898121e-09 
    Linear solve converged due to CONVERGED_RTOL iterations 15
   11 SNES Function norm 1.018266856935e-09 
    Linear solve converged due to CONVERGED_RTOL iterations 15
   12 SNES Function norm 2.416853669202e-10 
    Linear solve converged due to CONVERGED_RTOL iterations 15
   13 SNES Function norm 5.739188015092e-11 
    Linear solve converged due to CONVERGED_RTOL iterations 15
   14 SNES Function norm 1.363532236591e-11 
    Linear solve converged due to CONVERGED_RTOL iterations 15
   15 SNES Function norm 3.241105465172e-12 
  Nonlinear solve converged due to CONVERGED_SNORM_RELATIVE iterations 15
      TSAdapt none beuler 0: step   4 accepted t=2          + 5.000e-01 dt=5.000e-01 
5 TS dt 0.5 time 2.5
    0 SNES Function norm 7.344917845373e-03 
    Linear solve converged due to CONVERGED_RTOL iterations 17
    1 SNES Function norm 1.636062586204e-03 
    Linear solve converged due to CONVERGED_RTOL iterations 15
    2 SNES Function norm 3.962342649423e-04 
    Linear solve converged due to CONVERGED_RTOL iterations 16
    3 SNES Function norm 9.442907165207e-05 
    Linear solve converged due to CONVERGED_RTOL iterations 15
    4 SNES Function norm 2.235346053106e-05 
    Linear solve converged due to CONVERGED_RTOL iterations 15
    5 SNES Function norm 5.278406555014e-06 
    Linear solve converged due to CONVERGED_RTOL iterations 14
    6 SNES Function norm 1.245514540432e-06 
    Linear solve converged due to CONVERGED_RTOL iterations 15
    7 SNES Function norm 2.939013010528e-07 
    Linear solve converged due to CONVERGED_RTOL iterations 15
    8 SNES Function norm 6.937343916736e-08 
    Linear solve converged due to CONVERGED_RTOL iterations 15
    9 SNES Function norm 1.638239179825e-08 
    Linear solve converged due to CONVERGED_RTOL iterations 15
   10 SNES Function norm 3.870560610771e-09 
    Linear solve converged due to CONVERGED_RTOL iterations 15
   11 SNES Function norm 9.149329664074e-10 
    Linear solve converged due to CONVERGED_RTOL iterations 14
   12 SNES Function norm 2.163828207645e-10 
    Linear solve converged due to CONVERGED_RTOL iterations 16
   13 SNES Function norm 5.120111568550e-11 
    Linear solve converged due to CONVERGED_RTOL iterations 14
   14 SNES Function norm 1.212069941429e-11 
    Linear solve converged due to CONVERGED_RTOL iterations 15
   15 SNES Function norm 2.870448194001e-12 
  Nonlinear solve converged due to CONVERGED_SNORM_RELATIVE iterations 15
      TSAdapt none beuler 0: step   5 accepted t=2.5        + 5.000e-01 dt=5.000e-01 
6 TS dt 0.5 time 3.
    0 SNES Function norm 6.814182183876e-03 
    Linear solve converged due to CONVERGED_RTOL iterations 17
    1 SNES Function norm 1.514245677655e-03 
    Linear solve converged due to CONVERGED_RTOL iterations 15
    2 SNES Function norm 3.646406631021e-04 
    Linear solve converged due to CONVERGED_RTOL iterations 16
    3 SNES Function norm 8.651841057154e-05 
    Linear solve converged due to CONVERGED_RTOL iterations 15
    4 SNES Function norm 2.040443946005e-05 
    Linear solve converged due to CONVERGED_RTOL iterations 14
    5 SNES Function norm 4.801521582681e-06 
    Linear solve converged due to CONVERGED_RTOL iterations 14
    6 SNES Function norm 1.129192940243e-06 
    Linear solve converged due to CONVERGED_RTOL iterations 14
    7 SNES Function norm 2.655716904149e-07 
    Linear solve converged due to CONVERGED_RTOL iterations 14
    8 SNES Function norm 6.248011691902e-08 
    Linear solve converged due to CONVERGED_RTOL iterations 14
    9 SNES Function norm 1.470610450201e-08 
    Linear solve converged due to CONVERGED_RTOL iterations 14
   10 SNES Function norm 3.463120256651e-09 
    Linear solve converged due to CONVERGED_RTOL iterations 14
   11 SNES Function norm 8.159384055465e-10 
    Linear solve converged due to CONVERGED_RTOL iterations 14
   12 SNES Function norm 1.923391395549e-10 
    Linear solve converged due to CONVERGED_RTOL iterations 14
   13 SNES Function norm 4.536183154904e-11 
    Linear solve converged due to CONVERGED_RTOL iterations 15
   14 SNES Function norm 1.070324078083e-11 
    Linear solve converged due to CONVERGED_RTOL iterations 15
   15 SNES Function norm 2.527098410474e-12 
  Nonlinear solve converged due to CONVERGED_SNORM_RELATIVE iterations 15
      TSAdapt none beuler 0: step   6 accepted t=3          + 5.000e-01 dt=5.000e-01 
7 TS dt 0.5 time 3.5
    0 SNES Function norm 6.296026634675e-03 
    Linear solve converged due to CONVERGED_RTOL iterations 17
    1 SNES Function norm 1.386252862939e-03 
    Linear solve converged due to CONVERGED_RTOL iterations 15
    2 SNES Function norm 3.320972039753e-04 
    Linear solve converged due to CONVERGED_RTOL iterations 16
    3 SNES Function norm 7.848245620905e-05 
    Linear solve converged due to CONVERGED_RTOL iterations 15
    4 SNES Function norm 1.844634872089e-05 
    Linear solve converged due to CONVERGED_RTOL iterations 16
    5 SNES Function norm 4.327031689622e-06 
    Linear solve converged due to CONVERGED_RTOL iterations 14
    6 SNES Function norm 1.014501872706e-06 
    Linear solve converged due to CONVERGED_RTOL iterations 14
    7 SNES Function norm 2.378800181314e-07 
    Linear solve converged due to CONVERGED_RTOL iterations 14
    8 SNES Function norm 5.579779665461e-08 
    Linear solve converged due to CONVERGED_RTOL iterations 14
    9 SNES Function norm 1.309409904142e-08 
    Linear solve converged due to CONVERGED_RTOL iterations 14
   10 SNES Function norm 3.074331031249e-09 
    Linear solve converged due to CONVERGED_RTOL iterations 14
   11 SNES Function norm 7.221826946777e-10 
    Linear solve converged due to CONVERGED_RTOL iterations 14
   12 SNES Function norm 1.697322997521e-10 
    Linear solve converged due to CONVERGED_RTOL iterations 18
   13 SNES Function norm 3.991107721870e-11 
    Linear solve converged due to CONVERGED_RTOL iterations 18
   14 SNES Function norm 9.389768726822e-12 
    Linear solve converged due to CONVERGED_RTOL iterations 15
   15 SNES Function norm 2.209929403763e-12 
  Nonlinear solve converged due to CONVERGED_SNORM_RELATIVE iterations 15
      TSAdapt none beuler 0: step   7 accepted t=3.5        + 5.000e-01 dt=5.000e-01 
8 TS dt 0.5 time 4.
    0 SNES Function norm 5.784794170952e-03 
    Linear solve converged due to CONVERGED_RTOL iterations 17
    1 SNES Function norm 1.256347617609e-03 
    Linear solve converged due to CONVERGED_RTOL iterations 17
    2 SNES Function norm 2.995597204727e-04 
    Linear solve converged due to CONVERGED_RTOL iterations 15
    3 SNES Function norm 7.053965357564e-05 
    Linear solve converged due to CONVERGED_RTOL iterations 15
    4 SNES Function norm 1.652855717403e-05 
    Linear solve converged due to CONVERGED_RTOL iterations 15
    5 SNES Function norm 3.866185887672e-06 
    Linear solve converged due to CONVERGED_RTOL iterations 14
    6 SNES Function norm 9.039613184382e-07 
    Linear solve converged due to CONVERGED_RTOL iterations 14
    7 SNES Function norm 2.113862006895e-07 
    Linear solve converged due to CONVERGED_RTOL iterations 14
    8 SNES Function norm 4.944985737835e-08 
    Linear solve converged due to CONVERGED_RTOL iterations 14
    9 SNES Function norm 1.157329222610e-08 
    Linear solve converged due to CONVERGED_RTOL iterations 14
   10 SNES Function norm 2.709989960686e-09 
    Linear solve converged due to CONVERGED_RTOL iterations 14
   11 SNES Function norm 6.348951287621e-10 
    Linear solve converged due to CONVERGED_RTOL iterations 14
   12 SNES Function norm 1.488200862395e-10 
    Linear solve converged due to CONVERGED_RTOL iterations 15
   13 SNES Function norm 3.489975093827e-11 
    Linear solve converged due to CONVERGED_RTOL iterations 18
   14 SNES Function norm 8.188968408095e-12 
    Linear solve converged due to CONVERGED_RTOL iterations 17
   15 SNES Function norm 1.922536733609e-12 
  Nonlinear solve converged due to CONVERGED_SNORM_RELATIVE iterations 15
      TSAdapt none beuler 0: step   8 accepted t=4          + 5.000e-01 dt=5.000e-01 
9 TS dt 0.5 time 4.5
    0 SNES Function norm 5.285942681369e-03 
    Linear solve converged due to CONVERGED_RTOL iterations 17
    1 SNES Function norm 1.128054529321e-03 
    Linear solve converged due to CONVERGED_RTOL iterations 17
    2 SNES Function norm 2.678049097988e-04 
    Linear solve converged due to CONVERGED_RTOL iterations 15
    3 SNES Function norm 6.285407975862e-05 
    Linear solve converged due to CONVERGED_RTOL iterations 15
    4 SNES Function norm 1.468683010460e-05 
    Linear solve converged due to CONVERGED_RTOL iterations 15
    5 SNES Function norm 3.426622042678e-06 
    Linear solve converged due to CONVERGED_RTOL iterations 14
    6 SNES Function norm 7.992147113456e-07 
    Linear solve converged due to CONVERGED_RTOL iterations 14
    7 SNES Function norm 1.864389588520e-07 
    Linear solve converged due to CONVERGED_RTOL iterations 14
    8 SNES Function norm 4.350899951442e-08 
    Linear solve converged due to CONVERGED_RTOL iterations 14
    9 SNES Function norm 1.015849308951e-08 
    Linear solve converged due to CONVERGED_RTOL iterations 14
   10 SNES Function norm 2.373019922272e-09 
    Linear solve converged due to CONVERGED_RTOL iterations 14
   11 SNES Function norm 5.546248766534e-10 
    Linear solve converged due to CONVERGED_RTOL iterations 14
   12 SNES Function norm 1.296945921133e-10 
    Linear solve converged due to CONVERGED_RTOL iterations 14
   13 SNES Function norm 3.034368273341e-11 
    Linear solve converged due to CONVERGED_RTOL iterations 18
   14 SNES Function norm 7.102808117804e-12 
    Linear solve converged due to CONVERGED_RTOL iterations 15
   15 SNES Function norm 1.663546495152e-12 
  Nonlinear solve converged due to CONVERGED_SNORM_RELATIVE iterations 15
      TSAdapt none beuler 0: step   9 accepted t=4.5        + 5.000e-01 dt=5.000e-01 
10 TS dt 0.5 time 5.
TS Object: 1 MPI process
  type: beuler
  maximum steps=10
  maximum time=100.
  total number of I function evaluations=178
  total number of I Jacobian evaluations=167
  total number of RHS function evaluations=178
  total number of nonlinear solver iterations=151
  total number of linear solver iterations=2326
  total number of nonlinear solve failures=0
  total number of rejected steps=0
  using relative error tolerance of 0.01,   using absolute error tolerance of 0.0001
  TSAdapt Object: 1 MPI process
    type: none
  SNES Object: 1 MPI process
    type: newtonls
    maximum iterations=50, maximum function evaluations=10000
    tolerances: relative=1e-14, absolute=1e-50, solution=1e-14
    total number of linear solver iterations=224
    total number of function evaluations=16
    norm schedule ALWAYS
    SNESLineSearch Object: 1 MPI process
      type: basic
      maxstep=1.000000e+08, minlambda=1.000000e-12
      tolerances: relative=1.000000e-08, absolute=1.000000e-15, lambda=1.000000e-08
      maximum iterations=40
    KSP Object: 1 MPI process
      type: tfqmr
      maximum iterations=100, initial guess is zero
      tolerances:  relative=1e-08, absolute=1e-50, divergence=10000.
      left preconditioning
      using PRECONDITIONED norm type for convergence test
    PC Object: 1 MPI process
      type: jacobi
        type DIAGONAL
      linear system matrix = precond matrix:
      Mat Object: Jacobian 1 MPI process
        type: seqaijkokkos
        rows=668800, cols=668800
        total: nonzeros=36096640, allocated nonzeros=36096640
        total number of mallocs used during MatSetValues calls=0
          not using I-node routines
****************************************************************************************************************************************************************
***                                WIDEN YOUR WINDOW TO 160 CHARACTERS.  Use 'enscript -r -fCourier9' to print this document                                 ***
****************************************************************************************************************************************************************

------------------------------------------------------------------ PETSc Performance Summary: ------------------------------------------------------------------



      ##########################################################
      #                                                        #
      #                       WARNING!!!                       #
      #                                                        #
      #   This code was compiled with GPU support and you've   #
      #   created PETSc/GPU objects, but you intentionally     #
      #   used -use_gpu_aware_mpi 0, requiring PETSc to copy   #
      #   additional data between the GPU and CPU. To obtain   #
      #   meaningful timing results on multi-rank runs, use    #
      #   GPU-aware MPI instead.                               #
      #                                                        #
      ##########################################################


/gpfs/alpine/csc314/scratch/adams/batch_gmres_paper/mark/crusher/./ex2-3d on a arch-olcf-crusher-kokkos-3d named crusher121 with 8 processors, by adams Fri Jul 15 10:13:17 2022
Using Petsc Development GIT revision: v3.17.3-760-g6e3d66b0f1  GIT Date: 2022-07-14 21:35:48 +0000

                         Max       Max/Min     Avg       Total
Time (sec):           3.722e+02     1.000   3.722e+02
Objects:              3.223e+04     1.000   3.223e+04
Flops:                4.471e+11     1.000   4.471e+11  3.577e+12
Flops/sec:            1.201e+09     1.000   1.201e+09  9.611e+09
MPI Msg Count:        0.000e+00     0.000   0.000e+00  0.000e+00
MPI Msg Len (bytes):  0.000e+00     0.000   0.000e+00  0.000e+00
MPI Reductions:       2.100e+01     1.000

Flop counting convention: 1 flop = 1 real number operation of type (multiply/divide/add/subtract)
                            e.g., VecAXPY() for real vectors of length N --> 2N flops
                            and VecAXPY() for complex vectors of length N --> 8N flops

Summary of Stages:   ----- Time ------  ----- Flop ------  --- Messages ---  -- Message Lengths --  -- Reductions --
                        Avg     %Total     Avg     %Total    Count   %Total     Avg         %Total    Count   %Total
 0:      Main Stage: 1.3789e+02  37.1%  4.1023e+09   0.1%  0.000e+00   0.0%  0.000e+00        0.0%  2.000e+00   9.5%
 1:          Warmup: 2.3420e+01   6.3%  3.4289e+11   9.6%  0.000e+00   0.0%  0.000e+00        0.0%  0.000e+00   0.0%
 2:           Solve: 2.1084e+02  56.7%  3.2297e+12  90.3%  0.000e+00   0.0%  0.000e+00        0.0%  0.000e+00   0.0%

------------------------------------------------------------------------------------------------------------------------
See the 'Profiling' chapter of the users' manual for details on interpreting output.
Phase summary info:
   Count: number of times phase was executed
   Time and Flop: Max - maximum over all processors
                  Ratio - ratio of maximum to minimum over all processors
   Mess: number of messages sent
   AvgLen: average message length (bytes)
   Reduct: number of global reductions
   Global: entire computation
   Stage: stages of a computation. Set stages with PetscLogStagePush() and PetscLogStagePop().
      %T - percent time in this phase         %F - percent flop in this phase
      %M - percent messages in this phase     %L - percent message lengths in this phase
      %R - percent reductions in this phase
   Total Mflop/s: 10e-6 * (sum of flop over all processors)/(max time over all processors)
   GPU Mflop/s: 10e-6 * (sum of flop on GPU over all processors)/(max GPU time over all processors)
   CpuToGpu Count: total number of CPU to GPU copies per processor
   CpuToGpu Size (Mbytes): 10e-6 * (total size of CPU to GPU copies per processor)
   GpuToCpu Count: total number of GPU to CPU copies per processor
   GpuToCpu Size (Mbytes): 10e-6 * (total size of GPU to CPU copies per processor)
   GPU %F: percent flops on GPU in this event
------------------------------------------------------------------------------------------------------------------------
Event                Count      Time (sec)     Flop                              --- Global ---  --- Stage ----  Total   GPU    - CpuToGpu -   - GpuToCpu - GPU
                   Max Ratio  Max     Ratio   Max  Ratio  Mess   AvgLen  Reduct  %T %F %M %L %R  %T %F %M %L %R Mflop/s Mflop/s Count   Size   Count   Size  %F
---------------------------------------------------------------------------------------------------------------------------------------------------------------

--- Event Stage 0: Main Stage

BuildTwoSided        807 1.0 4.7769e-04 1.1 0.00e+00 0.0 0.0e+00 0.0e+00 0.0e+00  0  0  0  0  0   0  0  0  0  0     0       0      0 0.00e+00    0 0.00e+00  0
DMConvert             18 1.0 3.0836e-03 1.0 0.00e+00 0.0 0.0e+00 0.0e+00 0.0e+00  0  0  0  0  0   0  0  0  0  0     0       0      0 0.00e+00    0 0.00e+00  0
DMCreateMat            8 1.0 7.6441e+01 1.0 0.00e+00 0.0 0.0e+00 0.0e+00 0.0e+00 21  0  0  0  0  55  0  0  0  0     0       0      0 0.00e+00    0 0.00e+00  0
DMPlexInterp         294 1.0 5.5664e-03 1.0 0.00e+00 0.0 0.0e+00 0.0e+00 0.0e+00  0  0  0  0  0   0  0  0  0  0     0       0      0 0.00e+00    0 0.00e+00  0
DMPlexStratify       435 1.0 4.3104e-03 1.0 0.00e+00 0.0 0.0e+00 0.0e+00 0.0e+00  0  0  0  0  0   0  0  0  0  0     0       0      0 0.00e+00    0 0.00e+00  0
DMPlexSymmetrize     435 1.0 6.1292e-04 1.1 0.00e+00 0.0 0.0e+00 0.0e+00 0.0e+00  0  0  0  0  0   0  0  0  0  0     0       0      0 0.00e+00    0 0.00e+00  0
DMPlexPrealloc       390 1.0 7.4631e+01 1.0 0.00e+00 0.0 0.0e+00 0.0e+00 0.0e+00 20  0  0  0  0  54  0  0  0  0     0       0      0 0.00e+00    0 0.00e+00  0
DMPlexJacobianFE       6 1.0 3.1067e+00 1.0 1.06e+08 1.0 0.0e+00 0.0e+00 0.0e+00  1  0  0  0  0   2 21  0  0  0   273       0      0 0.00e+00    0 0.00e+00  0
SFSetGraph          1596 1.0 3.0379e-04 1.0 0.00e+00 0.0 0.0e+00 0.0e+00 0.0e+00  0  0  0  0  0   0  0  0  0  0     0       0      0 0.00e+00    0 0.00e+00  0
SFSetUp              807 1.0 2.3649e-03 1.1 0.00e+00 0.0 0.0e+00 0.0e+00 0.0e+00  0  0  0  0  0   0  0  0  0  0     0       0      0 0.00e+00    0 0.00e+00  0
SFBcastBegin        1626 1.0 3.1019e-03 1.1 0.00e+00 0.0 0.0e+00 0.0e+00 0.0e+00  0  0  0  0  0   0  0  0  0  0     0       0      0 0.00e+00    0 0.00e+00  0
SFBcastEnd          1626 1.0 6.3646e-04 1.0 0.00e+00 0.0 0.0e+00 0.0e+00 0.0e+00  0  0  0  0  0   0  0  0  0  0     0       0      0 0.00e+00    0 0.00e+00  0
SFReduceBegin         54 1.0 6.5868e-05 1.0 0.00e+00 0.0 0.0e+00 0.0e+00 0.0e+00  0  0  0  0  0   0  0  0  0  0     0       0      0 0.00e+00    0 0.00e+00  0
SFReduceEnd           54 1.0 1.4550e-05 1.0 0.00e+00 0.0 0.0e+00 0.0e+00 0.0e+00  0  0  0  0  0   0  0  0  0  0     0       0      0 0.00e+00    0 0.00e+00  0
SFCreateEmbed        780 1.0 7.2211e-03 1.1 0.00e+00 0.0 0.0e+00 0.0e+00 0.0e+00  0  0  0  0  0   0  0  0  0  0     0       0      0 0.00e+00    0 0.00e+00  0
SFSectionSF          780 1.0 2.4168e-03 1.1 0.00e+00 0.0 0.0e+00 0.0e+00 0.0e+00  0  0  0  0  0   0  0  0  0  0     0       0      0 0.00e+00    0 0.00e+00  0
SFRemoteOff          780 1.0 1.4277e-02 1.1 0.00e+00 0.0 0.0e+00 0.0e+00 0.0e+00  0  0  0  0  0   0  0  0  0  0     0       0      0 0.00e+00    0 0.00e+00  0
SFPack              1680 1.0 1.1821e-04 1.1 0.00e+00 0.0 0.0e+00 0.0e+00 0.0e+00  0  0  0  0  0   0  0  0  0  0     0       0      0 0.00e+00    0 0.00e+00  0
SFUnpack            1680 1.0 1.2281e-04 1.1 0.00e+00 0.0 0.0e+00 0.0e+00 0.0e+00  0  0  0  0  0   0  0  0  0  0     0       0      0 0.00e+00    0 0.00e+00  0
Landau Create          1 1.0 7.9008e+01 1.0 4.47e+08 1.0 0.0e+00 0.0e+00 0.0e+00 21  0  0  0  0  57 87  0  0  0    45       0      0 0.00e+00    0 0.00e+00  0
 GPU ass. setup        1 1.0 3.7065e+01 1.0 0.00e+00 0.0 0.0e+00 0.0e+00 0.0e+00 10  0  0  0  0  27  0  0  0  0     0       0      0 0.00e+00    0 0.00e+00  0
 Build matrix          1 1.0 2.4358e+00 1.0 3.98e+07 1.0 0.0e+00 0.0e+00 0.0e+00  1  0  0  0  0   2  8  0  0  0   131       0      0 0.00e+00    0 0.00e+00  0
 Assembly maps         1 1.0 3.9554e+01 1.0 4.06e+08 1.0 0.0e+00 0.0e+00 0.0e+00 11  0  0  0  0  29 79  0  0  0    82       0      0 0.00e+00    0 0.00e+00  0
Landau Mass mat        1 1.0 4.1636e+01 1.0 6.61e+07 1.0 0.0e+00 0.0e+00 0.0e+00 11  0  0  0  0  30 13  0  0  0    13       0      0 0.00e+00    0 0.00e+00  0
 static IP Data        1 1.0 3.6526e-03 1.4 4.76e+05 1.0 0.0e+00 0.0e+00 0.0e+00  0  0  0  0  0   0  0  0  0  0  1043       0      0 0.00e+00    0 0.00e+00  0
MatMult           775320 1.0 6.4555e-02 1.0 6.06e+06 1.0 0.0e+00 0.0e+00 0.0e+00  0  0  0  0  0   0  1  0  0  0   751       0      0 0.00e+00    0 0.00e+00  0
MatLUFactor           30 1.0 4.3508e-04 1.0 3.94e+05 1.0 0.0e+00 0.0e+00 0.0e+00  0  0  0  0  0   0  0  0  0  0  7238       0      0 0.00e+00    0 0.00e+00  0
MatCopy              240 1.0 1.6832e-04 1.0 0.00e+00 0.0 0.0e+00 0.0e+00 0.0e+00  0  0  0  0  0   0  0  0  0  0     0       0      0 0.00e+00    0 0.00e+00  0
MatConvert            60 1.0 4.4877e-04 1.1 0.00e+00 0.0 0.0e+00 0.0e+00 0.0e+00  0  0  0  0  0   0  0  0  0  0     0       0      0 0.00e+00    0 0.00e+00  0
MatAssemblyBegin    1467 1.0 1.4490e-04 1.1 0.00e+00 0.0 0.0e+00 0.0e+00 0.0e+00  0  0  0  0  0   0  0  0  0  0     0       0      0 0.00e+00    0 0.00e+00  0
MatAssemblyEnd      1467 1.0 7.0307e-01 1.1 0.00e+00 0.0 0.0e+00 0.0e+00 0.0e+00  0  0  0  0  0   0  0  0  0  0     0       0      0 0.00e+00    0 0.00e+00  0
MatGetRowIJ           15 1.0 2.7120e-06 1.5 0.00e+00 0.0 0.0e+00 0.0e+00 0.0e+00  0  0  0  0  0   0  0  0  0  0     0       0      0 0.00e+00    0 0.00e+00  0
MatZeroEntries         6 1.0 3.5795e-03 1.2 0.00e+00 0.0 0.0e+00 0.0e+00 0.0e+00  0  0  0  0  0   0  0  0  0  0     0       0      0 0.00e+00    0 0.00e+00  0
MatMatSolve          240 1.0 1.9169e-03 1.0 9.27e+06 1.0 0.0e+00 0.0e+00 0.0e+00  0  0  0  0  0   0  2  0  0  0 38699       0      0 0.00e+00    0 0.00e+00  0
MatSetPreallCOO        1 1.0 2.3309e+01 1.0 0.00e+00 0.0 0.0e+00 0.0e+00 0.0e+00  6  0  0  0  0  17  0  0  0  0     0       0      0 0.00e+00    0 0.00e+00  0
VecCopy                1 1.0 4.5241e-04 1.3 0.00e+00 0.0 0.0e+00 0.0e+00 0.0e+00  0  0  0  0  0   0  0  0  0  0     0       0      0 0.00e+00    0 0.00e+00  0
VecSet               201 1.0 5.5510e-03 1.2 0.00e+00 0.0 0.0e+00 0.0e+00 0.0e+00  0  0  0  0  0   0  0  0  0  0     0       0      0 0.00e+00    0 0.00e+00  0
DualSpaceSetUp        28 1.0 3.0945e-02 1.0 2.20e+04 1.0 0.0e+00 0.0e+00 0.0e+00  0  0  0  0  0   0  0  0  0  0     6       0      0 0.00e+00    0 0.00e+00  0
FESetUp               52 1.0 3.7351e-03 1.0 0.00e+00 0.0 0.0e+00 0.0e+00 0.0e+00  0  0  0  0  0   0  0  0  0  0     0       0      0 0.00e+00    0 0.00e+00  0

--- Event Stage 1: Warmup

Landau Operator       33 1.0 2.0846e+01 1.0 2.45e+09 1.0 0.0e+00 0.0e+00 0.0e+00  6  1  0  0  0  88  6  0  0  0   942       0      0 0.00e+00    0 0.00e+00 100
Landau Jacobian       17 1.0 1.8933e+01 1.0 2.45e+09 1.0 0.0e+00 0.0e+00 0.0e+00  5  1  0  0  0  80  6  0  0  0  1037       0      0 0.00e+00    0 0.00e+00 100
Landau Mass           16 1.0 1.9136e+00 1.0 0.00e+00 0.0 0.0e+00 0.0e+00 0.0e+00  1  0  0  0  0   8  0  0  0  0     0       0      0 0.00e+00    0 0.00e+00  0
 Preamble             33 1.0 8.6430e-05 1.3 0.00e+00 0.0 0.0e+00 0.0e+00 0.0e+00  0  0  0  0  0   0  0  0  0  0     0       0      0 0.00e+00    0 0.00e+00  0
 dynamic IP-Jac       34 1.0 1.5008e-05 1.4 0.00e+00 0.0 0.0e+00 0.0e+00 0.0e+00  0  0  0  0  0   0  0  0  0  0     0       0      0 0.00e+00    0 0.00e+00  0
 Kernel-init          33 1.0 1.6360e-04 1.1 0.00e+00 0.0 0.0e+00 0.0e+00 0.0e+00  0  0  0  0  0   0  0  0  0  0     0       0      0 0.00e+00    0 0.00e+00  0
 Jac-f-df (GPU)       17 1.0 8.2832e-02 1.0 0.00e+00 0.0 0.0e+00 0.0e+00 0.0e+00  0  0  0  0  0   0  0  0  0  0     0       0      0 0.00e+00    0 0.00e+00  0
 J Kernel (GPU)       17 1.0 1.8050e+01 1.0 0.00e+00 0.0 0.0e+00 0.0e+00 0.0e+00  5  0  0  0  0  77  0  0  0  0     0       0      0 0.00e+00    0 0.00e+00  0
 M Kernel (GPU)       16 1.0 1.4731e+00 1.0 0.00e+00 0.0 0.0e+00 0.0e+00 0.0e+00  0  0  0  0  0   6  0  0  0  0     0       0      0 0.00e+00    0 0.00e+00  0
MatMult              511 1.0 4.2916e+00 1.7 3.69e+10 1.0 0.0e+00 0.0e+00 0.0e+00  1  8  0  0  0  12 86  0  0  0 68769       0      0 0.00e+00    0 0.00e+00 100
MatMultAdd            17 1.0 1.6506e-01 1.6 1.23e+09 1.0 0.0e+00 0.0e+00 0.0e+00  0  0  0  0  0   0  3  0  0  0 59485       0      0 0.00e+00    0 0.00e+00 100
MatAssemblyBegin      66 1.0 1.0421e-05 1.9 0.00e+00 0.0 0.0e+00 0.0e+00 0.0e+00  0  0  0  0  0   0  0  0  0  0     0       0      0 0.00e+00    0 0.00e+00  0
MatAssemblyEnd        66 1.0 9.4125e-03 1.2 0.00e+00 0.0 0.0e+00 0.0e+00 0.0e+00  0  0  0  0  0   0  0  0  0  0     0       0      0 0.00e+00    0 0.00e+00  0
MatZeroEntries        17 1.0 5.1901e-03 1.0 0.00e+00 0.0 0.0e+00 0.0e+00 0.0e+00  0  0  0  0  0   0  0  0  0  0     0       0      0 0.00e+00    0 0.00e+00  0
MatView                1 0.0 2.5319e-05 0.0 0.00e+00 0.0 0.0e+00 0.0e+00 0.0e+00  0  0  0  0  0   0  0  0  0  0     0       0      0 0.00e+00    0 0.00e+00  0
MatSetValuesCOO       33 1.0 4.0560e-03 1.5 0.00e+00 0.0 0.0e+00 0.0e+00 0.0e+00  0  0  0  0  0   0  0  0  0  0     0       0      0 0.00e+00    0 0.00e+00  0
VecDot               494 1.0 3.9782e-02 1.0 6.61e+08 1.0 0.0e+00 0.0e+00 0.0e+00  0  0  0  0  0   0  2  0  0  0 132881       0      0 0.00e+00    0 0.00e+00 100
VecNorm              264 1.0 1.9312e-02 1.0 3.53e+08 1.0 0.0e+00 0.0e+00 0.0e+00  0  0  0  0  0   0  1  0  0  0 146282       0      0 0.00e+00    0 0.00e+00 100
VecCopy               83 1.0 3.3643e-03 1.3 0.00e+00 0.0 0.0e+00 0.0e+00 0.0e+00  0  0  0  0  0   0  0  0  0  0     0       0      0 0.00e+00    0 0.00e+00  0
VecSet                49 1.0 1.5716e-03 1.1 0.00e+00 0.0 0.0e+00 0.0e+00 0.0e+00  0  0  0  0  0   0  0  0  0  0     0       0      0 0.00e+00    0 0.00e+00  0
VecAXPY              986 1.0 3.9161e-03 1.4 1.32e+09 1.0 0.0e+00 0.0e+00 0.0e+00  0  0  0  0  0   0  3  0  0  0 2694260       0      0 0.00e+00    0 0.00e+00 100
VecAYPX              490 1.0 1.5673e-03 1.5 6.45e+08 1.0 0.0e+00 0.0e+00 0.0e+00  0  0  0  0  0   0  2  0  0  0 3290819       0      0 0.00e+00    0 0.00e+00 100
VecAXPBYCZ            18 1.0 3.9739e-03 1.3 6.02e+07 1.0 0.0e+00 0.0e+00 0.0e+00  0  0  0  0  0   0  0  0  0  0 121173       0      0 0.00e+00    0 0.00e+00 100
VecWAXPY             972 1.0 2.9101e-03 1.5 1.30e+09 1.0 0.0e+00 0.0e+00 0.0e+00  0  0  0  0  0   0  3  0  0  0 3574225       0      0 0.00e+00    0 0.00e+00 100
VecPointwiseMult     510 1.0 1.4277e-02 1.4 3.41e+08 1.0 0.0e+00 0.0e+00 0.0e+00  0  0  0  0  0   0  1  0  0  0 191127       0      0 0.00e+00    0 0.00e+00 100
VecReduceArith        48 1.0 2.4466e-03 1.1 6.42e+07 1.0 0.0e+00 0.0e+00 0.0e+00  0  0  0  0  0   0  0  0  0  0 209944       0      0 0.00e+00    0 0.00e+00 100
VecReduceComm         16 1.0 7.0540e-06 1.6 0.00e+00 0.0 0.0e+00 0.0e+00 0.0e+00  0  0  0  0  0   0  0  0  0  0     0       0      0 0.00e+00    0 0.00e+00  0
TSStep                 1 1.0 2.5090e+01 1.1 4.29e+10 1.0 0.0e+00 0.0e+00 0.0e+00  6 10  0  0  0 100100  0  0  0 13667       0      0 0.00e+00    0 0.00e+00 100
TSFunctionEval        17 1.0 1.8935e+01 1.0 2.48e+09 1.0 0.0e+00 0.0e+00 0.0e+00  5  1  0  0  0  80  6  0  0  0  1047       0      0 0.00e+00    0 0.00e+00 100
TSJacobianEval        16 1.0 1.9136e+00 1.0 0.00e+00 0.0 0.0e+00 0.0e+00 0.0e+00  1  0  0  0  0   8  0  0  0  0     0       0      0 0.00e+00    0 0.00e+00  0
KSPSetUp              16 1.0 9.6598e-03 1.3 0.00e+00 0.0 0.0e+00 0.0e+00 0.0e+00  0  0  0  0  0   0  0  0  0  0     0       0      0 0.00e+00    0 0.00e+00  0
KSPSolve              16 1.0 4.1972e+00 1.7 4.02e+10 1.0 0.0e+00 0.0e+00 0.0e+00  1  9  0  0  0  11 94  0  0  0 76691       0      0 0.00e+00    0 0.00e+00 100
SNESSolve              1 1.0 2.5087e+01 1.1 4.29e+10 1.0 0.0e+00 0.0e+00 0.0e+00  6 10  0  0  0 100100  0  0  0 13667       0      0 0.00e+00    0 0.00e+00 100
SNESSetUp              1 1.0 1.0878e-03 1.6 0.00e+00 0.0 0.0e+00 0.0e+00 0.0e+00  0  0  0  0  0   0  0  0  0  0     0       0      0 0.00e+00    0 0.00e+00  0
SNESFunctionEval      17 1.0 1.8939e+01 1.0 2.53e+09 1.0 0.0e+00 0.0e+00 0.0e+00  5  1  0  0  0  80  6  0  0  0  1070       0      0 0.00e+00    0 0.00e+00 100
SNESJacobianEval      16 1.0 1.9136e+00 1.0 0.00e+00 0.0 0.0e+00 0.0e+00 0.0e+00  1  0  0  0  0   8  0  0  0  0     0       0      0 0.00e+00    0 0.00e+00  0
SNESLineSearch        16 1.0 1.7753e+01 1.0 2.47e+09 1.0 0.0e+00 0.0e+00 0.0e+00  5  1  0  0  0  75  6  0  0  0  1113       0      0 0.00e+00    0 0.00e+00 100
PCSetUp               16 1.0 2.1795e-02 1.4 0.00e+00 0.0 0.0e+00 0.0e+00 0.0e+00  0  0  0  0  0   0  0  0  0  0     0       0      0 0.00e+00    0 0.00e+00  0
PCApply              510 1.0 2.6926e-02 1.3 3.41e+08 1.0 0.0e+00 0.0e+00 0.0e+00  0  0  0  0  0   0  1  0  0  0 101341       0      0 0.00e+00    0 0.00e+00 100

--- Event Stage 2: Solve

Landau Operator      312 1.0 1.8668e+02 1.0 2.32e+10 1.0 0.0e+00 0.0e+00 0.0e+00 50  5  0  0  0  88  6  0  0  0   996       0      0 0.00e+00    0 0.00e+00 100
Landau Jacobian      161 1.0 1.6862e+02 1.0 2.32e+10 1.0 0.0e+00 0.0e+00 0.0e+00 45  5  0  0  0  79  6  0  0  0  1103       0      0 0.00e+00    0 0.00e+00 100
Landau Mass          151 1.0 1.8062e+01 1.0 0.00e+00 0.0 0.0e+00 0.0e+00 0.0e+00  5  0  0  0  0   9  0  0  0  0     0       0      0 0.00e+00    0 0.00e+00  0
 Preamble            303 1.0 6.9947e-04 1.3 0.00e+00 0.0 0.0e+00 0.0e+00 0.0e+00  0  0  0  0  0   0  0  0  0  0     0       0      0 0.00e+00    0 0.00e+00  0
 dynamic IP-Jac      304 1.0 1.1778e-04 1.6 0.00e+00 0.0 0.0e+00 0.0e+00 0.0e+00  0  0  0  0  0   0  0  0  0  0     0       0      0 0.00e+00    0 0.00e+00  0
 Kernel-init         303 1.0 1.4318e-03 1.2 0.00e+00 0.0 0.0e+00 0.0e+00 0.0e+00  0  0  0  0  0   0  0  0  0  0     0       0      0 0.00e+00    0 0.00e+00  0
 Jac-f-df (GPU)      152 1.0 7.0852e-01 1.0 0.00e+00 0.0 0.0e+00 0.0e+00 0.0e+00  0  0  0  0  0   0  0  0  0  0     0       0      0 0.00e+00    0 0.00e+00  0
 J Kernel (GPU)      152 1.0 1.6124e+02 1.0 0.00e+00 0.0 0.0e+00 0.0e+00 0.0e+00 43  0  0  0  0  76  0  0  0  0     0       0      0 0.00e+00    0 0.00e+00  0
 M Kernel (GPU)      151 1.0 1.3902e+01 1.0 0.00e+00 0.0 0.0e+00 0.0e+00 0.0e+00  4  0  0  0  0   7  0  0  0  0     0       0      0 0.00e+00    0 0.00e+00  0
MatMult             4813 1.0 4.0074e+01 1.8 3.47e+11 1.0 0.0e+00 0.0e+00 0.0e+00  7 78  0  0  0  12 86  0  0  0 69364       0      0 0.00e+00    0 0.00e+00 100
MatMultAdd           161 1.0 1.3448e+00 1.8 1.16e+10 1.0 0.0e+00 0.0e+00 0.0e+00  0  3  0  0  0   0  3  0  0  0 69146       0      0 0.00e+00    0 0.00e+00 100
MatAssemblyBegin     606 1.0 6.2851e-05 1.3 0.00e+00 0.0 0.0e+00 0.0e+00 0.0e+00  0  0  0  0  0   0  0  0  0  0     0       0      0 0.00e+00    0 0.00e+00  0
MatAssemblyEnd       606 1.0 2.3857e-04 1.3 0.00e+00 0.0 0.0e+00 0.0e+00 0.0e+00  0  0  0  0  0   0  0  0  0  0     0       0      0 0.00e+00    0 0.00e+00  0
MatZeroEntries       152 1.0 4.5315e-02 1.1 0.00e+00 0.0 0.0e+00 0.0e+00 0.0e+00  0  0  0  0  0   0  0  0  0  0     0       0      0 0.00e+00    0 0.00e+00  0
MatView                1 0.0 1.7143e-05 0.0 0.00e+00 0.0 0.0e+00 0.0e+00 0.0e+00  0  0  0  0  0   0  0  0  0  0     0       0      0 0.00e+00    0 0.00e+00  0
MatSetValuesCOO      303 1.0 2.4827e-03 1.3 0.00e+00 0.0 0.0e+00 0.0e+00 0.0e+00  0  0  0  0  0   0  0  0  0  0     0       0      0 0.00e+00    0 0.00e+00  0
VecDot              4652 1.0 3.7007e-01 1.0 6.22e+09 1.0 0.0e+00 0.0e+00 0.0e+00  0  1  0  0  0   0  2  0  0  0 134516       0      0 0.00e+00    0 0.00e+00 100
VecNorm             2487 1.0 1.7965e-01 1.0 3.33e+09 1.0 0.0e+00 0.0e+00 0.0e+00  0  1  0  0  0   0  1  0  0  0 148141       0      0 0.00e+00    0 0.00e+00 100
VecCopy              775 1.0 2.0171e-02 1.1 0.00e+00 0.0 0.0e+00 0.0e+00 0.0e+00  0  0  0  0  0   0  0  0  0  0     0       0      0 0.00e+00    0 0.00e+00  0
VecSet               463 1.0 1.4594e-02 1.1 0.00e+00 0.0 0.0e+00 0.0e+00 0.0e+00  0  0  0  0  0   0  0  0  0  0     0       0      0 0.00e+00    0 0.00e+00  0
VecAXPY             9266 1.0 2.9750e-02 1.4 1.24e+10 1.0 0.0e+00 0.0e+00 0.0e+00  0  3  0  0  0   0  3  0  0  0 3332861       0      0 0.00e+00    0 0.00e+00 100
VecAYPX             4594 1.0 1.4238e-02 1.5 6.04e+09 1.0 0.0e+00 0.0e+00 0.0e+00  0  1  0  0  0   0  1  0  0  0 3396051       0      0 0.00e+00    0 0.00e+00 100
VecAXPBYCZ           171 1.0 3.1503e-03 1.2 5.72e+08 1.0 0.0e+00 0.0e+00 0.0e+00  0  0  0  0  0   0  0  0  0  0 1452115       0      0 0.00e+00    0 0.00e+00 100
VecWAXPY            9153 1.0 2.6902e-02 1.4 1.22e+10 1.0 0.0e+00 0.0e+00 0.0e+00  0  3  0  0  0   0  3  0  0  0 3640800       0      0 0.00e+00    0 0.00e+00 100
VecPointwiseMult    4803 1.0 1.4057e-01 1.4 3.21e+09 1.0 0.0e+00 0.0e+00 0.0e+00  0  1  0  0  0   0  1  0  0  0 182807       0      0 0.00e+00    0 0.00e+00 100
VecReduceArith       453 1.0 2.2852e-02 1.0 6.06e+08 1.0 0.0e+00 0.0e+00 0.0e+00  0  0  0  0  0   0  0  0  0  0 212126       0      0 0.00e+00    0 0.00e+00 100
VecReduceComm        151 1.0 7.0143e-05 1.6 0.00e+00 0.0 0.0e+00 0.0e+00 0.0e+00  0  0  0  0  0   0  0  0  0  0     0       0      0 0.00e+00    0 0.00e+00  0
TSStep                10 1.0 2.2646e+02 1.1 4.04e+11 1.0 0.0e+00 0.0e+00 0.0e+00 57 90  0  0  0 100100  0  0  0 14262       0      0 0.00e+00    0 0.00e+00 100
TSFunctionEval       161 1.0 1.6862e+02 1.0 2.35e+10 1.0 0.0e+00 0.0e+00 0.0e+00 45  5  0  0  0  79  6  0  0  0  1113       0      0 0.00e+00    0 0.00e+00 100
TSJacobianEval       151 1.0 1.8062e+01 1.0 0.00e+00 0.0 0.0e+00 0.0e+00 0.0e+00  5  0  0  0  0   9  0  0  0  0     0       0      0 0.00e+00    0 0.00e+00  0
KSPSetUp             151 1.0 4.3658e-05 1.3 0.00e+00 0.0 0.0e+00 0.0e+00 0.0e+00  0  0  0  0  0   0  0  0  0  0     0       0      0 0.00e+00    0 0.00e+00  0
KSPSolve             151 1.0 3.9514e+01 1.7 3.79e+11 1.0 0.0e+00 0.0e+00 0.0e+00  7 85  0  0  0  12 94  0  0  0 76700       0      0 0.00e+00    0 0.00e+00 100
SNESSolve             10 1.0 2.2646e+02 1.1 4.04e+11 1.0 0.0e+00 0.0e+00 0.0e+00 57 90  0  0  0 100100  0  0  0 14260       0      0 0.00e+00    0 0.00e+00 100
SNESFunctionEval     161 1.0 1.6863e+02 1.0 2.40e+10 1.0 0.0e+00 0.0e+00 0.0e+00 45  5  0  0  0  79  6  0  0  0  1139       0      0 0.00e+00    0 0.00e+00 100
SNESJacobianEval     151 1.0 1.8063e+01 1.0 0.00e+00 0.0 0.0e+00 0.0e+00 0.0e+00  5  0  0  0  0   9  0  0  0  0     0       0      0 0.00e+00    0 0.00e+00  0
SNESLineSearch       151 1.0 1.6739e+02 1.0 2.33e+10 1.0 0.0e+00 0.0e+00 0.0e+00 45  5  0  0  0  79  6  0  0  0  1114       0      0 0.00e+00    0 0.00e+00 100
PCSetUp              151 1.0 2.2312e-01 1.4 0.00e+00 0.0 0.0e+00 0.0e+00 0.0e+00  0  0  0  0  0   0  0  0  0  0     0       0      0 0.00e+00    0 0.00e+00  0
PCApply             4803 1.0 1.4247e-01 1.4 3.21e+09 1.0 0.0e+00 0.0e+00 0.0e+00  0  1  0  0  0   0  1  0  0  0 180372       0      0 0.00e+00    0 0.00e+00 100
---------------------------------------------------------------------------------------------------------------------------------------------------------------

Object Type          Creations   Destructions. Reports information only for process 0.

--- Event Stage 0: Main Stage

           Container   428            428
    Distributed Mesh  1017           1017
            DM Label  2107           2107
          Quadrature  2377           2377
           Index Set 10737          10737
   IS L to G Mapping   395            395
             Section  5270           5270
   Star Forest Graph  3621           3621
     Discrete System  1610           1610
           Weak Form  1610           1610
    GraphPartitioner   444            444
              Matrix  1436           1436
              Vector   584            603
       p4est logging     1              0
        Linear Space    98             98
          Dual Space   396            396
            FE Space    52             52
       Field over DM    18             18
             TSAdapt     1              1
                  TS     1              1
                DMTS     1              1
                SNES     1              1
              DMSNES     3              3
      SNESLineSearch     1              1
       Krylov Solver     1              1
     DMKSP interface     0              1
      Preconditioner     1              1
              Viewer     2              1

--- Event Stage 1: Warmup

              Vector    19              0
     DMKSP interface     1              0

--- Event Stage 2: Solve

========================================================================================================================
Average time to get PetscTime(): 3.5e-08
Average time for MPI_Barrier(): 2.8394e-06
Average time for zero size MPI_Send(): 1.57519e-05
#PETSc Option Table entries:
-dim 3
-dm_landau_amr_levels_max 2,2,2
-dm_landau_batch_size 64
-dm_landau_coo_assembly
-dm_landau_device_type kokkos
-dm_landau_Ez 0
-dm_landau_ion_charges 1,2,3,4,5,6,7,8,9
-dm_landau_ion_masses 2,182,182,182,182,182,182,182,182
-dm_landau_n 1.0000044,1,1e-7,1e-7,1e-7,1e-7,1e-7,1e-7,1e-7,1e-7
-dm_landau_num_species_grid 1,1,8
-dm_landau_thermal_temps 2,1,1,1,1,1,1,1,1,1
-dm_landau_type p8est
-dm_landau_verbose 1
-dm_mat_type aijkokkos
-dm_preallocate_only false
-dm_vec_type kokkos
-ex2_test_type none
-ksp_converged_reason
-ksp_max_it 100
-ksp_rtol 1.e-8
-ksp_type tfqmr
-log_view
-pc_type jacobi
-petscspace_degree 2
-snes_converged_reason
-snes_linesearch_type basic
-snes_max_it 50
-snes_monitor
-snes_rtol 1e-14
-snes_stol 1e-14
-ts_adapt_clip .5,1.1
-ts_adapt_dt_max 1
-ts_adapt_monitor
-ts_adapt_scale_solve_failed 0.5
-ts_adapt_time_step_increase_delay 5
-ts_dt .5
-ts_exact_final_time stepover
-ts_max_snes_failures -1
-ts_max_steps 10
-ts_max_time 100
-ts_monitor
-ts_rtol 1e-2
-ts_type beuler
-ts_view
-use_gpu_aware_mpi 0
#End of PETSc Option Table entries
Compiled without FORTRAN kernels
Compiled with full precision matrices (default)
sizeof(short) 2 sizeof(int) 4 sizeof(long) 8 sizeof(void*) 8 sizeof(PetscScalar) 8 sizeof(PetscInt) 4
Configure options: --with-cc=cc --with-cxx=CC --with-fc=ftn LIBS="-L/opt/cray/pe/mpich/8.1.16/gtl/lib -lmpi_gtl_hsa" --with-debugging=0 --COPTFLAGS="-g -ggdb -O -DLAND_SUPPORT_CPU_ASS" --CXXOPTFLAGS="-g -ggdb -O -DLAND_SUPPORT_CPU_ASS" --FOPTFLAGS=-g --with-mpiexec="srun --gpu-bind=closest" --with-hip --with-hipc=hipcc --download-kokkos --download-kokkos-kernels --with-kokkos-kernels-tpl=1 --download-p4est=1 --with-zlib-dir=/sw/crusher/spack-envs/base/opt/cray-sles15-zen3/clang-14.0.0-rocm5.1.0/zlib-1.2.11-j3ogymf5vmwlxvblzxxqdkrjkdvfccyx PETSC_ARCH=arch-olcf-crusher-kokkos-3d
-----------------------------------------
Libraries compiled on 2022-07-14 23:40:07 on login2 
Machine characteristics: Linux-5.3.18-150300.59.68_11.0.76-cray_shasta_c-x86_64-with-glibc2.3.4
Using PETSc directory: /gpfs/alpine/csc314/scratch/adams/petsc
Using PETSc arch: arch-olcf-crusher-kokkos-3d
-----------------------------------------

Using C compiler: cc  -fPIC -g -ggdb -O -DLAND_SUPPORT_CPU_ASS   
Using Fortran compiler: ftn  -fPIC -g     
-----------------------------------------

Using include paths: -I/gpfs/alpine/csc314/scratch/adams/petsc/include -I/gpfs/alpine/csc314/scratch/adams/petsc/arch-olcf-crusher-kokkos-3d/include -I/sw/crusher/spack-envs/base/opt/cray-sles15-zen3/clang-14.0.0-rocm5.1.0/zlib-1.2.11-j3ogymf5vmwlxvblzxxqdkrjkdvfccyx/include -I/opt/rocm-5.1.0/include
-----------------------------------------

Using C linker: cc
Using Fortran linker: ftn
Using libraries: -Wl,-rpath,/gpfs/alpine/csc314/scratch/adams/petsc/arch-olcf-crusher-kokkos-3d/lib -L/gpfs/alpine/csc314/scratch/adams/petsc/arch-olcf-crusher-kokkos-3d/lib -lpetsc -Wl,-rpath,/gpfs/alpine/csc314/scratch/adams/petsc/arch-olcf-crusher-kokkos-3d/lib -L/gpfs/alpine/csc314/scratch/adams/petsc/arch-olcf-crusher-kokkos-3d/lib -Wl,-rpath,/sw/crusher/spack-envs/base/opt/cray-sles15-zen3/clang-14.0.0-rocm5.1.0/zlib-1.2.11-j3ogymf5vmwlxvblzxxqdkrjkdvfccyx/lib -L/sw/crusher/spack-envs/base/opt/cray-sles15-zen3/clang-14.0.0-rocm5.1.0/zlib-1.2.11-j3ogymf5vmwlxvblzxxqdkrjkdvfccyx/lib -Wl,-rpath,/opt/rocm-5.1.0/lib -L/opt/rocm-5.1.0/lib -Wl,-rpath,/opt/cray/pe/mpich/8.1.16/gtl/lib -L/opt/cray/pe/mpich/8.1.16/gtl/lib -Wl,-rpath,/opt/cray/pe/mpich/8.1.16/ofi/amd/5.0/lib -L/opt/cray/pe/mpich/8.1.16/ofi/amd/5.0/lib -Wl,-rpath,/opt/cray/pe/libsci/21.08.1.2/AMD/4.0/x86_64/lib -L/opt/cray/pe/libsci/21.08.1.2/AMD/4.0/x86_64/lib -Wl,-rpath,/opt/cray/pe/dsmml/0.2.2/dsmml/lib -L/opt/cray/pe/dsmml/0.2.2/dsmml/lib -Wl,-rpath,/opt/cray/pe/pmi/6.1.2/lib -L/opt/cray/pe/pmi/6.1.2/lib -Wl,-rpath,/opt/cray/xpmem/2.4.4-2.3_2.12__gff0e1d9.shasta/lib64 -L/opt/cray/xpmem/2.4.4-2.3_2.12__gff0e1d9.shasta/lib64 -Wl,-rpath,/usr/lib64/gcc/x86_64-suse-linux/7 -L/usr/lib64/gcc/x86_64-suse-linux/7 -Wl,-rpath,/usr/x86_64-suse-linux/lib -L/usr/x86_64-suse-linux/lib -Wl,-rpath,/opt/rocm-5.1.0/llvm/lib -L/opt/rocm-5.1.0/llvm/lib -lkokkoskernels -lkokkoscontainers -lkokkoscore -lp4est -lsc -lpthread -lm -lz -lX11 -lhipsparse -lhipblas -lrocsparse -lrocsolver -lrocblas -lrocrand -lamdhip64 -lstdc++ -ldl -lmpi_gtl_hsa -lsci_amd_mpi -lsci_amd -lmpifort_amd -lmpi_amd -ldsmml -lpmi -lpmi2 -lxpmem -lflangmain -lpgmath -lflang -lflangrti -lompstub -lm -lrt -lpthread -lgcc_s -lstdc++ -ldl -lmpi_gtl_hsa
-----------------------------------------



      ##########################################################
      #                                                        #
      #                       WARNING!!!                       #
      #                                                        #
      #   This code was compiled with GPU support and you've   #
      #   created PETSc/GPU objects, but you intentionally     #
      #   used -use_gpu_aware_mpi 0, requiring PETSc to copy   #
      #   additional data between the GPU and CPU. To obtain   #
      #   meaningful timing results on multi-rank runs, use    #
      #   GPU-aware MPI instead.                               #
      #                                                        #
      ##########################################################


