masses:        e= 9.109e-31; ions in proton mass units:    2.000e+00  1.820e+02 ...
charges:       e=-1.602e-19; charges in elementary units:  1.000e+00  2.000e+00
n:             e:  1.000e+00                           i:  1.000e+00  1.000e-07
thermal T (K): e= 2.321e+07 i= 1.160e+07  1.160e+07. v_0= 1.876e+07 ( 6.256e-02c) n_0= 1.000e+20 t_0= 1.637e-05, classical, Intuitive, 32 batched
Domain radius (AMR levels) grid 0:  5.000e+00 (2) , 1:  5.835e-02 (2) , 2:  6.117e-03 (2) 
Using default Plex order for all matrices
0) FormLandau 9720 IPs, 360 cells total, Nb=27, Nq=27, dim=3, Tab: Nb=27 Nf=10 Np=27 cdim=3 N=334400
0 TS dt 0.5 time 0.
    0 SNES Function norm 1.165196401842e-01 
    Linear solve converged due to CONVERGED_RTOL iterations 18
    1 SNES Function norm 3.941366273680e-03 
    Linear solve converged due to CONVERGED_RTOL iterations 16
    2 SNES Function norm 7.255276614782e-04 
    Linear solve converged due to CONVERGED_RTOL iterations 16
    3 SNES Function norm 1.652820222706e-04 
    Linear solve converged due to CONVERGED_RTOL iterations 15
    4 SNES Function norm 3.893657694632e-05 
    Linear solve converged due to CONVERGED_RTOL iterations 16
    5 SNES Function norm 9.268425968736e-06 
    Linear solve converged due to CONVERGED_RTOL iterations 15
    6 SNES Function norm 2.215550605085e-06 
    Linear solve converged due to CONVERGED_RTOL iterations 15
    7 SNES Function norm 5.306880685094e-07 
    Linear solve converged due to CONVERGED_RTOL iterations 15
    8 SNES Function norm 1.272646295555e-07 
    Linear solve converged due to CONVERGED_RTOL iterations 15
    9 SNES Function norm 3.054435349695e-08 
    Linear solve converged due to CONVERGED_RTOL iterations 15
   10 SNES Function norm 7.335689311496e-09 
    Linear solve converged due to CONVERGED_RTOL iterations 15
   11 SNES Function norm 1.762814241935e-09 
    Linear solve converged due to CONVERGED_RTOL iterations 15
   12 SNES Function norm 4.238492173207e-10 
    Linear solve converged due to CONVERGED_RTOL iterations 15
   13 SNES Function norm 1.019644205025e-10 
    Linear solve converged due to CONVERGED_RTOL iterations 15
   14 SNES Function norm 2.454143378283e-11 
    Linear solve converged due to CONVERGED_RTOL iterations 16
   15 SNES Function norm 5.909758956588e-12 
    Linear solve converged due to CONVERGED_RTOL iterations 15
   16 SNES Function norm 1.423867950091e-12 
  Nonlinear solve converged due to CONVERGED_SNORM_RELATIVE iterations 16
      TSAdapt none beuler 0: step   0 accepted t=0          + 5.000e-01 dt=5.000e-01 
1 TS dt 0.5 time 0.5
TS Object: 1 MPI process
  type: beuler
  maximum steps=1
  maximum time=100.
  total number of I function evaluations=17
  total number of I Jacobian evaluations=16
  total number of RHS function evaluations=17
  total number of nonlinear solver iterations=16
  total number of linear solver iterations=247
  total number of nonlinear solve failures=0
  total number of rejected steps=0
  using relative error tolerance of 0.01,   using absolute error tolerance of 0.0001
  TSAdapt Object: 1 MPI process
    type: none
  SNES Object: 1 MPI process
    type: newtonls
    maximum iterations=50, maximum function evaluations=10000
    tolerances: relative=1e-14, absolute=1e-50, solution=1e-14
    total number of linear solver iterations=247
    total number of function evaluations=17
    norm schedule ALWAYS
    SNESLineSearch Object: 1 MPI process
      type: basic
      maxstep=1.000000e+08, minlambda=1.000000e-12
      tolerances: relative=1.000000e-08, absolute=1.000000e-15, lambda=1.000000e-08
      maximum iterations=40
    KSP Object: 1 MPI process
      type: tfqmr
      maximum iterations=100, initial guess is zero
      tolerances:  relative=1e-08, absolute=1e-50, divergence=10000.
      left preconditioning
      using PRECONDITIONED norm type for convergence test
    PC Object: 1 MPI process
      type: jacobi
        type DIAGONAL
      linear system matrix = precond matrix:
      Mat Object: Jacobian 1 MPI process
        type: seqaijkokkos
        rows=334400, cols=334400
        total: nonzeros=18048320, allocated nonzeros=18048320
        total number of mallocs used during MatSetValues calls=0
          not using I-node routines
0 TS dt 0.5 time 0.
    0 SNES Function norm 1.165196401842e-01 
    Linear solve converged due to CONVERGED_RTOL iterations 18
    1 SNES Function norm 3.941366273680e-03 
    Linear solve converged due to CONVERGED_RTOL iterations 16
    2 SNES Function norm 7.255276614782e-04 
    Linear solve converged due to CONVERGED_RTOL iterations 16
    3 SNES Function norm 1.652820222706e-04 
    Linear solve converged due to CONVERGED_RTOL iterations 15
    4 SNES Function norm 3.893657694632e-05 
    Linear solve converged due to CONVERGED_RTOL iterations 16
    5 SNES Function norm 9.268425968736e-06 
    Linear solve converged due to CONVERGED_RTOL iterations 15
    6 SNES Function norm 2.215550605085e-06 
    Linear solve converged due to CONVERGED_RTOL iterations 15
    7 SNES Function norm 5.306880685094e-07 
    Linear solve converged due to CONVERGED_RTOL iterations 15
    8 SNES Function norm 1.272646295555e-07 
    Linear solve converged due to CONVERGED_RTOL iterations 15
    9 SNES Function norm 3.054435349695e-08 
    Linear solve converged due to CONVERGED_RTOL iterations 15
   10 SNES Function norm 7.335689311496e-09 
    Linear solve converged due to CONVERGED_RTOL iterations 15
   11 SNES Function norm 1.762814241935e-09 
    Linear solve converged due to CONVERGED_RTOL iterations 15
   12 SNES Function norm 4.238492173207e-10 
    Linear solve converged due to CONVERGED_RTOL iterations 15
   13 SNES Function norm 1.019644205025e-10 
    Linear solve converged due to CONVERGED_RTOL iterations 15
   14 SNES Function norm 2.454143378283e-11 
    Linear solve converged due to CONVERGED_RTOL iterations 16
   15 SNES Function norm 5.909758956588e-12 
    Linear solve converged due to CONVERGED_RTOL iterations 15
   16 SNES Function norm 1.423867950091e-12 
  Nonlinear solve converged due to CONVERGED_SNORM_RELATIVE iterations 16
      TSAdapt none beuler 0: step   0 accepted t=0          + 5.000e-01 dt=5.000e-01 
1 TS dt 0.5 time 0.5
    0 SNES Function norm 1.425753454532e-02 
    Linear solve converged due to CONVERGED_RTOL iterations 20
    1 SNES Function norm 1.819500116634e-03 
    Linear solve converged due to CONVERGED_RTOL iterations 16
    2 SNES Function norm 4.304630054260e-04 
    Linear solve converged due to CONVERGED_RTOL iterations 17
    3 SNES Function norm 1.027843195222e-04 
    Linear solve converged due to CONVERGED_RTOL iterations 17
    4 SNES Function norm 2.454415678247e-05 
    Linear solve converged due to CONVERGED_RTOL iterations 14
    5 SNES Function norm 5.863995024632e-06 
    Linear solve converged due to CONVERGED_RTOL iterations 15
    6 SNES Function norm 1.401961150350e-06 
    Linear solve converged due to CONVERGED_RTOL iterations 15
    7 SNES Function norm 3.353989001816e-07 
    Linear solve converged due to CONVERGED_RTOL iterations 15
    8 SNES Function norm 8.028817908189e-08 
    Linear solve converged due to CONVERGED_RTOL iterations 15
    9 SNES Function norm 1.923052850209e-08 
    Linear solve converged due to CONVERGED_RTOL iterations 15
   10 SNES Function norm 4.608620303410e-09 
    Linear solve converged due to CONVERGED_RTOL iterations 15
   11 SNES Function norm 1.105055880447e-09 
    Linear solve converged due to CONVERGED_RTOL iterations 15
   12 SNES Function norm 2.651092717463e-10 
    Linear solve converged due to CONVERGED_RTOL iterations 15
   13 SNES Function norm 6.363461853090e-11 
    Linear solve converged due to CONVERGED_RTOL iterations 15
   14 SNES Function norm 1.528203266776e-11 
    Linear solve converged due to CONVERGED_RTOL iterations 15
   15 SNES Function norm 3.671374026142e-12 
  Nonlinear solve converged due to CONVERGED_SNORM_RELATIVE iterations 15
      TSAdapt none beuler 0: step   1 accepted t=0.5        + 5.000e-01 dt=5.000e-01 
2 TS dt 0.5 time 1.
    0 SNES Function norm 7.790499008312e-03 
    Linear solve converged due to CONVERGED_RTOL iterations 18
    1 SNES Function norm 1.435975115268e-03 
    Linear solve converged due to CONVERGED_RTOL iterations 16
    2 SNES Function norm 3.527058803356e-04 
    Linear solve converged due to CONVERGED_RTOL iterations 17
    3 SNES Function norm 8.497913758348e-05 
    Linear solve converged due to CONVERGED_RTOL iterations 16
    4 SNES Function norm 2.032549143974e-05 
    Linear solve converged due to CONVERGED_RTOL iterations 14
    5 SNES Function norm 4.849748214976e-06 
    Linear solve converged due to CONVERGED_RTOL iterations 15
    6 SNES Function norm 1.156506454133e-06 
    Linear solve converged due to CONVERGED_RTOL iterations 19
    7 SNES Function norm 2.758189849344e-07 
    Linear solve converged due to CONVERGED_RTOL iterations 19
    8 SNES Function norm 6.580541405114e-08 
    Linear solve converged due to CONVERGED_RTOL iterations 19
    9 SNES Function norm 1.570734844567e-08 
    Linear solve converged due to CONVERGED_RTOL iterations 19
   10 SNES Function norm 3.751137370225e-09 
    Linear solve converged due to CONVERGED_RTOL iterations 19
   11 SNES Function norm 8.962854585860e-10 
    Linear solve converged due to CONVERGED_RTOL iterations 15
   12 SNES Function norm 2.142663707892e-10 
    Linear solve converged due to CONVERGED_RTOL iterations 19
   13 SNES Function norm 5.124858069953e-11 
    Linear solve converged due to CONVERGED_RTOL iterations 15
   14 SNES Function norm 1.226268278059e-11 
    Linear solve converged due to CONVERGED_RTOL iterations 16
   15 SNES Function norm 2.936610064420e-12 
  Nonlinear solve converged due to CONVERGED_SNORM_RELATIVE iterations 15
      TSAdapt none beuler 0: step   2 accepted t=1          + 5.000e-01 dt=5.000e-01 
3 TS dt 0.5 time 1.5
    0 SNES Function norm 6.236277900777e-03 
    Linear solve converged due to CONVERGED_RTOL iterations 17
    1 SNES Function norm 1.314270520632e-03 
    Linear solve converged due to CONVERGED_RTOL iterations 16
    2 SNES Function norm 3.221593536086e-04 
    Linear solve converged due to CONVERGED_RTOL iterations 16
    3 SNES Function norm 7.744810412141e-05 
    Linear solve converged due to CONVERGED_RTOL iterations 15
    4 SNES Function norm 1.847168585678e-05 
    Linear solve converged due to CONVERGED_RTOL iterations 16
    5 SNES Function norm 4.392728709055e-06 
    Linear solve converged due to CONVERGED_RTOL iterations 18
    6 SNES Function norm 1.043780749632e-06 
    Linear solve converged due to CONVERGED_RTOL iterations 15
    7 SNES Function norm 2.480108053158e-07 
    Linear solve converged due to CONVERGED_RTOL iterations 15
    8 SNES Function norm 5.894702875513e-08 
    Linear solve converged due to CONVERGED_RTOL iterations 15
    9 SNES Function norm 1.401666298808e-08 
    Linear solve converged due to CONVERGED_RTOL iterations 15
   10 SNES Function norm 3.334571306552e-09 
    Linear solve converged due to CONVERGED_RTOL iterations 15
   11 SNES Function norm 7.936964436545e-10 
    Linear solve converged due to CONVERGED_RTOL iterations 15
   12 SNES Function norm 1.890118989738e-10 
    Linear solve converged due to CONVERGED_RTOL iterations 19
   13 SNES Function norm 4.503289239618e-11 
    Linear solve converged due to CONVERGED_RTOL iterations 15
   14 SNES Function norm 1.073407959218e-11 
    Linear solve converged due to CONVERGED_RTOL iterations 15
   15 SNES Function norm 2.560321761885e-12 
  Nonlinear solve converged due to CONVERGED_SNORM_RELATIVE iterations 15
      TSAdapt none beuler 0: step   3 accepted t=1.5        + 5.000e-01 dt=5.000e-01 
4 TS dt 0.5 time 2.
    0 SNES Function norm 5.607256855357e-03 
    Linear solve converged due to CONVERGED_RTOL iterations 16
    1 SNES Function norm 1.234552276518e-03 
    Linear solve converged due to CONVERGED_RTOL iterations 16
    2 SNES Function norm 3.007183906432e-04 
    Linear solve converged due to CONVERGED_RTOL iterations 16
    3 SNES Function norm 7.196919871528e-05 
    Linear solve converged due to CONVERGED_RTOL iterations 15
    4 SNES Function norm 1.709722939952e-05 
    Linear solve converged due to CONVERGED_RTOL iterations 15
    5 SNES Function norm 4.050433189531e-06 
    Linear solve converged due to CONVERGED_RTOL iterations 15
    6 SNES Function norm 9.587935890485e-07 
    Linear solve converged due to CONVERGED_RTOL iterations 15
    7 SNES Function norm 2.269552482691e-07 
    Linear solve converged due to CONVERGED_RTOL iterations 15
    8 SNES Function norm 5.373877503823e-08 
    Linear solve converged due to CONVERGED_RTOL iterations 15
    9 SNES Function norm 1.272991261613e-08 
    Linear solve converged due to CONVERGED_RTOL iterations 15
   10 SNES Function norm 3.016996000858e-09 
    Linear solve converged due to CONVERGED_RTOL iterations 15
   11 SNES Function norm 7.153886134270e-10 
    Linear solve converged due to CONVERGED_RTOL iterations 15
   12 SNES Function norm 1.697184720779e-10 
    Linear solve converged due to CONVERGED_RTOL iterations 19
   13 SNES Function norm 4.028348249671e-11 
    Linear solve converged due to CONVERGED_RTOL iterations 15
   14 SNES Function norm 9.565735399474e-12 
    Linear solve converged due to CONVERGED_RTOL iterations 15
   15 SNES Function norm 2.273254720881e-12 
  Nonlinear solve converged due to CONVERGED_SNORM_RELATIVE iterations 15
      TSAdapt none beuler 0: step   4 accepted t=2          + 5.000e-01 dt=5.000e-01 
5 TS dt 0.5 time 2.5
    0 SNES Function norm 5.187333288287e-03 
    Linear solve converged due to CONVERGED_RTOL iterations 17
    1 SNES Function norm 1.154853473965e-03 
    Linear solve converged due to CONVERGED_RTOL iterations 15
    2 SNES Function norm 2.795596260587e-04 
    Linear solve converged due to CONVERGED_RTOL iterations 16
    3 SNES Function norm 6.659281494589e-05 
    Linear solve converged due to CONVERGED_RTOL iterations 15
    4 SNES Function norm 1.575674847452e-05 
    Linear solve converged due to CONVERGED_RTOL iterations 15
    5 SNES Function norm 3.718989372010e-06 
    Linear solve converged due to CONVERGED_RTOL iterations 14
    6 SNES Function norm 8.771444735357e-07 
    Linear solve converged due to CONVERGED_RTOL iterations 15
    7 SNES Function norm 2.068827224353e-07 
    Linear solve converged due to CONVERGED_RTOL iterations 15
    8 SNES Function norm 4.881086420778e-08 
    Linear solve converged due to CONVERGED_RTOL iterations 15
    9 SNES Function norm 1.152129497539e-08 
    Linear solve converged due to CONVERGED_RTOL iterations 15
   10 SNES Function norm 2.720813933464e-09 
    Linear solve converged due to CONVERGED_RTOL iterations 15
   11 SNES Function norm 6.428584602674e-10 
    Linear solve converged due to CONVERGED_RTOL iterations 14
   12 SNES Function norm 1.519670204849e-10 
    Linear solve converged due to CONVERGED_RTOL iterations 16
   13 SNES Function norm 3.594233267546e-11 
    Linear solve converged due to CONVERGED_RTOL iterations 14
   14 SNES Function norm 8.504636824053e-12 
    Linear solve converged due to CONVERGED_RTOL iterations 15
   15 SNES Function norm 2.012976761056e-12 
  Nonlinear solve converged due to CONVERGED_SNORM_RELATIVE iterations 15
      TSAdapt none beuler 0: step   5 accepted t=2.5        + 5.000e-01 dt=5.000e-01 
6 TS dt 0.5 time 3.
    0 SNES Function norm 4.812831549315e-03 
    Linear solve converged due to CONVERGED_RTOL iterations 17
    1 SNES Function norm 1.068979894252e-03 
    Linear solve converged due to CONVERGED_RTOL iterations 15
    2 SNES Function norm 2.572973816541e-04 
    Linear solve converged due to CONVERGED_RTOL iterations 16
    3 SNES Function norm 6.102091135413e-05 
    Linear solve converged due to CONVERGED_RTOL iterations 15
    4 SNES Function norm 1.438451904923e-05 
    Linear solve converged due to CONVERGED_RTOL iterations 14
    5 SNES Function norm 3.383373189340e-06 
    Linear solve converged due to CONVERGED_RTOL iterations 14
    6 SNES Function norm 7.953156365788e-07 
    Linear solve converged due to CONVERGED_RTOL iterations 14
    7 SNES Function norm 1.869621239781e-07 
    Linear solve converged due to CONVERGED_RTOL iterations 14
    8 SNES Function norm 4.396573576167e-08 
    Linear solve converged due to CONVERGED_RTOL iterations 14
    9 SNES Function norm 1.034358265809e-08 
    Linear solve converged due to CONVERGED_RTOL iterations 14
   10 SNES Function norm 2.434680523238e-09 
    Linear solve converged due to CONVERGED_RTOL iterations 14
   11 SNES Function norm 5.733671721103e-10 
    Linear solve converged due to CONVERGED_RTOL iterations 14
   12 SNES Function norm 1.350964248953e-10 
    Linear solve converged due to CONVERGED_RTOL iterations 14
   13 SNES Function norm 3.184634032722e-11 
    Linear solve converged due to CONVERGED_RTOL iterations 14
   14 SNES Function norm 7.511860993669e-12 
    Linear solve converged due to CONVERGED_RTOL iterations 15
   15 SNES Function norm 1.772375149560e-12 
  Nonlinear solve converged due to CONVERGED_SNORM_RELATIVE iterations 15
      TSAdapt none beuler 0: step   6 accepted t=3          + 5.000e-01 dt=5.000e-01 
7 TS dt 0.5 time 3.5
    0 SNES Function norm 4.447228727023e-03 
    Linear solve converged due to CONVERGED_RTOL iterations 17
    1 SNES Function norm 9.787374963916e-04 
    Linear solve converged due to CONVERGED_RTOL iterations 15
    2 SNES Function norm 2.343621313052e-04 
    Linear solve converged due to CONVERGED_RTOL iterations 16
    3 SNES Function norm 5.535987663716e-05 
    Linear solve converged due to CONVERGED_RTOL iterations 15
    4 SNES Function norm 1.300569567306e-05 
    Linear solve converged due to CONVERGED_RTOL iterations 16
    5 SNES Function norm 3.049394159156e-06 
    Linear solve converged due to CONVERGED_RTOL iterations 14
    6 SNES Function norm 7.146224298002e-07 
    Linear solve converged due to CONVERGED_RTOL iterations 14
    7 SNES Function norm 1.674874074364e-07 
    Linear solve converged due to CONVERGED_RTOL iterations 14
    8 SNES Function norm 3.926827367421e-08 
    Linear solve converged due to CONVERGED_RTOL iterations 14
    9 SNES Function norm 9.210879567970e-09 
    Linear solve converged due to CONVERGED_RTOL iterations 14
   10 SNES Function norm 2.161608607512e-09 
    Linear solve converged due to CONVERGED_RTOL iterations 14
   11 SNES Function norm 5.075453794494e-10 
    Linear solve converged due to CONVERGED_RTOL iterations 14
   12 SNES Function norm 1.192320024381e-10 
    Linear solve converged due to CONVERGED_RTOL iterations 14
   13 SNES Function norm 2.802397028272e-11 
    Linear solve converged due to CONVERGED_RTOL iterations 15
   14 SNES Function norm 6.589573680072e-12 
    Linear solve converged due to CONVERGED_RTOL iterations 15
   15 SNES Function norm 1.550466540418e-12 
  Nonlinear solve converged due to CONVERGED_SNORM_RELATIVE iterations 15
      TSAdapt none beuler 0: step   7 accepted t=3.5        + 5.000e-01 dt=5.000e-01 
8 TS dt 0.5 time 4.
    0 SNES Function norm 4.086488061598e-03 
    Linear solve converged due to CONVERGED_RTOL iterations 17
    1 SNES Function norm 8.871312568083e-04 
    Linear solve converged due to CONVERGED_RTOL iterations 17
    2 SNES Function norm 2.114274418246e-04 
    Linear solve converged due to CONVERGED_RTOL iterations 15
    3 SNES Function norm 4.976358303534e-05 
    Linear solve converged due to CONVERGED_RTOL iterations 15
    4 SNES Function norm 1.165504632323e-05 
    Linear solve converged due to CONVERGED_RTOL iterations 15
    5 SNES Function norm 2.724971640026e-06 
    Linear solve converged due to CONVERGED_RTOL iterations 14
    6 SNES Function norm 6.368382532430e-07 
    Linear solve converged due to CONVERGED_RTOL iterations 14
    7 SNES Function norm 1.488524985148e-07 
    Linear solve converged due to CONVERGED_RTOL iterations 14
    8 SNES Function norm 3.480526210939e-08 
    Linear solve converged due to CONVERGED_RTOL iterations 14
    9 SNES Function norm 8.142116880058e-09 
    Linear solve converged due to CONVERGED_RTOL iterations 14
   10 SNES Function norm 1.905675017934e-09 
    Linear solve converged due to CONVERGED_RTOL iterations 14
   11 SNES Function norm 4.462558462348e-10 
    Linear solve converged due to CONVERGED_RTOL iterations 14
   12 SNES Function norm 1.045549553163e-10 
    Linear solve converged due to CONVERGED_RTOL iterations 15
   13 SNES Function norm 2.450798695568e-11 
    Linear solve converged due to CONVERGED_RTOL iterations 16
   14 SNES Function norm 5.748135911193e-12 
    Linear solve converged due to CONVERGED_RTOL iterations 15
   15 SNES Function norm 1.348650196061e-12 
  Nonlinear solve converged due to CONVERGED_SNORM_RELATIVE iterations 15
      TSAdapt none beuler 0: step   8 accepted t=4          + 5.000e-01 dt=5.000e-01 
9 TS dt 0.5 time 4.5
    0 SNES Function norm 3.734446757432e-03 
    Linear solve converged due to CONVERGED_RTOL iterations 17
    1 SNES Function norm 7.966484657358e-04 
    Linear solve converged due to CONVERGED_RTOL iterations 17
    2 SNES Function norm 1.890411082446e-04 
    Linear solve converged due to CONVERGED_RTOL iterations 15
    3 SNES Function norm 4.434778557345e-05 
    Linear solve converged due to CONVERGED_RTOL iterations 15
    4 SNES Function norm 1.035779229999e-05 
    Linear solve converged due to CONVERGED_RTOL iterations 15
    5 SNES Function norm 2.415490089560e-06 
    Linear solve converged due to CONVERGED_RTOL iterations 14
    6 SNES Function norm 5.631215602077e-07 
    Linear solve converged due to CONVERGED_RTOL iterations 14
    7 SNES Function norm 1.313031609454e-07 
    Linear solve converged due to CONVERGED_RTOL iterations 14
    8 SNES Function norm 3.062793162803e-08 
    Linear solve converged due to CONVERGED_RTOL iterations 14
    9 SNES Function norm 7.147729465237e-09 
    Linear solve converged due to CONVERGED_RTOL iterations 14
   10 SNES Function norm 1.668939424569e-09 
    Linear solve converged due to CONVERGED_RTOL iterations 14
   11 SNES Function norm 3.898872649934e-10 
    Linear solve converged due to CONVERGED_RTOL iterations 14
   12 SNES Function norm 9.113021261910e-11 
    Linear solve converged due to CONVERGED_RTOL iterations 14
   13 SNES Function norm 2.131130440862e-11 
    Linear solve converged due to CONVERGED_RTOL iterations 18
   14 SNES Function norm 4.986305786730e-12 
    Linear solve converged due to CONVERGED_RTOL iterations 15
   15 SNES Function norm 1.167212673631e-12 
  Nonlinear solve converged due to CONVERGED_SNORM_RELATIVE iterations 15
      TSAdapt none beuler 0: step   9 accepted t=4.5        + 5.000e-01 dt=5.000e-01 
10 TS dt 0.5 time 5.
TS Object: 1 MPI process
  type: beuler
  maximum steps=10
  maximum time=100.
  total number of I function evaluations=178
  total number of I Jacobian evaluations=167
  total number of RHS function evaluations=178
  total number of nonlinear solver iterations=151
  total number of linear solver iterations=2318
  total number of nonlinear solve failures=0
  total number of rejected steps=0
  using relative error tolerance of 0.01,   using absolute error tolerance of 0.0001
  TSAdapt Object: 1 MPI process
    type: none
  SNES Object: 1 MPI process
    type: newtonls
    maximum iterations=50, maximum function evaluations=10000
    tolerances: relative=1e-14, absolute=1e-50, solution=1e-14
    total number of linear solver iterations=224
    total number of function evaluations=16
    norm schedule ALWAYS
    SNESLineSearch Object: 1 MPI process
      type: basic
      maxstep=1.000000e+08, minlambda=1.000000e-12
      tolerances: relative=1.000000e-08, absolute=1.000000e-15, lambda=1.000000e-08
      maximum iterations=40
    KSP Object: 1 MPI process
      type: tfqmr
      maximum iterations=100, initial guess is zero
      tolerances:  relative=1e-08, absolute=1e-50, divergence=10000.
      left preconditioning
      using PRECONDITIONED norm type for convergence test
    PC Object: 1 MPI process
      type: jacobi
        type DIAGONAL
      linear system matrix = precond matrix:
      Mat Object: Jacobian 1 MPI process
        type: seqaijkokkos
        rows=334400, cols=334400
        total: nonzeros=18048320, allocated nonzeros=18048320
        total number of mallocs used during MatSetValues calls=0
          not using I-node routines
****************************************************************************************************************************************************************
***                                WIDEN YOUR WINDOW TO 160 CHARACTERS.  Use 'enscript -r -fCourier9' to print this document                                 ***
****************************************************************************************************************************************************************

------------------------------------------------------------------ PETSc Performance Summary: ------------------------------------------------------------------



      ##########################################################
      #                                                        #
      #                       WARNING!!!                       #
      #                                                        #
      #   This code was compiled with GPU support and you've   #
      #   created PETSc/GPU objects, but you intentionally     #
      #   used -use_gpu_aware_mpi 0, requiring PETSc to copy   #
      #   additional data between the GPU and CPU. To obtain   #
      #   meaningful timing results on multi-rank runs, use    #
      #   GPU-aware MPI instead.                               #
      #                                                        #
      ##########################################################


/gpfs/alpine/csc314/scratch/adams/batch_gmres_paper/mark/crusher/./ex2-3d on a arch-olcf-crusher-kokkos-3d named crusher121 with 8 processors, by adams Fri Jul 15 09:59:19 2022
Using Petsc Development GIT revision: v3.17.3-760-g6e3d66b0f1  GIT Date: 2022-07-14 21:35:48 +0000

                         Max       Max/Min     Avg       Total
Time (sec):           1.863e+02     1.000   1.863e+02
Objects:              2.935e+04     1.000   2.935e+04
Flops:                2.230e+11     1.000   2.230e+11  1.784e+12
Flops/sec:            1.196e+09     1.000   1.196e+09  9.572e+09
MPI Msg Count:        0.000e+00     0.000   0.000e+00  0.000e+00
MPI Msg Len (bytes):  0.000e+00     0.000   0.000e+00  0.000e+00
MPI Reductions:       2.100e+01     1.000

Flop counting convention: 1 flop = 1 real number operation of type (multiply/divide/add/subtract)
                            e.g., VecAXPY() for real vectors of length N --> 2N flops
                            and VecAXPY() for complex vectors of length N --> 8N flops

Summary of Stages:   ----- Time ------  ----- Flop ------  --- Messages ---  -- Message Lengths --  -- Reductions --
                        Avg     %Total     Avg     %Total    Count   %Total     Avg         %Total    Count   %Total
 0:      Main Stage: 6.8825e+01  36.9%  2.5929e+09   0.1%  0.000e+00   0.0%  0.000e+00        0.0%  2.000e+00   9.5%
 1:          Warmup: 1.1775e+01   6.3%  1.7143e+11   9.6%  0.000e+00   0.0%  0.000e+00        0.0%  0.000e+00   0.0%
 2:           Solve: 1.0574e+02  56.7%  1.6096e+12  90.2%  0.000e+00   0.0%  0.000e+00        0.0%  0.000e+00   0.0%

------------------------------------------------------------------------------------------------------------------------
See the 'Profiling' chapter of the users' manual for details on interpreting output.
Phase summary info:
   Count: number of times phase was executed
   Time and Flop: Max - maximum over all processors
                  Ratio - ratio of maximum to minimum over all processors
   Mess: number of messages sent
   AvgLen: average message length (bytes)
   Reduct: number of global reductions
   Global: entire computation
   Stage: stages of a computation. Set stages with PetscLogStagePush() and PetscLogStagePop().
      %T - percent time in this phase         %F - percent flop in this phase
      %M - percent messages in this phase     %L - percent message lengths in this phase
      %R - percent reductions in this phase
   Total Mflop/s: 10e-6 * (sum of flop over all processors)/(max time over all processors)
   GPU Mflop/s: 10e-6 * (sum of flop on GPU over all processors)/(max GPU time over all processors)
   CpuToGpu Count: total number of CPU to GPU copies per processor
   CpuToGpu Size (Mbytes): 10e-6 * (total size of CPU to GPU copies per processor)
   GpuToCpu Count: total number of GPU to CPU copies per processor
   GpuToCpu Size (Mbytes): 10e-6 * (total size of GPU to CPU copies per processor)
   GPU %F: percent flops on GPU in this event
------------------------------------------------------------------------------------------------------------------------
Event                Count      Time (sec)     Flop                              --- Global ---  --- Stage ----  Total   GPU    - CpuToGpu -   - GpuToCpu - GPU
                   Max Ratio  Max     Ratio   Max  Ratio  Mess   AvgLen  Reduct  %T %F %M %L %R  %T %F %M %L %R Mflop/s Mflop/s Count   Size   Count   Size  %F
---------------------------------------------------------------------------------------------------------------------------------------------------------------

--- Event Stage 0: Main Stage

BuildTwoSided        423 1.0 2.5938e-04 1.0 0.00e+00 0.0 0.0e+00 0.0e+00 0.0e+00  0  0  0  0  0   0  0  0  0  0     0       0      0 0.00e+00    0 0.00e+00  0
DMConvert             18 1.0 3.2115e-03 1.0 0.00e+00 0.0 0.0e+00 0.0e+00 0.0e+00  0  0  0  0  0   0  0  0  0  0     0       0      0 0.00e+00    0 0.00e+00  0
DMCreateMat            8 1.0 3.9009e+01 1.0 0.00e+00 0.0 0.0e+00 0.0e+00 0.0e+00 21  0  0  0  0  56  0  0  0  0     0       0      0 0.00e+00    0 0.00e+00  0
DMPlexInterp         294 1.0 5.5735e-03 1.0 0.00e+00 0.0 0.0e+00 0.0e+00 0.0e+00  0  0  0  0  0   0  0  0  0  0     0       0      0 0.00e+00    0 0.00e+00  0
DMPlexStratify       435 1.0 4.3430e-03 1.0 0.00e+00 0.0 0.0e+00 0.0e+00 0.0e+00  0  0  0  0  0   0  0  0  0  0     0       0      0 0.00e+00    0 0.00e+00  0
DMPlexSymmetrize     435 1.0 5.6479e-04 1.0 0.00e+00 0.0 0.0e+00 0.0e+00 0.0e+00  0  0  0  0  0   0  0  0  0  0     0       0      0 0.00e+00    0 0.00e+00  0
DMPlexPrealloc       198 1.0 3.8080e+01 1.0 0.00e+00 0.0 0.0e+00 0.0e+00 0.0e+00 20  0  0  0  0  55  0  0  0  0     0       0      0 0.00e+00    0 0.00e+00  0
DMPlexJacobianFE       6 1.0 3.1160e+00 1.0 1.06e+08 1.0 0.0e+00 0.0e+00 0.0e+00  2  0  0  0  0   5 33  0  0  0   272       0      0 0.00e+00    0 0.00e+00  0
SFSetGraph           828 1.0 2.3797e-04 1.0 0.00e+00 0.0 0.0e+00 0.0e+00 0.0e+00  0  0  0  0  0   0  0  0  0  0     0       0      0 0.00e+00    0 0.00e+00  0
SFSetUp              423 1.0 1.3467e-03 1.1 0.00e+00 0.0 0.0e+00 0.0e+00 0.0e+00  0  0  0  0  0   0  0  0  0  0     0       0      0 0.00e+00    0 0.00e+00  0
SFBcastBegin         858 1.0 1.6650e-03 1.1 0.00e+00 0.0 0.0e+00 0.0e+00 0.0e+00  0  0  0  0  0   0  0  0  0  0     0       0      0 0.00e+00    0 0.00e+00  0
SFBcastEnd           858 1.0 3.4141e-04 1.0 0.00e+00 0.0 0.0e+00 0.0e+00 0.0e+00  0  0  0  0  0   0  0  0  0  0     0       0      0 0.00e+00    0 0.00e+00  0
SFReduceBegin         54 1.0 7.0034e-05 1.1 0.00e+00 0.0 0.0e+00 0.0e+00 0.0e+00  0  0  0  0  0   0  0  0  0  0     0       0      0 0.00e+00    0 0.00e+00  0
SFReduceEnd           54 1.0 1.5414e-05 1.1 0.00e+00 0.0 0.0e+00 0.0e+00 0.0e+00  0  0  0  0  0   0  0  0  0  0     0       0      0 0.00e+00    0 0.00e+00  0
SFCreateEmbed        396 1.0 3.6828e-03 1.1 0.00e+00 0.0 0.0e+00 0.0e+00 0.0e+00  0  0  0  0  0   0  0  0  0  0     0       0      0 0.00e+00    0 0.00e+00  0
SFSectionSF          396 1.0 1.2791e-03 1.1 0.00e+00 0.0 0.0e+00 0.0e+00 0.0e+00  0  0  0  0  0   0  0  0  0  0     0       0      0 0.00e+00    0 0.00e+00  0
SFRemoteOff          396 1.0 7.2503e-03 1.0 0.00e+00 0.0 0.0e+00 0.0e+00 0.0e+00  0  0  0  0  0   0  0  0  0  0     0       0      0 0.00e+00    0 0.00e+00  0
SFPack               912 1.0 6.3307e-05 1.1 0.00e+00 0.0 0.0e+00 0.0e+00 0.0e+00  0  0  0  0  0   0  0  0  0  0     0       0      0 0.00e+00    0 0.00e+00  0
SFUnpack             912 1.0 6.5044e-05 1.1 0.00e+00 0.0 0.0e+00 0.0e+00 0.0e+00  0  0  0  0  0   0  0  0  0  0     0       0      0 0.00e+00    0 0.00e+00  0
Landau Create          1 1.0 4.6735e+01 1.0 2.58e+08 1.0 0.0e+00 0.0e+00 0.0e+00 25  0  0  0  0  68 80  0  0  0    44       0      0 0.00e+00    0 0.00e+00  0
 GPU ass. setup        1 1.0 2.4528e+01 1.0 0.00e+00 0.0 0.0e+00 0.0e+00 0.0e+00 13  0  0  0  0  36  0  0  0  0     0       0      0 0.00e+00    0 0.00e+00  0
 Build matrix          1 1.0 2.0646e+00 1.0 3.98e+07 1.0 0.0e+00 0.0e+00 0.0e+00  1  0  0  0  0   3 12  0  0  0   154       0      0 0.00e+00    0 0.00e+00  0
 Assembly maps         1 1.0 2.0149e+01 1.0 2.18e+08 1.0 0.0e+00 0.0e+00 0.0e+00 11  0  0  0  0  29 67  0  0  0    86       0      0 0.00e+00    0 0.00e+00  0
Landau Mass mat        1 1.0 2.2142e+01 1.0 6.61e+07 1.0 0.0e+00 0.0e+00 0.0e+00 12  0  0  0  0  32 20  0  0  0    24       0      0 0.00e+00    0 0.00e+00  0
 static IP Data        1 1.0 2.9747e-03 1.2 4.76e+05 1.0 0.0e+00 0.0e+00 0.0e+00  0  0  0  0  0   0  0  0  0  0  1281       0      0 0.00e+00    0 0.00e+00  0
MatMult           397080 1.0 3.3316e-02 1.0 3.10e+06 1.0 0.0e+00 0.0e+00 0.0e+00  0  0  0  0  0   0  1  0  0  0   745       0      0 0.00e+00    0 0.00e+00  0
MatLUFactor           30 1.0 4.6177e-04 1.0 3.94e+05 1.0 0.0e+00 0.0e+00 0.0e+00  0  0  0  0  0   0  0  0  0  0  6820       0      0 0.00e+00    0 0.00e+00  0
MatCopy              240 1.0 1.8058e-04 1.1 0.00e+00 0.0 0.0e+00 0.0e+00 0.0e+00  0  0  0  0  0   0  0  0  0  0     0       0      0 0.00e+00    0 0.00e+00  0
MatConvert            60 1.0 4.6422e-04 1.0 0.00e+00 0.0 0.0e+00 0.0e+00 0.0e+00  0  0  0  0  0   0  0  0  0  0     0       0      0 0.00e+00    0 0.00e+00  0
MatAssemblyBegin    1275 1.0 1.1107e-04 1.1 0.00e+00 0.0 0.0e+00 0.0e+00 0.0e+00  0  0  0  0  0   0  0  0  0  0     0       0      0 0.00e+00    0 0.00e+00  0
MatAssemblyEnd      1275 1.0 3.3905e-01 1.1 0.00e+00 0.0 0.0e+00 0.0e+00 0.0e+00  0  0  0  0  0   0  0  0  0  0     0       0      0 0.00e+00    0 0.00e+00  0
MatGetRowIJ           15 1.0 2.2840e-06 1.2 0.00e+00 0.0 0.0e+00 0.0e+00 0.0e+00  0  0  0  0  0   0  0  0  0  0     0       0      0 0.00e+00    0 0.00e+00  0
MatZeroEntries         6 1.0 3.8533e-03 1.3 0.00e+00 0.0 0.0e+00 0.0e+00 0.0e+00  0  0  0  0  0   0  0  0  0  0     0       0      0 0.00e+00    0 0.00e+00  0
MatMatSolve          240 1.0 1.9851e-03 1.0 9.27e+06 1.0 0.0e+00 0.0e+00 0.0e+00  0  0  0  0  0   0  3  0  0  0 37369       0      0 0.00e+00    0 0.00e+00  0
MatSetPreallCOO        1 1.0 1.1336e+01 1.0 0.00e+00 0.0 0.0e+00 0.0e+00 0.0e+00  6  0  0  0  0  16  0  0  0  0     0       0      0 0.00e+00    0 0.00e+00  0
VecCopy                1 1.0 2.4803e-04 1.5 0.00e+00 0.0 0.0e+00 0.0e+00 0.0e+00  0  0  0  0  0   0  0  0  0  0     0       0      0 0.00e+00    0 0.00e+00  0
VecSet               105 1.0 3.3947e-03 1.2 0.00e+00 0.0 0.0e+00 0.0e+00 0.0e+00  0  0  0  0  0   0  0  0  0  0     0       0      0 0.00e+00    0 0.00e+00  0
DualSpaceSetUp        28 1.0 3.1342e-02 1.0 2.20e+04 1.0 0.0e+00 0.0e+00 0.0e+00  0  0  0  0  0   0  0  0  0  0     6       0      0 0.00e+00    0 0.00e+00  0
FESetUp               52 1.0 3.8073e-03 1.0 0.00e+00 0.0 0.0e+00 0.0e+00 0.0e+00  0  0  0  0  0   0  0  0  0  0     0       0      0 0.00e+00    0 0.00e+00  0

--- Event Stage 1: Warmup

Landau Operator       33 1.0 1.0466e+01 1.0 1.23e+09 1.0 0.0e+00 0.0e+00 0.0e+00  6  1  0  0  0  89  6  0  0  0   938       0      0 0.00e+00    0 0.00e+00 100
Landau Jacobian       17 1.0 9.5018e+00 1.0 1.23e+09 1.0 0.0e+00 0.0e+00 0.0e+00  5  1  0  0  0  81  6  0  0  0  1033       0      0 0.00e+00    0 0.00e+00 100
Landau Mass           16 1.0 9.6492e-01 1.0 0.00e+00 0.0 0.0e+00 0.0e+00 0.0e+00  1  0  0  0  0   8  0  0  0  0     0       0      0 0.00e+00    0 0.00e+00  0
 Preamble             33 1.0 9.3027e-05 1.6 0.00e+00 0.0 0.0e+00 0.0e+00 0.0e+00  0  0  0  0  0   0  0  0  0  0     0       0      0 0.00e+00    0 0.00e+00  0
 dynamic IP-Jac       34 1.0 1.6831e-05 1.7 0.00e+00 0.0 0.0e+00 0.0e+00 0.0e+00  0  0  0  0  0   0  0  0  0  0     0       0      0 0.00e+00    0 0.00e+00  0
 Kernel-init          33 1.0 2.2088e-04 1.5 0.00e+00 0.0 0.0e+00 0.0e+00 0.0e+00  0  0  0  0  0   0  0  0  0  0     0       0      0 0.00e+00    0 0.00e+00  0
 Jac-f-df (GPU)       17 1.0 4.6036e-02 1.0 0.00e+00 0.0 0.0e+00 0.0e+00 0.0e+00  0  0  0  0  0   0  0  0  0  0     0       0      0 0.00e+00    0 0.00e+00  0
 J Kernel (GPU)       17 1.0 9.0875e+00 1.0 0.00e+00 0.0 0.0e+00 0.0e+00 0.0e+00  5  0  0  0  0  77  0  0  0  0     0       0      0 0.00e+00    0 0.00e+00  0
 M Kernel (GPU)       16 1.0 7.4288e-01 1.0 0.00e+00 0.0 0.0e+00 0.0e+00 0.0e+00  0  0  0  0  0   6  0  0  0  0     0       0      0 0.00e+00    0 0.00e+00  0
MatMult              511 1.0 1.3169e+00 1.0 1.84e+10 1.0 0.0e+00 0.0e+00 0.0e+00  1  8  0  0  0  11 86  0  0  0 112055       0      0 0.00e+00    0 0.00e+00 100
MatMultAdd            17 1.0 5.3731e-02 1.0 6.14e+08 1.0 0.0e+00 0.0e+00 0.0e+00  0  0  0  0  0   0  3  0  0  0 91366       0      0 0.00e+00    0 0.00e+00 100
MatAssemblyBegin      66 1.0 5.7680e-06 1.2 0.00e+00 0.0 0.0e+00 0.0e+00 0.0e+00  0  0  0  0  0   0  0  0  0  0     0       0      0 0.00e+00    0 0.00e+00  0
MatAssemblyEnd        66 1.0 4.1317e-03 1.1 0.00e+00 0.0 0.0e+00 0.0e+00 0.0e+00  0  0  0  0  0   0  0  0  0  0     0       0      0 0.00e+00    0 0.00e+00  0
MatZeroEntries        17 1.0 2.7558e-03 1.1 0.00e+00 0.0 0.0e+00 0.0e+00 0.0e+00  0  0  0  0  0   0  0  0  0  0     0       0      0 0.00e+00    0 0.00e+00  0
MatView                1 0.0 2.5149e-05 0.0 0.00e+00 0.0 0.0e+00 0.0e+00 0.0e+00  0  0  0  0  0   0  0  0  0  0     0       0      0 0.00e+00    0 0.00e+00  0
MatSetValuesCOO       33 1.0 2.9066e-03 1.1 0.00e+00 0.0 0.0e+00 0.0e+00 0.0e+00  0  0  0  0  0   0  0  0  0  0     0       0      0 0.00e+00    0 0.00e+00  0
VecDot               494 1.0 2.6718e-02 1.0 3.30e+08 1.0 0.0e+00 0.0e+00 0.0e+00  0  0  0  0  0   0  2  0  0  0 98925       0      0 0.00e+00    0 0.00e+00 100
VecNorm              264 1.0 1.3819e-02 1.0 1.77e+08 1.0 0.0e+00 0.0e+00 0.0e+00  0  0  0  0  0   0  1  0  0  0 102211       0      0 0.00e+00    0 0.00e+00 100
VecCopy               83 1.0 2.3144e-03 1.2 0.00e+00 0.0 0.0e+00 0.0e+00 0.0e+00  0  0  0  0  0   0  0  0  0  0     0       0      0 0.00e+00    0 0.00e+00  0
VecSet                49 1.0 1.3050e-03 1.1 0.00e+00 0.0 0.0e+00 0.0e+00 0.0e+00  0  0  0  0  0   0  0  0  0  0     0       0      0 0.00e+00    0 0.00e+00  0
VecAXPY              985 1.0 3.3039e-03 1.2 6.59e+08 1.0 0.0e+00 0.0e+00 0.0e+00  0  0  0  0  0   0  3  0  0  0 1595141       0      0 0.00e+00    0 0.00e+00 100
VecAYPX              489 1.0 1.3463e-03 1.3 3.22e+08 1.0 0.0e+00 0.0e+00 0.0e+00  0  0  0  0  0   0  2  0  0  0 1911558       0      0 0.00e+00    0 0.00e+00 100
VecAXPBYCZ            18 1.0 2.6923e-03 1.1 3.01e+07 1.0 0.0e+00 0.0e+00 0.0e+00  0  0  0  0  0   0  0  0  0  0 89427       0      0 0.00e+00    0 0.00e+00 100
VecWAXPY             972 1.0 2.7530e-03 1.4 6.50e+08 1.0 0.0e+00 0.0e+00 0.0e+00  0  0  0  0  0   0  3  0  0  0 1889032       0      0 0.00e+00    0 0.00e+00 100
VecPointwiseMult     510 1.0 8.1313e-03 1.1 1.71e+08 1.0 0.0e+00 0.0e+00 0.0e+00  0  0  0  0  0   0  1  0  0  0 167789       0      0 0.00e+00    0 0.00e+00 100
VecReduceArith        48 1.0 2.1945e-03 1.3 3.21e+07 1.0 0.0e+00 0.0e+00 0.0e+00  0  0  0  0  0   0  0  0  0  0 117030       0      0 0.00e+00    0 0.00e+00 100
VecReduceComm         16 1.0 5.1800e-06 1.7 0.00e+00 0.0 0.0e+00 0.0e+00 0.0e+00  0  0  0  0  0   0  0  0  0  0     0       0      0 0.00e+00    0 0.00e+00  0
TSStep                 1 1.0 1.1799e+01 1.0 2.14e+10 1.0 0.0e+00 0.0e+00 0.0e+00  6 10  0  0  0 100100  0  0  0 14529       0      0 0.00e+00    0 0.00e+00 100
TSFunctionEval        17 1.0 9.5029e+00 1.0 1.24e+09 1.0 0.0e+00 0.0e+00 0.0e+00  5  1  0  0  0  81  6  0  0  0  1043       0      0 0.00e+00    0 0.00e+00 100
TSJacobianEval        16 1.0 9.6493e-01 1.0 0.00e+00 0.0 0.0e+00 0.0e+00 0.0e+00  1  0  0  0  0   8  0  0  0  0     0       0      0 0.00e+00    0 0.00e+00  0
KSPSetUp              16 1.0 5.6549e-03 1.1 0.00e+00 0.0 0.0e+00 0.0e+00 0.0e+00  0  0  0  0  0   0  0  0  0  0     0       0      0 0.00e+00    0 0.00e+00  0
KSPSolve              16 1.0 1.3110e+00 1.0 2.01e+10 1.0 0.0e+00 0.0e+00 0.0e+00  1  9  0  0  0  11 94  0  0  0 122755       0      0 0.00e+00    0 0.00e+00 100
SNESSolve              1 1.0 1.1798e+01 1.0 2.14e+10 1.0 0.0e+00 0.0e+00 0.0e+00  6 10  0  0  0 100100  0  0  0 14529       0      0 0.00e+00    0 0.00e+00 100
SNESSetUp              1 1.0 4.0835e-04 2.0 0.00e+00 0.0 0.0e+00 0.0e+00 0.0e+00  0  0  0  0  0   0  0  0  0  0     0       0      0 0.00e+00    0 0.00e+00  0
SNESFunctionEval      17 1.0 9.5050e+00 1.0 1.27e+09 1.0 0.0e+00 0.0e+00 0.0e+00  5  1  0  0  0  81  6  0  0  0  1066       0      0 0.00e+00    0 0.00e+00 100
SNESJacobianEval      16 1.0 9.6495e-01 1.0 0.00e+00 0.0 0.0e+00 0.0e+00 0.0e+00  1  0  0  0  0   8  0  0  0  0     0       0      0 0.00e+00    0 0.00e+00  0
SNESLineSearch        16 1.0 8.9019e+00 1.0 1.24e+09 1.0 0.0e+00 0.0e+00 0.0e+00  5  1  0  0  0  75  6  0  0  0  1110       0      0 0.00e+00    0 0.00e+00 100
PCSetUp               16 1.0 1.0229e-02 1.1 0.00e+00 0.0 0.0e+00 0.0e+00 0.0e+00  0  0  0  0  0   0  0  0  0  0     0       0      0 0.00e+00    0 0.00e+00  0
PCApply              510 1.0 1.7162e-02 1.2 1.71e+08 1.0 0.0e+00 0.0e+00 0.0e+00  0  0  0  0  0   0  1  0  0  0 79500       0      0 0.00e+00    0 0.00e+00 100

--- Event Stage 2: Solve

Landau Operator      312 1.0 9.3695e+01 1.0 1.16e+10 1.0 0.0e+00 0.0e+00 0.0e+00 50  5  0  0  0  88  6  0  0  0   992       0      0 0.00e+00    0 0.00e+00 100
Landau Jacobian      161 1.0 8.4587e+01 1.0 1.16e+10 1.0 0.0e+00 0.0e+00 0.0e+00 45  5  0  0  0  80  6  0  0  0  1099       0      0 0.00e+00    0 0.00e+00 100
Landau Mass          151 1.0 9.1086e+00 1.0 0.00e+00 0.0 0.0e+00 0.0e+00 0.0e+00  5  0  0  0  0   9  0  0  0  0     0       0      0 0.00e+00    0 0.00e+00  0
 Preamble            303 1.0 6.2361e-04 1.3 0.00e+00 0.0 0.0e+00 0.0e+00 0.0e+00  0  0  0  0  0   0  0  0  0  0     0       0      0 0.00e+00    0 0.00e+00  0
 dynamic IP-Jac      304 1.0 1.0096e-04 1.6 0.00e+00 0.0 0.0e+00 0.0e+00 0.0e+00  0  0  0  0  0   0  0  0  0  0     0       0      0 0.00e+00    0 0.00e+00  0
 Kernel-init         303 1.0 1.6674e-03 1.4 0.00e+00 0.0 0.0e+00 0.0e+00 0.0e+00  0  0  0  0  0   0  0  0  0  0     0       0      0 0.00e+00    0 0.00e+00  0
 Jac-f-df (GPU)      152 1.0 3.8231e-01 1.0 0.00e+00 0.0 0.0e+00 0.0e+00 0.0e+00  0  0  0  0  0   0  0  0  0  0     0       0      0 0.00e+00    0 0.00e+00  0
 J Kernel (GPU)      152 1.0 8.1243e+01 1.0 0.00e+00 0.0 0.0e+00 0.0e+00 0.0e+00 43  0  0  0  0  77  0  0  0  0     0       0      0 0.00e+00    0 0.00e+00  0
 M Kernel (GPU)      151 1.0 7.0145e+00 1.0 0.00e+00 0.0 0.0e+00 0.0e+00 0.0e+00  4  0  0  0  0   7  0  0  0  0     0       0      0 0.00e+00    0 0.00e+00  0
MatMult             4797 1.0 1.2080e+01 1.0 1.73e+11 1.0 0.0e+00 0.0e+00 0.0e+00  6 78  0  0  0  11 86  0  0  0 114674       0      0 0.00e+00    0 0.00e+00 100
MatMultAdd           161 1.0 4.0953e-01 1.0 5.81e+09 1.0 0.0e+00 0.0e+00 0.0e+00  0  3  0  0  0   0  3  0  0  0 113526       0      0 0.00e+00    0 0.00e+00 100
MatAssemblyBegin     606 1.0 5.4764e-05 1.2 0.00e+00 0.0 0.0e+00 0.0e+00 0.0e+00  0  0  0  0  0   0  0  0  0  0     0       0      0 0.00e+00    0 0.00e+00  0
MatAssemblyEnd       606 1.0 1.7046e-04 1.1 0.00e+00 0.0 0.0e+00 0.0e+00 0.0e+00  0  0  0  0  0   0  0  0  0  0     0       0      0 0.00e+00    0 0.00e+00  0
MatZeroEntries       152 1.0 2.4158e-02 1.1 0.00e+00 0.0 0.0e+00 0.0e+00 0.0e+00  0  0  0  0  0   0  0  0  0  0     0       0      0 0.00e+00    0 0.00e+00  0
MatView                1 0.0 1.7414e-05 0.0 0.00e+00 0.0 0.0e+00 0.0e+00 0.0e+00  0  0  0  0  0   0  0  0  0  0     0       0      0 0.00e+00    0 0.00e+00  0
MatSetValuesCOO      303 1.0 1.9060e-03 1.2 0.00e+00 0.0 0.0e+00 0.0e+00 0.0e+00  0  0  0  0  0   0  0  0  0  0     0       0      0 0.00e+00    0 0.00e+00  0
VecDot              4636 1.0 2.4497e-01 1.0 3.10e+09 1.0 0.0e+00 0.0e+00 0.0e+00  0  1  0  0  0   0  2  0  0  0 101253       0      0 0.00e+00    0 0.00e+00 100
VecNorm             2479 1.0 1.2602e-01 1.0 1.66e+09 1.0 0.0e+00 0.0e+00 0.0e+00  0  1  0  0  0   0  1  0  0  0 105250       0      0 0.00e+00    0 0.00e+00 100
VecCopy              775 1.0 1.5715e-02 1.0 0.00e+00 0.0 0.0e+00 0.0e+00 0.0e+00  0  0  0  0  0   0  0  0  0  0     0       0      0 0.00e+00    0 0.00e+00  0
VecSet               463 1.0 1.2148e-02 1.1 0.00e+00 0.0 0.0e+00 0.0e+00 0.0e+00  0  0  0  0  0   0  0  0  0  0     0       0      0 0.00e+00    0 0.00e+00  0
VecAXPY             9231 1.0 2.6116e-02 1.2 6.17e+09 1.0 0.0e+00 0.0e+00 0.0e+00  0  3  0  0  0   0  3  0  0  0 1891176       0      0 0.00e+00    0 0.00e+00 100
VecAYPX             4575 1.0 1.2549e-02 1.3 3.01e+09 1.0 0.0e+00 0.0e+00 0.0e+00  0  1  0  0  0   0  1  0  0  0 1918375       0      0 0.00e+00    0 0.00e+00 100
VecAXPBYCZ           171 1.0 2.0084e-03 1.1 2.86e+08 1.0 0.0e+00 0.0e+00 0.0e+00  0  0  0  0  0   0  0  0  0  0 1138869       0      0 0.00e+00    0 0.00e+00 100
VecWAXPY            9121 1.0 2.5738e-02 1.4 6.10e+09 1.0 0.0e+00 0.0e+00 0.0e+00  0  3  0  0  0   0  3  0  0  0 1896066       0      0 0.00e+00    0 0.00e+00 100
VecPointwiseMult    4787 1.0 7.5110e-02 1.0 1.60e+09 1.0 0.0e+00 0.0e+00 0.0e+00  0  1  0  0  0   0  1  0  0  0 170498       0      0 0.00e+00    0 0.00e+00 100
VecReduceArith       453 1.0 2.0107e-02 1.2 3.03e+08 1.0 0.0e+00 0.0e+00 0.0e+00  0  0  0  0  0   0  0  0  0  0 120541       0      0 0.00e+00    0 0.00e+00 100
VecReduceComm        151 1.0 4.6549e-05 1.8 0.00e+00 0.0 0.0e+00 0.0e+00 0.0e+00  0  0  0  0  0   0  0  0  0  0     0       0      0 0.00e+00    0 0.00e+00  0
TSStep                10 1.0 1.0599e+02 1.0 2.01e+11 1.0 0.0e+00 0.0e+00 0.0e+00 57 90  0  0  0 100100  0  0  0 15187       0      0 0.00e+00    0 0.00e+00 100
TSFunctionEval       161 1.0 8.4591e+01 1.0 1.17e+10 1.0 0.0e+00 0.0e+00 0.0e+00 45  5  0  0  0  80  6  0  0  0  1109       0      0 0.00e+00    0 0.00e+00 100
TSJacobianEval       151 1.0 9.1087e+00 1.0 0.00e+00 0.0 0.0e+00 0.0e+00 0.0e+00  5  0  0  0  0   9  0  0  0  0     0       0      0 0.00e+00    0 0.00e+00  0
KSPSetUp             151 1.0 3.3907e-05 1.2 0.00e+00 0.0 0.0e+00 0.0e+00 0.0e+00  0  0  0  0  0   0  0  0  0  0     0       0      0 0.00e+00    0 0.00e+00  0
KSPSolve             151 1.0 1.2192e+01 1.0 1.89e+11 1.0 0.0e+00 0.0e+00 0.0e+00  7 85  0  0  0  11 94  0  0  0 123860       0      0 0.00e+00    0 0.00e+00 100
SNESSolve             10 1.0 1.0598e+02 1.0 2.01e+11 1.0 0.0e+00 0.0e+00 0.0e+00 57 90  0  0  0 100100  0  0  0 15185       0      0 0.00e+00    0 0.00e+00 100
SNESFunctionEval     161 1.0 8.4593e+01 1.0 1.20e+10 1.0 0.0e+00 0.0e+00 0.0e+00 45  5  0  0  0  80  6  0  0  0  1135       0      0 0.00e+00    0 0.00e+00 100
SNESJacobianEval     151 1.0 9.1088e+00 1.0 0.00e+00 0.0 0.0e+00 0.0e+00 0.0e+00  5  0  0  0  0   9  0  0  0  0     0       0      0 0.00e+00    0 0.00e+00  0
SNESLineSearch       151 1.0 8.4015e+01 1.0 1.17e+10 1.0 0.0e+00 0.0e+00 0.0e+00 45  5  0  0  0  79  6  0  0  0  1110       0      0 0.00e+00    0 0.00e+00 100
PCSetUp              151 1.0 1.0161e-01 1.0 0.00e+00 0.0 0.0e+00 0.0e+00 0.0e+00  0  0  0  0  0   0  0  0  0  0     0       0      0 0.00e+00    0 0.00e+00  0
PCApply             4787 1.0 7.6491e-02 1.0 1.60e+09 1.0 0.0e+00 0.0e+00 0.0e+00  0  1  0  0  0   0  1  0  0  0 167422       0      0 0.00e+00    0 0.00e+00 100
---------------------------------------------------------------------------------------------------------------------------------------------------------------

Object Type          Creations   Destructions. Reports information only for process 0.

--- Event Stage 0: Main Stage

           Container   428            428
    Distributed Mesh  1017           1017
            DM Label  2107           2107
          Quadrature  2281           2281
           Index Set 10065          10065
   IS L to G Mapping   203            203
             Section  4310           4310
   Star Forest Graph  2853           2853
     Discrete System  1610           1610
           Weak Form  1610           1610
    GraphPartitioner   444            444
              Matrix  1244           1244
              Vector   584            603
       p4est logging     1              0
        Linear Space    98             98
          Dual Space   396            396
            FE Space    52             52
       Field over DM    18             18
             TSAdapt     1              1
                  TS     1              1
                DMTS     1              1
                SNES     1              1
              DMSNES     3              3
      SNESLineSearch     1              1
       Krylov Solver     1              1
     DMKSP interface     0              1
      Preconditioner     1              1
              Viewer     2              1

--- Event Stage 1: Warmup

              Vector    19              0
     DMKSP interface     1              0

--- Event Stage 2: Solve

========================================================================================================================
Average time to get PetscTime(): 3.5e-08
Average time for MPI_Barrier(): 2.9296e-06
Average time for zero size MPI_Send(): 1.59735e-05
#PETSc Option Table entries:
-dim 3
-dm_landau_amr_levels_max 2,2,2
-dm_landau_batch_size 32
-dm_landau_coo_assembly
-dm_landau_device_type kokkos
-dm_landau_Ez 0
-dm_landau_ion_charges 1,2,3,4,5,6,7,8,9
-dm_landau_ion_masses 2,182,182,182,182,182,182,182,182
-dm_landau_n 1.0000044,1,1e-7,1e-7,1e-7,1e-7,1e-7,1e-7,1e-7,1e-7
-dm_landau_num_species_grid 1,1,8
-dm_landau_thermal_temps 2,1,1,1,1,1,1,1,1,1
-dm_landau_type p8est
-dm_landau_verbose 1
-dm_mat_type aijkokkos
-dm_preallocate_only false
-dm_vec_type kokkos
-ex2_test_type none
-ksp_converged_reason
-ksp_max_it 100
-ksp_rtol 1.e-8
-ksp_type tfqmr
-log_view
-pc_type jacobi
-petscspace_degree 2
-snes_converged_reason
-snes_linesearch_type basic
-snes_max_it 50
-snes_monitor
-snes_rtol 1e-14
-snes_stol 1e-14
-ts_adapt_clip .5,1.1
-ts_adapt_dt_max 1
-ts_adapt_monitor
-ts_adapt_scale_solve_failed 0.5
-ts_adapt_time_step_increase_delay 5
-ts_dt .5
-ts_exact_final_time stepover
-ts_max_snes_failures -1
-ts_max_steps 10
-ts_max_time 100
-ts_monitor
-ts_rtol 1e-2
-ts_type beuler
-ts_view
-use_gpu_aware_mpi 0
#End of PETSc Option Table entries
Compiled without FORTRAN kernels
Compiled with full precision matrices (default)
sizeof(short) 2 sizeof(int) 4 sizeof(long) 8 sizeof(void*) 8 sizeof(PetscScalar) 8 sizeof(PetscInt) 4
Configure options: --with-cc=cc --with-cxx=CC --with-fc=ftn LIBS="-L/opt/cray/pe/mpich/8.1.16/gtl/lib -lmpi_gtl_hsa" --with-debugging=0 --COPTFLAGS="-g -ggdb -O -DLAND_SUPPORT_CPU_ASS" --CXXOPTFLAGS="-g -ggdb -O -DLAND_SUPPORT_CPU_ASS" --FOPTFLAGS=-g --with-mpiexec="srun --gpu-bind=closest" --with-hip --with-hipc=hipcc --download-kokkos --download-kokkos-kernels --with-kokkos-kernels-tpl=1 --download-p4est=1 --with-zlib-dir=/sw/crusher/spack-envs/base/opt/cray-sles15-zen3/clang-14.0.0-rocm5.1.0/zlib-1.2.11-j3ogymf5vmwlxvblzxxqdkrjkdvfccyx PETSC_ARCH=arch-olcf-crusher-kokkos-3d
-----------------------------------------
Libraries compiled on 2022-07-14 23:40:07 on login2 
Machine characteristics: Linux-5.3.18-150300.59.68_11.0.76-cray_shasta_c-x86_64-with-glibc2.3.4
Using PETSc directory: /gpfs/alpine/csc314/scratch/adams/petsc
Using PETSc arch: arch-olcf-crusher-kokkos-3d
-----------------------------------------

Using C compiler: cc  -fPIC -g -ggdb -O -DLAND_SUPPORT_CPU_ASS   
Using Fortran compiler: ftn  -fPIC -g     
-----------------------------------------

Using include paths: -I/gpfs/alpine/csc314/scratch/adams/petsc/include -I/gpfs/alpine/csc314/scratch/adams/petsc/arch-olcf-crusher-kokkos-3d/include -I/sw/crusher/spack-envs/base/opt/cray-sles15-zen3/clang-14.0.0-rocm5.1.0/zlib-1.2.11-j3ogymf5vmwlxvblzxxqdkrjkdvfccyx/include -I/opt/rocm-5.1.0/include
-----------------------------------------

Using C linker: cc
Using Fortran linker: ftn
Using libraries: -Wl,-rpath,/gpfs/alpine/csc314/scratch/adams/petsc/arch-olcf-crusher-kokkos-3d/lib -L/gpfs/alpine/csc314/scratch/adams/petsc/arch-olcf-crusher-kokkos-3d/lib -lpetsc -Wl,-rpath,/gpfs/alpine/csc314/scratch/adams/petsc/arch-olcf-crusher-kokkos-3d/lib -L/gpfs/alpine/csc314/scratch/adams/petsc/arch-olcf-crusher-kokkos-3d/lib -Wl,-rpath,/sw/crusher/spack-envs/base/opt/cray-sles15-zen3/clang-14.0.0-rocm5.1.0/zlib-1.2.11-j3ogymf5vmwlxvblzxxqdkrjkdvfccyx/lib -L/sw/crusher/spack-envs/base/opt/cray-sles15-zen3/clang-14.0.0-rocm5.1.0/zlib-1.2.11-j3ogymf5vmwlxvblzxxqdkrjkdvfccyx/lib -Wl,-rpath,/opt/rocm-5.1.0/lib -L/opt/rocm-5.1.0/lib -Wl,-rpath,/opt/cray/pe/mpich/8.1.16/gtl/lib -L/opt/cray/pe/mpich/8.1.16/gtl/lib -Wl,-rpath,/opt/cray/pe/mpich/8.1.16/ofi/amd/5.0/lib -L/opt/cray/pe/mpich/8.1.16/ofi/amd/5.0/lib -Wl,-rpath,/opt/cray/pe/libsci/21.08.1.2/AMD/4.0/x86_64/lib -L/opt/cray/pe/libsci/21.08.1.2/AMD/4.0/x86_64/lib -Wl,-rpath,/opt/cray/pe/dsmml/0.2.2/dsmml/lib -L/opt/cray/pe/dsmml/0.2.2/dsmml/lib -Wl,-rpath,/opt/cray/pe/pmi/6.1.2/lib -L/opt/cray/pe/pmi/6.1.2/lib -Wl,-rpath,/opt/cray/xpmem/2.4.4-2.3_2.12__gff0e1d9.shasta/lib64 -L/opt/cray/xpmem/2.4.4-2.3_2.12__gff0e1d9.shasta/lib64 -Wl,-rpath,/usr/lib64/gcc/x86_64-suse-linux/7 -L/usr/lib64/gcc/x86_64-suse-linux/7 -Wl,-rpath,/usr/x86_64-suse-linux/lib -L/usr/x86_64-suse-linux/lib -Wl,-rpath,/opt/rocm-5.1.0/llvm/lib -L/opt/rocm-5.1.0/llvm/lib -lkokkoskernels -lkokkoscontainers -lkokkoscore -lp4est -lsc -lpthread -lm -lz -lX11 -lhipsparse -lhipblas -lrocsparse -lrocsolver -lrocblas -lrocrand -lamdhip64 -lstdc++ -ldl -lmpi_gtl_hsa -lsci_amd_mpi -lsci_amd -lmpifort_amd -lmpi_amd -ldsmml -lpmi -lpmi2 -lxpmem -lflangmain -lpgmath -lflang -lflangrti -lompstub -lm -lrt -lpthread -lgcc_s -lstdc++ -ldl -lmpi_gtl_hsa
-----------------------------------------



      ##########################################################
      #                                                        #
      #                       WARNING!!!                       #
      #                                                        #
      #   This code was compiled with GPU support and you've   #
      #   created PETSc/GPU objects, but you intentionally     #
      #   used -use_gpu_aware_mpi 0, requiring PETSc to copy   #
      #   additional data between the GPU and CPU. To obtain   #
      #   meaningful timing results on multi-rank runs, use    #
      #   GPU-aware MPI instead.                               #
      #                                                        #
      ##########################################################


