masses:        e= 9.109e-31; ions in proton mass units:    2.000e+00  1.820e+02 ...
charges:       e=-1.602e-19; charges in elementary units:  1.000e+00  2.000e+00
n:             e:  1.000e+00                           i:  1.000e+00  1.000e-07
thermal T (K): e= 2.321e+07 i= 1.160e+07  1.160e+07. v_0= 1.876e+07 ( 6.256e-02c) n_0= 1.000e+20 t_0= 1.637e-05, classical, Intuitive, 16 batched
Domain radius (AMR levels) grid 0:  5.000e+00 (2) , 1:  5.835e-02 (2) , 2:  6.117e-03 (2) 
Using default Plex order for all matrices
0) FormLandau 9720 IPs, 360 cells total, Nb=27, Nq=27, dim=3, Tab: Nb=27 Nf=10 Np=27 cdim=3 N=167200
0 TS dt 0.5 time 0.
    0 SNES Function norm 8.214643987564e-02 
    Linear solve converged due to CONVERGED_RTOL iterations 18
    1 SNES Function norm 2.777458522111e-03 
    Linear solve converged due to CONVERGED_RTOL iterations 16
    2 SNES Function norm 5.107907388455e-04 
    Linear solve converged due to CONVERGED_RTOL iterations 16
    3 SNES Function norm 1.162531951094e-04 
    Linear solve converged due to CONVERGED_RTOL iterations 15
    4 SNES Function norm 2.736061788962e-05 
    Linear solve converged due to CONVERGED_RTOL iterations 16
    5 SNES Function norm 6.506726280303e-06 
    Linear solve converged due to CONVERGED_RTOL iterations 15
    6 SNES Function norm 1.553910623358e-06 
    Linear solve converged due to CONVERGED_RTOL iterations 15
    7 SNES Function norm 3.718530826354e-07 
    Linear solve converged due to CONVERGED_RTOL iterations 15
    8 SNES Function norm 8.908970498584e-08 
    Linear solve converged due to CONVERGED_RTOL iterations 15
    9 SNES Function norm 2.136183390331e-08 
    Linear solve converged due to CONVERGED_RTOL iterations 15
   10 SNES Function norm 5.125501941969e-09 
    Linear solve converged due to CONVERGED_RTOL iterations 15
   11 SNES Function norm 1.230524460426e-09 
    Linear solve converged due to CONVERGED_RTOL iterations 15
   12 SNES Function norm 2.955848514262e-10 
    Linear solve converged due to CONVERGED_RTOL iterations 15
   13 SNES Function norm 7.104061622751e-11 
    Linear solve converged due to CONVERGED_RTOL iterations 16
   14 SNES Function norm 1.708242778157e-11 
    Linear solve converged due to CONVERGED_RTOL iterations 17
   15 SNES Function norm 4.109421540078e-12 
    Linear solve converged due to CONVERGED_RTOL iterations 15
   16 SNES Function norm 9.895529761649e-13 
  Nonlinear solve converged due to CONVERGED_SNORM_RELATIVE iterations 16
      TSAdapt none beuler 0: step   0 accepted t=0          + 5.000e-01 dt=5.000e-01 
1 TS dt 0.5 time 0.5
TS Object: 1 MPI process
  type: beuler
  maximum steps=1
  maximum time=100.
  total number of I function evaluations=17
  total number of I Jacobian evaluations=16
  total number of RHS function evaluations=17
  total number of nonlinear solver iterations=16
  total number of linear solver iterations=249
  total number of nonlinear solve failures=0
  total number of rejected steps=0
  using relative error tolerance of 0.01,   using absolute error tolerance of 0.0001
  TSAdapt Object: 1 MPI process
    type: none
  SNES Object: 1 MPI process
    type: newtonls
    maximum iterations=50, maximum function evaluations=10000
    tolerances: relative=1e-14, absolute=1e-50, solution=1e-14
    total number of linear solver iterations=249
    total number of function evaluations=17
    norm schedule ALWAYS
    SNESLineSearch Object: 1 MPI process
      type: basic
      maxstep=1.000000e+08, minlambda=1.000000e-12
      tolerances: relative=1.000000e-08, absolute=1.000000e-15, lambda=1.000000e-08
      maximum iterations=40
    KSP Object: 1 MPI process
      type: tfqmr
      maximum iterations=100, initial guess is zero
      tolerances:  relative=1e-08, absolute=1e-50, divergence=10000.
      left preconditioning
      using PRECONDITIONED norm type for convergence test
    PC Object: 1 MPI process
      type: jacobi
        type DIAGONAL
      linear system matrix = precond matrix:
      Mat Object: Jacobian 1 MPI process
        type: seqaijkokkos
        rows=167200, cols=167200
        total: nonzeros=9024160, allocated nonzeros=9024160
        total number of mallocs used during MatSetValues calls=0
          not using I-node routines
0 TS dt 0.5 time 0.
    0 SNES Function norm 8.214643987564e-02 
    Linear solve converged due to CONVERGED_RTOL iterations 18
    1 SNES Function norm 2.777458522111e-03 
    Linear solve converged due to CONVERGED_RTOL iterations 16
    2 SNES Function norm 5.107907388455e-04 
    Linear solve converged due to CONVERGED_RTOL iterations 16
    3 SNES Function norm 1.162531951094e-04 
    Linear solve converged due to CONVERGED_RTOL iterations 15
    4 SNES Function norm 2.736061788962e-05 
    Linear solve converged due to CONVERGED_RTOL iterations 16
    5 SNES Function norm 6.506726280303e-06 
    Linear solve converged due to CONVERGED_RTOL iterations 15
    6 SNES Function norm 1.553910623358e-06 
    Linear solve converged due to CONVERGED_RTOL iterations 15
    7 SNES Function norm 3.718530826354e-07 
    Linear solve converged due to CONVERGED_RTOL iterations 15
    8 SNES Function norm 8.908970498584e-08 
    Linear solve converged due to CONVERGED_RTOL iterations 15
    9 SNES Function norm 2.136183390331e-08 
    Linear solve converged due to CONVERGED_RTOL iterations 15
   10 SNES Function norm 5.125501941969e-09 
    Linear solve converged due to CONVERGED_RTOL iterations 15
   11 SNES Function norm 1.230524460426e-09 
    Linear solve converged due to CONVERGED_RTOL iterations 15
   12 SNES Function norm 2.955848514262e-10 
    Linear solve converged due to CONVERGED_RTOL iterations 15
   13 SNES Function norm 7.104061622751e-11 
    Linear solve converged due to CONVERGED_RTOL iterations 16
   14 SNES Function norm 1.708242778157e-11 
    Linear solve converged due to CONVERGED_RTOL iterations 17
   15 SNES Function norm 4.109421540078e-12 
    Linear solve converged due to CONVERGED_RTOL iterations 15
   16 SNES Function norm 9.895529761649e-13 
  Nonlinear solve converged due to CONVERGED_SNORM_RELATIVE iterations 16
      TSAdapt none beuler 0: step   0 accepted t=0          + 5.000e-01 dt=5.000e-01 
1 TS dt 0.5 time 0.5
    0 SNES Function norm 1.005974941647e-02 
    Linear solve converged due to CONVERGED_RTOL iterations 20
    1 SNES Function norm 1.282091787225e-03 
    Linear solve converged due to CONVERGED_RTOL iterations 16
    2 SNES Function norm 3.030025083492e-04 
    Linear solve converged due to CONVERGED_RTOL iterations 17
    3 SNES Function norm 7.227963746882e-05 
    Linear solve converged due to CONVERGED_RTOL iterations 17
    4 SNES Function norm 1.724342456570e-05 
    Linear solve converged due to CONVERGED_RTOL iterations 14
    5 SNES Function norm 4.115832580299e-06 
    Linear solve converged due to CONVERGED_RTOL iterations 15
    6 SNES Function norm 9.830820646743e-07 
    Linear solve converged due to CONVERGED_RTOL iterations 15
    7 SNES Function norm 2.349663608936e-07 
    Linear solve converged due to CONVERGED_RTOL iterations 15
    8 SNES Function norm 5.619351474736e-08 
    Linear solve converged due to CONVERGED_RTOL iterations 15
    9 SNES Function norm 1.344672315182e-08 
    Linear solve converged due to CONVERGED_RTOL iterations 15
   10 SNES Function norm 3.219488850133e-09 
    Linear solve converged due to CONVERGED_RTOL iterations 15
   11 SNES Function norm 7.712425987840e-10 
    Linear solve converged due to CONVERGED_RTOL iterations 15
   12 SNES Function norm 1.848518143575e-10 
    Linear solve converged due to CONVERGED_RTOL iterations 15
   13 SNES Function norm 4.432784568367e-11 
    Linear solve converged due to CONVERGED_RTOL iterations 15
   14 SNES Function norm 1.063538360507e-11 
    Linear solve converged due to CONVERGED_RTOL iterations 17
   15 SNES Function norm 2.552967050019e-12 
  Nonlinear solve converged due to CONVERGED_SNORM_RELATIVE iterations 15
      TSAdapt none beuler 0: step   1 accepted t=0.5        + 5.000e-01 dt=5.000e-01 
2 TS dt 0.5 time 1.
    0 SNES Function norm 5.496161349079e-03 
    Linear solve converged due to CONVERGED_RTOL iterations 18
    1 SNES Function norm 1.011566229689e-03 
    Linear solve converged due to CONVERGED_RTOL iterations 16
    2 SNES Function norm 2.482168785739e-04 
    Linear solve converged due to CONVERGED_RTOL iterations 17
    3 SNES Function norm 5.974712620214e-05 
    Linear solve converged due to CONVERGED_RTOL iterations 15
    4 SNES Function norm 1.427716872905e-05 
    Linear solve converged due to CONVERGED_RTOL iterations 14
    5 SNES Function norm 3.403375892384e-06 
    Linear solve converged due to CONVERGED_RTOL iterations 15
    6 SNES Function norm 8.108330282596e-07 
    Linear solve converged due to CONVERGED_RTOL iterations 19
    7 SNES Function norm 1.931969967042e-07 
    Linear solve converged due to CONVERGED_RTOL iterations 19
    8 SNES Function norm 4.605013300607e-08 
    Linear solve converged due to CONVERGED_RTOL iterations 19
    9 SNES Function norm 1.098159129420e-08 
    Linear solve converged due to CONVERGED_RTOL iterations 19
   10 SNES Function norm 2.620104396593e-09 
    Linear solve converged due to CONVERGED_RTOL iterations 19
   11 SNES Function norm 6.254534858840e-10 
    Linear solve converged due to CONVERGED_RTOL iterations 19
   12 SNES Function norm 1.493797871796e-10 
    Linear solve converged due to CONVERGED_RTOL iterations 15
   13 SNES Function norm 3.569567333026e-11 
    Linear solve converged due to CONVERGED_RTOL iterations 15
   14 SNES Function norm 8.532733701134e-12 
    Linear solve converged due to CONVERGED_RTOL iterations 15
   15 SNES Function norm 2.041773277955e-12 
  Nonlinear solve converged due to CONVERGED_SNORM_RELATIVE iterations 15
      TSAdapt none beuler 0: step   2 accepted t=1          + 5.000e-01 dt=5.000e-01 
3 TS dt 0.5 time 1.5
    0 SNES Function norm 4.398782460358e-03 
    Linear solve converged due to CONVERGED_RTOL iterations 17
    1 SNES Function norm 9.258036188914e-04 
    Linear solve converged due to CONVERGED_RTOL iterations 16
    2 SNES Function norm 2.267175883782e-04 
    Linear solve converged due to CONVERGED_RTOL iterations 16
    3 SNES Function norm 5.445228375601e-05 
    Linear solve converged due to CONVERGED_RTOL iterations 15
    4 SNES Function norm 1.297494759279e-05 
    Linear solve converged due to CONVERGED_RTOL iterations 16
    5 SNES Function norm 3.082676986540e-06 
    Linear solve converged due to CONVERGED_RTOL iterations 18
    6 SNES Function norm 7.318084526048e-07 
    Linear solve converged due to CONVERGED_RTOL iterations 15
    7 SNES Function norm 1.737214044129e-07 
    Linear solve converged due to CONVERGED_RTOL iterations 15
    8 SNES Function norm 4.125147285975e-08 
    Linear solve converged due to CONVERGED_RTOL iterations 15
    9 SNES Function norm 9.799793806984e-09 
    Linear solve converged due to CONVERGED_RTOL iterations 15
   10 SNES Function norm 2.329202267311e-09 
    Linear solve converged due to CONVERGED_RTOL iterations 15
   11 SNES Function norm 5.538846713701e-10 
    Linear solve converged due to CONVERGED_RTOL iterations 15
   12 SNES Function norm 1.317799457552e-10 
    Linear solve converged due to CONVERGED_RTOL iterations 15
   13 SNES Function norm 3.136840839433e-11 
    Linear solve converged due to CONVERGED_RTOL iterations 15
   14 SNES Function norm 7.470027171963e-12 
    Linear solve converged due to CONVERGED_RTOL iterations 15
   15 SNES Function norm 1.780064486575e-12 
  Nonlinear solve converged due to CONVERGED_SNORM_RELATIVE iterations 15
      TSAdapt none beuler 0: step   3 accepted t=1.5        + 5.000e-01 dt=5.000e-01 
4 TS dt 0.5 time 2.
    0 SNES Function norm 3.954966727831e-03 
    Linear solve converged due to CONVERGED_RTOL iterations 16
    1 SNES Function norm 8.697519878775e-04 
    Linear solve converged due to CONVERGED_RTOL iterations 16
    2 SNES Function norm 2.116562716434e-04 
    Linear solve converged due to CONVERGED_RTOL iterations 16
    3 SNES Function norm 5.060716028860e-05 
    Linear solve converged due to CONVERGED_RTOL iterations 15
    4 SNES Function norm 1.201122187208e-05 
    Linear solve converged due to CONVERGED_RTOL iterations 15
    5 SNES Function norm 2.842885247464e-06 
    Linear solve converged due to CONVERGED_RTOL iterations 15
    6 SNES Function norm 6.723248968390e-07 
    Linear solve converged due to CONVERGED_RTOL iterations 15
    7 SNES Function norm 1.589975740420e-07 
    Linear solve converged due to CONVERGED_RTOL iterations 15
    8 SNES Function norm 3.761267741870e-08 
    Linear solve converged due to CONVERGED_RTOL iterations 15
    9 SNES Function norm 8.901602776964e-09 
    Linear solve converged due to CONVERGED_RTOL iterations 15
   10 SNES Function norm 2.107723381016e-09 
    Linear solve converged due to CONVERGED_RTOL iterations 15
   11 SNES Function norm 4.993181083860e-10 
    Linear solve converged due to CONVERGED_RTOL iterations 15
   12 SNES Function norm 1.183479782862e-10 
    Linear solve converged due to CONVERGED_RTOL iterations 15
   13 SNES Function norm 2.806469936868e-11 
    Linear solve converged due to CONVERGED_RTOL iterations 14
   14 SNES Function norm 6.657722882829e-12 
    Linear solve converged due to CONVERGED_RTOL iterations 15
   15 SNES Function norm 1.581480626565e-12 
  Nonlinear solve converged due to CONVERGED_SNORM_RELATIVE iterations 15
      TSAdapt none beuler 0: step   4 accepted t=2          + 5.000e-01 dt=5.000e-01 
5 TS dt 0.5 time 2.5
    0 SNES Function norm 3.659074889195e-03 
    Linear solve converged due to CONVERGED_RTOL iterations 17
    1 SNES Function norm 8.137511396520e-04 
    Linear solve converged due to CONVERGED_RTOL iterations 15
    2 SNES Function norm 1.968013427681e-04 
    Linear solve converged due to CONVERGED_RTOL iterations 16
    3 SNES Function norm 4.683571017903e-05 
    Linear solve converged due to CONVERGED_RTOL iterations 15
    4 SNES Function norm 1.107169245733e-05 
    Linear solve converged due to CONVERGED_RTOL iterations 15
    5 SNES Function norm 2.610777391067e-06 
    Linear solve converged due to CONVERGED_RTOL iterations 14
    6 SNES Function norm 6.151954249106e-07 
    Linear solve converged due to CONVERGED_RTOL iterations 15
    7 SNES Function norm 1.449650126955e-07 
    Linear solve converged due to CONVERGED_RTOL iterations 15
    8 SNES Function norm 3.417059034468e-08 
    Linear solve converged due to CONVERGED_RTOL iterations 15
    9 SNES Function norm 8.058129501557e-09 
    Linear solve converged due to CONVERGED_RTOL iterations 15
   10 SNES Function norm 1.901204479682e-09 
    Linear solve converged due to CONVERGED_RTOL iterations 15
   11 SNES Function norm 4.487891764924e-10 
    Linear solve converged due to CONVERGED_RTOL iterations 15
   12 SNES Function norm 1.059914122421e-10 
    Linear solve converged due to CONVERGED_RTOL iterations 15
   13 SNES Function norm 2.504505731044e-11 
    Linear solve converged due to CONVERGED_RTOL iterations 14
   14 SNES Function norm 5.920475736214e-12 
    Linear solve converged due to CONVERGED_RTOL iterations 15
   15 SNES Function norm 1.399957424680e-12 
  Nonlinear solve converged due to CONVERGED_SNORM_RELATIVE iterations 15
      TSAdapt none beuler 0: step   5 accepted t=2.5        + 5.000e-01 dt=5.000e-01 
6 TS dt 0.5 time 3.
    0 SNES Function norm 3.395371635091e-03 
    Linear solve converged due to CONVERGED_RTOL iterations 17
    1 SNES Function norm 7.534023775529e-04 
    Linear solve converged due to CONVERGED_RTOL iterations 15
    2 SNES Function norm 1.811694839289e-04 
    Linear solve converged due to CONVERGED_RTOL iterations 16
    3 SNES Function norm 4.292654257611e-05 
    Linear solve converged due to CONVERGED_RTOL iterations 15
    4 SNES Function norm 1.010976380148e-05 
    Linear solve converged due to CONVERGED_RTOL iterations 14
    5 SNES Function norm 2.375709422863e-06 
    Linear solve converged due to CONVERGED_RTOL iterations 14
    6 SNES Function norm 5.579307870317e-07 
    Linear solve converged due to CONVERGED_RTOL iterations 14
    7 SNES Function norm 1.310363397589e-07 
    Linear solve converged due to CONVERGED_RTOL iterations 14
    8 SNES Function norm 3.078575074955e-08 
    Linear solve converged due to CONVERGED_RTOL iterations 14
    9 SNES Function norm 7.236085469605e-09 
    Linear solve converged due to CONVERGED_RTOL iterations 14
   10 SNES Function norm 1.701657042349e-09 
    Linear solve converged due to CONVERGED_RTOL iterations 14
   11 SNES Function norm 4.003689639565e-10 
    Linear solve converged due to CONVERGED_RTOL iterations 14
   12 SNES Function norm 9.424659629842e-11 
    Linear solve converged due to CONVERGED_RTOL iterations 14
   13 SNES Function norm 2.219669237192e-11 
    Linear solve converged due to CONVERGED_RTOL iterations 14
   14 SNES Function norm 5.230280759101e-12 
    Linear solve converged due to CONVERGED_RTOL iterations 15
   15 SNES Function norm 1.232939906287e-12 
  Nonlinear solve converged due to CONVERGED_SNORM_RELATIVE iterations 15
      TSAdapt none beuler 0: step   6 accepted t=3          + 5.000e-01 dt=5.000e-01 
7 TS dt 0.5 time 3.5
    0 SNES Function norm 3.137965954032e-03 
    Linear solve converged due to CONVERGED_RTOL iterations 17
    1 SNES Function norm 6.899619152360e-04 
    Linear solve converged due to CONVERGED_RTOL iterations 15
    2 SNES Function norm 1.650598377942e-04 
    Linear solve converged due to CONVERGED_RTOL iterations 16
    3 SNES Function norm 3.895359714452e-05 
    Linear solve converged due to CONVERGED_RTOL iterations 15
    4 SNES Function norm 9.142918229715e-06 
    Linear solve converged due to CONVERGED_RTOL iterations 16
    5 SNES Function norm 2.141719533592e-06 
    Linear solve converged due to CONVERGED_RTOL iterations 14
    6 SNES Function norm 5.014447333127e-07 
    Linear solve converged due to CONVERGED_RTOL iterations 14
    7 SNES Function norm 1.174156124405e-07 
    Linear solve converged due to CONVERGED_RTOL iterations 14
    8 SNES Function norm 2.750316703960e-08 
    Linear solve converged due to CONVERGED_RTOL iterations 14
    9 SNES Function norm 6.445241338263e-09 
    Linear solve converged due to CONVERGED_RTOL iterations 14
   10 SNES Function norm 1.511167328251e-09 
    Linear solve converged due to CONVERGED_RTOL iterations 14
   11 SNES Function norm 3.544924528181e-10 
    Linear solve converged due to CONVERGED_RTOL iterations 14
   12 SNES Function norm 8.319963723092e-11 
    Linear solve converged due to CONVERGED_RTOL iterations 18
   13 SNES Function norm 1.953678708276e-11 
    Linear solve converged due to CONVERGED_RTOL iterations 16
   14 SNES Function norm 4.590259432874e-12 
    Linear solve converged due to CONVERGED_RTOL iterations 17
   15 SNES Function norm 1.078301330448e-12 
  Nonlinear solve converged due to CONVERGED_SNORM_RELATIVE iterations 15
      TSAdapt none beuler 0: step   7 accepted t=3.5        + 5.000e-01 dt=5.000e-01 
8 TS dt 0.5 time 4.
    0 SNES Function norm 2.883951577704e-03 
    Linear solve converged due to CONVERGED_RTOL iterations 17
    1 SNES Function norm 6.255407893943e-04 
    Linear solve converged due to CONVERGED_RTOL iterations 17
    2 SNES Function norm 1.489454221129e-04 
    Linear solve converged due to CONVERGED_RTOL iterations 15
    3 SNES Function norm 3.502484149506e-05 
    Linear solve converged due to CONVERGED_RTOL iterations 15
    4 SNES Function norm 8.195540940615e-06 
    Linear solve converged due to CONVERGED_RTOL iterations 15
    5 SNES Function norm 1.914358483312e-06 
    Linear solve converged due to CONVERGED_RTOL iterations 14
    6 SNES Function norm 4.469792871462e-07 
    Linear solve converged due to CONVERGED_RTOL iterations 14
    7 SNES Function norm 1.043785731952e-07 
    Linear solve converged due to CONVERGED_RTOL iterations 14
    8 SNES Function norm 2.438355887743e-08 
    Linear solve converged due to CONVERGED_RTOL iterations 14
    9 SNES Function norm 5.698839518064e-09 
    Linear solve converged due to CONVERGED_RTOL iterations 14
   10 SNES Function norm 1.332584931175e-09 
    Linear solve converged due to CONVERGED_RTOL iterations 14
   11 SNES Function norm 3.117644841537e-10 
    Linear solve converged due to CONVERGED_RTOL iterations 14
   12 SNES Function norm 7.297680035305e-11 
    Linear solve converged due to CONVERGED_RTOL iterations 14
   13 SNES Function norm 1.708996434682e-11 
    Linear solve converged due to CONVERGED_RTOL iterations 18
   14 SNES Function norm 4.005390420420e-12 
    Linear solve converged due to CONVERGED_RTOL iterations 15
   15 SNES Function norm 9.381670100344e-13 
  Nonlinear solve converged due to CONVERGED_SNORM_RELATIVE iterations 15
      TSAdapt none beuler 0: step   8 accepted t=4          + 5.000e-01 dt=5.000e-01 
9 TS dt 0.5 time 4.5
    0 SNES Function norm 2.636010520923e-03 
    Linear solve converged due to CONVERGED_RTOL iterations 17
    1 SNES Function norm 5.618907347635e-04 
    Linear solve converged due to CONVERGED_RTOL iterations 17
    2 SNES Function norm 1.332115830513e-04 
    Linear solve converged due to CONVERGED_RTOL iterations 15
    3 SNES Function norm 3.122175013566e-05 
    Linear solve converged due to CONVERGED_RTOL iterations 15
    4 SNES Function norm 7.285368772059e-06 
    Linear solve converged due to CONVERGED_RTOL iterations 15
    5 SNES Function norm 1.697410322727e-06 
    Linear solve converged due to CONVERGED_RTOL iterations 14
    6 SNES Function norm 3.953484139141e-07 
    Linear solve converged due to CONVERGED_RTOL iterations 14
    7 SNES Function norm 9.209783526756e-08 
    Linear solve converged due to CONVERGED_RTOL iterations 14
    8 SNES Function norm 2.146290322309e-08 
    Linear solve converged due to CONVERGED_RTOL iterations 14
    9 SNES Function norm 5.004209234415e-09 
    Linear solve converged due to CONVERGED_RTOL iterations 14
   10 SNES Function norm 1.167359002558e-09 
    Linear solve converged due to CONVERGED_RTOL iterations 14
   11 SNES Function norm 2.724571089406e-10 
    Linear solve converged due to CONVERGED_RTOL iterations 15
   12 SNES Function norm 6.362363990729e-11 
    Linear solve converged due to CONVERGED_RTOL iterations 14
   13 SNES Function norm 1.486488330881e-11 
    Linear solve converged due to CONVERGED_RTOL iterations 18
   14 SNES Function norm 3.474455737483e-12 
    Linear solve converged due to CONVERGED_RTOL iterations 16
   15 SNES Function norm 8.129672159829e-13 
  Nonlinear solve converged due to CONVERGED_SNORM_RELATIVE iterations 15
      TSAdapt none beuler 0: step   9 accepted t=4.5        + 5.000e-01 dt=5.000e-01 
10 TS dt 0.5 time 5.
TS Object: 1 MPI process
  type: beuler
  maximum steps=10
  maximum time=100.
  total number of I function evaluations=178
  total number of I Jacobian evaluations=167
  total number of RHS function evaluations=178
  total number of nonlinear solver iterations=151
  total number of linear solver iterations=2321
  total number of nonlinear solve failures=0
  total number of rejected steps=0
  using relative error tolerance of 0.01,   using absolute error tolerance of 0.0001
  TSAdapt Object: 1 MPI process
    type: none
  SNES Object: 1 MPI process
    type: newtonls
    maximum iterations=50, maximum function evaluations=10000
    tolerances: relative=1e-14, absolute=1e-50, solution=1e-14
    total number of linear solver iterations=226
    total number of function evaluations=16
    norm schedule ALWAYS
    SNESLineSearch Object: 1 MPI process
      type: basic
      maxstep=1.000000e+08, minlambda=1.000000e-12
      tolerances: relative=1.000000e-08, absolute=1.000000e-15, lambda=1.000000e-08
      maximum iterations=40
    KSP Object: 1 MPI process
      type: tfqmr
      maximum iterations=100, initial guess is zero
      tolerances:  relative=1e-08, absolute=1e-50, divergence=10000.
      left preconditioning
      using PRECONDITIONED norm type for convergence test
    PC Object: 1 MPI process
      type: jacobi
        type DIAGONAL
      linear system matrix = precond matrix:
      Mat Object: Jacobian 1 MPI process
        type: seqaijkokkos
        rows=167200, cols=167200
        total: nonzeros=9024160, allocated nonzeros=9024160
        total number of mallocs used during MatSetValues calls=0
          not using I-node routines
****************************************************************************************************************************************************************
***                                WIDEN YOUR WINDOW TO 160 CHARACTERS.  Use 'enscript -r -fCourier9' to print this document                                 ***
****************************************************************************************************************************************************************

------------------------------------------------------------------ PETSc Performance Summary: ------------------------------------------------------------------



      ##########################################################
      #                                                        #
      #                       WARNING!!!                       #
      #                                                        #
      #   This code was compiled with GPU support and you've   #
      #   created PETSc/GPU objects, but you intentionally     #
      #   used -use_gpu_aware_mpi 0, requiring PETSc to copy   #
      #   additional data between the GPU and CPU. To obtain   #
      #   meaningful timing results on multi-rank runs, use    #
      #   GPU-aware MPI instead.                               #
      #                                                        #
      ##########################################################


/gpfs/alpine/csc314/scratch/adams/batch_gmres_paper/mark/crusher/./ex2-3d on a arch-olcf-crusher-kokkos-3d named crusher121 with 8 processors, by adams Fri Jul 15 09:51:58 2022
Using Petsc Development GIT revision: v3.17.3-760-g6e3d66b0f1  GIT Date: 2022-07-14 21:35:48 +0000

                         Max       Max/Min     Avg       Total
Time (sec):           1.072e+02     1.000   1.072e+02
Objects:              2.791e+04     1.000   2.791e+04
Flops:                1.117e+11     1.000   1.117e+11  8.940e+11
Flops/sec:            1.043e+09     1.000   1.043e+09  8.342e+09
MPI Msg Count:        0.000e+00     0.000   0.000e+00  0.000e+00
MPI Msg Len (bytes):  0.000e+00     0.000   0.000e+00  0.000e+00
MPI Reductions:       2.100e+01     1.000

Flop counting convention: 1 flop = 1 real number operation of type (multiply/divide/add/subtract)
                            e.g., VecAXPY() for real vectors of length N --> 2N flops
                            and VecAXPY() for complex vectors of length N --> 8N flops

Summary of Stages:   ----- Time ------  ----- Flop ------  --- Messages ---  -- Message Lengths --  -- Reductions --
                        Avg     %Total     Avg     %Total    Count   %Total     Avg         %Total    Count   %Total
 0:      Main Stage: 4.7156e+01  44.0%  1.8382e+09   0.2%  0.000e+00   0.0%  0.000e+00        0.0%  2.000e+00   9.5%
 1:          Warmup: 6.0289e+00   5.6%  8.6364e+10   9.7%  0.000e+00   0.0%  0.000e+00        0.0%  0.000e+00   0.0%
 2:           Solve: 5.3985e+01  50.4%  8.0576e+11  90.1%  0.000e+00   0.0%  0.000e+00        0.0%  0.000e+00   0.0%

------------------------------------------------------------------------------------------------------------------------
See the 'Profiling' chapter of the users' manual for details on interpreting output.
Phase summary info:
   Count: number of times phase was executed
   Time and Flop: Max - maximum over all processors
                  Ratio - ratio of maximum to minimum over all processors
   Mess: number of messages sent
   AvgLen: average message length (bytes)
   Reduct: number of global reductions
   Global: entire computation
   Stage: stages of a computation. Set stages with PetscLogStagePush() and PetscLogStagePop().
      %T - percent time in this phase         %F - percent flop in this phase
      %M - percent messages in this phase     %L - percent message lengths in this phase
      %R - percent reductions in this phase
   Total Mflop/s: 10e-6 * (sum of flop over all processors)/(max time over all processors)
   GPU Mflop/s: 10e-6 * (sum of flop on GPU over all processors)/(max GPU time over all processors)
   CpuToGpu Count: total number of CPU to GPU copies per processor
   CpuToGpu Size (Mbytes): 10e-6 * (total size of CPU to GPU copies per processor)
   GpuToCpu Count: total number of GPU to CPU copies per processor
   GpuToCpu Size (Mbytes): 10e-6 * (total size of GPU to CPU copies per processor)
   GPU %F: percent flops on GPU in this event
------------------------------------------------------------------------------------------------------------------------
Event                Count      Time (sec)     Flop                              --- Global ---  --- Stage ----  Total   GPU    - CpuToGpu -   - GpuToCpu - GPU
                   Max Ratio  Max     Ratio   Max  Ratio  Mess   AvgLen  Reduct  %T %F %M %L %R  %T %F %M %L %R Mflop/s Mflop/s Count   Size   Count   Size  %F
---------------------------------------------------------------------------------------------------------------------------------------------------------------

--- Event Stage 0: Main Stage

BuildTwoSided        231 1.0 1.4463e-04 1.1 0.00e+00 0.0 0.0e+00 0.0e+00 0.0e+00  0  0  0  0  0   0  0  0  0  0     0       0      0 0.00e+00    0 0.00e+00  0
DMConvert             18 1.0 3.1922e-03 1.1 0.00e+00 0.0 0.0e+00 0.0e+00 0.0e+00  0  0  0  0  0   0  0  0  0  0     0       0      0 0.00e+00    0 0.00e+00  0
DMCreateMat            8 1.0 2.0021e+01 1.0 0.00e+00 0.0 0.0e+00 0.0e+00 0.0e+00 19  0  0  0  0  42  0  0  0  0     0       0      0 0.00e+00    0 0.00e+00  0
DMPlexInterp         294 1.0 5.5326e-03 1.0 0.00e+00 0.0 0.0e+00 0.0e+00 0.0e+00  0  0  0  0  0   0  0  0  0  0     0       0      0 0.00e+00    0 0.00e+00  0
DMPlexStratify       435 1.0 4.3066e-03 1.0 0.00e+00 0.0 0.0e+00 0.0e+00 0.0e+00  0  0  0  0  0   0  0  0  0  0     0       0      0 0.00e+00    0 0.00e+00  0
DMPlexSymmetrize     435 1.0 5.6925e-04 1.0 0.00e+00 0.0 0.0e+00 0.0e+00 0.0e+00  0  0  0  0  0   0  0  0  0  0     0       0      0 0.00e+00    0 0.00e+00  0
DMPlexPrealloc       102 1.0 1.9557e+01 1.0 0.00e+00 0.0 0.0e+00 0.0e+00 0.0e+00 18  0  0  0  0  41  0  0  0  0     0       0      0 0.00e+00    0 0.00e+00  0
DMPlexJacobianFE       6 1.0 3.1268e+00 1.0 1.06e+08 1.0 0.0e+00 0.0e+00 0.0e+00  3  0  0  0  0   7 46  0  0  0   271       0      0 0.00e+00    0 0.00e+00  0
SFSetGraph           444 1.0 2.0928e-04 1.0 0.00e+00 0.0 0.0e+00 0.0e+00 0.0e+00  0  0  0  0  0   0  0  0  0  0     0       0      0 0.00e+00    0 0.00e+00  0
SFSetUp              231 1.0 7.6681e-04 1.0 0.00e+00 0.0 0.0e+00 0.0e+00 0.0e+00  0  0  0  0  0   0  0  0  0  0     0       0      0 0.00e+00    0 0.00e+00  0
SFBcastBegin         474 1.0 8.8119e-04 1.0 0.00e+00 0.0 0.0e+00 0.0e+00 0.0e+00  0  0  0  0  0   0  0  0  0  0     0       0      0 0.00e+00    0 0.00e+00  0
SFBcastEnd           474 1.0 1.8395e-04 1.0 0.00e+00 0.0 0.0e+00 0.0e+00 0.0e+00  0  0  0  0  0   0  0  0  0  0     0       0      0 0.00e+00    0 0.00e+00  0
SFReduceBegin         54 1.0 7.0893e-05 1.1 0.00e+00 0.0 0.0e+00 0.0e+00 0.0e+00  0  0  0  0  0   0  0  0  0  0     0       0      0 0.00e+00    0 0.00e+00  0
SFReduceEnd           54 1.0 1.5350e-05 1.0 0.00e+00 0.0 0.0e+00 0.0e+00 0.0e+00  0  0  0  0  0   0  0  0  0  0     0       0      0 0.00e+00    0 0.00e+00  0
SFCreateEmbed        204 1.0 1.8595e-03 1.0 0.00e+00 0.0 0.0e+00 0.0e+00 0.0e+00  0  0  0  0  0   0  0  0  0  0     0       0      0 0.00e+00    0 0.00e+00  0
SFSectionSF          204 1.0 6.2648e-04 1.0 0.00e+00 0.0 0.0e+00 0.0e+00 0.0e+00  0  0  0  0  0   0  0  0  0  0     0       0      0 0.00e+00    0 0.00e+00  0
SFRemoteOff          204 1.0 3.6858e-03 1.0 0.00e+00 0.0 0.0e+00 0.0e+00 0.0e+00  0  0  0  0  0   0  0  0  0  0     0       0      0 0.00e+00    0 0.00e+00  0
SFPack               528 1.0 3.7496e-05 1.1 0.00e+00 0.0 0.0e+00 0.0e+00 0.0e+00  0  0  0  0  0   0  0  0  0  0     0       0      0 0.00e+00    0 0.00e+00  0
SFUnpack             528 1.0 3.7260e-05 1.0 0.00e+00 0.0 0.0e+00 0.0e+00 0.0e+00  0  0  0  0  0   0  0  0  0  0     0       0      0 0.00e+00    0 0.00e+00  0
Landau Create          1 1.0 3.0740e+01 1.0 1.64e+08 1.0 0.0e+00 0.0e+00 0.0e+00 29  0  0  0  0  65 71  0  0  0    43       0      0 0.00e+00    0 0.00e+00  0
 GPU ass. setup        1 1.0 1.8586e+01 1.0 0.00e+00 0.0 0.0e+00 0.0e+00 0.0e+00 17  0  0  0  0  39  0  0  0  0     0       0      0 0.00e+00    0 0.00e+00  0
 Build matrix          1 1.0 1.8963e+00 1.0 3.98e+07 1.0 0.0e+00 0.0e+00 0.0e+00  2  0  0  0  0   4 17  0  0  0   168       0      0 0.00e+00    0 0.00e+00  0
 Assembly maps         1 1.0 1.0272e+01 1.0 1.23e+08 1.0 0.0e+00 0.0e+00 0.0e+00 10  0  0  0  0  22 54  0  0  0    96       0      0 0.00e+00    0 0.00e+00  0
Landau Mass mat        1 1.0 1.2287e+01 1.0 6.61e+07 1.0 0.0e+00 0.0e+00 0.0e+00 11  0  0  0  0  26 29  0  0  0    43       0      0 0.00e+00    0 0.00e+00  0
 static IP Data        1 1.0 2.9108e-03 1.2 4.76e+05 1.0 0.0e+00 0.0e+00 0.0e+00  0  0  0  0  0   0  0  0  0  0  1309       0      0 0.00e+00    0 0.00e+00  0
MatMult           207960 1.0 1.7332e-02 1.0 1.62e+06 1.0 0.0e+00 0.0e+00 0.0e+00  0  0  0  0  0   0  1  0  0  0   750       0      0 0.00e+00    0 0.00e+00  0
MatLUFactor           30 1.0 4.4688e-04 1.0 3.94e+05 1.0 0.0e+00 0.0e+00 0.0e+00  0  0  0  0  0   0  0  0  0  0  7047       0      0 0.00e+00    0 0.00e+00  0
MatCopy              240 1.0 1.7135e-04 1.0 0.00e+00 0.0 0.0e+00 0.0e+00 0.0e+00  0  0  0  0  0   0  0  0  0  0     0       0      0 0.00e+00    0 0.00e+00  0
MatConvert            60 1.0 4.4579e-04 1.0 0.00e+00 0.0 0.0e+00 0.0e+00 0.0e+00  0  0  0  0  0   0  0  0  0  0     0       0      0 0.00e+00    0 0.00e+00  0
MatAssemblyBegin    1179 1.0 9.0251e-05 1.0 0.00e+00 0.0 0.0e+00 0.0e+00 0.0e+00  0  0  0  0  0   0  0  0  0  0     0       0      0 0.00e+00    0 0.00e+00  0
MatAssemblyEnd      1179 1.0 1.7370e-01 1.1 0.00e+00 0.0 0.0e+00 0.0e+00 0.0e+00  0  0  0  0  0   0  0  0  0  0     0       0      0 0.00e+00    0 0.00e+00  0
MatGetRowIJ           15 1.0 2.1040e-06 1.2 0.00e+00 0.0 0.0e+00 0.0e+00 0.0e+00  0  0  0  0  0   0  0  0  0  0     0       0      0 0.00e+00    0 0.00e+00  0
MatZeroEntries         6 1.0 3.7775e-03 1.3 0.00e+00 0.0 0.0e+00 0.0e+00 0.0e+00  0  0  0  0  0   0  0  0  0  0     0       0      0 0.00e+00    0 0.00e+00  0
MatMatSolve          240 1.0 1.9491e-03 1.0 9.27e+06 1.0 0.0e+00 0.0e+00 0.0e+00  0  0  0  0  0   0  4  0  0  0 38059       0      0 0.00e+00    0 0.00e+00  0
MatSetPreallCOO        1 1.0 5.4844e+00 1.0 0.00e+00 0.0 0.0e+00 0.0e+00 0.0e+00  5  0  0  0  0  12  0  0  0  0     0       0      0 0.00e+00    0 0.00e+00  0
VecCopy                1 1.0 1.1459e-04 1.3 0.00e+00 0.0 0.0e+00 0.0e+00 0.0e+00  0  0  0  0  0   0  0  0  0  0     0       0      0 0.00e+00    0 0.00e+00  0
VecSet                57 1.0 2.3705e-03 1.2 0.00e+00 0.0 0.0e+00 0.0e+00 0.0e+00  0  0  0  0  0   0  0  0  0  0     0       0      0 0.00e+00    0 0.00e+00  0
DualSpaceSetUp        28 1.0 3.1373e-02 1.0 2.20e+04 1.0 0.0e+00 0.0e+00 0.0e+00  0  0  0  0  0   0  0  0  0  0     6       0      0 0.00e+00    0 0.00e+00  0
FESetUp               52 1.0 3.7830e-03 1.0 0.00e+00 0.0 0.0e+00 0.0e+00 0.0e+00  0  0  0  0  0   0  0  0  0  0     0       0      0 0.00e+00    0 0.00e+00  0

--- Event Stage 1: Warmup

Landau Operator       33 1.0 5.3562e+00 1.0 6.14e+08 1.0 0.0e+00 0.0e+00 0.0e+00  5  1  0  0  0  88  6  0  0  0   917       0      0 0.00e+00    0 0.00e+00 100
Landau Jacobian       17 1.0 4.8660e+00 1.0 6.14e+08 1.0 0.0e+00 0.0e+00 0.0e+00  5  1  0  0  0  80  6  0  0  0  1009       0      0 0.00e+00    0 0.00e+00 100
Landau Mass           16 1.0 4.9022e-01 1.0 0.00e+00 0.0 0.0e+00 0.0e+00 0.0e+00  0  0  0  0  0   8  0  0  0  0     0       0      0 0.00e+00    0 0.00e+00  0
 Preamble             33 1.0 6.5763e-05 1.3 0.00e+00 0.0 0.0e+00 0.0e+00 0.0e+00  0  0  0  0  0   0  0  0  0  0     0       0      0 0.00e+00    0 0.00e+00  0
 dynamic IP-Jac       34 1.0 1.2467e-05 1.3 0.00e+00 0.0 0.0e+00 0.0e+00 0.0e+00  0  0  0  0  0   0  0  0  0  0     0       0      0 0.00e+00    0 0.00e+00  0
 Kernel-init          33 1.0 1.5179e-04 1.1 0.00e+00 0.0 0.0e+00 0.0e+00 0.0e+00  0  0  0  0  0   0  0  0  0  0     0       0      0 0.00e+00    0 0.00e+00  0
 Jac-f-df (GPU)       17 1.0 2.7739e-02 1.0 0.00e+00 0.0 0.0e+00 0.0e+00 0.0e+00  0  0  0  0  0   0  0  0  0  0     0       0      0 0.00e+00    0 0.00e+00  0
 J Kernel (GPU)       17 1.0 4.6096e+00 1.0 0.00e+00 0.0 0.0e+00 0.0e+00 0.0e+00  4  0  0  0  0  76  0  0  0  0     0       0      0 0.00e+00    0 0.00e+00  0
 M Kernel (GPU)       16 1.0 3.7628e-01 1.0 0.00e+00 0.0 0.0e+00 0.0e+00 0.0e+00  0  0  0  0  0   6  0  0  0  0     0       0      0 0.00e+00    0 0.00e+00  0
MatMult              515 1.0 1.1103e+00 1.7 9.29e+09 1.0 0.0e+00 0.0e+00 0.0e+00  1  8  0  0  0  12 86  0  0  0 66974       0      0 0.00e+00    0 0.00e+00 100
MatMultAdd            17 1.0 4.2710e-02 1.7 3.07e+08 1.0 0.0e+00 0.0e+00 0.0e+00  0  0  0  0  0   0  3  0  0  0 57471       0      0 0.00e+00    0 0.00e+00 100
MatAssemblyBegin      66 1.0 6.3050e-06 1.4 0.00e+00 0.0 0.0e+00 0.0e+00 0.0e+00  0  0  0  0  0   0  0  0  0  0     0       0      0 0.00e+00    0 0.00e+00  0
MatAssemblyEnd        66 1.0 2.4981e-03 1.2 0.00e+00 0.0 0.0e+00 0.0e+00 0.0e+00  0  0  0  0  0   0  0  0  0  0     0       0      0 0.00e+00    0 0.00e+00  0
MatZeroEntries        17 1.0 1.6138e-03 1.1 0.00e+00 0.0 0.0e+00 0.0e+00 0.0e+00  0  0  0  0  0   0  0  0  0  0     0       0      0 0.00e+00    0 0.00e+00  0
MatView                1 0.0 2.4217e-05 0.0 0.00e+00 0.0 0.0e+00 0.0e+00 0.0e+00  0  0  0  0  0   0  0  0  0  0     0       0      0 0.00e+00    0 0.00e+00  0
MatSetValuesCOO       33 1.0 3.7915e-03 1.5 0.00e+00 0.0 0.0e+00 0.0e+00 0.0e+00  0  0  0  0  0   0  0  0  0  0     0       0      0 0.00e+00    0 0.00e+00  0
VecDot               498 1.0 2.0591e-02 1.0 1.67e+08 1.0 0.0e+00 0.0e+00 0.0e+00  0  0  0  0  0   0  2  0  0  0 64700       0      0 0.00e+00    0 0.00e+00 100
VecNorm              266 1.0 1.1065e-02 1.0 8.90e+07 1.0 0.0e+00 0.0e+00 0.0e+00  0  0  0  0  0   0  1  0  0  0 64310       0      0 0.00e+00    0 0.00e+00 100
VecCopy               83 1.0 1.5888e-03 1.0 0.00e+00 0.0 0.0e+00 0.0e+00 0.0e+00  0  0  0  0  0   0  0  0  0  0     0       0      0 0.00e+00    0 0.00e+00  0
VecSet                49 1.0 1.1666e-03 1.1 0.00e+00 0.0 0.0e+00 0.0e+00 0.0e+00  0  0  0  0  0   0  0  0  0  0     0       0      0 0.00e+00    0 0.00e+00  0
VecAXPY              992 1.0 3.5826e-03 1.4 3.32e+08 1.0 0.0e+00 0.0e+00 0.0e+00  0  0  0  0  0   0  3  0  0  0 740750       0      0 0.00e+00    0 0.00e+00 100
VecAYPX              492 1.0 1.4519e-03 1.4 1.62e+08 1.0 0.0e+00 0.0e+00 0.0e+00  0  0  0  0  0   0  1  0  0  0 891765       0      0 0.00e+00    0 0.00e+00 100
VecAXPBYCZ            18 1.0 2.1068e-03 1.0 1.50e+07 1.0 0.0e+00 0.0e+00 0.0e+00  0  0  0  0  0   0  0  0  0  0 57141       0      0 0.00e+00    0 0.00e+00 100
VecWAXPY             980 1.0 2.7082e-03 1.4 3.28e+08 1.0 0.0e+00 0.0e+00 0.0e+00  0  0  0  0  0   0  3  0  0  0 968071       0      0 0.00e+00    0 0.00e+00 100
VecPointwiseMult     514 1.0 6.7405e-03 1.1 8.59e+07 1.0 0.0e+00 0.0e+00 0.0e+00  0  0  0  0  0   0  1  0  0  0 102000       0      0 0.00e+00    0 0.00e+00 100
VecReduceArith        48 1.0 1.4959e-03 1.0 1.61e+07 1.0 0.0e+00 0.0e+00 0.0e+00  0  0  0  0  0   0  0  0  0  0 85838       0      0 0.00e+00    0 0.00e+00 100
VecReduceComm         16 1.0 5.3720e-06 1.9 0.00e+00 0.0 0.0e+00 0.0e+00 0.0e+00  0  0  0  0  0   0  0  0  0  0     0       0      0 0.00e+00    0 0.00e+00  0
TSStep                 1 1.0 6.4567e+00 1.1 1.08e+10 1.0 0.0e+00 0.0e+00 0.0e+00  6 10  0  0  0 100100  0  0  0 13376       0      0 0.00e+00    0 0.00e+00 100
TSFunctionEval        17 1.0 4.8672e+00 1.0 6.19e+08 1.0 0.0e+00 0.0e+00 0.0e+00  5  1  0  0  0  80  6  0  0  0  1018       0      0 0.00e+00    0 0.00e+00 100
TSJacobianEval        16 1.0 4.9024e-01 1.0 0.00e+00 0.0 0.0e+00 0.0e+00 0.0e+00  0  0  0  0  0   8  0  0  0  0     0       0      0 0.00e+00    0 0.00e+00  0
KSPSetUp              16 1.0 1.7491e-03 1.7 0.00e+00 0.0 0.0e+00 0.0e+00 0.0e+00  0  0  0  0  0   0  0  0  0  0     0       0      0 0.00e+00    0 0.00e+00  0
KSPSolve              16 1.0 1.0843e+00 1.7 1.01e+10 1.0 0.0e+00 0.0e+00 0.0e+00  1  9  0  0  0  12 94  0  0  0 74808       0      0 0.00e+00    0 0.00e+00 100
SNESSolve              1 1.0 6.4560e+00 1.1 1.08e+10 1.0 0.0e+00 0.0e+00 0.0e+00  6 10  0  0  0 100100  0  0  0 13376       0      0 0.00e+00    0 0.00e+00 100
SNESSetUp              1 1.0 4.5495e-04 3.3 0.00e+00 0.0 0.0e+00 0.0e+00 0.0e+00  0  0  0  0  0   0  0  0  0  0     0       0      0 0.00e+00    0 0.00e+00  0
SNESFunctionEval      17 1.0 4.8690e+00 1.0 6.34e+08 1.0 0.0e+00 0.0e+00 0.0e+00  5  1  0  0  0  80  6  0  0  0  1041       0      0 0.00e+00    0 0.00e+00 100
SNESJacobianEval      16 1.0 4.9025e-01 1.0 0.00e+00 0.0 0.0e+00 0.0e+00 0.0e+00  0  0  0  0  0   8  0  0  0  0     0       0      0 0.00e+00    0 0.00e+00  0
SNESLineSearch        16 1.0 4.5301e+00 1.0 6.18e+08 1.0 0.0e+00 0.0e+00 0.0e+00  4  1  0  0  0  75  6  0  0  0  1091       0      0 0.00e+00    0 0.00e+00 100
PCSetUp               16 1.0 7.6037e-03 1.2 0.00e+00 0.0 0.0e+00 0.0e+00 0.0e+00  0  0  0  0  0   0  0  0  0  0     0       0      0 0.00e+00    0 0.00e+00  0
PCApply              514 1.0 1.2159e-02 1.2 8.59e+07 1.0 0.0e+00 0.0e+00 0.0e+00  0  0  0  0  0   0  1  0  0  0 56544       0      0 0.00e+00    0 0.00e+00 100

--- Event Stage 2: Solve

Landau Operator      312 1.0 4.7625e+01 1.0 5.81e+09 1.0 0.0e+00 0.0e+00 0.0e+00 44  5  0  0  0  88  6  0  0  0   976       0      0 0.00e+00    0 0.00e+00 100
Landau Jacobian      161 1.0 4.3004e+01 1.0 5.81e+09 1.0 0.0e+00 0.0e+00 0.0e+00 40  5  0  0  0  79  6  0  0  0  1081       0      0 0.00e+00    0 0.00e+00 100
Landau Mass          151 1.0 4.6219e+00 1.0 0.00e+00 0.0 0.0e+00 0.0e+00 0.0e+00  4  0  0  0  0   9  0  0  0  0     0       0      0 0.00e+00    0 0.00e+00  0
 Preamble            303 1.0 5.2393e-04 1.4 0.00e+00 0.0 0.0e+00 0.0e+00 0.0e+00  0  0  0  0  0   0  0  0  0  0     0       0      0 0.00e+00    0 0.00e+00  0
 dynamic IP-Jac      304 1.0 8.9184e-05 1.5 0.00e+00 0.0 0.0e+00 0.0e+00 0.0e+00  0  0  0  0  0   0  0  0  0  0     0       0      0 0.00e+00    0 0.00e+00  0
 Kernel-init         303 1.0 1.2899e-03 1.2 0.00e+00 0.0 0.0e+00 0.0e+00 0.0e+00  0  0  0  0  0   0  0  0  0  0     0       0      0 0.00e+00    0 0.00e+00  0
 Jac-f-df (GPU)      152 1.0 2.1930e-01 1.0 0.00e+00 0.0 0.0e+00 0.0e+00 0.0e+00  0  0  0  0  0   0  0  0  0  0     0       0      0 0.00e+00    0 0.00e+00  0
 J Kernel (GPU)      152 1.0 4.1155e+01 1.0 0.00e+00 0.0 0.0e+00 0.0e+00 0.0e+00 38  0  0  0  0  76  0  0  0  0     0       0      0 0.00e+00    0 0.00e+00  0
 M Kernel (GPU)      151 1.0 3.5465e+00 1.0 0.00e+00 0.0 0.0e+00 0.0e+00 0.0e+00  3  0  0  0  0   7  0  0  0  0     0       0      0 0.00e+00    0 0.00e+00  0
MatMult             4803 1.0 9.8621e+00 1.7 8.67e+10 1.0 0.0e+00 0.0e+00 0.0e+00  6 78  0  0  0  12 86  0  0  0 70318       0      0 0.00e+00    0 0.00e+00 100
MatMultAdd           161 1.0 3.3365e-01 1.7 2.91e+09 1.0 0.0e+00 0.0e+00 0.0e+00  0  3  0  0  0   0  3  0  0  0 69672       0      0 0.00e+00    0 0.00e+00 100
MatAssemblyBegin     606 1.0 5.7389e-05 1.4 0.00e+00 0.0 0.0e+00 0.0e+00 0.0e+00  0  0  0  0  0   0  0  0  0  0     0       0      0 0.00e+00    0 0.00e+00  0
MatAssemblyEnd       606 1.0 1.6091e-04 1.2 0.00e+00 0.0 0.0e+00 0.0e+00 0.0e+00  0  0  0  0  0   0  0  0  0  0     0       0      0 0.00e+00    0 0.00e+00  0
MatZeroEntries       152 1.0 1.4464e-02 1.1 0.00e+00 0.0 0.0e+00 0.0e+00 0.0e+00  0  0  0  0  0   0  0  0  0  0     0       0      0 0.00e+00    0 0.00e+00  0
MatView                1 0.0 1.7173e-05 0.0 0.00e+00 0.0 0.0e+00 0.0e+00 0.0e+00  0  0  0  0  0   0  0  0  0  0     0       0      0 0.00e+00    0 0.00e+00  0
MatSetValuesCOO      303 1.0 1.6241e-03 1.3 0.00e+00 0.0 0.0e+00 0.0e+00 0.0e+00  0  0  0  0  0   0  0  0  0  0     0       0      0 0.00e+00    0 0.00e+00  0
VecDot              4642 1.0 1.8770e-01 1.0 1.55e+09 1.0 0.0e+00 0.0e+00 0.0e+00  0  1  0  0  0   0  2  0  0  0 66162       0      0 0.00e+00    0 0.00e+00 100
VecNorm             2482 1.0 1.0014e-01 1.0 8.30e+08 1.0 0.0e+00 0.0e+00 0.0e+00  0  1  0  0  0   0  1  0  0  0 66306       0      0 0.00e+00    0 0.00e+00 100
VecCopy              775 1.0 1.3456e-02 1.1 0.00e+00 0.0 0.0e+00 0.0e+00 0.0e+00  0  0  0  0  0   0  0  0  0  0     0       0      0 0.00e+00    0 0.00e+00  0
VecSet               463 1.0 1.0744e-02 1.1 0.00e+00 0.0 0.0e+00 0.0e+00 0.0e+00  0  0  0  0  0   0  0  0  0  0     0       0      0 0.00e+00    0 0.00e+00  0
VecAXPY             9241 1.0 2.7352e-02 1.4 3.09e+09 1.0 0.0e+00 0.0e+00 0.0e+00  0  3  0  0  0   0  3  0  0  0 903826       0      0 0.00e+00    0 0.00e+00 100
VecAYPX             4579 1.0 1.3377e-02 1.4 1.51e+09 1.0 0.0e+00 0.0e+00 0.0e+00  0  1  0  0  0   0  1  0  0  0 900617       0      0 0.00e+00    0 0.00e+00 100
VecAXPBYCZ           171 1.0 1.7982e-03 1.2 1.43e+08 1.0 0.0e+00 0.0e+00 0.0e+00  0  0  0  0  0   0  0  0  0  0 636012       0      0 0.00e+00    0 0.00e+00 100
VecWAXPY            9133 1.0 2.5231e-02 1.4 3.05e+09 1.0 0.0e+00 0.0e+00 0.0e+00  0  3  0  0  0   0  3  0  0  0 968345       0      0 0.00e+00    0 0.00e+00 100
VecPointwiseMult    4793 1.0 6.3449e-02 1.1 8.01e+08 1.0 0.0e+00 0.0e+00 0.0e+00  0  1  0  0  0   0  1  0  0  0 101044       0      0 0.00e+00    0 0.00e+00 100
VecReduceArith       453 1.0 1.4117e-02 1.0 1.51e+08 1.0 0.0e+00 0.0e+00 0.0e+00  0  0  0  0  0   0  0  0  0  0 85847       0      0 0.00e+00    0 0.00e+00 100
VecReduceComm        151 1.0 5.1372e-05 1.9 0.00e+00 0.0 0.0e+00 0.0e+00 0.0e+00  0  0  0  0  0   0  0  0  0  0     0       0      0 0.00e+00    0 0.00e+00  0
TSStep                10 1.0 5.7696e+01 1.1 1.01e+11 1.0 0.0e+00 0.0e+00 0.0e+00 50 90  0  0  0 100100  0  0  0 13966       0      0 0.00e+00    0 0.00e+00 100
TSFunctionEval       161 1.0 4.3008e+01 1.0 5.87e+09 1.0 0.0e+00 0.0e+00 0.0e+00 40  5  0  0  0  79  6  0  0  0  1091       0      0 0.00e+00    0 0.00e+00 100
TSJacobianEval       151 1.0 4.6220e+00 1.0 0.00e+00 0.0 0.0e+00 0.0e+00 0.0e+00  4  0  0  0  0   9  0  0  0  0     0       0      0 0.00e+00    0 0.00e+00  0
KSPSetUp             151 1.0 3.2764e-05 1.3 0.00e+00 0.0 0.0e+00 0.0e+00 0.0e+00  0  0  0  0  0   0  0  0  0  0     0       0      0 0.00e+00    0 0.00e+00  0
KSPSolve             151 1.0 9.9678e+00 1.7 9.45e+10 1.0 0.0e+00 0.0e+00 0.0e+00  6 85  0  0  0  12 94  0  0  0 75847       0      0 0.00e+00    0 0.00e+00 100
SNESSolve             10 1.0 5.7695e+01 1.1 1.01e+11 1.0 0.0e+00 0.0e+00 0.0e+00 50 90  0  0  0 100100  0  0  0 13964       0      0 0.00e+00    0 0.00e+00 100
SNESFunctionEval     161 1.0 4.3009e+01 1.0 6.00e+09 1.0 0.0e+00 0.0e+00 0.0e+00 40  5  0  0  0  79  6  0  0  0  1116       0      0 0.00e+00    0 0.00e+00 100
SNESJacobianEval     151 1.0 4.6221e+00 1.0 0.00e+00 0.0 0.0e+00 0.0e+00 0.0e+00  4  0  0  0  0   9  0  0  0  0     0       0      0 0.00e+00    0 0.00e+00  0
SNESLineSearch       151 1.0 4.2709e+01 1.0 5.83e+09 1.0 0.0e+00 0.0e+00 0.0e+00 40  5  0  0  0  79  6  0  0  0  1092       0      0 0.00e+00    0 0.00e+00 100
PCSetUp              151 1.0 7.6484e-02 1.2 0.00e+00 0.0 0.0e+00 0.0e+00 0.0e+00  0  0  0  0  0   0  0  0  0  0     0       0      0 0.00e+00    0 0.00e+00  0
PCApply             4793 1.0 6.4920e-02 1.1 8.01e+08 1.0 0.0e+00 0.0e+00 0.0e+00  0  1  0  0  0   0  1  0  0  0 98754       0      0 0.00e+00    0 0.00e+00 100
---------------------------------------------------------------------------------------------------------------------------------------------------------------

Object Type          Creations   Destructions. Reports information only for process 0.

--- Event Stage 0: Main Stage

           Container   428            428
    Distributed Mesh  1017           1017
            DM Label  2107           2107
          Quadrature  2233           2233
           Index Set  9729           9729
   IS L to G Mapping   107            107
             Section  3830           3830
   Star Forest Graph  2469           2469
     Discrete System  1610           1610
           Weak Form  1610           1610
    GraphPartitioner   444            444
              Matrix  1148           1148
              Vector   584            603
       p4est logging     1              0
        Linear Space    98             98
          Dual Space   396            396
            FE Space    52             52
       Field over DM    18             18
             TSAdapt     1              1
                  TS     1              1
                DMTS     1              1
                SNES     1              1
              DMSNES     3              3
      SNESLineSearch     1              1
       Krylov Solver     1              1
     DMKSP interface     0              1
      Preconditioner     1              1
              Viewer     2              1

--- Event Stage 1: Warmup

              Vector    19              0
     DMKSP interface     1              0

--- Event Stage 2: Solve

========================================================================================================================
Average time to get PetscTime(): 3.51e-08
Average time for MPI_Barrier(): 2.8576e-06
Average time for zero size MPI_Send(): 1.59372e-05
#PETSc Option Table entries:
-dim 3
-dm_landau_amr_levels_max 2,2,2
-dm_landau_batch_size 16
-dm_landau_coo_assembly
-dm_landau_device_type kokkos
-dm_landau_Ez 0
-dm_landau_ion_charges 1,2,3,4,5,6,7,8,9
-dm_landau_ion_masses 2,182,182,182,182,182,182,182,182
-dm_landau_n 1.0000044,1,1e-7,1e-7,1e-7,1e-7,1e-7,1e-7,1e-7,1e-7
-dm_landau_num_species_grid 1,1,8
-dm_landau_thermal_temps 2,1,1,1,1,1,1,1,1,1
-dm_landau_type p8est
-dm_landau_verbose 1
-dm_mat_type aijkokkos
-dm_preallocate_only false
-dm_vec_type kokkos
-ex2_test_type none
-ksp_converged_reason
-ksp_max_it 100
-ksp_rtol 1.e-8
-ksp_type tfqmr
-log_view
-pc_type jacobi
-petscspace_degree 2
-snes_converged_reason
-snes_linesearch_type basic
-snes_max_it 50
-snes_monitor
-snes_rtol 1e-14
-snes_stol 1e-14
-ts_adapt_clip .5,1.1
-ts_adapt_dt_max 1
-ts_adapt_monitor
-ts_adapt_scale_solve_failed 0.5
-ts_adapt_time_step_increase_delay 5
-ts_dt .5
-ts_exact_final_time stepover
-ts_max_snes_failures -1
-ts_max_steps 10
-ts_max_time 100
-ts_monitor
-ts_rtol 1e-2
-ts_type beuler
-ts_view
-use_gpu_aware_mpi 0
#End of PETSc Option Table entries
Compiled without FORTRAN kernels
Compiled with full precision matrices (default)
sizeof(short) 2 sizeof(int) 4 sizeof(long) 8 sizeof(void*) 8 sizeof(PetscScalar) 8 sizeof(PetscInt) 4
Configure options: --with-cc=cc --with-cxx=CC --with-fc=ftn LIBS="-L/opt/cray/pe/mpich/8.1.16/gtl/lib -lmpi_gtl_hsa" --with-debugging=0 --COPTFLAGS="-g -ggdb -O -DLAND_SUPPORT_CPU_ASS" --CXXOPTFLAGS="-g -ggdb -O -DLAND_SUPPORT_CPU_ASS" --FOPTFLAGS=-g --with-mpiexec="srun --gpu-bind=closest" --with-hip --with-hipc=hipcc --download-kokkos --download-kokkos-kernels --with-kokkos-kernels-tpl=1 --download-p4est=1 --with-zlib-dir=/sw/crusher/spack-envs/base/opt/cray-sles15-zen3/clang-14.0.0-rocm5.1.0/zlib-1.2.11-j3ogymf5vmwlxvblzxxqdkrjkdvfccyx PETSC_ARCH=arch-olcf-crusher-kokkos-3d
-----------------------------------------
Libraries compiled on 2022-07-14 23:40:07 on login2 
Machine characteristics: Linux-5.3.18-150300.59.68_11.0.76-cray_shasta_c-x86_64-with-glibc2.3.4
Using PETSc directory: /gpfs/alpine/csc314/scratch/adams/petsc
Using PETSc arch: arch-olcf-crusher-kokkos-3d
-----------------------------------------

Using C compiler: cc  -fPIC -g -ggdb -O -DLAND_SUPPORT_CPU_ASS   
Using Fortran compiler: ftn  -fPIC -g     
-----------------------------------------

Using include paths: -I/gpfs/alpine/csc314/scratch/adams/petsc/include -I/gpfs/alpine/csc314/scratch/adams/petsc/arch-olcf-crusher-kokkos-3d/include -I/sw/crusher/spack-envs/base/opt/cray-sles15-zen3/clang-14.0.0-rocm5.1.0/zlib-1.2.11-j3ogymf5vmwlxvblzxxqdkrjkdvfccyx/include -I/opt/rocm-5.1.0/include
-----------------------------------------

Using C linker: cc
Using Fortran linker: ftn
Using libraries: -Wl,-rpath,/gpfs/alpine/csc314/scratch/adams/petsc/arch-olcf-crusher-kokkos-3d/lib -L/gpfs/alpine/csc314/scratch/adams/petsc/arch-olcf-crusher-kokkos-3d/lib -lpetsc -Wl,-rpath,/gpfs/alpine/csc314/scratch/adams/petsc/arch-olcf-crusher-kokkos-3d/lib -L/gpfs/alpine/csc314/scratch/adams/petsc/arch-olcf-crusher-kokkos-3d/lib -Wl,-rpath,/sw/crusher/spack-envs/base/opt/cray-sles15-zen3/clang-14.0.0-rocm5.1.0/zlib-1.2.11-j3ogymf5vmwlxvblzxxqdkrjkdvfccyx/lib -L/sw/crusher/spack-envs/base/opt/cray-sles15-zen3/clang-14.0.0-rocm5.1.0/zlib-1.2.11-j3ogymf5vmwlxvblzxxqdkrjkdvfccyx/lib -Wl,-rpath,/opt/rocm-5.1.0/lib -L/opt/rocm-5.1.0/lib -Wl,-rpath,/opt/cray/pe/mpich/8.1.16/gtl/lib -L/opt/cray/pe/mpich/8.1.16/gtl/lib -Wl,-rpath,/opt/cray/pe/mpich/8.1.16/ofi/amd/5.0/lib -L/opt/cray/pe/mpich/8.1.16/ofi/amd/5.0/lib -Wl,-rpath,/opt/cray/pe/libsci/21.08.1.2/AMD/4.0/x86_64/lib -L/opt/cray/pe/libsci/21.08.1.2/AMD/4.0/x86_64/lib -Wl,-rpath,/opt/cray/pe/dsmml/0.2.2/dsmml/lib -L/opt/cray/pe/dsmml/0.2.2/dsmml/lib -Wl,-rpath,/opt/cray/pe/pmi/6.1.2/lib -L/opt/cray/pe/pmi/6.1.2/lib -Wl,-rpath,/opt/cray/xpmem/2.4.4-2.3_2.12__gff0e1d9.shasta/lib64 -L/opt/cray/xpmem/2.4.4-2.3_2.12__gff0e1d9.shasta/lib64 -Wl,-rpath,/usr/lib64/gcc/x86_64-suse-linux/7 -L/usr/lib64/gcc/x86_64-suse-linux/7 -Wl,-rpath,/usr/x86_64-suse-linux/lib -L/usr/x86_64-suse-linux/lib -Wl,-rpath,/opt/rocm-5.1.0/llvm/lib -L/opt/rocm-5.1.0/llvm/lib -lkokkoskernels -lkokkoscontainers -lkokkoscore -lp4est -lsc -lpthread -lm -lz -lX11 -lhipsparse -lhipblas -lrocsparse -lrocsolver -lrocblas -lrocrand -lamdhip64 -lstdc++ -ldl -lmpi_gtl_hsa -lsci_amd_mpi -lsci_amd -lmpifort_amd -lmpi_amd -ldsmml -lpmi -lpmi2 -lxpmem -lflangmain -lpgmath -lflang -lflangrti -lompstub -lm -lrt -lpthread -lgcc_s -lstdc++ -ldl -lmpi_gtl_hsa
-----------------------------------------



      ##########################################################
      #                                                        #
      #                       WARNING!!!                       #
      #                                                        #
      #   This code was compiled with GPU support and you've   #
      #   created PETSc/GPU objects, but you intentionally     #
      #   used -use_gpu_aware_mpi 0, requiring PETSc to copy   #
      #   additional data between the GPU and CPU. To obtain   #
      #   meaningful timing results on multi-rank runs, use    #
      #   GPU-aware MPI instead.                               #
      #                                                        #
      ##########################################################


