$MeshFormat
4.1 0 8
$EndMeshFormat
$Entities
9 14 6 0
289 -3.2147e-16 -0.45 0 0
281 -1.56142e-16 0.45 0 0
278 0.45 0 0 0
195 -2.30425e-16 0 0 0
120 1 1.11022e-16 0 0
16 1 1 0 0
14 -2.75546e-17 1 0 0
12 -4.22503e-16 -1 0 0
11 1 -1 0 0
293 -3.2147e-16 -0.45 0 0.45 0 0 0 2 289 278 
285 -1.56142e-16 0 0 0.45 0.45 0 0 2 278 281 
279 0.45 0 0 1 1.11022e-16 0 0 2 278 120 
204 -2.30425e-16 0 0 0.45 0 0 0 2 195 278 
128 -2.75546e-17 1.11022e-16 0 1 1 0 0 2 14 120 
124 -4.22503e-16 -1 0 1 1.11022e-16 0 0 2 120 12 
7 1 1.11022e-16 0 1 1 0 0 2 16 120 
121 1 -1 0 1 1.11022e-16 0 0 2 120 11 
17 -2.75546e-17 1 0 1 1 0 0 2 14 16 
15 -4.22503e-16 -1 0 -3.2147e-16 -0.45 0 0 2 12 289 
67 -3.2147e-16 -0.45 0 -2.30425e-16 0 0 0 2 289 195 
72 -2.30425e-16 0 0 -1.56142e-16 0.45 0 0 2 195 281 
282 -1.56142e-16 0.45 0 -2.75546e-17 1 0 0 2 281 14 
13 -4.22503e-16 -1 0 1 -1 0 0 2 11 12 
295 -4.22503e-16 -1 0 1 1.11022e-16 0 0 4 15 293 279 124 
287 -1.56142e-16 0 0 1 1 0 0 4 279 285 282 128 
206 -3.2147e-16 -0.45 0 0.45 0 0 0 3 67 204 293 
126 -2.75546e-17 1.11022e-16 0 1 1 0 0 3 128 17 7 
78 -2.30425e-16 0 0 0.45 0.45 0 0 3 204 72 285 
2 -4.22503e-16 -1 0 1 1.11022e-16 0 0 3 124 121 13 
$EndEntities
$Nodes
29 48 1 48
0 289 0 1
1
-3.2147e-16 -0.45 0 
0 281 0 1
2
-1.56142e-16 0.45 0 
0 278 0 1
3
0.45 0 0 
0 195 0 1
4
-2.30425e-16 0 0 
0 120 0 1
5
1 1.11022e-16 0 
0 16 0 1
6
1 1 0 
0 14 0 1
7
-2.75546e-17 1 0 
0 12 0 1
8
-4.22503e-16 -1 0 
0 11 0 1
9
1 -1 0 
1 293 0 4
10
11
12
13
0.264861 -0.363798 0 
0.139277 -0.427904 0 
0.364284 -0.264192 0 
0.428035 -0.138875 0 
1 285 0 4
14
15
16
17
0.363798 0.264861 0 
0.427907 0.139268 0 
0.264192 0.364284 0 
0.138875 0.428035 0 
1 279 0 1
18
0.625002 3.53256e-17 0 
1 204 0 2
19
20
0.149999 0 0 
0.3 0 0 
1 128 0 1
21
0.707107 0.707107 0 
1 124 0 1
22
0.707107 -0.707107 0 
1 7 0 1
23
1 0.418339 0 
1 121 0 1
24
1 -0.418339 0 
1 17 0 0
1 15 0 1
25
-3.53141e-16 -0.622409 0 
1 67 0 2
26
27
-2.93915e-16 -0.300001 0 
-2.66361e-16 -0.15 0 
1 72 0 2
28
29
-2.11278e-16 0.149854 0 
-1.8371e-16 0.299927 0 
1 282 0 1
30
-1.24471e-16 0.622409 0 
1 13 0 0
2 295 0 3
31
32
33
0.439207 -0.448096 0 
0.606156 -0.238786 0 
0.236547 -0.618645 0 
2 287 0 3
34
35
36
0.611791 0.230954 0 
0.443893 0.443062 0 
0.239592 0.615586 0 
2 206 0 6
37
38
39
40
41
42
0.113016 -0.332663 0 
0.133786 -0.100258 0 
0.301058 -0.0757562 0 
0.110624 -0.21171 0 
0.221796 -0.269767 0 
0.263077 -0.174304 0 
2 126 0 0
2 78 0 6
43
44
45
46
47
48
0.096524 0.0965393 0 
0.324077 0.113331 0 
0.113629 0.324014 0 
0.207568 0.110775 0 
0.110079 0.208044 0 
0.237284 0.239018 0 
2 2 0 0
$EndNodes
$Elements
6 72 1 72
2 295 2 15
1 1 33 11 
2 31 10 33 
3 33 10 11 
4 31 12 10 
5 12 31 32 
6 32 13 12 
7 32 3 13 
8 18 3 32 
9 32 5 18 
10 25 8 33 
11 33 1 25 
12 33 8 22 
13 22 31 33 
14 32 31 22 
15 22 5 32 
2 287 2 15
16 3 34 15 
17 34 14 15 
18 14 34 35 
19 35 16 14 
20 16 35 36 
21 36 17 16 
22 36 2 17 
23 18 5 34 
24 34 3 18 
25 30 2 36 
26 36 7 30 
27 36 35 21 
28 21 7 36 
29 34 5 21 
30 21 35 34 
2 206 2 21
31 1 37 26 
32 37 1 11 
33 40 26 37 
34 26 40 27 
35 27 38 4 
36 4 38 19 
37 39 13 3 
38 20 39 3 
39 27 40 38 
40 41 10 12 
41 42 40 41 
42 12 42 41 
43 42 12 13 
44 42 13 39 
45 37 11 10 
46 38 40 42 
47 39 20 19 
48 38 42 39 
49 39 19 38 
50 41 40 37 
51 37 10 41 
2 126 2 0
2 78 2 21
52 4 19 43 
53 43 28 4 
54 15 14 44 
55 3 15 44 
56 20 3 44 
57 16 17 45 
58 45 2 29 
59 17 2 45 
60 46 43 19 
61 20 44 46 
62 19 20 46 
63 47 29 28 
64 47 45 29 
65 28 43 47 
66 16 45 48 
67 45 47 48 
68 14 16 48 
69 48 44 14 
70 48 46 44 
71 46 48 47 
72 47 43 46 
2 2 2 0
$EndElements