masses:        e= 9.109e-31; ions in proton mass units:    2.000e+00  1.820e+02 ...
charges:       e=-1.602e-19; charges in elementary units:  1.000e+00  2.000e+00
n:             e:  1.000e+00                           i:  1.000e+00  1.000e-07
thermal T (K): e= 2.321e+07 i= 1.160e+07  1.160e+07. v_0= 1.876e+07 ( 6.256e-02c) n_0= 1.000e+20 t_0= 1.637e-05, classical, Intuitive, 8 batched
Domain radius (AMR levels) grid 0:  5.000e+00 (2) , 1:  5.835e-02 (2) , 2:  6.117e-03 (2) 
Using default Plex order for all matrices
0) FormLandau 672 IPs, 42 cells total, Nb=16, Nq=16, dim=2, Tab: Nb=16 Nf=10 Np=16 cdim=2 N=11360
0 TS dt 0.5 time 0.
    0 SNES Function norm 1.834492311020e-02 
    Linear solve converged in 33 iteration, batch 5, specie 0
    1 SNES Function norm 1.963835077100e-04 
    Linear solve converged in 33 iteration, batch 7, specie 0
    2 SNES Function norm 2.859047024638e-05 
    Linear solve converged in 34 iteration, batch 4, specie 0
    3 SNES Function norm 7.459796532376e-06 
    Linear solve converged in 34 iteration, batch 6, specie 0
    4 SNES Function norm 1.857179483043e-06 
    Linear solve converged in 34 iteration, batch 5, specie 0
    5 SNES Function norm 4.545199352121e-07 
    Linear solve converged in 34 iteration, batch 6, specie 0
    6 SNES Function norm 1.106349785530e-07 
    Linear solve converged in 34 iteration, batch 6, specie 0
    7 SNES Function norm 2.688640076487e-08 
    Linear solve converged in 34 iteration, batch 7, specie 0
    8 SNES Function norm 6.531887516307e-09 
    Linear solve converged in 34 iteration, batch 7, specie 0
    9 SNES Function norm 1.587169494190e-09 
    Linear solve converged in 34 iteration, batch 7, specie 0
   10 SNES Function norm 3.858072073634e-10 
    Linear solve converged in 34 iteration, batch 7, specie 0
   11 SNES Function norm 9.382451861411e-11 
    Linear solve converged in 34 iteration, batch 7, specie 0
   12 SNES Function norm 2.282745885547e-11 
    Linear solve converged in 34 iteration, batch 6, specie 0
   13 SNES Function norm 5.557895714815e-12 
    Linear solve converged in 34 iteration, batch 1, specie 0
   14 SNES Function norm 1.352738793010e-12 
  Nonlinear solve converged due to CONVERGED_SNORM_RELATIVE iterations 14
      TSAdapt none beuler 0: step   0 accepted t=0          + 5.000e-01 dt=5.000e-01 
1 TS dt 0.5 time 0.5
TS Object: 1 MPI process
  type: beuler
  maximum steps=1
  maximum time=100.
  total number of I function evaluations=15
  total number of I Jacobian evaluations=14
  total number of RHS function evaluations=15
  total number of nonlinear solver iterations=14
  total number of linear solver iterations=474
  total number of nonlinear solve failures=0
  total number of rejected steps=0
  using relative error tolerance of 0.01,   using absolute error tolerance of 0.0001
  TSAdapt Object: 1 MPI process
    type: none
  SNES Object: 1 MPI process
    type: newtonls
    maximum iterations=50, maximum function evaluations=10000
    tolerances: relative=1e-14, absolute=1e-50, solution=1e-14
    total number of linear solver iterations=474
    total number of function evaluations=15
    norm schedule ALWAYS
    SNESLineSearch Object: 1 MPI process
      type: basic
      maxstep=1.000000e+08, minlambda=1.000000e-12
      tolerances: relative=1.000000e-08, absolute=1.000000e-15, lambda=1.000000e-08
      maximum iterations=40
    KSP Object: 1 MPI process
      type: preonly
      maximum iterations=10000, initial guess is zero
      tolerances:  relative=1e-05, absolute=1e-50, divergence=10000.
      left preconditioning
      using NONE norm type for convergence test
    PC Object: 1 MPI process
      type: bjkokkos
        Batched device linear solver: Krylov (KSP) method with Jacobi preconditioning
      		nwork = 0, rel tol = 1.000000e-08, abs tol = 1.000000e-50, div tol = 1.000000e+04, max it =40, type = gmres
      linear system matrix = precond matrix:
      Mat Object: Jacobian 1 MPI process
        type: seqaijkokkos
        rows=11360, cols=11360
        total: nonzeros=252320, allocated nonzeros=252320
        total number of mallocs used during MatSetValues calls=0
          using I-node routines: found 5328 nodes, limit used is 5
0 TS dt 0.5 time 0.
    0 SNES Function norm 1.834492311020e-02 
    Linear solve converged in 33 iteration, batch 5, specie 0
    1 SNES Function norm 1.963835077100e-04 
    Linear solve converged in 33 iteration, batch 7, specie 0
    2 SNES Function norm 2.859047024638e-05 
    Linear solve converged in 34 iteration, batch 4, specie 0
    3 SNES Function norm 7.459796532376e-06 
    Linear solve converged in 34 iteration, batch 6, specie 0
    4 SNES Function norm 1.857179483043e-06 
    Linear solve converged in 34 iteration, batch 5, specie 0
    5 SNES Function norm 4.545199352121e-07 
    Linear solve converged in 34 iteration, batch 6, specie 0
    6 SNES Function norm 1.106349785530e-07 
    Linear solve converged in 34 iteration, batch 6, specie 0
    7 SNES Function norm 2.688640076487e-08 
    Linear solve converged in 34 iteration, batch 7, specie 0
    8 SNES Function norm 6.531887516307e-09 
    Linear solve converged in 34 iteration, batch 7, specie 0
    9 SNES Function norm 1.587169494190e-09 
    Linear solve converged in 34 iteration, batch 7, specie 0
   10 SNES Function norm 3.858072073634e-10 
    Linear solve converged in 34 iteration, batch 7, specie 0
   11 SNES Function norm 9.382451861411e-11 
    Linear solve converged in 34 iteration, batch 7, specie 0
   12 SNES Function norm 2.282745885547e-11 
    Linear solve converged in 34 iteration, batch 6, specie 0
   13 SNES Function norm 5.557895714815e-12 
    Linear solve converged in 34 iteration, batch 1, specie 0
   14 SNES Function norm 1.352738793010e-12 
  Nonlinear solve converged due to CONVERGED_SNORM_RELATIVE iterations 14
      TSAdapt none beuler 0: step   0 accepted t=0          + 5.000e-01 dt=5.000e-01 
1 TS dt 0.5 time 0.5
    0 SNES Function norm 6.288086229543e-03 
    Linear solve converged in 33 iteration, batch 5, specie 0
    1 SNES Function norm 1.362940996955e-04 
    Linear solve converged in 34 iteration, batch 2, specie 0
    2 SNES Function norm 2.681587053770e-05 
    Linear solve converged in 34 iteration, batch 3, specie 0
    3 SNES Function norm 6.670463897282e-06 
    Linear solve converged in 34 iteration, batch 3, specie 0
    4 SNES Function norm 1.648100968108e-06 
    Linear solve converged in 34 iteration, batch 4, specie 0
    5 SNES Function norm 4.034838556852e-07 
    Linear solve converged in 34 iteration, batch 5, specie 0
    6 SNES Function norm 9.835129543880e-08 
    Linear solve converged in 34 iteration, batch 6, specie 0
    7 SNES Function norm 2.393269708991e-08 
    Linear solve converged in 34 iteration, batch 7, specie 0
    8 SNES Function norm 5.821009212171e-09 
    Linear solve converged in 34 iteration, batch 7, specie 0
    9 SNES Function norm 1.415923771674e-09 
    Linear solve converged in 34 iteration, batch 7, specie 0
   10 SNES Function norm 3.445258114681e-10 
    Linear solve converged in 34 iteration, batch 7, specie 0
   11 SNES Function norm 8.386638071879e-11 
    Linear solve converged in 34 iteration, batch 6, specie 0
   12 SNES Function norm 2.042175558016e-11 
    Linear solve converged in 34 iteration, batch 6, specie 0
   13 SNES Function norm 4.976845515507e-12 
    Linear solve converged in 35 iteration, batch 0, specie 0
   14 SNES Function norm 1.212691634406e-12 
  Nonlinear solve converged due to CONVERGED_SNORM_RELATIVE iterations 14
      TSAdapt none beuler 0: step   1 accepted t=0.5        + 5.000e-01 dt=5.000e-01 
2 TS dt 0.5 time 1.
    0 SNES Function norm 4.066281506201e-03 
    Linear solve converged in 34 iteration, batch 2, specie 0
    1 SNES Function norm 1.541639707732e-04 
    Linear solve converged in 34 iteration, batch 0, specie 0
    2 SNES Function norm 3.411797050020e-05 
    Linear solve converged in 34 iteration, batch 3, specie 0
    3 SNES Function norm 8.462538328074e-06 
    Linear solve converged in 33 iteration, batch 0, specie 0
    4 SNES Function norm 2.085043036306e-06 
    Linear solve converged in 34 iteration, batch 4, specie 0
    5 SNES Function norm 5.100915592528e-07 
    Linear solve converged in 34 iteration, batch 5, specie 0
    6 SNES Function norm 1.243607562030e-07 
    Linear solve converged in 34 iteration, batch 6, specie 0
    7 SNES Function norm 3.027899683405e-08 
    Linear solve converged in 34 iteration, batch 7, specie 0
    8 SNES Function norm 7.369962137407e-09 
    Linear solve converged in 34 iteration, batch 7, specie 0
    9 SNES Function norm 1.794129079902e-09 
    Linear solve converged in 34 iteration, batch 7, specie 0
   10 SNES Function norm 4.369143545424e-10 
    Linear solve converged in 34 iteration, batch 7, specie 0
   11 SNES Function norm 1.064436464090e-10 
    Linear solve converged in 34 iteration, batch 6, specie 0
   12 SNES Function norm 2.594425806917e-11 
    Linear solve converged in 34 iteration, batch 6, specie 0
   13 SNES Function norm 6.328119184803e-12 
    Linear solve converged in 35 iteration, batch 6, specie 0
   14 SNES Function norm 1.544500606986e-12 
  Nonlinear solve converged due to CONVERGED_SNORM_RELATIVE iterations 14
      TSAdapt none beuler 0: step   2 accepted t=1          + 5.000e-01 dt=5.000e-01 
3 TS dt 0.5 time 1.5
    0 SNES Function norm 3.054675800542e-03 
    Linear solve converged in 33 iteration, batch 0, specie 0
    1 SNES Function norm 1.855098081315e-04 
    Linear solve converged in 34 iteration, batch 2, specie 0
    2 SNES Function norm 4.406883291301e-05 
    Linear solve converged in 34 iteration, batch 2, specie 0
    3 SNES Function norm 1.093850230032e-05 
    Linear solve converged in 33 iteration, batch 5, specie 0
    4 SNES Function norm 2.690799172026e-06 
    Linear solve converged in 34 iteration, batch 4, specie 0
    5 SNES Function norm 6.579094445093e-07 
    Linear solve converged in 34 iteration, batch 6, specie 0
    6 SNES Function norm 1.604210616300e-07 
    Linear solve converged in 34 iteration, batch 6, specie 0
    7 SNES Function norm 3.907833566358e-08 
    Linear solve converged in 34 iteration, batch 7, specie 0
    8 SNES Function norm 9.518083673510e-09 
    Linear solve converged in 34 iteration, batch 7, specie 0
    9 SNES Function norm 2.318792305410e-09 
    Linear solve converged in 34 iteration, batch 7, specie 0
   10 SNES Function norm 5.651181246113e-10 
    Linear solve converged in 34 iteration, batch 7, specie 0
   11 SNES Function norm 1.377876675190e-10 
    Linear solve converged in 34 iteration, batch 7, specie 0
   12 SNES Function norm 3.361267177608e-11 
    Linear solve converged in 34 iteration, batch 5, specie 0
   13 SNES Function norm 8.203351553728e-12 
    Linear solve converged in 34 iteration, batch 4, specie 0
   14 SNES Function norm 2.001582593097e-12 
  Nonlinear solve converged due to CONVERGED_SNORM_RELATIVE iterations 14
      TSAdapt none beuler 0: step   3 accepted t=1.5        + 5.000e-01 dt=5.000e-01 
4 TS dt 0.5 time 2.
    0 SNES Function norm 2.510477397215e-03 
    Linear solve converged in 35 iteration, batch 7, specie 0
    1 SNES Function norm 2.209180753538e-04 
    Linear solve converged in 34 iteration, batch 4, specie 0
    2 SNES Function norm 5.411144719451e-05 
    Linear solve converged in 34 iteration, batch 2, specie 0
    3 SNES Function norm 1.342091786598e-05 
    Linear solve converged in 34 iteration, batch 4, specie 0
    4 SNES Function norm 3.297884257709e-06 
    Linear solve converged in 34 iteration, batch 5, specie 0
    5 SNES Function norm 8.062005343293e-07 
    Linear solve converged in 34 iteration, batch 6, specie 0
    6 SNES Function norm 1.966526167911e-07 
    Linear solve converged in 34 iteration, batch 6, specie 0
    7 SNES Function norm 4.793505089600e-08 
    Linear solve converged in 34 iteration, batch 7, specie 0
    8 SNES Function norm 1.168423349403e-08 
    Linear solve converged in 34 iteration, batch 7, specie 0
    9 SNES Function norm 2.848861645710e-09 
    Linear solve converged in 34 iteration, batch 7, specie 0
   10 SNES Function norm 6.949000011919e-10 
    Linear solve converged in 34 iteration, batch 7, specie 0
   11 SNES Function norm 1.695786054266e-10 
    Linear solve converged in 34 iteration, batch 7, specie 0
   12 SNES Function norm 4.140376768303e-11 
    Linear solve converged in 34 iteration, batch 6, specie 0
   13 SNES Function norm 1.011364597519e-11 
    Linear solve converged in 34 iteration, batch 4, specie 0
   14 SNES Function norm 2.470474729908e-12 
  Nonlinear solve converged due to CONVERGED_SNORM_RELATIVE iterations 14
      TSAdapt none beuler 0: step   4 accepted t=2          + 5.000e-01 dt=5.000e-01 
5 TS dt 0.5 time 2.5
    0 SNES Function norm 2.195853578121e-03 
    Linear solve converged in 35 iteration, batch 5, specie 0
    1 SNES Function norm 2.538644401029e-04 
    Linear solve converged in 34 iteration, batch 4, specie 0
    2 SNES Function norm 6.293804120866e-05 
    Linear solve converged in 34 iteration, batch 3, specie 0
    3 SNES Function norm 1.559254972393e-05 
    Linear solve converged in 34 iteration, batch 4, specie 0
    4 SNES Function norm 3.829322394407e-06 
    Linear solve converged in 34 iteration, batch 5, specie 0
    5 SNES Function norm 9.362908547510e-07 
    Linear solve converged in 34 iteration, batch 6, specie 0
    6 SNES Function norm 2.285214323618e-07 
    Linear solve converged in 34 iteration, batch 6, specie 0
    7 SNES Function norm 5.574744906762e-08 
    Linear solve converged in 34 iteration, batch 7, specie 0
    8 SNES Function norm 1.360054125206e-08 
    Linear solve converged in 34 iteration, batch 7, specie 0
    9 SNES Function norm 3.319175890153e-09 
    Linear solve converged in 34 iteration, batch 7, specie 0
   10 SNES Function norm 8.103879428431e-10 
    Linear solve converged in 34 iteration, batch 7, specie 0
   11 SNES Function norm 1.979536921821e-10 
    Linear solve converged in 34 iteration, batch 7, specie 0
   12 SNES Function norm 4.837758259165e-11 
    Linear solve converged in 34 iteration, batch 6, specie 0
   13 SNES Function norm 1.182830031329e-11 
    Linear solve converged in 34 iteration, batch 1, specie 0
   14 SNES Function norm 2.895256205190e-12 
  Nonlinear solve converged due to CONVERGED_SNORM_RELATIVE iterations 14
      TSAdapt none beuler 0: step   5 accepted t=2.5        + 5.000e-01 dt=5.000e-01 
6 TS dt 0.5 time 3.
    0 SNES Function norm 2.005354044163e-03 
    Linear solve converged in 35 iteration, batch 5, specie 0
    1 SNES Function norm 2.810372391052e-04 
    Linear solve converged in 34 iteration, batch 3, specie 0
    2 SNES Function norm 6.999320392980e-05 
    Linear solve converged in 34 iteration, batch 4, specie 0
    3 SNES Function norm 1.732427366906e-05 
    Linear solve converged in 34 iteration, batch 4, specie 0
    4 SNES Function norm 4.253972635342e-06 
    Linear solve converged in 34 iteration, batch 5, specie 0
    5 SNES Function norm 1.040597129619e-06 
    Linear solve converged in 34 iteration, batch 6, specie 0
    6 SNES Function norm 2.541740438565e-07 
    Linear solve converged in 34 iteration, batch 6, specie 0
    7 SNES Function norm 6.206174916809e-08 
    Linear solve converged in 34 iteration, batch 7, specie 0
    8 SNES Function norm 1.515580491590e-08 
    Linear solve converged in 34 iteration, batch 7, specie 0
    9 SNES Function norm 3.702462917780e-09 
    Linear solve converged in 34 iteration, batch 7, specie 0
   10 SNES Function norm 9.048960539600e-10 
    Linear solve converged in 34 iteration, batch 7, specie 0
   11 SNES Function norm 2.212687239821e-10 
    Linear solve converged in 34 iteration, batch 7, specie 0
   12 SNES Function norm 5.413102099491e-11 
    Linear solve converged in 34 iteration, batch 6, specie 0
   13 SNES Function norm 1.325021142957e-11 
    Linear solve converged in 34 iteration, batch 5, specie 0
   14 SNES Function norm 3.246383215454e-12 
    Linear solve converged in 35 iteration, batch 6, specie 0
   15 SNES Function norm 7.935045766885e-13 
  Nonlinear solve converged due to CONVERGED_SNORM_RELATIVE iterations 15
      TSAdapt none beuler 0: step   6 accepted t=3          + 5.000e-01 dt=5.000e-01 
7 TS dt 0.5 time 3.5
    0 SNES Function norm 1.882834043004e-03 
    Linear solve converged in 35 iteration, batch 5, specie 0
    1 SNES Function norm 3.013054599548e-04 
    Linear solve converged in 34 iteration, batch 3, specie 0
    2 SNES Function norm 7.515593053218e-05 
    Linear solve converged in 33 iteration, batch 0, specie 0
    3 SNES Function norm 1.859069376803e-05 
    Linear solve converged in 34 iteration, batch 4, specie 0
    4 SNES Function norm 4.565682388987e-06 
    Linear solve converged in 34 iteration, batch 5, specie 0
    5 SNES Function norm 1.117567452467e-06 
    Linear solve converged in 34 iteration, batch 6, specie 0
    6 SNES Function norm 2.732143866360e-07 
    Linear solve converged in 34 iteration, batch 7, specie 0
    7 SNES Function norm 6.677659802668e-08 
    Linear solve converged in 34 iteration, batch 7, specie 0
    8 SNES Function norm 1.632408916713e-08 
    Linear solve converged in 34 iteration, batch 7, specie 0
    9 SNES Function norm 3.992097698875e-09 
    Linear solve converged in 34 iteration, batch 7, specie 0
   10 SNES Function norm 9.767326531353e-10 
    Linear solve converged in 34 iteration, batch 7, specie 0
   11 SNES Function norm 2.390937844240e-10 
    Linear solve converged in 34 iteration, batch 7, specie 0
   12 SNES Function norm 5.855579207269e-11 
    Linear solve converged in 34 iteration, batch 6, specie 0
   13 SNES Function norm 1.434716643663e-11 
    Linear solve converged in 34 iteration, batch 5, specie 0
   14 SNES Function norm 3.517754973736e-12 
    Linear solve converged in 35 iteration, batch 1, specie 0
   15 SNES Function norm 8.629201073608e-13 
  Nonlinear solve converged due to CONVERGED_SNORM_RELATIVE iterations 15
      TSAdapt none beuler 0: step   7 accepted t=3.5        + 5.000e-01 dt=5.000e-01 
8 TS dt 0.5 time 4.
    0 SNES Function norm 1.795972842147e-03 
    Linear solve converged in 35 iteration, batch 5, specie 0
    1 SNES Function norm 3.147426274567e-04 
    Linear solve converged in 34 iteration, batch 3, specie 0
    2 SNES Function norm 7.853281358317e-05 
    Linear solve converged in 32 iteration, batch 0, specie 0
    3 SNES Function norm 1.941979963225e-05 
    Linear solve converged in 34 iteration, batch 4, specie 0
    4 SNES Function norm 4.771118401697e-06 
    Linear solve converged in 34 iteration, batch 6, specie 0
    5 SNES Function norm 1.168747904883e-06 
    Linear solve converged in 34 iteration, batch 6, specie 0
    6 SNES Function norm 2.859969546693e-07 
    Linear solve converged in 34 iteration, batch 7, specie 0
    7 SNES Function norm 6.997269616949e-08 
    Linear solve converged in 34 iteration, batch 7, specie 0
    8 SNES Function norm 1.712365563803e-08 
    Linear solve converged in 34 iteration, batch 7, specie 0
    9 SNES Function norm 4.192184269419e-09 
    Linear solve converged in 34 iteration, batch 7, specie 0
   10 SNES Function norm 1.026813171978e-09 
    Linear solve converged in 34 iteration, batch 7, specie 0
   11 SNES Function norm 2.516282326358e-10 
    Linear solve converged in 34 iteration, batch 7, specie 0
   12 SNES Function norm 6.169528935829e-11 
    Linear solve converged in 34 iteration, batch 6, specie 0
   13 SNES Function norm 1.513509848713e-11 
    Linear solve converged in 34 iteration, batch 0, specie 0
   14 SNES Function norm 3.714120870862e-12 
    Linear solve converged in 35 iteration, batch 0, specie 0
   15 SNES Function norm 9.117678932476e-13 
  Nonlinear solve converged due to CONVERGED_SNORM_RELATIVE iterations 15
      TSAdapt none beuler 0: step   8 accepted t=4          + 5.000e-01 dt=5.000e-01 
9 TS dt 0.5 time 4.5
    0 SNES Function norm 1.726122837590e-03 
    Linear solve converged in 35 iteration, batch 5, specie 0
    1 SNES Function norm 3.220017374898e-04 
    Linear solve converged in 34 iteration, batch 3, specie 0
    2 SNES Function norm 8.033327113525e-05 
    Linear solve converged in 34 iteration, batch 7, specie 0
    3 SNES Function norm 1.986335642815e-05 
    Linear solve converged in 34 iteration, batch 4, specie 0
    4 SNES Function norm 4.882665329510e-06 
    Linear solve converged in 34 iteration, batch 6, specie 0
    5 SNES Function norm 1.197075207133e-06 
    Linear solve converged in 34 iteration, batch 6, specie 0
    6 SNES Function norm 2.932158150204e-07 
    Linear solve converged in 34 iteration, batch 7, specie 0
    7 SNES Function norm 7.181380499154e-08 
    Linear solve converged in 34 iteration, batch 7, specie 0
    8 SNES Function norm 1.759309942855e-08 
    Linear solve converged in 34 iteration, batch 7, specie 0
    9 SNES Function norm 4.311809510708e-09 
    Linear solve converged in 34 iteration, batch 7, specie 0
   10 SNES Function norm 1.057274004574e-09 
    Linear solve converged in 34 iteration, batch 7, specie 0
   11 SNES Function norm 2.593799728339e-10 
    Linear solve converged in 34 iteration, batch 7, specie 0
   12 SNES Function norm 6.366648293025e-11 
    Linear solve converged in 34 iteration, batch 7, specie 0
   13 SNES Function norm 1.563586166160e-11 
    Linear solve converged in 34 iteration, batch 6, specie 0
   14 SNES Function norm 3.840272820573e-12 
    Linear solve converged in 34 iteration, batch 0, specie 0
   15 SNES Function norm 9.448189798234e-13 
  Nonlinear solve converged due to CONVERGED_SNORM_RELATIVE iterations 15
      TSAdapt none beuler 0: step   9 accepted t=4.5        + 5.000e-01 dt=5.000e-01 
10 TS dt 0.5 time 5.
TS Object: 1 MPI process
  type: beuler
  maximum steps=10
  maximum time=100.
  total number of I function evaluations=169
  total number of I Jacobian evaluations=158
  total number of RHS function evaluations=169
  total number of nonlinear solver iterations=144
  total number of linear solver iterations=4898
  total number of nonlinear solve failures=0
  total number of rejected steps=0
  using relative error tolerance of 0.01,   using absolute error tolerance of 0.0001
  TSAdapt Object: 1 MPI process
    type: none
  SNES Object: 1 MPI process
    type: newtonls
    maximum iterations=50, maximum function evaluations=10000
    tolerances: relative=1e-14, absolute=1e-50, solution=1e-14
    total number of linear solver iterations=511
    total number of function evaluations=16
    norm schedule ALWAYS
    SNESLineSearch Object: 1 MPI process
      type: basic
      maxstep=1.000000e+08, minlambda=1.000000e-12
      tolerances: relative=1.000000e-08, absolute=1.000000e-15, lambda=1.000000e-08
      maximum iterations=40
    KSP Object: 1 MPI process
      type: preonly
      maximum iterations=10000, initial guess is zero
      tolerances:  relative=1e-05, absolute=1e-50, divergence=10000.
      left preconditioning
      using NONE norm type for convergence test
    PC Object: 1 MPI process
      type: bjkokkos
        Batched device linear solver: Krylov (KSP) method with Jacobi preconditioning
      		nwork = 0, rel tol = 1.000000e-08, abs tol = 1.000000e-50, div tol = 1.000000e+04, max it =40, type = gmres
      linear system matrix = precond matrix:
      Mat Object: Jacobian 1 MPI process
        type: seqaijkokkos
        rows=11360, cols=11360
        total: nonzeros=252320, allocated nonzeros=252320
        total number of mallocs used during MatSetValues calls=0
          using I-node routines: found 5328 nodes, limit used is 5
**************************************** ***********************************************************************************************************************
***                                WIDEN YOUR WINDOW TO 160 CHARACTERS.  Use 'enscript -r -fCourier9' to print this document                                 ***
****************************************************************************************************************************************************************

------------------------------------------------------------------ PETSc Performance Summary: -------------------------------------------------------------------



      ##########################################################
      #                                                        #
      #                       WARNING!!!                       #
      #                                                        #
      #   This code was compiled with GPU support and you've   #
      #   created PETSc/GPU objects, but you intentionally     #
      #   used -use_gpu_aware_mpi 0, requiring PETSc to copy   #
      #   additional data between the GPU and CPU. To obtain   #
      #   meaningful timing results on multi-rank runs, use    #
      #   GPU-aware MPI instead.                               #
      #                                                        #
      ##########################################################


/global/u2/m/madams/batch_gmres_paper/mark/perlmutter/./ex2-2d on a arch-perlmutter-opt-gcc-kokkos-cuda named nid003809 with 4 processors, by madams Wed Jun  1 07:18:46 2022
Using Petsc Development GIT revision: v3.17.1-448-ge18c93a6ab2  GIT Date: 2022-05-28 15:09:57 -0400

                         Max       Max/Min     Avg       Total
Time (sec):           1.104e+00     1.000   1.104e+00
Objects:              1.500e+04     1.000   1.500e+04
Flops:                2.042e+08     1.000   2.042e+08  8.166e+08
Flops/sec:            1.849e+08     1.000   1.849e+08  7.398e+08
MPI Msg Count:        0.000e+00     0.000   0.000e+00  0.000e+00
MPI Msg Len (bytes):  0.000e+00     0.000   0.000e+00  0.000e+00
MPI Reductions:       2.200e+01     1.000

Flop counting convention: 1 flop = 1 real number operation of type (multiply/divide/add/subtract)
                            e.g., VecAXPY() for real vectors of length N --> 2N flops
                            and VecAXPY() for complex vectors of length N --> 8N flops

Summary of Stages:   ----- Time ------  ----- Flop ------  --- Messages ---  -- Message Lengths --  -- Reductions --
                        Avg     %Total     Avg     %Total    Count   %Total     Avg         %Total    Count   %Total
 0:      Main Stage: 3.9986e-01  36.2%  1.8666e+07   2.3%  0.000e+00   0.0%  0.000e+00        0.0%  2.000e+00   9.1%
 1:          Warmup: 7.9614e-02   7.2%  7.0826e+07   8.7%  0.000e+00   0.0%  0.000e+00        0.0%  0.000e+00   0.0%
 2:           Solve: 6.2441e-01  56.6%  7.2714e+08  89.0%  0.000e+00   0.0%  0.000e+00        0.0%  0.000e+00   0.0%

------------------------------------------------------------------------------------------------------------------------
See the 'Profiling' chapter of the users' manual for details on interpreting output.
Phase summary info:
   Count: number of times phase was executed
   Time and Flop: Max - maximum over all processors
                  Ratio - ratio of maximum to minimum over all processors
   Mess: number of messages sent
   AvgLen: average message length (bytes)
   Reduct: number of global reductions
   Global: entire computation
   Stage: stages of a computation. Set stages with PetscLogStagePush() and PetscLogStagePop().
      %T - percent time in this phase         %F - percent flop in this phase
      %M - percent messages in this phase     %L - percent message lengths in this phase
      %R - percent reductions in this phase
   Total Mflop/s: 10e-6 * (sum of flop over all processors)/(max time over all processors)
   GPU Mflop/s: 10e-6 * (sum of flop on GPU over all processors)/(max GPU time over all processors)
   CpuToGpu Count: total number of CPU to GPU copies per processor
   CpuToGpu Size (Mbytes): 10e-6 * (total size of CPU to GPU copies per processor)
   GpuToCpu Count: total number of GPU to CPU copies per processor
   GpuToCpu Size (Mbytes): 10e-6 * (total size of GPU to CPU copies per processor)
   GPU %F: percent flops on GPU in this event
------------------------------------------------------------------------------------------------------------------------
Event                Count      Time (sec)     Flop                              --- Global ---  --- Stage ----  Total   GPU    - CpuToGpu -   - GpuToCpu - GPU
                   Max Ratio  Max     Ratio   Max  Ratio  Mess   AvgLen  Reduct  %T %F %M %L %R  %T %F %M %L %R Mflop/s Mflop/s Count   Size   Count   Size  %F
---------------------------------------------------------------------------------------------------------------------------------------------------------------

--- Event Stage 0: Main Stage

BuildTwoSided        135 1.0 1.1150e-04 1.1 0.00e+00 0.0 0.0e+00 0.0e+00 0.0e+00  0  0  0  0  0   0  0  0  0  0     0       0      0 0.00e+00    0 0.00e+00  0
DMConvert             18 1.0 1.1841e-03 1.0 0.00e+00 0.0 0.0e+00 0.0e+00 0.0e+00  0  0  0  0  0   0  0  0  0  0     0       0      0 0.00e+00    0 0.00e+00  0
DMCreateMat            8 1.0 1.4720e-01 1.0 0.00e+00 0.0 0.0e+00 0.0e+00 0.0e+00 13  0  0  0  0  37  0  0  0  0     0       0      0 0.00e+00    0 0.00e+00  0
DMPlexInterp         166 1.0 2.0316e-03 1.0 0.00e+00 0.0 0.0e+00 0.0e+00 0.0e+00  0  0  0  0  0   1  0  0  0  0     0       0      0 0.00e+00    0 0.00e+00  0
DMPlexStratify       233 1.0 3.3620e-03 1.0 0.00e+00 0.0 0.0e+00 0.0e+00 0.0e+00  0  0  0  0  0   1  0  0  0  0     0       0      0 0.00e+00    0 0.00e+00  0
DMPlexSymmetrize     233 1.0 1.1306e-04 1.1 0.00e+00 0.0 0.0e+00 0.0e+00 0.0e+00  0  0  0  0  0   0  0  0  0  0     0       0      0 0.00e+00    0 0.00e+00  0
DMPlexPrealloc        54 1.0 1.2939e-01 1.0 0.00e+00 0.0 0.0e+00 0.0e+00 0.0e+00 12  0  0  0  0  32  0  0  0  0     0       0      0 0.00e+00    0 0.00e+00  0
DMPlexJacobianFE       6 1.0 4.4200e-02 1.0 1.54e+06 1.0 0.0e+00 0.0e+00 0.0e+00  4  1  0  0  0  11 33  0  0  0   139       0      0 0.00e+00    0 0.00e+00  0
SFSetGraph           252 1.0 5.0705e-05 1.1 0.00e+00 0.0 0.0e+00 0.0e+00 0.0e+00  0  0  0  0  0   0  0  0  0  0     0       0      0 0.00e+00    0 0.00e+00  0
SFSetUp              135 1.0 3.7693e-04 1.0 0.00e+00 0.0 0.0e+00 0.0e+00 0.0e+00  0  0  0  0  0   0  0  0  0  0     0       0      0 0.00e+00    0 0.00e+00  0
SFBcastBegin         282 1.0 3.7111e-04 1.0 0.00e+00 0.0 0.0e+00 0.0e+00 0.0e+00  0  0  0  0  0   0  0  0  0  0     0       0      0 0.00e+00    0 0.00e+00  0
SFBcastEnd           282 1.0 1.4692e-04 1.0 0.00e+00 0.0 0.0e+00 0.0e+00 0.0e+00  0  0  0  0  0   0  0  0  0  0     0       0      0 0.00e+00    0 0.00e+00  0
SFReduceBegin         54 1.0 6.0689e-05 1.0 0.00e+00 0.0 0.0e+00 0.0e+00 0.0e+00  0  0  0  0  0   0  0  0  0  0     0       0      0 0.00e+00    0 0.00e+00  0
SFReduceEnd           54 1.0 2.5649e-05 1.0 0.00e+00 0.0 0.0e+00 0.0e+00 0.0e+00  0  0  0  0  0   0  0  0  0  0     0       0      0 0.00e+00    0 0.00e+00  0
SFCreateEmbed        108 1.0 5.1028e-04 1.0 0.00e+00 0.0 0.0e+00 0.0e+00 0.0e+00  0  0  0  0  0   0  0  0  0  0     0       0      0 0.00e+00    0 0.00e+00  0
SFSectionSF          108 1.0 2.8650e-04 1.0 0.00e+00 0.0 0.0e+00 0.0e+00 0.0e+00  0  0  0  0  0   0  0  0  0  0     0       0      0 0.00e+00    0 0.00e+00  0
SFRemoteOff          108 1.0 1.2032e-03 1.0 0.00e+00 0.0 0.0e+00 0.0e+00 0.0e+00  0  0  0  0  0   0  0  0  0  0     0       0      0 0.00e+00    0 0.00e+00  0
SFPack               336 1.0 2.4473e-05 1.0 0.00e+00 0.0 0.0e+00 0.0e+00 0.0e+00  0  0  0  0  0   0  0  0  0  0     0       0      0 0.00e+00    0 0.00e+00  0
SFUnpack             336 1.0 2.2369e-05 1.0 0.00e+00 0.0 0.0e+00 0.0e+00 0.0e+00  0  0  0  0  0   0  0  0  0  0     0       0      0 0.00e+00    0 0.00e+00  0
Landau Create          1 1.0 2.6782e-01 1.0 3.81e+06 1.0 0.0e+00 0.0e+00 0.0e+00 24  2  0  0  0  66 82  0  0  0    57       0      0 0.00e+00    0 0.00e+00  0
 GPU ass. setup        1 1.0 1.1271e-01 1.0 0.00e+00 0.0 0.0e+00 0.0e+00 0.0e+00 10  0  0  0  0  28  0  0  0  0     0       0      0 0.00e+00    0 0.00e+00  0
 Build matrix          1 1.0 2.8693e-02 1.0 6.80e+05 1.0 0.0e+00 0.0e+00 0.0e+00  3  0  0  0  0   7 15  0  0  0    95       0      0 0.00e+00    0 0.00e+00  0
 Assembly maps         1 1.0 1.2548e-01 1.0 3.12e+06 1.0 0.0e+00 0.0e+00 0.0e+00 11  2  0  0  0  31 67  0  0  0   100       0      0 0.00e+00    0 0.00e+00  0
Landau Mass mat        1 1.0 1.1544e-01 1.0 8.60e+05 1.0 0.0e+00 0.0e+00 0.0e+00 10  0  0  0  0  29 18  0  0  0    30       0      0 0.00e+00    0 0.00e+00  0
 static IP Data        1 1.0 1.0656e-03 1.2 5.38e+03 1.0 0.0e+00 0.0e+00 0.0e+00  0  0  0  0  0   0  0  0  0  0    20       0      0 0.00e+00    0 0.00e+00  0
MatMult             5340 1.0 5.3518e-04 1.1 3.77e+04 1.0 0.0e+00 0.0e+00 0.0e+00  0  0  0  0  0   0  1  0  0  0   282       0      0 0.00e+00    0 0.00e+00  0
MatLUFactor           30 1.0 2.2261e-04 1.0 8.19e+04 1.0 0.0e+00 0.0e+00 0.0e+00  0  0  0  0  0   0  2  0  0  0  1472       0      0 0.00e+00    0 0.00e+00  0
MatCopy              120 1.0 8.4955e-05 1.1 0.00e+00 0.0 0.0e+00 0.0e+00 0.0e+00  0  0  0  0  0   0  0  0  0  0     0       0      0 0.00e+00    0 0.00e+00  0
MatConvert            60 1.0 4.5417e-04 1.0 0.00e+00 0.0 0.0e+00 0.0e+00 0.0e+00  0  0  0  0  0   0  0  0  0  0     0       0      0 0.00e+00    0 0.00e+00  0
MatAssemblyBegin     725 1.0 5.9098e-05 1.1 0.00e+00 0.0 0.0e+00 0.0e+00 0.0e+00  0  0  0  0  0   0  0  0  0  0     0       0      0 0.00e+00    0 0.00e+00  0
MatAssemblyEnd       725 1.0 1.1924e-02 1.1 0.00e+00 0.0 0.0e+00 0.0e+00 0.0e+00  1  0  0  0  0   3  0  0  0  0     0       0      0 0.00e+00    0 0.00e+00  0
MatGetRowIJ           15 1.0 2.1050e-06 1.1 0.00e+00 0.0 0.0e+00 0.0e+00 0.0e+00  0  0  0  0  0   0  0  0  0  0     0       0      0 0.00e+00    0 0.00e+00  0
MatZeroEntries         6 1.0 1.7108e-04 1.0 0.00e+00 0.0 0.0e+00 0.0e+00 0.0e+00  0  0  0  0  0   0  0  0  0  0     0       0      0 0.00e+00    0 0.00e+00  0
MatMatSolve          120 1.0 4.1015e-04 1.0 9.52e+05 1.0 0.0e+00 0.0e+00 0.0e+00  0  0  0  0  0   0 20  0  0  0  9288       0      0 0.00e+00    0 0.00e+00  0
MatSetPreallCOO        1 1.0 2.9605e-02 1.0 0.00e+00 0.0 0.0e+00 0.0e+00 0.0e+00  3  0  0  0  0   7  0  0  0  0     0       0      0 0.00e+00    0 0.00e+00  0
VecCopy                1 1.0 1.4227e-05 1.3 0.00e+00 0.0 0.0e+00 0.0e+00 0.0e+00  0  0  0  0  0   0  0  0  0  0     0       0      0 0.00e+00    0 0.00e+00  0
VecSet                33 1.0 5.4014e-04 1.1 0.00e+00 0.0 0.0e+00 0.0e+00 0.0e+00  0  0  0  0  0   0  0  0  0  0     0       0      0 0.00e+00    0 0.00e+00  0
DualSpaceSetUp        28 1.0 1.5535e-02 1.0 9.92e+02 1.0 0.0e+00 0.0e+00 0.0e+00  1  0  0  0  0   4  0  0  0  0     0       0      0 0.00e+00    0 0.00e+00  0
FESetUp               40 1.0 1.3058e-03 1.1 0.00e+00 0.0 0.0e+00 0.0e+00 0.0e+00  0  0  0  0  0   0  0  0  0  0     0       0      0 0.00e+00    0 0.00e+00  0

--- Event Stage 1: Warmup

Landau Operator       29 1.0 1.6296e-02 1.2 1.51e+07 1.0 0.0e+00 0.0e+00 0.0e+00  1  7  0  0  0  19 86  0  0  0  3716       0      0 0.00e+00    0 0.00e+00 100
Landau Jacobian       15 1.0 1.3917e-02 1.2 1.51e+07 1.0 0.0e+00 0.0e+00 0.0e+00  1  7  0  0  0  17 86  0  0  0  4351       0      0 0.00e+00    0 0.00e+00 100
Landau Mass           14 1.0 2.3730e-03 1.1 0.00e+00 0.0 0.0e+00 0.0e+00 0.0e+00  0  0  0  0  0   3  0  0  0  0     0       0      0 0.00e+00    0 0.00e+00  0
 Preamble             29 1.0 4.2113e-05 1.2 0.00e+00 0.0 0.0e+00 0.0e+00 0.0e+00  0  0  0  0  0   0  0  0  0  0     0       0      0 0.00e+00    0 0.00e+00  0
 dynamic IP-Jac       30 1.0 8.4200e-06 1.0 0.00e+00 0.0 0.0e+00 0.0e+00 0.0e+00  0  0  0  0  0   0  0  0  0  0     0       0      0 0.00e+00    0 0.00e+00  0
 Kernel-init          29 1.0 7.1177e-04 1.0 0.00e+00 0.0 0.0e+00 0.0e+00 0.0e+00  0  0  0  0  0   1  0  0  0  0     0       0      0 0.00e+00    0 0.00e+00  0
 Jac-f-df (GPU)       15 1.0 2.5081e-03 1.1 0.00e+00 0.0 0.0e+00 0.0e+00 0.0e+00  0  0  0  0  0   3  0  0  0  0     0       0      0 0.00e+00    0 0.00e+00  0
 J Kernel (GPU)       15 1.0 6.5437e-05 1.0 0.00e+00 0.0 0.0e+00 0.0e+00 0.0e+00  0  0  0  0  0   0  0  0  0  0     0       0      0 0.00e+00    0 0.00e+00  0
 M Kernel (GPU)       14 1.0 7.7842e-05 1.2 0.00e+00 0.0 0.0e+00 0.0e+00 0.0e+00  0  0  0  0  0   0  0  0  0  0     0       0      0 0.00e+00    0 0.00e+00  0
MatMult               15 1.0 1.3803e-04 1.1 7.57e+06 1.0 0.0e+00 0.0e+00 0.0e+00  0  4  0  0  0   0 43  0  0  0 219367       0      0 0.00e+00    0 0.00e+00 100
MatMultAdd            15 1.0 3.7348e-04 1.6 7.57e+06 1.0 0.0e+00 0.0e+00 0.0e+00  0  4  0  0  0   0 43  0  0  0 81071       0      0 0.00e+00    0 0.00e+00 100
MatAssemblyBegin      59 1.0 6.0650e-06 1.3 0.00e+00 0.0 0.0e+00 0.0e+00 0.0e+00  0  0  0  0  0   0  0  0  0  0     0       0      0 0.00e+00    0 0.00e+00  0
MatAssemblyEnd        59 1.0 1.0996e-03 1.4 0.00e+00 0.0 0.0e+00 0.0e+00 0.0e+00  0  0  0  0  0   1  0  0  0  0     0       0      0 0.00e+00    0 0.00e+00  0
MatGetRowIJ            1 1.0 4.2126e-04 1.1 0.00e+00 0.0 0.0e+00 0.0e+00 0.0e+00  0  0  0  0  0   1  0  0  0  0     0       0      0 0.00e+00    0 0.00e+00  0
MatCreateSubMats       1 1.0 3.6830e-03 1.1 0.00e+00 0.0 0.0e+00 0.0e+00 0.0e+00  0  0  0  0  0   4  0  0  0  0     0       0      0 0.00e+00    0 0.00e+00  0
MatGetOrdering         1 1.0 8.3120e-04 1.1 0.00e+00 0.0 0.0e+00 0.0e+00 0.0e+00  0  0  0  0  0   1  0  0  0  0     0       0      0 0.00e+00    0 0.00e+00  0
MatZeroEntries        15 1.0 2.9332e-04 1.1 0.00e+00 0.0 0.0e+00 0.0e+00 0.0e+00  0  0  0  0  0   0  0  0  0  0     0       0      0 0.00e+00    0 0.00e+00  0
MatView                1 0.0 3.2252e-05 0.0 0.00e+00 0.0 0.0e+00 0.0e+00 0.0e+00  0  0  0  0  0   0  0  0  0  0     0       0      0 0.00e+00    0 0.00e+00  0
MatSetValuesCOO       29 1.0 2.1305e-04 1.1 0.00e+00 0.0 0.0e+00 0.0e+00 0.0e+00  0  0  0  0  0   0  0  0  0  0     0       0      0 0.00e+00    0 0.00e+00  0
VecNorm                1 1.0 6.3312e-05 1.3 2.27e+04 1.0 0.0e+00 0.0e+00 0.0e+00  0  0  0  0  0   0  0  0  0  0  1435       0      0 0.00e+00    0 0.00e+00 100
VecCopy               31 1.0 4.6638e-04 1.0 0.00e+00 0.0 0.0e+00 0.0e+00 0.0e+00  0  0  0  0  0   1  0  0  0  0     0       0      0 0.00e+00    0 0.00e+00  0
VecSet                29 1.0 1.4106e-03 1.2 0.00e+00 0.0 0.0e+00 0.0e+00 0.0e+00  0  0  0  0  0   2  0  0  0  0     0       0      0 0.00e+00    0 0.00e+00  0
VecAXPY               16 1.0 1.0575e-04 1.0 3.64e+05 1.0 0.0e+00 0.0e+00 0.0e+00  0  0  0  0  0   0  2  0  0  0 13750       0      0 0.00e+00    0 0.00e+00 100
VecAXPBYCZ            16 1.0 2.9824e-04 1.1 9.09e+05 1.0 0.0e+00 0.0e+00 0.0e+00  0  0  0  0  0   0  5  0  0  0 12189       0      0 0.00e+00    0 0.00e+00 100
VecWAXPY              14 1.0 1.5503e-04 1.1 3.18e+05 1.0 0.0e+00 0.0e+00 0.0e+00  0  0  0  0  0   0  2  0  0  0  8207       0      0 0.00e+00    0 0.00e+00 100
VecReduceArith        42 1.0 7.8805e-04 1.1 9.54e+05 1.0 0.0e+00 0.0e+00 0.0e+00  0  0  0  0  0   1  5  0  0  0  4843       0      0 0.00e+00    0 0.00e+00 100
VecReduceComm         14 1.0 2.8580e-06 1.1 0.00e+00 0.0 0.0e+00 0.0e+00 0.0e+00  0  0  0  0  0   0  0  0  0  0     0       0      0 0.00e+00    0 0.00e+00  0
TSStep                 1 1.0 8.3959e-02 1.2 1.77e+07 1.0 0.0e+00 0.0e+00 0.0e+00  7  9  0  0  0  99100  0  0  0   844       0      0 0.00e+00    0 0.00e+00 100
TSFunctionEval        15 1.0 1.4849e-02 1.2 1.55e+07 1.0 0.0e+00 0.0e+00 0.0e+00  1  8  0  0  0  18 87  0  0  0  4170       0      0 0.00e+00    0 0.00e+00 100
TSJacobianEval        14 1.0 2.3842e-03 1.1 0.00e+00 0.0 0.0e+00 0.0e+00 0.0e+00  0  0  0  0  0   3  0  0  0  0     0       0      0 0.00e+00    0 0.00e+00  0
KSPSetUp              14 1.0 3.4370e-06 1.1 0.00e+00 0.0 0.0e+00 0.0e+00 0.0e+00  0  0  0  0  0   0  0  0  0  0     0       0      0 0.00e+00    0 0.00e+00  0
KSPSolve              14 1.0 5.8427e-02 1.3 0.00e+00 0.0 0.0e+00 0.0e+00 0.0e+00  5  0  0  0  0  69  0  0  0  0     0       0      0 0.00e+00    0 0.00e+00  0
SNESSolve              1 1.0 8.3842e-02 1.2 1.76e+07 1.0 0.0e+00 0.0e+00 0.0e+00  7  9  0  0  0  99100  0  0  0   841       0      0 0.00e+00    0 0.00e+00 100
SNESSetUp              1 1.0 3.6371e-05 1.2 0.00e+00 0.0 0.0e+00 0.0e+00 0.0e+00  0  0  0  0  0   0  0  0  0  0     0       0      0 0.00e+00    0 0.00e+00  0
SNESFunctionEval      15 1.0 1.5107e-02 1.2 1.63e+07 1.0 0.0e+00 0.0e+00 0.0e+00  1  8  0  0  0  18 92  0  0  0  4324       0      0 0.00e+00    0 0.00e+00 100
SNESJacobianEval      14 1.0 2.3956e-03 1.1 0.00e+00 0.0 0.0e+00 0.0e+00 0.0e+00  0  0  0  0  0   3  0  0  0  0     0       0      0 0.00e+00    0 0.00e+00  0
SNESLineSearch        14 1.0 1.2887e-02 1.2 1.65e+07 1.0 0.0e+00 0.0e+00 0.0e+00  1  8  0  0  0  15 93  0  0  0  5126       0      0 0.00e+00    0 0.00e+00 100
PCSetUp               14 1.0 6.9500e-03 1.3 0.00e+00 0.0 0.0e+00 0.0e+00 0.0e+00  1  0  0  0  0   8  0  0  0  0     0       0      0 0.00e+00    0 0.00e+00  0
PCApply               14 1.0 5.7724e-02 1.3 0.00e+00 0.0 0.0e+00 0.0e+00 0.0e+00  5  0  0  0  0  68  0  0  0  0     0       0      0 0.00e+00    0 0.00e+00  0

--- Event Stage 2: Solve

Landau Operator      298 1.0 1.1597e-01 1.0 1.55e+08 1.0 0.0e+00 0.0e+00 0.0e+00 10 76  0  0  0  18 86  0  0  0  5361       0      0 0.00e+00    0 0.00e+00 100
Landau Jacobian      154 1.0 9.4659e-02 1.1 1.55e+08 1.0 0.0e+00 0.0e+00 0.0e+00  8 76  0  0  0  15 86  0  0  0  6568       0      0 0.00e+00    0 0.00e+00 100
Landau Mass          144 1.0 2.1251e-02 1.0 0.00e+00 0.0 0.0e+00 0.0e+00 0.0e+00  2  0  0  0  0   3  0  0  0  0     0       0      0 0.00e+00    0 0.00e+00  0
 Preamble            289 1.0 3.7726e-04 1.1 0.00e+00 0.0 0.0e+00 0.0e+00 0.0e+00  0  0  0  0  0   0  0  0  0  0     0       0      0 0.00e+00    0 0.00e+00  0
 dynamic IP-Jac      290 1.0 5.9237e-05 1.0 0.00e+00 0.0 0.0e+00 0.0e+00 0.0e+00  0  0  0  0  0   0  0  0  0  0     0       0      0 0.00e+00    0 0.00e+00  0
 Kernel-init         289 1.0 6.8571e-03 1.0 0.00e+00 0.0 0.0e+00 0.0e+00 0.0e+00  1  0  0  0  0   1  0  0  0  0     0       0      0 0.00e+00    0 0.00e+00  0
 Jac-f-df (GPU)      145 1.0 5.6089e-03 1.0 0.00e+00 0.0 0.0e+00 0.0e+00 0.0e+00  1  0  0  0  0   1  0  0  0  0     0       0      0 0.00e+00    0 0.00e+00  0
 J Kernel (GPU)      145 1.0 5.2076e-04 1.0 0.00e+00 0.0 0.0e+00 0.0e+00 0.0e+00  0  0  0  0  0   0  0  0  0  0     0       0      0 0.00e+00    0 0.00e+00  0
 M Kernel (GPU)      144 1.0 6.9940e-04 1.1 0.00e+00 0.0 0.0e+00 0.0e+00 0.0e+00  0  0  0  0  0   0  0  0  0  0     0       0      0 0.00e+00    0 0.00e+00  0
MatMult              154 1.0 9.2405e-04 1.1 7.77e+07 1.0 0.0e+00 0.0e+00 0.0e+00  0 38  0  0  0   0 43  0  0  0 336408       0      0 0.00e+00    0 0.00e+00 100
MatMultAdd           154 1.0 6.4192e-04 1.0 7.77e+07 1.0 0.0e+00 0.0e+00 0.0e+00  0 38  0  0  0   0 43  0  0  0 484263       0      0 0.00e+00    0 0.00e+00 100
MatAssemblyBegin     578 1.0 5.0259e-05 1.1 0.00e+00 0.0 0.0e+00 0.0e+00 0.0e+00  0  0  0  0  0   0  0  0  0  0     0       0      0 0.00e+00    0 0.00e+00  0
MatAssemblyEnd       578 1.0 1.0022e-04 1.1 0.00e+00 0.0 0.0e+00 0.0e+00 0.0e+00  0  0  0  0  0   0  0  0  0  0     0       0      0 0.00e+00    0 0.00e+00  0
MatZeroEntries       145 1.0 2.5306e-03 1.0 0.00e+00 0.0 0.0e+00 0.0e+00 0.0e+00  0  0  0  0  0   0  0  0  0  0     0       0      0 0.00e+00    0 0.00e+00  0
MatView                1 0.0 2.4176e-05 0.0 0.00e+00 0.0 0.0e+00 0.0e+00 0.0e+00  0  0  0  0  0   0  0  0  0  0     0       0      0 0.00e+00    0 0.00e+00  0
MatSetValuesCOO      289 1.0 1.5728e-03 1.1 0.00e+00 0.0 0.0e+00 0.0e+00 0.0e+00  0  0  0  0  0   0  0  0  0  0     0       0      0 0.00e+00    0 0.00e+00  0
VecNorm               10 1.0 1.7433e-04 1.0 2.27e+05 1.0 0.0e+00 0.0e+00 0.0e+00  0  0  0  0  0   0  0  0  0  0  5213       0      0 0.00e+00    0 0.00e+00 100
VecCopy              308 1.0 4.2481e-03 1.0 0.00e+00 0.0 0.0e+00 0.0e+00 0.0e+00  0  0  0  0  0   1  0  0  0  0     0       0      0 0.00e+00    0 0.00e+00  0
VecSet               298 1.0 1.2984e-02 1.0 0.00e+00 0.0 0.0e+00 0.0e+00 0.0e+00  1  0  0  0  0   2  0  0  0  0     0       0      0 0.00e+00    0 0.00e+00  0
VecAXPY              164 1.0 7.1505e-04 1.0 3.73e+06 1.0 0.0e+00 0.0e+00 0.0e+00  0  2  0  0  0   0  2  0  0  0 20844       0      0 0.00e+00    0 0.00e+00 100
VecAXPBYCZ           164 1.0 1.5541e-03 1.0 9.32e+06 1.0 0.0e+00 0.0e+00 0.0e+00  0  5  0  0  0   0  5  0  0  0 23975       0      0 0.00e+00    0 0.00e+00 100
VecWAXPY             144 1.0 1.1795e-03 1.0 3.27e+06 1.0 0.0e+00 0.0e+00 0.0e+00  0  2  0  0  0   0  2  0  0  0 11095       0      0 0.00e+00    0 0.00e+00 100
VecReduceArith       432 1.0 7.3223e-03 1.0 9.81e+06 1.0 0.0e+00 0.0e+00 0.0e+00  1  5  0  0  0   1  5  0  0  0  5361       0      0 0.00e+00    0 0.00e+00 100
VecReduceComm        144 1.0 2.9839e-05 1.2 0.00e+00 0.0 0.0e+00 0.0e+00 0.0e+00  0  0  0  0  0   0  0  0  0  0     0       0      0 0.00e+00    0 0.00e+00  0
TSStep                10 1.0 6.3130e-01 1.0 1.82e+08 1.0 0.0e+00 0.0e+00 0.0e+00 56 89  0  0  0 100100  0  0  0  1152       0      0 0.00e+00    0 0.00e+00 100
TSFunctionEval       154 1.0 1.0250e-01 1.1 1.59e+08 1.0 0.0e+00 0.0e+00 0.0e+00  9 78  0  0  0  16 87  0  0  0  6202       0      0 0.00e+00    0 0.00e+00 100
TSJacobianEval       144 1.0 2.1353e-02 1.0 0.00e+00 0.0 0.0e+00 0.0e+00 0.0e+00  2  0  0  0  0   3  0  0  0  0     0       0      0 0.00e+00    0 0.00e+00  0
KSPSetUp             144 1.0 2.0076e-05 1.0 0.00e+00 0.0 0.0e+00 0.0e+00 0.0e+00  0  0  0  0  0   0  0  0  0  0     0       0      0 0.00e+00    0 0.00e+00  0
KSPSolve             144 1.0 4.9235e-01 1.1 0.00e+00 0.0 0.0e+00 0.0e+00 0.0e+00 44  0  0  0  0  78  0  0  0  0     0       0      0 0.00e+00    0 0.00e+00  0
SNESSolve             10 1.0 6.3080e-01 1.0 1.81e+08 1.0 0.0e+00 0.0e+00 0.0e+00 56 89  0  0  0 100100  0  0  0  1148       0      0 0.00e+00    0 0.00e+00 100
SNESFunctionEval     154 1.0 1.0390e-01 1.1 1.68e+08 1.0 0.0e+00 0.0e+00 0.0e+00  9 82  0  0  0  16 92  0  0  0  6455       0      0 0.00e+00    0 0.00e+00 100
SNESJacobianEval     144 1.0 2.1442e-02 1.0 0.00e+00 0.0 0.0e+00 0.0e+00 0.0e+00  2  0  0  0  0   3  0  0  0  0     0       0      0 0.00e+00    0 0.00e+00  0
SNESLineSearch       144 1.0 1.1316e-01 1.0 1.70e+08 1.0 0.0e+00 0.0e+00 0.0e+00 10 83  0  0  0  18 93  0  0  0  6005       0      0 0.00e+00    0 0.00e+00 100
PCSetUp              144 1.0 6.7235e-04 1.1 0.00e+00 0.0 0.0e+00 0.0e+00 0.0e+00  0  0  0  0  0   0  0  0  0  0     0       0      0 0.00e+00    0 0.00e+00  0
PCApply              144 1.0 4.8590e-01 1.1 0.00e+00 0.0 0.0e+00 0.0e+00 0.0e+00 43  0  0  0  0  77  0  0  0  0     0       0      0 0.00e+00    0 0.00e+00  0
---------------------------------------------------------------------------------------------------------------------------------------------------------------

Memory usage is given in bytes:

Object Type          Creations   Destructions     Memory  Descendants' Mem.
Reports information only for process 0.

--- Event Stage 0: Main Stage

           Container   254            254       148336     0.
    Distributed Mesh   629            629      3316920     0.
            DM Label  1315           1315       852120     0.
          Quadrature  1029           1029       617400     0.
           Index Set  3875           3875      3487776     0.
   IS L to G Mapping    59             59       253312     0.
             Section  2377           2377      1711440     0.
    Section Symmetry    80             80        57600     0.
   Star Forest Graph  1501           1501      1633928     0.
     Discrete System  1048           1048      1014476     0.
           Weak Form  1048           1048       653952     0.
    GraphPartitioner   242            242       168432     0.
              Matrix   760            760     88784336     0.
              Vector   365            376      1938432     0.
       p4est logging     1              0            0     0.
        Linear Space    86             86        60416     0.
          Dual Space   240            240       226560     0.
            FE Space    40             40        31840     0.
       Field over DM    18             18        12816     0.
             TSAdapt     1              1         1264     0.
                  TS     1              1         2432     0.
                DMTS     1              1          768     0.
                SNES     1              1         1556     0.
              DMSNES     3              3         2088     0.
      SNESLineSearch     1              1         1008     0.
       Krylov Solver     1              2         3432     0.
     DMKSP interface     0              1          664     0.
      Preconditioner     1              2         1888     0.
              Viewer     2              1          848     0.

--- Event Stage 1: Warmup

           Index Set     5              5       183464     0.
              Matrix     1              1      3258452     0.
              Vector    11              0            0     0.
       Krylov Solver     1              0            0     0.
     DMKSP interface     1              0            0     0.
      Preconditioner     1              0            0     0.

--- Event Stage 2: Solve

========================================================================================================================
Average time to get PetscTime(): 3.3e-08
Average time for MPI_Barrier(): 3.134e-06
Average time for zero size MPI_Send(): 2.17395e-05
#PETSc Option Table entries:
-dim 2
-dm_landau_amr_levels_max 2,2,2
-dm_landau_batch_size 8
-dm_landau_coo_assembly
-dm_landau_device_type kokkos
-dm_landau_Ez 0
-dm_landau_ion_charges 1,2,3,4,5,6,7,8,9
-dm_landau_ion_masses 2,182,182,182,182,182,182,182,182
-dm_landau_n 1.0000044,1,1e-7,1e-7,1e-7,1e-7,1e-7,1e-7,1e-7,1e-7
-dm_landau_num_species_grid 1,1,8
-dm_landau_thermal_temps 2,1,1,1,1,1,1,1,1,1
-dm_landau_type p4est
-dm_landau_verbose 1
-dm_mat_type aijkokkos
-dm_preallocate_only false
-dm_vec_type kokkos
-ex2_test_type none
-ksp_type preonly
-log_view
-pc_bjkokkos_ksp_batch_nsolves_team 4
-pc_bjkokkos_ksp_converged_reason
-pc_bjkokkos_ksp_max_it 40
-pc_bjkokkos_ksp_rtol 1.e-8
-pc_bjkokkos_ksp_type gmres
-pc_bjkokkos_pc_type jacobi
-pc_type bjkokkos
-petscspace_degree 3
-snes_converged_reason
-snes_linesearch_type basic
-snes_max_it 50
-snes_monitor
-snes_rtol 1e-14
-snes_stol 1e-14
-ts_adapt_clip .5,1.1
-ts_adapt_dt_max 1
-ts_adapt_monitor
-ts_adapt_scale_solve_failed 0.5
-ts_adapt_time_step_increase_delay 5
-ts_dt .5
-ts_exact_final_time stepover
-ts_max_snes_failures -1
-ts_max_steps 10
-ts_max_time 100
-ts_monitor
-ts_rtol 1e-2
-ts_type beuler
-ts_view
-use_gpu_aware_mpi 0
#End of PETSc Option Table entries
Compiled without FORTRAN kernels
Compiled with full precision matrices (default)
sizeof(short) 2 sizeof(int) 4 sizeof(long) 8 sizeof(void*) 8 sizeof(PetscScalar) 8 sizeof(PetscInt) 4
Configure options: --CFLAGS="   -g" --CXXFLAGS=" -g" --CUDAFLAGS="-g -Xcompiler -rdynamic" --with-cc=cc --with-cxx=CC --with-fc=ftn --LIBS=-lnvToolsExt --download-amgx=1 --with-fortran-bindings=0 --LDFLAGS=-lmpifort_gnu_91 --COPTFLAGS="   -O" --CXXOPTFLAGS=" -O" --FOPTFLAGS="   -O" --with-debugging=0 --with-dmlandau-2d --download-triangle --with-cuda=1 --with-cuda-arch=80 --with-mpiexec=srun --with-batch=0 --download-p4est=1 --with-zlib=1 --download-kokkos --download-kokkos-kernels --with-kokkos-kernels-tpl=0 --download-kokkos-kernels-commit=origin/develop --with-make-np=8 PETSC_ARCH=arch-perlmutter-opt-gcc-kokkos-cuda
-----------------------------------------
Libraries compiled on 2022-06-01 00:24:28 on login34 
Machine characteristics: Linux-5.3.18-150300.59.43_11.0.51-cray_shasta_c-x86_64-with-glibc2.3.4
Using PETSc directory: /global/homes/m/madams/petsc
Using PETSc arch: arch-perlmutter-opt-gcc-kokkos-cuda
-----------------------------------------

Using C compiler: cc -g -fPIC -O   
Using Fortran compiler: ftn  -fPIC -O     
-----------------------------------------

Using include paths: -I/global/homes/m/madams/petsc/include -I/global/homes/m/madams/petsc/arch-perlmutter-opt-gcc-kokkos-cuda/include -I/opt/nvidia/hpc_sdk/Linux_x86_64/21.11/cuda/11.5/include -I/opt/nvidia/hpc_sdk/Linux_x86_64/21.11/math_libs/11.5/include
-----------------------------------------

Using C linker: cc
Using Fortran linker: ftn
Using libraries: -Wl,-rpath,/global/homes/m/madams/petsc/arch-perlmutter-opt-gcc-kokkos-cuda/lib -L/global/homes/m/madams/petsc/arch-perlmutter-opt-gcc-kokkos-cuda/lib -lpetsc -Wl,-rpath,/global/homes/m/madams/petsc/arch-perlmutter-opt-gcc-kokkos-cuda/lib -L/global/homes/m/madams/petsc/arch-perlmutter-opt-gcc-kokkos-cuda/lib -Wl,-rpath,/opt/nvidia/hpc_sdk/Linux_x86_64/21.11/cuda/11.5/lib64 -L/opt/nvidia/hpc_sdk/Linux_x86_64/21.11/cuda/11.5/lib64 -L/opt/nvidia/hpc_sdk/Linux_x86_64/21.11/cuda/11.5/lib64/stubs -lkokkoskernels -lkokkoscontainers -lkokkoscore -lp4est -lsc -ltriangle -lcudart -lcufft -lcublas -lcusparse -lcusolver -lcurand -lcuda -lX11 -lquadmath -lstdc++ -ldl -lnvToolsExt
-----------------------------------------



      ##########################################################
      #                                                        #
      #                       WARNING!!!                       #
      #                                                        #
      #   This code was compiled with GPU support and you've   #
      #   created PETSc/GPU objects, but you intentionally     #
      #   used -use_gpu_aware_mpi 0, requiring PETSc to copy   #
      #   additional data between the GPU and CPU. To obtain   #
      #   meaningful timing results on multi-rank runs, use    #
      #   GPU-aware MPI instead.                               #
      #                                                        #
      ##########################################################


