masses:        e= 9.109e-31; ions in proton mass units:    2.000e+00  1.820e+02 ...
charges:       e=-1.602e-19; charges in elementary units:  1.000e+00  2.000e+00
n:             e:  1.000e+00                           i:  1.000e+00  1.000e-07
thermal T (K): e= 2.321e+07 i= 1.160e+07  1.160e+07. v_0= 1.876e+07 ( 6.256e-02c) n_0= 1.000e+20 t_0= 1.637e-05, classical, Intuitive, 1 batched
Domain radius (AMR levels) grid 0:  5.000e+00 (2) , 1:  5.835e-02 (2) , 2:  6.117e-03 (2) 
Using default Plex order for all matrices
0) FormLandau 9720 IPs, 360 cells total, Nb=27, Nq=27, dim=3, Tab: Nb=27 Nf=10 Np=27 cdim=3 N=10450
0 TS dt 0.5 time 0.
    0 SNES Function norm 1.869624101895e-02 
    Linear solve converged in 24 iteration, batch 0, specie 2
    1 SNES Function norm 6.231944422635e-04 
    Linear solve converged in 24 iteration, batch 0, specie 3
    2 SNES Function norm 1.110629325020e-04 
    Linear solve converged in 24 iteration, batch 0, specie 3
    3 SNES Function norm 2.448332389116e-05 
    Linear solve converged in 23 iteration, batch 0, specie 5
    4 SNES Function norm 5.577049395864e-06 
    Linear solve converged in 21 iteration, batch 0, specie 0
    5 SNES Function norm 1.282873850090e-06 
    Linear solve converged in 21 iteration, batch 0, specie 0
    6 SNES Function norm 2.961462528228e-07 
    Linear solve converged in 21 iteration, batch 0, specie 0
    7 SNES Function norm 6.846187049553e-08 
    Linear solve converged in 21 iteration, batch 0, specie 0
    8 SNES Function norm 1.583622049221e-08 
    Linear solve converged in 21 iteration, batch 0, specie 0
    9 SNES Function norm 3.664082056753e-09 
    Linear solve converged in 21 iteration, batch 0, specie 0
   10 SNES Function norm 8.478639429892e-10 
    Linear solve converged in 21 iteration, batch 0, specie 0
   11 SNES Function norm 1.962036235004e-10 
    Linear solve converged in 21 iteration, batch 0, specie 0
   12 SNES Function norm 4.540452909273e-11 
    Linear solve converged in 21 iteration, batch 0, specie 0
   13 SNES Function norm 1.050774888132e-11 
    Linear solve converged in 22 iteration, batch 0, specie 2
   14 SNES Function norm 2.432106196848e-12 
    Linear solve converged in 24 iteration, batch 0, specie 2
   15 SNES Function norm 5.618181277454e-13 
  Nonlinear solve converged due to CONVERGED_SNORM_RELATIVE iterations 15
      TSAdapt none beuler 0: step   0 accepted t=0          + 5.000e-01 dt=5.000e-01 
1 TS dt 0.5 time 0.5
TS Object: 1 MPI process
  type: beuler
  maximum steps=1
  maximum time=100.
  total number of I function evaluations=16
  total number of I Jacobian evaluations=15
  total number of RHS function evaluations=16
  total number of nonlinear solver iterations=15
  total number of linear solver iterations=330
  total number of nonlinear solve failures=0
  total number of rejected steps=0
  using relative error tolerance of 0.01,   using absolute error tolerance of 0.0001
  TSAdapt Object: 1 MPI process
    type: none
  SNES Object: 1 MPI process
    type: newtonls
    maximum iterations=50, maximum function evaluations=10000
    tolerances: relative=1e-14, absolute=1e-50, solution=1e-14
    total number of linear solver iterations=330
    total number of function evaluations=16
    norm schedule ALWAYS
    SNESLineSearch Object: 1 MPI process
      type: basic
      maxstep=1.000000e+08, minlambda=1.000000e-12
      tolerances: relative=1.000000e-08, absolute=1.000000e-15, lambda=1.000000e-08
      maximum iterations=40
    KSP Object: 1 MPI process
      type: preonly
      maximum iterations=10000, initial guess is zero
      tolerances:  relative=1e-05, absolute=1e-50, divergence=10000.
      left preconditioning
      using NONE norm type for convergence test
    PC Object: 1 MPI process
      type: bjkokkos
        Batched device linear solver: Krylov (KSP) method with Jacobi preconditioning
      		nwork = 0, rel tol = 1.000000e-08, abs tol = 1.000000e-50, div tol = 1.000000e+04, max it =40, type = gmres
      linear system matrix = precond matrix:
      Mat Object: Jacobian 1 MPI process
        type: seqaijkokkos
        rows=10450, cols=10450
        total: nonzeros=564010, allocated nonzeros=564010
        total number of mallocs used during MatSetValues calls=0
          not using I-node routines
0 TS dt 0.5 time 0.
    0 SNES Function norm 1.869624101895e-02 
    Linear solve converged in 24 iteration, batch 0, specie 2
    1 SNES Function norm 6.231944422635e-04 
    Linear solve converged in 24 iteration, batch 0, specie 3
    2 SNES Function norm 1.110629325020e-04 
    Linear solve converged in 24 iteration, batch 0, specie 3
    3 SNES Function norm 2.448332389116e-05 
    Linear solve converged in 23 iteration, batch 0, specie 5
    4 SNES Function norm 5.577049395864e-06 
    Linear solve converged in 21 iteration, batch 0, specie 0
    5 SNES Function norm 1.282873850090e-06 
    Linear solve converged in 21 iteration, batch 0, specie 0
    6 SNES Function norm 2.961462528228e-07 
    Linear solve converged in 21 iteration, batch 0, specie 0
    7 SNES Function norm 6.846187049553e-08 
    Linear solve converged in 21 iteration, batch 0, specie 0
    8 SNES Function norm 1.583622049221e-08 
    Linear solve converged in 21 iteration, batch 0, specie 0
    9 SNES Function norm 3.664082056753e-09 
    Linear solve converged in 21 iteration, batch 0, specie 0
   10 SNES Function norm 8.478639429892e-10 
    Linear solve converged in 21 iteration, batch 0, specie 0
   11 SNES Function norm 1.962036235004e-10 
    Linear solve converged in 21 iteration, batch 0, specie 0
   12 SNES Function norm 4.540452909273e-11 
    Linear solve converged in 21 iteration, batch 0, specie 0
   13 SNES Function norm 1.050774888132e-11 
    Linear solve converged in 22 iteration, batch 0, specie 2
   14 SNES Function norm 2.432106196848e-12 
    Linear solve converged in 24 iteration, batch 0, specie 2
   15 SNES Function norm 5.618181277454e-13 
  Nonlinear solve converged due to CONVERGED_SNORM_RELATIVE iterations 15
      TSAdapt none beuler 0: step   0 accepted t=0          + 5.000e-01 dt=5.000e-01 
1 TS dt 0.5 time 0.5
    0 SNES Function norm 2.350335203736e-03 
    Linear solve converged in 24 iteration, batch 0, specie 2
    1 SNES Function norm 2.870026931498e-04 
    Linear solve converged in 24 iteration, batch 0, specie 3
    2 SNES Function norm 6.549453621286e-05 
    Linear solve converged in 24 iteration, batch 0, specie 3
    3 SNES Function norm 1.511651487114e-05 
    Linear solve converged in 23 iteration, batch 0, specie 2
    4 SNES Function norm 3.489195788414e-06 
    Linear solve converged in 22 iteration, batch 0, specie 2
    5 SNES Function norm 8.054656846454e-07 
    Linear solve converged in 21 iteration, batch 0, specie 0
    6 SNES Function norm 1.859703744939e-07 
    Linear solve converged in 21 iteration, batch 0, specie 0
    7 SNES Function norm 4.294287094539e-08 
    Linear solve converged in 21 iteration, batch 0, specie 0
    8 SNES Function norm 9.916653911101e-09 
    Linear solve converged in 21 iteration, batch 0, specie 0
    9 SNES Function norm 2.290086499271e-09 
    Linear solve converged in 21 iteration, batch 0, specie 0
   10 SNES Function norm 5.288644191421e-10 
    Linear solve converged in 21 iteration, batch 0, specie 0
   11 SNES Function norm 1.221348204343e-10 
    Linear solve converged in 21 iteration, batch 0, specie 0
   12 SNES Function norm 2.820540266268e-11 
    Linear solve converged in 21 iteration, batch 0, specie 0
   13 SNES Function norm 6.513939272840e-12 
    Linear solve converged in 22 iteration, batch 0, specie 2
   14 SNES Function norm 1.504300919026e-12 
    Linear solve converged in 24 iteration, batch 0, specie 2
   15 SNES Function norm 3.475601689829e-13 
  Nonlinear solve converged due to CONVERGED_SNORM_RELATIVE iterations 15
      TSAdapt none beuler 0: step   1 accepted t=0.5        + 5.000e-01 dt=5.000e-01 
2 TS dt 0.5 time 1.
    0 SNES Function norm 1.279771689011e-03 
    Linear solve converged in 24 iteration, batch 0, specie 2
    1 SNES Function norm 2.243541502238e-04 
    Linear solve converged in 24 iteration, batch 0, specie 3
    2 SNES Function norm 5.325960358210e-05 
    Linear solve converged in 24 iteration, batch 0, specie 3
    3 SNES Function norm 1.240916068899e-05 
    Linear solve converged in 23 iteration, batch 0, specie 2
    4 SNES Function norm 2.869439639425e-06 
    Linear solve converged in 22 iteration, batch 0, specie 2
    5 SNES Function norm 6.616222706761e-07 
    Linear solve converged in 21 iteration, batch 0, specie 0
    6 SNES Function norm 1.523866563874e-07 
    Linear solve converged in 21 iteration, batch 0, specie 0
    7 SNES Function norm 3.508293214901e-08 
    Linear solve converged in 21 iteration, batch 0, specie 0
    8 SNES Function norm 8.075488170014e-09 
    Linear solve converged in 21 iteration, batch 0, specie 0
    9 SNES Function norm 1.858704812750e-09 
    Linear solve converged in 21 iteration, batch 0, specie 0
   10 SNES Function norm 4.277979669445e-10 
    Linear solve converged in 21 iteration, batch 0, specie 0
   11 SNES Function norm 9.846086833168e-11 
    Linear solve converged in 21 iteration, batch 0, specie 0
   12 SNES Function norm 2.266077828851e-11 
    Linear solve converged in 22 iteration, batch 0, specie 2
   13 SNES Function norm 5.215609463495e-12 
    Linear solve converged in 22 iteration, batch 0, specie 2
   14 SNES Function norm 1.199751145884e-12 
    Linear solve converged in 24 iteration, batch 0, specie 2
   15 SNES Function norm 2.770302394368e-13 
  Nonlinear solve converged due to CONVERGED_SNORM_RELATIVE iterations 15
      TSAdapt none beuler 0: step   2 accepted t=1          + 5.000e-01 dt=5.000e-01 
3 TS dt 0.5 time 1.5
    0 SNES Function norm 1.017567947371e-03 
    Linear solve converged in 24 iteration, batch 0, specie 2
    1 SNES Function norm 2.050825203693e-04 
    Linear solve converged in 24 iteration, batch 0, specie 3
    2 SNES Function norm 4.862036952299e-05 
    Linear solve converged in 24 iteration, batch 0, specie 3
    3 SNES Function norm 1.130730687248e-05 
    Linear solve converged in 23 iteration, batch 0, specie 2
    4 SNES Function norm 2.607951307692e-06 
    Linear solve converged in 22 iteration, batch 0, specie 2
    5 SNES Function norm 5.994586416006e-07 
    Linear solve converged in 21 iteration, batch 0, specie 0
    6 SNES Function norm 1.375981172142e-07 
    Linear solve converged in 21 iteration, batch 0, specie 0
    7 SNES Function norm 3.156569537230e-08 
    Linear solve converged in 21 iteration, batch 0, specie 0
    8 SNES Function norm 7.239588370994e-09 
    Linear solve converged in 21 iteration, batch 0, specie 0
    9 SNES Function norm 1.660232353092e-09 
    Linear solve converged in 21 iteration, batch 0, specie 0
   10 SNES Function norm 3.807185134689e-10 
    Linear solve converged in 21 iteration, batch 0, specie 0
   11 SNES Function norm 8.730399002156e-11 
    Linear solve converged in 21 iteration, batch 0, specie 0
   12 SNES Function norm 2.001952231117e-11 
    Linear solve converged in 22 iteration, batch 0, specie 2
   13 SNES Function norm 4.590567094956e-12 
    Linear solve converged in 23 iteration, batch 0, specie 2
   14 SNES Function norm 1.052823236767e-12 
    Linear solve converged in 25 iteration, batch 0, specie 2
   15 SNES Function norm 2.411792102599e-13 
  Nonlinear solve converged due to CONVERGED_SNORM_RELATIVE iterations 15
      TSAdapt none beuler 0: step   3 accepted t=1.5        + 5.000e-01 dt=5.000e-01 
4 TS dt 0.5 time 2.
    0 SNES Function norm 9.137020895928e-04 
    Linear solve converged in 24 iteration, batch 0, specie 2
    1 SNES Function norm 1.933588520925e-04 
    Linear solve converged in 24 iteration, batch 0, specie 3
    2 SNES Function norm 4.557245130020e-05 
    Linear solve converged in 24 iteration, batch 0, specie 3
    3 SNES Function norm 1.055443414012e-05 
    Linear solve converged in 23 iteration, batch 0, specie 2
    4 SNES Function norm 2.425341370042e-06 
    Linear solve converged in 22 iteration, batch 0, specie 2
    5 SNES Function norm 5.554847119393e-07 
    Linear solve converged in 21 iteration, batch 0, specie 0
    6 SNES Function norm 1.270483048107e-07 
    Linear solve converged in 21 iteration, batch 0, specie 0
    7 SNES Function norm 2.904109870700e-08 
    Linear solve converged in 21 iteration, batch 0, specie 0
    8 SNES Function norm 6.636680145588e-09 
    Linear solve converged in 21 iteration, batch 0, specie 0
    9 SNES Function norm 1.516504676953e-09 
    Linear solve converged in 21 iteration, batch 0, specie 0
   10 SNES Function norm 3.465113904999e-10 
    Linear solve converged in 21 iteration, batch 0, specie 0
   11 SNES Function norm 7.917357832007e-11 
    Linear solve converged in 21 iteration, batch 0, specie 0
   12 SNES Function norm 1.809054519864e-11 
    Linear solve converged in 22 iteration, batch 0, specie 2
   13 SNES Function norm 4.133801534354e-12 
    Linear solve converged in 23 iteration, batch 0, specie 2
   14 SNES Function norm 9.444609449364e-13 
    Linear solve converged in 25 iteration, batch 0, specie 2
   15 SNES Function norm 2.153178953443e-13 
  Nonlinear solve converged due to CONVERGED_SNORM_RELATIVE iterations 15
      TSAdapt none beuler 0: step   4 accepted t=2          + 5.000e-01 dt=5.000e-01 
5 TS dt 0.5 time 2.5
    0 SNES Function norm 8.473558588082e-04 
    Linear solve converged in 24 iteration, batch 0, specie 2
    1 SNES Function norm 1.819574225150e-04 
    Linear solve converged in 24 iteration, batch 0, specie 3
    2 SNES Function norm 4.263629483641e-05 
    Linear solve converged in 24 iteration, batch 0, specie 3
    3 SNES Function norm 9.830962730111e-06 
    Linear solve converged in 23 iteration, batch 0, specie 2
    4 SNES Function norm 2.250586492522e-06 
    Linear solve converged in 22 iteration, batch 0, specie 2
    5 SNES Function norm 5.136431477110e-07 
    Linear solve converged in 21 iteration, batch 0, specie 0
    6 SNES Function norm 1.170746505699e-07 
    Linear solve converged in 21 iteration, batch 0, specie 0
    7 SNES Function norm 2.667015795611e-08 
    Linear solve converged in 21 iteration, batch 0, specie 0
    8 SNES Function norm 6.074172984293e-09 
    Linear solve converged in 21 iteration, batch 0, specie 0
    9 SNES Function norm 1.383266049768e-09 
    Linear solve converged in 21 iteration, batch 0, specie 0
   10 SNES Function norm 3.149969113812e-10 
    Linear solve converged in 21 iteration, batch 0, specie 0
   11 SNES Function norm 7.172964585336e-11 
    Linear solve converged in 21 iteration, batch 0, specie 0
   12 SNES Function norm 1.633326467564e-11 
    Linear solve converged in 22 iteration, batch 0, specie 2
   13 SNES Function norm 3.719763196347e-12 
    Linear solve converged in 23 iteration, batch 0, specie 2
   14 SNES Function norm 8.464020403517e-13 
    Linear solve converged in 25 iteration, batch 0, specie 2
   15 SNES Function norm 1.932913983115e-13 
  Nonlinear solve converged due to CONVERGED_SNORM_RELATIVE iterations 15
      TSAdapt none beuler 0: step   5 accepted t=2.5        + 5.000e-01 dt=5.000e-01 
6 TS dt 0.5 time 3.
    0 SNES Function norm 7.896264885972e-04 
    Linear solve converged in 24 iteration, batch 0, specie 2
    1 SNES Function norm 1.696183524674e-04 
    Linear solve converged in 24 iteration, batch 0, specie 3
    2 SNES Function norm 3.953394267142e-05 
    Linear solve converged in 24 iteration, batch 0, specie 3
    3 SNES Function norm 9.077860112465e-06 
    Linear solve converged in 23 iteration, batch 0, specie 2
    4 SNES Function norm 2.070827897714e-06 
    Linear solve converged in 22 iteration, batch 0, specie 2
    5 SNES Function norm 4.710634922477e-07 
    Linear solve converged in 21 iteration, batch 0, specie 0
    6 SNES Function norm 1.070268736406e-07 
    Linear solve converged in 21 iteration, batch 0, specie 0
    7 SNES Function norm 2.430435002285e-08 
    Linear solve converged in 21 iteration, batch 0, specie 0
    8 SNES Function norm 5.517985888318e-09 
    Linear solve converged in 21 iteration, batch 0, specie 0
    9 SNES Function norm 1.252669678681e-09 
    Linear solve converged in 21 iteration, batch 0, specie 0
   10 SNES Function norm 2.843642115818e-10 
    Linear solve converged in 21 iteration, batch 0, specie 0
   11 SNES Function norm 6.455139291557e-11 
    Linear solve converged in 21 iteration, batch 0, specie 0
   12 SNES Function norm 1.465417683355e-11 
    Linear solve converged in 22 iteration, batch 0, specie 2
   13 SNES Function norm 3.325890420258e-12 
    Linear solve converged in 23 iteration, batch 0, specie 2
   14 SNES Function norm 7.554863217382e-13 
    Linear solve converged in 25 iteration, batch 0, specie 3
   15 SNES Function norm 1.716918134598e-13 
  Nonlinear solve converged due to CONVERGED_SNORM_RELATIVE iterations 15
      TSAdapt none beuler 0: step   6 accepted t=3          + 5.000e-01 dt=5.000e-01 
7 TS dt 0.5 time 3.5
    0 SNES Function norm 7.335499250902e-04 
    Linear solve converged in 24 iteration, batch 0, specie 2
    1 SNES Function norm 1.564972609980e-04 
    Linear solve converged in 24 iteration, batch 0, specie 3
    2 SNES Function norm 3.630075449080e-05 
    Linear solve converged in 24 iteration, batch 0, specie 3
    3 SNES Function norm 8.304001549040e-06 
    Linear solve converged in 23 iteration, batch 0, specie 2
    4 SNES Function norm 1.888177111327e-06 
    Linear solve converged in 22 iteration, batch 0, specie 2
    5 SNES Function norm 4.282254029290e-07 
    Linear solve converged in 21 iteration, batch 0, specie 0
    6 SNES Function norm 9.701066902908e-08 
    Linear solve converged in 21 iteration, batch 0, specie 0
    7 SNES Function norm 2.196645035896e-08 
    Linear solve converged in 21 iteration, batch 0, specie 0
    8 SNES Function norm 4.972923362661e-09 
    Linear solve converged in 21 iteration, batch 0, specie 0
    9 SNES Function norm 1.125708485204e-09 
    Linear solve converged in 21 iteration, batch 0, specie 0
   10 SNES Function norm 2.548137849468e-10 
    Linear solve converged in 21 iteration, batch 0, specie 0
   11 SNES Function norm 5.767872268953e-11 
    Linear solve converged in 21 iteration, batch 0, specie 0
   12 SNES Function norm 1.305590215608e-11 
    Linear solve converged in 22 iteration, batch 0, specie 2
   13 SNES Function norm 2.955438836383e-12 
    Linear solve converged in 23 iteration, batch 0, specie 2
   14 SNES Function norm 6.687124438877e-13 
  Nonlinear solve converged due to CONVERGED_SNORM_RELATIVE iterations 14
      TSAdapt none beuler 0: step   7 accepted t=3.5        + 5.000e-01 dt=5.000e-01 
8 TS dt 0.5 time 4.
    0 SNES Function norm 6.780044135339e-04 
    Linear solve converged in 24 iteration, batch 0, specie 2
    1 SNES Function norm 1.430176970000e-04 
    Linear solve converged in 24 iteration, batch 0, specie 3
    2 SNES Function norm 3.302999412665e-05 
    Linear solve converged in 24 iteration, batch 0, specie 3
    3 SNES Function norm 7.530054534780e-06 
    Linear solve converged in 23 iteration, batch 0, specie 2
    4 SNES Function norm 1.707200853810e-06 
    Linear solve converged in 22 iteration, batch 0, specie 2
    5 SNES Function norm 3.861319851730e-07 
    Linear solve converged in 21 iteration, batch 0, specie 0
    6 SNES Function norm 8.724494836445e-08 
    Linear solve converged in 21 iteration, batch 0, specie 0
    7 SNES Function norm 1.970390808646e-08 
    Linear solve converged in 21 iteration, batch 0, specie 0
    8 SNES Function norm 4.449197433545e-09 
    Linear solve converged in 21 iteration, batch 0, specie 0
    9 SNES Function norm 1.004557983061e-09 
    Linear solve converged in 21 iteration, batch 0, specie 0
   10 SNES Function norm 2.268060991579e-10 
    Linear solve converged in 21 iteration, batch 0, specie 0
   11 SNES Function norm 5.120638350421e-11 
    Linear solve converged in 21 iteration, batch 0, specie 0
   12 SNES Function norm 1.156030338786e-11 
    Linear solve converged in 21 iteration, batch 0, specie 0
   13 SNES Function norm 2.610705867918e-12 
    Linear solve converged in 24 iteration, batch 0, specie 2
   14 SNES Function norm 5.896018196034e-13 
  Nonlinear solve converged due to CONVERGED_SNORM_RELATIVE iterations 14
      TSAdapt none beuler 0: step   8 accepted t=4          + 5.000e-01 dt=5.000e-01 
9 TS dt 0.5 time 4.5
    0 SNES Function norm 6.234191468629e-04 
    Linear solve converged in 24 iteration, batch 0, specie 2
    1 SNES Function norm 1.295623700106e-04 
    Linear solve converged in 23 iteration, batch 0, specie 2
    2 SNES Function norm 2.980351343485e-05 
    Linear solve converged in 23 iteration, batch 0, specie 2
    3 SNES Function norm 6.773551509330e-06 
    Linear solve converged in 23 iteration, batch 0, specie 2
    4 SNES Function norm 1.531660145002e-06 
    Linear solve converged in 22 iteration, batch 0, specie 2
    5 SNES Function norm 3.455874153206e-07 
    Linear solve converged in 21 iteration, batch 0, specie 0
    6 SNES Function norm 7.790058299681e-08 
    Linear solve converged in 21 iteration, batch 0, specie 0
    7 SNES Function norm 1.755272530674e-08 
    Linear solve converged in 21 iteration, batch 0, specie 0
    8 SNES Function norm 3.954312330383e-09 
    Linear solve converged in 21 iteration, batch 0, specie 0
    9 SNES Function norm 8.907669749219e-10 
    Linear solve converged in 21 iteration, batch 0, specie 0
   10 SNES Function norm 2.006518839957e-10 
    Linear solve converged in 21 iteration, batch 0, specie 0
   11 SNES Function norm 4.519713097104e-11 
    Linear solve converged in 21 iteration, batch 0, specie 0
   12 SNES Function norm 1.018085734585e-11 
    Linear solve converged in 22 iteration, batch 0, specie 2
   13 SNES Function norm 2.293431413369e-12 
    Linear solve converged in 23 iteration, batch 0, specie 2
   14 SNES Function norm 5.166392528447e-13 
  Nonlinear solve converged due to CONVERGED_SNORM_RELATIVE iterations 14
      TSAdapt none beuler 0: step   9 accepted t=4.5        + 5.000e-01 dt=5.000e-01 
10 TS dt 0.5 time 5.
TS Object: 1 MPI process
  type: beuler
  maximum steps=10
  maximum time=100.
  total number of I function evaluations=173
  total number of I Jacobian evaluations=162
  total number of RHS function evaluations=173
  total number of nonlinear solver iterations=147
  total number of linear solver iterations=3254
  total number of nonlinear solve failures=0
  total number of rejected steps=0
  using relative error tolerance of 0.01,   using absolute error tolerance of 0.0001
  TSAdapt Object: 1 MPI process
    type: none
  SNES Object: 1 MPI process
    type: newtonls
    maximum iterations=50, maximum function evaluations=10000
    tolerances: relative=1e-14, absolute=1e-50, solution=1e-14
    total number of linear solver iterations=307
    total number of function evaluations=15
    norm schedule ALWAYS
    SNESLineSearch Object: 1 MPI process
      type: basic
      maxstep=1.000000e+08, minlambda=1.000000e-12
      tolerances: relative=1.000000e-08, absolute=1.000000e-15, lambda=1.000000e-08
      maximum iterations=40
    KSP Object: 1 MPI process
      type: preonly
      maximum iterations=10000, initial guess is zero
      tolerances:  relative=1e-05, absolute=1e-50, divergence=10000.
      left preconditioning
      using NONE norm type for convergence test
    PC Object: 1 MPI process
      type: bjkokkos
        Batched device linear solver: Krylov (KSP) method with Jacobi preconditioning
      		nwork = 0, rel tol = 1.000000e-08, abs tol = 1.000000e-50, div tol = 1.000000e+04, max it =40, type = gmres
      linear system matrix = precond matrix:
      Mat Object: Jacobian 1 MPI process
        type: seqaijkokkos
        rows=10450, cols=10450
        total: nonzeros=564010, allocated nonzeros=564010
        total number of mallocs used during MatSetValues calls=0
          not using I-node routines
**************************************** ***********************************************************************************************************************
***                                WIDEN YOUR WINDOW TO 160 CHARACTERS.  Use 'enscript -r -fCourier9' to print this document                                 ***
****************************************************************************************************************************************************************

------------------------------------------------------------------ PETSc Performance Summary: -------------------------------------------------------------------



      ##########################################################
      #                                                        #
      #                       WARNING!!!                       #
      #                                                        #
      #   This code was compiled with GPU support and you've   #
      #   created PETSc/GPU objects, but you intentionally     #
      #   used -use_gpu_aware_mpi 0, requiring PETSc to copy   #
      #   additional data between the GPU and CPU. To obtain   #
      #   meaningful timing results on multi-rank runs, use    #
      #   GPU-aware MPI instead.                               #
      #                                                        #
      ##########################################################


/global/u2/m/madams/batch_gmres_paper/mark/perlmutter/./ex2-3d on a arch-perlmutter-opt-gcc-kokkos-cuda-3d named nid003809 with 4 processors, by madams Wed Jun  1 07:19:33 2022
Using Petsc Development GIT revision: v3.17.1-449-ga24ffdf4c3f  GIT Date: 2022-05-31 18:12:35 -0700

                         Max       Max/Min     Avg       Total
Time (sec):           1.939e+01     1.000   1.939e+01
Objects:              2.650e+04     1.000   2.650e+04
Flops:                5.589e+08     1.000   5.589e+08  2.235e+09
Flops/sec:            2.883e+07     1.000   2.883e+07  1.153e+08
MPI Msg Count:        0.000e+00     0.000   0.000e+00  0.000e+00
MPI Msg Len (bytes):  0.000e+00     0.000   0.000e+00  0.000e+00
MPI Reductions:       2.200e+01     1.000

Flop counting convention: 1 flop = 1 real number operation of type (multiply/divide/add/subtract)
                            e.g., VecAXPY() for real vectors of length N --> 2N flops
                            and VecAXPY() for complex vectors of length N --> 8N flops

Summary of Stages:   ----- Time ------  ----- Flop ------  --- Messages ---  -- Message Lengths --  -- Reductions --
                        Avg     %Total     Avg     %Total    Count   %Total     Avg         %Total    Count   %Total
 0:      Main Stage: 1.6443e+01  84.8%  5.6535e+08  25.3%  0.000e+00   0.0%  0.000e+00        0.0%  2.000e+00   9.1%
 1:          Warmup: 3.4138e-01   1.8%  1.5446e+08   6.9%  0.000e+00   0.0%  0.000e+00        0.0%  0.000e+00   0.0%
 2:           Solve: 2.6015e+00  13.4%  1.5156e+09  67.8%  0.000e+00   0.0%  0.000e+00        0.0%  0.000e+00   0.0%

------------------------------------------------------------------------------------------------------------------------
See the 'Profiling' chapter of the users' manual for details on interpreting output.
Phase summary info:
   Count: number of times phase was executed
   Time and Flop: Max - maximum over all processors
                  Ratio - ratio of maximum to minimum over all processors
   Mess: number of messages sent
   AvgLen: average message length (bytes)
   Reduct: number of global reductions
   Global: entire computation
   Stage: stages of a computation. Set stages with PetscLogStagePush() and PetscLogStagePop().
      %T - percent time in this phase         %F - percent flop in this phase
      %M - percent messages in this phase     %L - percent message lengths in this phase
      %R - percent reductions in this phase
   Total Mflop/s: 10e-6 * (sum of flop over all processors)/(max time over all processors)
   GPU Mflop/s: 10e-6 * (sum of flop on GPU over all processors)/(max GPU time over all processors)
   CpuToGpu Count: total number of CPU to GPU copies per processor
   CpuToGpu Size (Mbytes): 10e-6 * (total size of CPU to GPU copies per processor)
   GpuToCpu Count: total number of GPU to CPU copies per processor
   GpuToCpu Size (Mbytes): 10e-6 * (total size of GPU to CPU copies per processor)
   GPU %F: percent flops on GPU in this event
------------------------------------------------------------------------------------------------------------------------
Event                Count      Time (sec)     Flop                              --- Global ---  --- Stage ----  Total   GPU    - CpuToGpu -   - GpuToCpu - GPU
                   Max Ratio  Max     Ratio   Max  Ratio  Mess   AvgLen  Reduct  %T %F %M %L %R  %T %F %M %L %R Mflop/s Mflop/s Count   Size   Count   Size  %F
---------------------------------------------------------------------------------------------------------------------------------------------------------------

--- Event Stage 0: Main Stage

BuildTwoSided         51 1.0 5.7243e-05 1.1 0.00e+00 0.0 0.0e+00 0.0e+00 0.0e+00  0  0  0  0  0   0  0  0  0  0     0       0      0 0.00e+00    0 0.00e+00  0
DMConvert             18 1.0 4.1135e-03 1.0 0.00e+00 0.0 0.0e+00 0.0e+00 0.0e+00  0  0  0  0  0   0  0  0  0  0     0       0      0 0.00e+00    0 0.00e+00  0
DMCreateMat            8 1.0 2.2033e+00 1.0 0.00e+00 0.0 0.0e+00 0.0e+00 0.0e+00 11  0  0  0  0  13  0  0  0  0     0       0      0 0.00e+00    0 0.00e+00  0
DMPlexInterp         294 1.0 6.7233e-03 1.0 0.00e+00 0.0 0.0e+00 0.0e+00 0.0e+00  0  0  0  0  0   0  0  0  0  0     0       0      0 0.00e+00    0 0.00e+00  0
DMPlexStratify       435 1.0 6.9940e-03 1.0 0.00e+00 0.0 0.0e+00 0.0e+00 0.0e+00  0  0  0  0  0   0  0  0  0  0     0       0      0 0.00e+00    0 0.00e+00  0
DMPlexSymmetrize     435 1.0 4.6302e-04 1.1 0.00e+00 0.0 0.0e+00 0.0e+00 0.0e+00  0  0  0  0  0   0  0  0  0  0     0       0      0 0.00e+00    0 0.00e+00  0
DMPlexPrealloc        12 1.0 2.1772e+00 1.0 0.00e+00 0.0 0.0e+00 0.0e+00 0.0e+00 11  0  0  0  0  13  0  0  0  0     0       0      0 0.00e+00    0 0.00e+00  0
DMPlexJacobianFE       6 1.0 2.2075e+00 1.0 1.06e+08 1.0 0.0e+00 0.0e+00 0.0e+00 11 19  0  0  0  13 75  0  0  0   192       0      0 0.00e+00    0 0.00e+00  0
SFSetGraph            84 1.0 1.7058e-04 1.0 0.00e+00 0.0 0.0e+00 0.0e+00 0.0e+00  0  0  0  0  0   0  0  0  0  0     0       0      0 0.00e+00    0 0.00e+00  0
SFSetUp               51 1.0 2.5982e-04 1.0 0.00e+00 0.0 0.0e+00 0.0e+00 0.0e+00  0  0  0  0  0   0  0  0  0  0     0       0      0 0.00e+00    0 0.00e+00  0
SFBcastBegin         114 1.0 1.8339e-04 1.1 0.00e+00 0.0 0.0e+00 0.0e+00 0.0e+00  0  0  0  0  0   0  0  0  0  0     0       0      0 0.00e+00    0 0.00e+00  0
SFBcastEnd           114 1.0 6.3100e-05 1.1 0.00e+00 0.0 0.0e+00 0.0e+00 0.0e+00  0  0  0  0  0   0  0  0  0  0     0       0      0 0.00e+00    0 0.00e+00  0
SFReduceBegin         54 1.0 6.0329e-05 1.0 0.00e+00 0.0 0.0e+00 0.0e+00 0.0e+00  0  0  0  0  0   0  0  0  0  0     0       0      0 0.00e+00    0 0.00e+00  0
SFReduceEnd           54 1.0 2.3766e-05 1.0 0.00e+00 0.0 0.0e+00 0.0e+00 0.0e+00  0  0  0  0  0   0  0  0  0  0     0       0      0 0.00e+00    0 0.00e+00  0
SFCreateEmbed         24 1.0 2.1207e-04 1.1 0.00e+00 0.0 0.0e+00 0.0e+00 0.0e+00  0  0  0  0  0   0  0  0  0  0     0       0      0 0.00e+00    0 0.00e+00  0
SFSectionSF           24 1.0 8.7709e-05 1.1 0.00e+00 0.0 0.0e+00 0.0e+00 0.0e+00  0  0  0  0  0   0  0  0  0  0     0       0      0 0.00e+00    0 0.00e+00  0
SFRemoteOff           24 1.0 4.5837e-04 1.1 0.00e+00 0.0 0.0e+00 0.0e+00 0.0e+00  0  0  0  0  0   0  0  0  0  0     0       0      0 0.00e+00    0 0.00e+00  0
SFPack               168 1.0 1.1228e-05 1.0 0.00e+00 0.0 0.0e+00 0.0e+00 0.0e+00  0  0  0  0  0   0  0  0  0  0     0       0      0 0.00e+00    0 0.00e+00  0
SFUnpack             168 1.0 9.5010e-06 1.0 0.00e+00 0.0 0.0e+00 0.0e+00 0.0e+00  0  0  0  0  0   0  0  0  0  0     0       0      0 0.00e+00    0 0.00e+00  0
Landau Create          1 1.0 1.3634e+01 1.0 7.53e+07 1.0 0.0e+00 0.0e+00 0.0e+00 70 13  0  0  0  83 53  0  0  0    22       0      0 0.00e+00    0 0.00e+00  0
 GPU ass. setup        1 1.0 1.1794e+01 1.0 0.00e+00 0.0 0.0e+00 0.0e+00 0.0e+00 61  0  0  0  0  72  0  0  0  0     0       0      0 0.00e+00    0 0.00e+00  0
 Build matrix          1 1.0 1.0615e+00 1.0 3.98e+07 1.0 0.0e+00 0.0e+00 0.0e+00  5  7  0  0  0   6 28  0  0  0   150       0      0 0.00e+00    0 0.00e+00  0
 Assembly maps         1 1.0 7.8915e-01 1.0 3.50e+07 1.0 0.0e+00 0.0e+00 0.0e+00  4  6  0  0  0   5 25  0  0  0   178       0      0 0.00e+00    0 0.00e+00  0
Landau Mass mat        1 1.0 2.7916e+00 1.0 6.61e+07 1.0 0.0e+00 0.0e+00 0.0e+00 14 12  0  0  0  17 47  0  0  0    95       0      0 0.00e+00    0 0.00e+00  0
 static IP Data        1 1.0 2.4967e-03 1.1 4.76e+05 1.0 0.0e+00 0.0e+00 0.0e+00  0  0  0  0  0   0  0  0  0  0   763       0      0 0.00e+00    0 0.00e+00  0
MatMult            30660 1.0 2.3646e-03 1.0 2.40e+05 1.0 0.0e+00 0.0e+00 0.0e+00  0  0  0  0  0   0  0  0  0  0   405       0      0 0.00e+00    0 0.00e+00  0
MatLUFactor           30 1.0 3.9607e-04 1.0 3.94e+05 1.0 0.0e+00 0.0e+00 0.0e+00  0  0  0  0  0   0  0  0  0  0  3976       0      0 0.00e+00    0 0.00e+00  0
MatCopy              240 1.0 1.4995e-04 1.0 0.00e+00 0.0 0.0e+00 0.0e+00 0.0e+00  0  0  0  0  0   0  0  0  0  0     0       0      0 0.00e+00    0 0.00e+00  0
MatConvert            60 1.0 4.3277e-04 1.0 0.00e+00 0.0 0.0e+00 0.0e+00 0.0e+00  0  0  0  0  0   0  0  0  0  0     0       0      0 0.00e+00    0 0.00e+00  0
MatAssemblyBegin    1089 1.0 6.8619e-05 1.0 0.00e+00 0.0 0.0e+00 0.0e+00 0.0e+00  0  0  0  0  0   0  0  0  0  0     0       0      0 0.00e+00    0 0.00e+00  0
MatAssemblyEnd      1089 1.0 1.5703e-02 1.0 0.00e+00 0.0 0.0e+00 0.0e+00 0.0e+00  0  0  0  0  0   0  0  0  0  0     0       0      0 0.00e+00    0 0.00e+00  0
MatGetRowIJ           15 1.0 1.9740e-06 1.2 0.00e+00 0.0 0.0e+00 0.0e+00 0.0e+00  0  0  0  0  0   0  0  0  0  0     0       0      0 0.00e+00    0 0.00e+00  0
MatZeroEntries         6 1.0 2.8700e-03 1.0 0.00e+00 0.0 0.0e+00 0.0e+00 0.0e+00  0  0  0  0  0   0  0  0  0  0     0       0      0 0.00e+00    0 0.00e+00  0
MatMatSolve          240 1.0 1.8199e-03 1.0 9.27e+06 1.0 0.0e+00 0.0e+00 0.0e+00  0  2  0  0  0   0  7  0  0  0 20381       0      0 0.00e+00    0 0.00e+00  0
MatSetPreallCOO        1 1.0 2.9293e-01 1.0 0.00e+00 0.0 0.0e+00 0.0e+00 0.0e+00  2  0  0  0  0   2  0  0  0  0     0       0      0 0.00e+00    0 0.00e+00  0
VecCopy                1 1.0 1.1692e-05 1.1 0.00e+00 0.0 0.0e+00 0.0e+00 0.0e+00  0  0  0  0  0   0  0  0  0  0     0       0      0 0.00e+00    0 0.00e+00  0
VecSet                12 1.0 2.5688e-04 1.0 0.00e+00 0.0 0.0e+00 0.0e+00 0.0e+00  0  0  0  0  0   0  0  0  0  0     0       0      0 0.00e+00    0 0.00e+00  0
DualSpaceSetUp        28 1.0 3.2109e-02 1.0 2.20e+04 1.0 0.0e+00 0.0e+00 0.0e+00  0  0  0  0  0   0  0  0  0  0     3       0      0 0.00e+00    0 0.00e+00  0
FESetUp               52 1.0 2.8240e-03 1.0 0.00e+00 0.0 0.0e+00 0.0e+00 0.0e+00  0  0  0  0  0   0  0  0  0  0     0       0      0 0.00e+00    0 0.00e+00  0

--- Event Stage 1: Warmup

Landau Operator       31 1.0 1.7381e-01 1.1 3.61e+07 1.0 0.0e+00 0.0e+00 0.0e+00  1  6  0  0  0  49 93  0  0  0   831       0      0 0.00e+00    0 0.00e+00 100
Landau Jacobian       16 1.0 1.5675e-01 1.1 3.61e+07 1.0 0.0e+00 0.0e+00 0.0e+00  1  6  0  0  0  44 93  0  0  0   921       0      0 0.00e+00    0 0.00e+00 100
Landau Mass           15 1.0 1.7365e-02 1.0 0.00e+00 0.0 0.0e+00 0.0e+00 0.0e+00  0  0  0  0  0   5  0  0  0  0     0       0      0 0.00e+00    0 0.00e+00  0
 Preamble             31 1.0 6.5420e-05 1.6 0.00e+00 0.0 0.0e+00 0.0e+00 0.0e+00  0  0  0  0  0   0  0  0  0  0     0       0      0 0.00e+00    0 0.00e+00  0
 dynamic IP-Jac       32 1.0 1.3014e-05 1.3 0.00e+00 0.0 0.0e+00 0.0e+00 0.0e+00  0  0  0  0  0   0  0  0  0  0     0       0      0 0.00e+00    0 0.00e+00  0
 Kernel-init          31 1.0 7.7895e-04 1.1 0.00e+00 0.0 0.0e+00 0.0e+00 0.0e+00  0  0  0  0  0   0  0  0  0  0     0       0      0 0.00e+00    0 0.00e+00  0
 Jac-f-df (GPU)       16 1.0 3.7544e-03 1.0 0.00e+00 0.0 0.0e+00 0.0e+00 0.0e+00  0  0  0  0  0   1  0  0  0  0     0       0      0 0.00e+00    0 0.00e+00  0
 J Kernel (GPU)       16 1.0 1.5910e-03 1.0 0.00e+00 0.0 0.0e+00 0.0e+00 0.0e+00  0  0  0  0  0   0  0  0  0  0     0       0      0 0.00e+00    0 0.00e+00  0
 M Kernel (GPU)       15 1.0 7.8394e-05 1.1 0.00e+00 0.0 0.0e+00 0.0e+00 0.0e+00  0  0  0  0  0   0  0  0  0  0     0       0      0 0.00e+00    0 0.00e+00  0
MatMult               16 1.0 1.2181e-04 1.0 1.80e+07 1.0 0.0e+00 0.0e+00 0.0e+00  0  3  0  0  0   0 47  0  0  0 592696       0      0 0.00e+00    0 0.00e+00 100
MatMultAdd            16 1.0 2.1338e-03 1.1 1.80e+07 1.0 0.0e+00 0.0e+00 0.0e+00  0  3  0  0  0   1 47  0  0  0 33833       0      0 0.00e+00    0 0.00e+00 100
MatAssemblyBegin      63 1.0 4.3800e-06 1.1 0.00e+00 0.0 0.0e+00 0.0e+00 0.0e+00  0  0  0  0  0   0  0  0  0  0     0       0      0 0.00e+00    0 0.00e+00  0
MatAssemblyEnd        63 1.0 1.1532e-03 1.1 0.00e+00 0.0 0.0e+00 0.0e+00 0.0e+00  0  0  0  0  0   0  0  0  0  0     0       0      0 0.00e+00    0 0.00e+00  0
MatGetRowIJ            1 1.0 1.6374e-04 1.1 0.00e+00 0.0 0.0e+00 0.0e+00 0.0e+00  0  0  0  0  0   0  0  0  0  0     0       0      0 0.00e+00    0 0.00e+00  0
MatCreateSubMats       1 1.0 1.4239e-02 1.0 0.00e+00 0.0 0.0e+00 0.0e+00 0.0e+00  0  0  0  0  0   4  0  0  0  0     0       0      0 0.00e+00    0 0.00e+00  0
MatGetOrdering         1 1.0 2.7004e-03 1.0 0.00e+00 0.0 0.0e+00 0.0e+00 0.0e+00  0  0  0  0  0   1  0  0  0  0     0       0      0 0.00e+00    0 0.00e+00  0
MatZeroEntries        16 1.0 3.5241e-04 1.1 0.00e+00 0.0 0.0e+00 0.0e+00 0.0e+00  0  0  0  0  0   0  0  0  0  0     0       0      0 0.00e+00    0 0.00e+00  0
MatView                1 0.0 3.1861e-05 0.0 0.00e+00 0.0 0.0e+00 0.0e+00 0.0e+00  0  0  0  0  0   0  0  0  0  0     0       0      0 0.00e+00    0 0.00e+00  0
MatSetValuesCOO       31 1.0 2.1526e-04 1.1 0.00e+00 0.0 0.0e+00 0.0e+00 0.0e+00  0  0  0  0  0   0  0  0  0  0     0       0      0 0.00e+00    0 0.00e+00  0
VecNorm                1 1.0 6.2570e-05 1.1 2.09e+04 1.0 0.0e+00 0.0e+00 0.0e+00  0  0  0  0  0   0  0  0  0  0  1336       0      0 0.00e+00    0 0.00e+00 100
VecCopy               33 1.0 4.7546e-04 1.0 0.00e+00 0.0 0.0e+00 0.0e+00 0.0e+00  0  0  0  0  0   0  0  0  0  0     0       0      0 0.00e+00    0 0.00e+00  0
VecSet                31 1.0 6.8242e-03 1.0 0.00e+00 0.0 0.0e+00 0.0e+00 0.0e+00  0  0  0  0  0   2  0  0  0  0     0       0      0 0.00e+00    0 0.00e+00  0
VecAXPY               17 1.0 1.1113e-04 1.0 3.55e+05 1.0 0.0e+00 0.0e+00 0.0e+00  0  0  0  0  0   0  1  0  0  0 12788       0      0 0.00e+00    0 0.00e+00 100
VecAXPBYCZ            17 1.0 2.9563e-04 1.1 8.88e+05 1.0 0.0e+00 0.0e+00 0.0e+00  0  0  0  0  0   0  2  0  0  0 12018       0      0 0.00e+00    0 0.00e+00 100
VecWAXPY              15 1.0 1.5147e-04 1.3 3.14e+05 1.0 0.0e+00 0.0e+00 0.0e+00  0  0  0  0  0   0  1  0  0  0  8279       0      0 0.00e+00    0 0.00e+00 100
VecReduceArith        45 1.0 8.1248e-04 1.0 9.40e+05 1.0 0.0e+00 0.0e+00 0.0e+00  0  0  0  0  0   0  2  0  0  0  4630       0      0 0.00e+00    0 0.00e+00 100
VecReduceComm         15 1.0 3.1840e-06 1.1 0.00e+00 0.0 0.0e+00 0.0e+00 0.0e+00  0  0  0  0  0   0  0  0  0  0     0       0      0 0.00e+00    0 0.00e+00  0
TSStep                 1 1.0 3.4982e-01 1.1 3.86e+07 1.0 0.0e+00 0.0e+00 0.0e+00  2  7  0  0  0 100100  0  0  0   442       0      0 0.00e+00    0 0.00e+00 100
TSFunctionEval        16 1.0 1.5776e-01 1.1 3.64e+07 1.0 0.0e+00 0.0e+00 0.0e+00  1  7  0  0  0  45 94  0  0  0   924       0      0 0.00e+00    0 0.00e+00 100
TSJacobianEval        15 1.0 1.7374e-02 1.0 0.00e+00 0.0 0.0e+00 0.0e+00 0.0e+00  0  0  0  0  0   5  0  0  0  0     0       0      0 0.00e+00    0 0.00e+00  0
KSPSetUp              15 1.0 3.5110e-06 1.2 0.00e+00 0.0 0.0e+00 0.0e+00 0.0e+00  0  0  0  0  0   0  0  0  0  0     0       0      0 0.00e+00    0 0.00e+00  0
KSPSolve              15 1.0 1.5630e-01 1.1 0.00e+00 0.0 0.0e+00 0.0e+00 0.0e+00  1  0  0  0  0  45  0  0  0  0     0       0      0 0.00e+00    0 0.00e+00  0
SNESSolve              1 1.0 3.4971e-01 1.1 3.85e+07 1.0 0.0e+00 0.0e+00 0.0e+00  2  7  0  0  0 100100  0  0  0   441       0      0 0.00e+00    0 0.00e+00 100
SNESSetUp              1 1.0 3.3154e-05 1.1 0.00e+00 0.0 0.0e+00 0.0e+00 0.0e+00  0  0  0  0  0   0  0  0  0  0     0       0      0 0.00e+00    0 0.00e+00  0
SNESFunctionEval      16 1.0 1.5801e-01 1.1 3.73e+07 1.0 0.0e+00 0.0e+00 0.0e+00  1  7  0  0  0  45 97  0  0  0   943       0      0 0.00e+00    0 0.00e+00 100
SNESJacobianEval      15 1.0 1.7385e-02 1.0 0.00e+00 0.0 0.0e+00 0.0e+00 0.0e+00  0  0  0  0  0   5  0  0  0  0     0       0      0 0.00e+00    0 0.00e+00  0
SNESLineSearch        15 1.0 1.4377e-01 1.1 3.62e+07 1.0 0.0e+00 0.0e+00 0.0e+00  1  6  0  0  0  41 94  0  0  0  1007       0      0 0.00e+00    0 0.00e+00 100
PCSetUp               15 1.0 1.7777e-02 1.0 0.00e+00 0.0 0.0e+00 0.0e+00 0.0e+00  0  0  0  0  0   5  0  0  0  0     0       0      0 0.00e+00    0 0.00e+00  0
PCApply               15 1.0 1.5025e-01 1.1 0.00e+00 0.0 0.0e+00 0.0e+00 0.0e+00  1  0  0  0  0  43  0  0  0  0     0       0      0 0.00e+00    0 0.00e+00  0

--- Event Stage 2: Solve

Landau Operator      304 1.0 1.3025e+00 1.0 3.54e+08 1.0 0.0e+00 0.0e+00 0.0e+00  7 63  0  0  0  50 93  0  0  0  1088       0      0 0.00e+00    0 0.00e+00 100
Landau Jacobian      157 1.0 1.1548e+00 1.0 3.54e+08 1.0 0.0e+00 0.0e+00 0.0e+00  6 63  0  0  0  44 93  0  0  0  1227       0      0 0.00e+00    0 0.00e+00 100
Landau Mass          147 1.0 1.4762e-01 1.0 0.00e+00 0.0 0.0e+00 0.0e+00 0.0e+00  1  0  0  0  0   6  0  0  0  0     0       0      0 0.00e+00    0 0.00e+00  0
 Preamble            295 1.0 5.8869e-04 1.8 0.00e+00 0.0 0.0e+00 0.0e+00 0.0e+00  0  0  0  0  0   0  0  0  0  0     0       0      0 0.00e+00    0 0.00e+00  0
 dynamic IP-Jac      296 1.0 6.6060e-05 1.2 0.00e+00 0.0 0.0e+00 0.0e+00 0.0e+00  0  0  0  0  0   0  0  0  0  0     0       0      0 0.00e+00    0 0.00e+00  0
 Kernel-init         295 1.0 7.0589e-03 1.1 0.00e+00 0.0 0.0e+00 0.0e+00 0.0e+00  0  0  0  0  0   0  0  0  0  0     0       0      0 0.00e+00    0 0.00e+00  0
 Jac-f-df (GPU)      148 1.0 1.5974e-02 1.0 0.00e+00 0.0 0.0e+00 0.0e+00 0.0e+00  0  0  0  0  0   1  0  0  0  0     0       0      0 0.00e+00    0 0.00e+00  0
 J Kernel (GPU)      148 1.0 5.6813e-04 1.2 0.00e+00 0.0 0.0e+00 0.0e+00 0.0e+00  0  0  0  0  0   0  0  0  0  0     0       0      0 0.00e+00    0 0.00e+00  0
 M Kernel (GPU)      147 1.0 6.8954e-04 1.1 0.00e+00 0.0 0.0e+00 0.0e+00 0.0e+00  0  0  0  0  0   0  0  0  0  0     0       0      0 0.00e+00    0 0.00e+00  0
MatMult              157 1.0 8.4157e-04 1.0 1.77e+08 1.0 0.0e+00 0.0e+00 0.0e+00  0 32  0  0  0   0 47  0  0  0 841757       0      0 0.00e+00    0 0.00e+00 100
MatMultAdd           157 1.0 6.0854e-04 1.0 1.77e+08 1.0 0.0e+00 0.0e+00 0.0e+00  0 32  0  0  0   0 47  0  0  0 1164088       0      0 0.00e+00    0 0.00e+00 100
MatAssemblyBegin     590 1.0 3.9899e-05 1.1 0.00e+00 0.0 0.0e+00 0.0e+00 0.0e+00  0  0  0  0  0   0  0  0  0  0     0       0      0 0.00e+00    0 0.00e+00  0
MatAssemblyEnd       590 1.0 1.2344e-04 1.1 0.00e+00 0.0 0.0e+00 0.0e+00 0.0e+00  0  0  0  0  0   0  0  0  0  0     0       0      0 0.00e+00    0 0.00e+00  0
MatZeroEntries       148 1.0 3.0454e-03 1.1 0.00e+00 0.0 0.0e+00 0.0e+00 0.0e+00  0  0  0  0  0   0  0  0  0  0     0       0      0 0.00e+00    0 0.00e+00  0
MatView                1 0.0 2.1421e-05 0.0 0.00e+00 0.0 0.0e+00 0.0e+00 0.0e+00  0  0  0  0  0   0  0  0  0  0     0       0      0 0.00e+00    0 0.00e+00  0
MatSetValuesCOO      295 1.0 1.6181e-03 1.1 0.00e+00 0.0 0.0e+00 0.0e+00 0.0e+00  0  0  0  0  0   0  0  0  0  0     0       0      0 0.00e+00    0 0.00e+00  0
VecNorm               10 1.0 1.7775e-04 1.1 2.09e+05 1.0 0.0e+00 0.0e+00 0.0e+00  0  0  0  0  0   0  0  0  0  0  4703       0      0 0.00e+00    0 0.00e+00 100
VecCopy              314 1.0 4.2441e-03 1.0 0.00e+00 0.0 0.0e+00 0.0e+00 0.0e+00  0  0  0  0  0   0  0  0  0  0     0       0      0 0.00e+00    0 0.00e+00  0
VecSet               304 1.0 5.8432e-02 1.0 0.00e+00 0.0 0.0e+00 0.0e+00 0.0e+00  0  0  0  0  0   2  0  0  0  0     0       0      0 0.00e+00    0 0.00e+00  0
VecAXPY              167 1.0 6.9612e-04 1.0 3.49e+06 1.0 0.0e+00 0.0e+00 0.0e+00  0  1  0  0  0   0  1  0  0  0 20056       0      0 0.00e+00    0 0.00e+00 100
VecAXPBYCZ           167 1.0 1.6450e-03 1.2 8.73e+06 1.0 0.0e+00 0.0e+00 0.0e+00  0  2  0  0  0   0  2  0  0  0 21218       0      0 0.00e+00    0 0.00e+00 100
VecWAXPY             147 1.0 1.2447e-03 1.1 3.07e+06 1.0 0.0e+00 0.0e+00 0.0e+00  0  1  0  0  0   0  1  0  0  0  9873       0      0 0.00e+00    0 0.00e+00 100
VecReduceArith       441 1.0 7.1635e-03 1.0 9.22e+06 1.0 0.0e+00 0.0e+00 0.0e+00  0  2  0  0  0   0  2  0  0  0  5146       0      0 0.00e+00    0 0.00e+00 100
VecReduceComm        147 1.0 2.9363e-05 1.1 0.00e+00 0.0 0.0e+00 0.0e+00 0.0e+00  0  0  0  0  0   0  0  0  0  0     0       0      0 0.00e+00    0 0.00e+00  0
TSStep                10 1.0 2.6089e+00 1.0 3.79e+08 1.0 0.0e+00 0.0e+00 0.0e+00 13 68  0  0  0 100100  0  0  0   581       0      0 0.00e+00    0 0.00e+00 100
TSFunctionEval       157 1.0 1.1631e+00 1.0 3.57e+08 1.0 0.0e+00 0.0e+00 0.0e+00  6 64  0  0  0  44 94  0  0  0  1229       0      0 0.00e+00    0 0.00e+00 100
TSJacobianEval       147 1.0 1.4771e-01 1.0 0.00e+00 0.0 0.0e+00 0.0e+00 0.0e+00  1  0  0  0  0   6  0  0  0  0     0       0      0 0.00e+00    0 0.00e+00  0
KSPSetUp             147 1.0 1.7780e-05 1.1 0.00e+00 0.0 0.0e+00 0.0e+00 0.0e+00  0  0  0  0  0   0  0  0  0  0     0       0      0 0.00e+00    0 0.00e+00  0
KSPSolve             147 1.0 1.2884e+00 1.0 0.00e+00 0.0 0.0e+00 0.0e+00 0.0e+00  7  0  0  0  0  49  0  0  0  0     0       0      0 0.00e+00    0 0.00e+00  0
SNESSolve             10 1.0 2.6084e+00 1.0 3.78e+08 1.0 0.0e+00 0.0e+00 0.0e+00 13 68  0  0  0 100100  0  0  0   580       0      0 0.00e+00    0 0.00e+00 100
SNESFunctionEval     157 1.0 1.1645e+00 1.0 3.66e+08 1.0 0.0e+00 0.0e+00 0.0e+00  6 65  0  0  0  44 97  0  0  0  1256       0      0 0.00e+00    0 0.00e+00 100
SNESJacobianEval     147 1.0 1.4780e-01 1.0 0.00e+00 0.0 0.0e+00 0.0e+00 0.0e+00  1  0  0  0  0   6  0  0  0  0     0       0      0 0.00e+00    0 0.00e+00  0
SNESLineSearch       147 1.0 1.1665e+00 1.0 3.55e+08 1.0 0.0e+00 0.0e+00 0.0e+00  6 63  0  0  0  44 94  0  0  0  1216       0      0 0.00e+00    0 0.00e+00 100
PCSetUp              147 1.0 6.4834e-04 1.0 0.00e+00 0.0 0.0e+00 0.0e+00 0.0e+00  0  0  0  0  0   0  0  0  0  0     0       0      0 0.00e+00    0 0.00e+00  0
PCApply              147 1.0 1.2376e+00 1.0 0.00e+00 0.0 0.0e+00 0.0e+00 0.0e+00  6  0  0  0  0  47  0  0  0  0     0       0      0 0.00e+00    0 0.00e+00  0
---------------------------------------------------------------------------------------------------------------------------------------------------------------

Memory usage is given in bytes:

Object Type          Creations   Destructions     Memory  Descendants' Mem.
Reports information only for process 0.

--- Event Stage 0: Main Stage

           Container   428            428       249952     0.
    Distributed Mesh  1017           1017      5582856     0.
            DM Label  2095           2095      1357560     0.
          Quadrature  2188           2188      1312800     0.
           Index Set  9366           9366      8518660     0.
   IS L to G Mapping    17             17       286940     0.
             Section  3380           3380      2433600     0.
   Star Forest Graph  2109           2109      2256648     0.
     Discrete System  1610           1610      1558492     0.
           Weak Form  1610           1610      1004640     0.
    GraphPartitioner   444            444       309024     0.
              Matrix  1058           1058    274645528     0.
              Vector   584            595      2945216     0.
       p4est logging     1              0            0     0.
        Linear Space    98             98        69632     0.
          Dual Space   396            396       373824     0.
            FE Space    52             52        41392     0.
       Field over DM    18             18        12816     0.
             TSAdapt     1              1         1264     0.
                  TS     1              1         2432     0.
                DMTS     1              1          768     0.
                SNES     1              1         1556     0.
              DMSNES     3              3         2088     0.
      SNESLineSearch     1              1         1008     0.
       Krylov Solver     1              2         3432     0.
     DMKSP interface     0              1          664     0.
      Preconditioner     1              2         1888     0.
              Viewer     2              1          848     0.

--- Event Stage 1: Warmup

           Index Set     3              3       128112     0.
              Matrix     1              1      6980532     0.
              Vector    11              0            0     0.
       Krylov Solver     1              0            0     0.
     DMKSP interface     1              0            0     0.
      Preconditioner     1              0            0     0.

--- Event Stage 2: Solve

========================================================================================================================
Average time to get PetscTime(): 3.4e-08
Average time for MPI_Barrier(): 2.9238e-06
Average time for zero size MPI_Send(): 1.9688e-05
#PETSc Option Table entries:
-dim 3
-dm_landau_amr_levels_max 2,2,2
-dm_landau_batch_size 1
-dm_landau_coo_assembly
-dm_landau_device_type kokkos
-dm_landau_Ez 0
-dm_landau_ion_charges 1,2,3,4,5,6,7,8,9
-dm_landau_ion_masses 2,182,182,182,182,182,182,182,182
-dm_landau_n 1.0000044,1,1e-7,1e-7,1e-7,1e-7,1e-7,1e-7,1e-7,1e-7
-dm_landau_num_species_grid 1,1,8
-dm_landau_thermal_temps 2,1,1,1,1,1,1,1,1,1
-dm_landau_type p8est
-dm_landau_verbose 1
-dm_mat_type aijkokkos
-dm_preallocate_only false
-dm_vec_type kokkos
-ex2_test_type none
-ksp_type preonly
-log_view
-pc_bjkokkos_ksp_batch_nsolves_team 1
-pc_bjkokkos_ksp_converged_reason
-pc_bjkokkos_ksp_max_it 40
-pc_bjkokkos_ksp_rtol 1.e-8
-pc_bjkokkos_ksp_type gmres
-pc_bjkokkos_pc_type jacobi
-pc_type bjkokkos
-petscspace_degree 2
-snes_converged_reason
-snes_linesearch_type basic
-snes_max_it 50
-snes_monitor
-snes_rtol 1e-14
-snes_stol 1e-14
-ts_adapt_clip .5,1.1
-ts_adapt_dt_max 1
-ts_adapt_monitor
-ts_adapt_scale_solve_failed 0.5
-ts_adapt_time_step_increase_delay 5
-ts_dt .5
-ts_exact_final_time stepover
-ts_max_snes_failures -1
-ts_max_steps 10
-ts_max_time 100
-ts_monitor
-ts_rtol 1e-2
-ts_type beuler
-ts_view
-use_gpu_aware_mpi 0
#End of PETSc Option Table entries
Compiled without FORTRAN kernels
Compiled with full precision matrices (default)
sizeof(short) 2 sizeof(int) 4 sizeof(long) 8 sizeof(void*) 8 sizeof(PetscScalar) 8 sizeof(PetscInt) 4
Configure options: --CFLAGS="   -g -ggdb" --CXXFLAGS=" -g -ggdb" --CUDAFLAGS="-g -Xcompiler -rdynamic" --LIBS=-lnvToolsExt --with-cc=cc --with-cxx=CC --with-fc=ftn --with-fortran-bindings=0 --LDFLAGS=-lmpifort_gnu_91 --COPTFLAGS="   -O3" --CXXOPTFLAGS=" -O3" --FOPTFLAGS="   -O3" --with-debugging=0 --with-x=0 --with-cuda=1 --with-cuda-arch=80 --with-mpiexec=srun --with-batch=0 --download-p4est=1 --with-zlib=1 --download-kokkos --download-kokkos-kernels --with-kokkos-kernels-tpl=0 --download-kokkos-kernels-commit=origin/develop --with-make-np=8 PETSC_ARCH=arch-perlmutter-opt-gcc-kokkos-cuda-3d
-----------------------------------------
Libraries compiled on 2022-06-01 13:52:39 on login34 
Machine characteristics: Linux-5.3.18-150300.59.43_11.0.51-cray_shasta_c-x86_64-with-glibc2.3.4
Using PETSc directory: /global/homes/m/madams/petsc
Using PETSc arch: arch-perlmutter-opt-gcc-kokkos-cuda-3d
-----------------------------------------

Using C compiler: cc -g -ggdb -fPIC -O3   
Using Fortran compiler: ftn  -fPIC -O3     
-----------------------------------------

Using include paths: -I/global/homes/m/madams/petsc/include -I/global/homes/m/madams/petsc/arch-perlmutter-opt-gcc-kokkos-cuda-3d/include -I/opt/nvidia/hpc_sdk/Linux_x86_64/21.11/cuda/11.5/include -I/opt/nvidia/hpc_sdk/Linux_x86_64/21.11/math_libs/11.5/include
-----------------------------------------

Using C linker: cc
Using Fortran linker: ftn
Using libraries: -Wl,-rpath,/global/homes/m/madams/petsc/arch-perlmutter-opt-gcc-kokkos-cuda-3d/lib -L/global/homes/m/madams/petsc/arch-perlmutter-opt-gcc-kokkos-cuda-3d/lib -lpetsc -Wl,-rpath,/global/homes/m/madams/petsc/arch-perlmutter-opt-gcc-kokkos-cuda-3d/lib -L/global/homes/m/madams/petsc/arch-perlmutter-opt-gcc-kokkos-cuda-3d/lib -Wl,-rpath,/opt/nvidia/hpc_sdk/Linux_x86_64/21.11/cuda/11.5/lib64 -L/opt/nvidia/hpc_sdk/Linux_x86_64/21.11/cuda/11.5/lib64 -L/opt/nvidia/hpc_sdk/Linux_x86_64/21.11/cuda/11.5/lib64/stubs -lkokkoskernels -lkokkoscontainers -lkokkoscore -lp4est -lsc -lcudart -lcufft -lcublas -lcusparse -lcusolver -lcurand -lcuda -lquadmath -lstdc++ -ldl -lnvToolsExt
-----------------------------------------



      ##########################################################
      #                                                        #
      #                       WARNING!!!                       #
      #                                                        #
      #   This code was compiled with GPU support and you've   #
      #   created PETSc/GPU objects, but you intentionally     #
      #   used -use_gpu_aware_mpi 0, requiring PETSc to copy   #
      #   additional data between the GPU and CPU. To obtain   #
      #   meaningful timing results on multi-rank runs, use    #
      #   GPU-aware MPI instead.                               #
      #                                                        #
      ##########################################################


