masses:        e= 9.109e-31; ions in proton mass units:    2.000e+00  1.820e+02 ...
charges:       e=-1.602e-19; charges in elementary units:  1.000e+00  2.000e+00
n:             e:  1.000e+00                           i:  1.000e+00  1.000e-07
thermal T (K): e= 2.321e+07 i= 1.160e+07  1.160e+07. Normalization grid 0: v_0= 1.876e+07 ( 6.256e-02c) n_0= 1.000e+20 t_0= 1.909e-05 32 batched, view batch 0
Domain radius (AMR levels) grid 0: par= 5.000e+00 perp= 5.000e+00 (2) , 1: par= 5.835e-02 perp= 5.835e-02 (2) , 2: par= 6.117e-03 perp= 6.117e-03 (2) 
0) FormLandau 9720 IPs, 360 cells total, Nb=27, Nq=27, dim=3, Tab: Nb=27 Nf=10 Np=27 cdim=3 N=334400
0 TS dt 0.5 time 0.
    0 SNES Function norm 1.165212582001e-01
Iterations
 0: 14  14  14  14  14  14  13  13  13  13  13  13  13  13  13  13  13  13  13  13  13  13  13  13  13  14  14  14  15  15  15  15 
 1: 16  16  16  16  16  16  16  16  16  16  16  16  16  16  16  16  16  16  16  16  16  16  16  16  16  16  16  16  16  16  16  16 
 2: 16  16  16  16  16  16  16  16  16  16  16  16  16  16  16  16  15  15  15  15  15  15  15  15  15  15  15  15  15  15  15  15 
 3: 15  15  15  15  15  15  15  15  15  15  15  15  15  15  15  15  15  15  15  15  15  15  15  15  15  15  15  15  15  15  15  15 
 4: 16  16  15  15  15  15  15  15  15  15  15  15  15  15  15  15  15  15  15  15  15  15  15  15  15  15  15  15  15  15  15  15 
 5: 15  15  15  15  15  15  15  15  15  15  15  15  15  15  15  15  15  15  15  15  15  15  15  15  15  15  15  15  15  15  15  15 
 6: 15  15  15  15  15  15  15  15  15  15  15  15  15  15  15  15  15  15  15  15  15  15  15  15  15  15  15  15  15  15  15  15 
 7: 15  15  15  15  15  15  15  15  15  15  15  15  15  15  15  15  15  15  15  15  15  15  15  15  15  15  15  15  15  15  15  15 
 8: 15  15  15  15  15  15  15  15  15  15  14  14  14  14  14  14  14  14  14  14  14  14  14  14  14  14  14  14  14  14  14  14 
 9: 14  14  14  14  14  14  14  14  14  14  14  14  14  14  14  14  14  14  14  14  14  14  14  14  14  14  14  14  14  14  14  14 
[0] Linear solve converged due to CONVERGED_RTOL_NORMAL iterations 16, batch 0, species 0 (max)
    1 SNES Function norm 3.941446186732e-03
Iterations
 0: 14  14  14  14  14  14  14  14  14  14  14  14  14  14  14  14  14  14  14  14  14  14  14  14  14  14  14  14  14  14  14  14 
 1: 17  17  17  17  17  17  17  17  17  17  17  17  17  17  17  17  17  17  17  17  17  17  17  17  17  17  17  17  17  17  17  17 
 2: 16  16  16  16  16  16  16  16  16  16  16  16  16  16  16  16  16  16  16  16  16  16  16  16  16  16  16  16  16  16  16  16 
 3: 16  16  16  16  16  16  16  16  16  16  16  16  16  16  16  16  16  16  16  16  16  16  16  16  16  16  16  16  16  16  16  16 
 4: 17  17  17  17  17  17  17  17  17  17  17  17  17  17  17  17  17  17  16  16  16  16  16  15  15  15  15  15  15  15  15  15 
 5: 17  17  17  17  17  17  17  17  17  17  17  17  17  17  17  17  17  17  17  17  17  17  17  17  17  17  17  17  17  17  17  17 
 6: 17  17  17  17  17  17  17  17  17  17  17  17  17  17  17  17  17  17  17  17  17  17  17  17  17  17  17  17  17  17  17  17 
 7: 17  17  17  17  17  17  17  17  17  17  17  17  17  17  17  17  17  17  18  18  18  18  18  17  17  17  16  16  16  16  16  16 
 8: 16  16  16  16  16  16  16  16  16  16  16  16  16  16  16  16  16  16  16  16  16  16  16  16  16  16  16  16  16  16  16  16 
 9: 16  16  16  16  16  16  16  16  16  16  16  16  16  16  16  16  16  16  16  16  16  16  16  16  16  16  16  16  16  16  16  16 
[0] Linear solve converged due to CONVERGED_RTOL_NORMAL iterations 18, batch 18, species 0 (max)
    2 SNES Function norm 7.255301362632e-04
Iterations
 0: 13  13  13  13  13  13  13  13  13  13  13  13  13  13  13  13  13  13  13  13  13  13  13  13  13  13  13  13  13  13  13  13 
 1: 14  14  14  14  14  14  14  14  14  14  14  14  14  14  14  14  14  14  14  14  14  14  14  14  14  14  14  14  14  14  14  14 
 2: 18  18  18  18  18  18  18  18  18  18  17  17  17  17  17  17  17  17  17  17  17  17  17  17  17  17  17  17  17  17  17  17 
 3: 17  17  17  17  17  17  17  17  17  17  17  17  17  17  17  17  17  17  17  17  17  17  17  17  17  17  17  17  17  17  17  18 
 4: 16  16  16  16  16  16  16  16  16  16  16  16  16  16  16  16  16  16  16  16  16  16  16  16  16  16  16  16  16  16  16  16 
 5: 16  16  17  17  17  17  18  18  18  18  18  18  18  18  18  18  18  18  18  18  18  18  18  18  18  18  18  18  18  18  18  18 
 6: 17  17  17  17  17  17  17  17  17  17  17  17  17  17  17  17  17  17  17  17  17  17  17  17  17  17  17  17  17  17  17  17 
 7: 16  16  16  16  16  16  16  16  16  16  16  16  16  16  16  16  16  16  16  16  16  16  16  16  16  16  16  16  16  16  16  16 
 8: 16  16  16  16  16  16  16  16  16  16  16  16  16  16  16  16  16  16  16  16  16  16  16  16  16  16  16  16  16  16  16  16 
 9: 17  17  17  17  16  16  16  16  16  16  16  16  16  16  16  16  16  16  16  16  16  16  16  16  16  16  16  16  16  16  16  16 
[0] Linear solve converged due to CONVERGED_RTOL_NORMAL iterations 18, batch 0, species 0 (max)
    3 SNES Function norm 1.652800856050e-04
Iterations
 0: 13  13  13  13  13  13  13  13  13  13  13  13  13  13  13  13  13  13  13  13  13  13  13  13  13  13  13  13  13  13  13  13 
 1: 16  16  16  16  16  16  16  16  16  16  16  16  16  16  16  16  16  16  16  16  16  16  16  16  16  16  16  16  16  16  16  16 
 2: 15  15  15  15  15  15  15  15  15  15  15  15  15  15  15  15  15  15  15  15  15  15  15  15  15  15  15  15  15  15  15  15 
 3: 15  15  15  15  15  15  15  15  15  15  15  15  15  15  15  15  15  15  15  15  15  15  15  15  15  15  15  15  15  15  15  15 
 4: 16  16  16  16  16  16  16  16  16  16  16  16  16  16  16  16  16  16  16  16  16  16  16  16  16  16  16  16  16  16  16  16 
 5: 17  17  17  17  17  17  17  17  17  17  17  17  17  17  17  17  17  17  17  17  17  17  17  17  17  17  18  18  18  18  18  18 
 6: 17  17  17  17  17  17  17  17  17  17  17  17  17  17  17  17  17  17  17  17  17  17  17  16  16  16  16  16  16  16  16  16 
 7: 16  16  16  16  16  16  16  16  16  16  16  16  16  16  16  16  16  16  16  16  16  16  16  16  16  16  16  16  16  16  16  16 
 8: 16  16  16  16  16  16  16  16  16  16  16  16  16  16  16  16  16  16  16  16  16  16  16  16  16  16  16  16  16  16  16  16 
 9: 16  16  16  16  16  16  16  16  16  16  16  16  16  16  16  16  16  16  16  16  16  16  17  17  17  17  17  17  17  17  17  17 
[0] Linear solve converged due to CONVERGED_RTOL_NORMAL iterations 18, batch 26, species 0 (max)
    4 SNES Function norm 3.893427451762e-05
Iterations
 0: 14  14  14  15  15  15  15  14  14  14  14  14  14  14  14  14  14  14  14  14  14  14  14  14  14  14  14  14  14  14  14  14 
 1: 14  14  14  14  14  14  14  14  14  14  14  14  14  14  14  14  14  14  14  14  14  14  14  14  14  14  14  14  14  14  14  14 
 2: 14  14  14  14  14  15  15  15  15  15  15  15  15  15  15  15  15  15  15  15  15  15  15  15  15  15  15  15  15  15  15  15 
 3: 14  14  14  14  14  14  14  14  14  14  14  14  14  14  14  14  14  14  14  14  15  15  15  15  15  15  15  15  15  15  15  15 
 4: 15  15  15  15  15  15  15  15  15  15  15  15  15  15  15  15  15  15  15  15  15  15  15  15  15  15  15  15  15  15  15  15 
 5: 16  16  16  16  16  16  16  16  16  16  16  16  16  16  16  16  16  16  16  16  16  16  16  16  16  16  16  16  16  16  16  16 
 6: 17  17  17  17  17  17  17  17  17  17  17  17  17  17  17  17  17  17  17  17  17  17  17  17  17  17  17  17  17  17  17  17 
 7: 16  16  16  16  16  16  16  16  16  16  16  16  16  16  16  16  16  16  16  16  16  16  16  16  16  16  16  16  16  16  16  16 
 8: 15  15  15  15  15  15  15  15  15  15  15  15  15  15  15  15  15  15  15  15  15  15  15  15  15  15  15  15  15  15  15  15 
 9: 15  15  15  15  15  15  15  15  15  15  15  15  15  15  15  15  15  15  15  15  15  15  15  15  15  15  15  15  15  15  15  15 
[0] Linear solve converged due to CONVERGED_RTOL_NORMAL iterations 17, batch 0, species 0 (max)
    5 SNES Function norm 9.267975683710e-06
Iterations
 0: 14  14  14  14  14  14  14  14  14  14  14  14  14  14  14  14  14  14  14  14  14  14  14  14  14  14  14  14  14  14  14  14 
 1: 14  14  14  14  14  14  14  14  14  14  14  14  14  14  14  14  14  14  14  14  14  14  14  14  14  14  14  14  14  14  14  14 
 2: 16  16  18  14  15  16  16  16  16  16  16  15  15  15  15  15  15  15  15  15  15  16  16  16  17  17  17  17  17  17  17  17 
 3: 15  15  15  15  15  15  15  15  15  15  15  15  15  15  15  15  15  15  15  15  15  15  15  15  15  15  15  15  15  15  15  15 
 4: 16  16  16  16  16  16  16  16  16  16  16  16  16  16  16  16  16  16  16  16  16  16  16  16  16  16  16  17  17  17  17  17 
 5: 15  15  15  15  15  15  15  15  15  15  15  15  15  15  15  15  15  15  15  15  15  15  15  15  15  15  15  15  15  15  15  15 
 6: 14  14  14  14  14  14  14  14  14  14  14  14  14  14  14  14  14  14  14  14  14  14  14  14  14  14  14  14  14  14  14  14 
 7: 14  14  14  14  14  14  14  14  14  14  14  14  14  14  14  15  15  15  15  15  15  15  14  14  14  14  14  14  14  14  14  14 
 8: 15  15  15  15  15  15  15  15  15  15  15  15  15  15  15  15  15  15  15  15  15  15  15  15  15  15  15  15  15  15  15  15 
 9: 13  13  13  13  13  13  13  13  13  13  13  13  13  13  13  13  13  13  13  13  13  13  13  13  13  13  13  13  13  13  13  13 
[0] Linear solve converged due to CONVERGED_RTOL_NORMAL iterations 18, batch 2, species 0 (max)
    6 SNES Function norm 2.215428221667e-06
Iterations
 0: 14  14  14  14  14  14  14  14  14  14  14  14  14  14  14  14  14  14  14  14  14  14  14  14  14  14  14  14  14  14  14  14 
 1: 14  14  14  14  14  14  14  14  14  14  14  14  14  14  14  14  14  14  14  14  14  14  14  14  14  14  14  14  14  14  14  14 
 2: 14  14  14  14  14  14  14  14  14  14  14  14  14  14  14  14  14  14  14  14  14  14  14  14  14  14  14  14  14  14  14  14 
 3: 14  14  14  14  14  14  14  14  14  14  14  14  14  14  14  14  14  14  14  14  14  14  14  14  14  14  14  14  14  14  14  14 
 4: 16  16  16  16  16  16  16  16  16  16  16  16  17  17  17  17  17  17  17  17  17  17  17  17  17  17  17  17  17  17  17  17 
 5: 15  15  15  14  14  14  14  14  14  14  14  14  14  14  14  14  14  14  14  14  14  14  14  14  14  14  14  14  14  14  14  14 
 6: 14  14  14  14  14  14  14  14  14  14  14  14  14  14  14  14  14  14  14  14  14  14  14  14  14  14  14  14  14  14  14  14 
 7: 14  14  14  14  14  14  14  14  14  14  14  14  14  14  14  14  14  14  15  15  15  15  15  15  14  14  14  14  14  14  14  13 
 8: 14  14  14  14  14  14  14  14  14  14  14  14  14  14  14  14  14  14  14  14  14  14  14  14  14  14  14  14  14  14  14  14 
 9: 13  13  13  13  13  13  13  13  13  13  13  13  13  13  13  13  13  13  13  13  13  13  13  13  13  13  13  13  13  13  13  13 
[0] Linear solve converged due to CONVERGED_RTOL_NORMAL iterations 17, batch 12, species 0 (max)
    7 SNES Function norm 5.306535513110e-07
Iterations
 0: 14  14  14  14  14  14  14  14  14  14  14  14  14  14  14  14  14  14  14  14  14  14  14  14  14  14  14  14  14  14  14  14 
 1: 14  14  14  14  14  14  14  14  14  14  14  14  14  14  14  14  14  14  14  14  14  14  14  14  14  14  14  14  14  14  14  14 
 2: 14  14  14  14  14  14  14  14  14  14  14  14  14  14  14  14  14  14  14  14  14  14  14  14  14  14  14  14  14  14  14  14 
 3: 14  14  14  14  14  14  14  14  14  14  14  14  14  14  14  14  14  14  14  14  14  14  14  14  14  14  14  14  14  14  14  14 
 4: 16  16  16  16  16  16  16  16  17  17  17  17  17  17  17  17  17  17  17  17  17  17  17  17  17  17  17  17  17  17  17  17 
 5: 15  14  14  14  14  14  14  14  14  14  14  14  14  14  14  14  14  14  14  14  14  14  14  14  14  14  14  14  14  14  14  14 
 6: 14  14  14  14  14  14  14  14  14  14  14  14  14  14  14  14  14  14  14  14  14  14  14  14  14  14  14  14  14  14  14  14 
 7: 14  14  14  14  14  14  14  14  14  14  14  14  14  14  14  14  14  14  14  15  15  15  15  15  15  14  14  14  14  14  14  14 
 8: 14  14  14  14  14  14  14  14  14  14  14  14  14  14  14  14  14  14  14  14  14  14  14  14  14  14  14  14  14  14  14  14 
 9: 13  13  13  13  13  13  13  13  13  13  13  13  13  13  13  13  13  13  13  13  13  13  13  13  13  13  13  13  13  13  13  13 
[0] Linear solve converged due to CONVERGED_RTOL_NORMAL iterations 17, batch 8, species 0 (max)
    8 SNES Function norm 1.272549973170e-07
Iterations
 0: 14  14  14  14  14  14  14  14  14  14  14  14  14  14  14  14  14  14  14  14  14  14  14  14  14  14  14  14  14  14  14  14 
 1: 14  14  14  14  14  14  14  14  14  14  14  14  14  14  14  14  14  14  14  14  14  14  14  14  14  14  14  14  14  14  14  14 
 2: 14  14  14  14  14  14  14  14  14  14  14  14  14  14  14  14  14  14  14  14  14  14  14  14  14  14  14  14  14  14  14  14 
 3: 14  14  14  14  14  14  14  14  14  14  14  14  14  14  14  14  14  14  14  14  14  14  14  14  14  14  14  14  14  14  14  14 
 4: 16  16  16  16  16  16  17  17  17  17  17  17  17  17  17  17  17  17  17  17  17  17  17  17  17  17  17  17  17  16  17  17 
 5: 15  14  14  14  14  14  14  14  14  14  14  14  14  14  14  14  14  14  14  14  14  14  14  14  14  14  14  14  14  14  14  14 
 6: 14  14  14  14  14  14  14  14  14  14  14  14  14  14  14  14  14  14  14  14  14  14  14  14  14  14  14  14  14  14  14  14 
 7: 14  14  14  14  14  14  14  14  14  14  14  14  14  14  14  14  14  14  14  14  15  15  15  15  15  14  14  14  14  14  14  14 
 8: 14  14  14  14  14  14  14  14  14  14  14  14  14  14  14  14  14  14  14  14  14  14  14  14  14  14  14  14  14  14  14  14 
 9: 13  13  13  13  13  13  13  13  13  13  13  13  13  13  13  13  13  13  13  13  13  13  13  13  13  13  13  13  13  13  13  13 
[0] Linear solve converged due to CONVERGED_RTOL_NORMAL iterations 17, batch 6, species 0 (max)
    9 SNES Function norm 3.054171630606e-08
Iterations
 0: 14  14  14  14  14  14  14  14  14  14  14  14  14  14  14  14  14  14  14  14  14  14  14  14  14  14  14  14  14  14  14  14 
 1: 14  14  14  14  14  14  14  14  14  14  14  14  14  14  14  14  14  14  14  14  14  14  14  14  14  14  14  14  14  14  14  14 
 2: 14  14  14  14  14  14  14  14  14  14  14  14  14  14  14  14  14  14  14  14  14  14  14  14  14  14  14  14  14  14  14  14 
 3: 14  14  14  14  14  14  14  14  14  14  14  14  14  14  14  14  14  14  14  14  14  14  14  14  14  14  14  14  14  14  14  14 
 4: 17  17  16  17  16  17  16  16  16  17  17  16  17  17  17  17  17  17  17  17  17  17  17  17  17  16  16  16  16  17  16  16 
 5: 15  14  15  15  14  14  14  14  14  14  14  14  14  14  14  14  14  14  14  14  14  14  14  14  14  14  14  14  14  14  14  14 
 6: 14  14  14  14  14  14  14  14  14  14  14  14  14  14  14  14  14  14  14  14  14  14  14  14  14  14  14  14  14  14  14  14 
 7: 14  14  14  14  14  14  14  14  14  14  14  14  14  14  14  14  14  14  14  14  15  15  15  15  15  14  14  13  14  14  14  14 
 8: 14  14  14  14  14  14  14  14  14  14  14  14  14  14  14  14  14  14  14  14  14  14  14  14  14  14  14  14  14  14  14  14 
 9: 13  13  13  13  13  13  13  13  13  13  13  13  13  13  13  13  13  13  13  13  13  13  13  13  13  13  13  13  13  13  13  13 
[0] Linear solve converged due to CONVERGED_RTOL_NORMAL iterations 17, batch 0, species 0 (max)
   10 SNES Function norm 7.334977806106e-09
Iterations
 0: 14  14  14  14  14  14  14  14  14  14  14  14  14  14  14  14  14  14  14  14  14  14  14  14  14  14  14  14  14  14  14  14 
 1: 14  14  14  14  14  14  14  14  14  14  14  14  14  14  14  14  14  14  14  14  14  14  14  14  14  14  14  14  14  14  14  14 
 2: 15  15  16  14  15  15  15  15  15  16  16  16  16  16  15  14  14  15  16  15  14  14  14  14  14  16  15  14  14  14  14  15 
 3: 14  14  14  14  14  14  14  14  14  14  14  14  14  14  14  14  14  14  14  14  14  14  14  14  14  14  14  14  14  14  14  14 
 4: 15  14  16  16  16  16  16  17  17  16  17  16  16  16  16  17  17  17  16  17  16  17  17  17  16  16  16  17  17  17  16  16 
 5: 14  14  14  14  15  14  14  14  14  14  14  14  14  14  14  14  14  14  14  14  14  14  14  14  14  14  14  14  14  14  14  14 
 6: 14  14  14  14  14  14  14  14  14  14  14  14  14  14  14  14  14  14  14  14  14  14  14  14  14  14  14  14  14  14  14  14 
 7: 14  14  14  14  14  14  14  14  14  14  14  14  14  14  14  14  14  14  14  14  15  15  13  13  15  13  14  14  14  14  13  13 
 8: 14  14  14  14  14  14  14  14  14  14  14  14  14  14  14  14  14  14  14  14  14  14  14  14  14  14  14  14  14  14  14  14 
 9: 13  13  13  13  13  13  13  13  13  13  13  13  13  13  13  13  13  13  13  13  13  13  13  13  13  13  13  13  13  13  13  13 
[0] Linear solve converged due to CONVERGED_RTOL_NORMAL iterations 17, batch 7, species 0 (max)
   11 SNES Function norm 1.762622845088e-09
Iterations
 0: 14  14  14  14  14  14  14  14  14  14  14  14  14  14  14  14  14  14  14  14  14  14  14  14  14  14  14  14  14  14  14  14 
 1: 14  14  14  14  14  14  14  14  14  14  14  14  14  14  14  14  14  14  14  14  14  14  14  14  14  14  14  14  14  14  14  14 
 2: 16  17  16  17  17  17  16  17  17  16  17  17  15  16  16  16  17  17  17  17  17  16  16  17  16  17  16  17  15  16  17  17 
 3: 14  14  14  16  14  14  14  16  14  14  14  14  14  14  14  14  14  14  14  14  14  14  14  14  15  14  14  14  14  14  14  14 
 4: 17  14  14  16  14  16  16  14  16  14  17  14  14  14  16  16  14  16  16  16  16  14  17  16  16  17  16  16  16  16  16  16 
 5: 13  15  13  14  18  16  13  14  18  15  15  13  14  14  14  15  14  14  15  18  18  15  15  18  18  14  13  15  14  14  14  14 
 6: 14  14  14  14  15  14  14  14  14  15  14  14  14  14  14  14  14  14  14  14  14  14  14  14  14  14  14  14  14  14  14  14 
 7: 14  14  14  14  14  14  14  14  14  14  14  14  14  14  14  14  14  14  13  15  13  15  15  15  13  14  14  13  13  13  13  14 
 8: 14  14  14  14  14  14  14  14  14  14  14  14  14  14  14  14  14  14  14  14  14  14  14  14  14  14  14  14  14  14  14  14 
 9: 13  13  13  13  13  13  13  13  13  13  13  13  13  13  13  13  13  13  13  13  13  13  13  13  13  13  13  13  13  13  13  13 
[0] Linear solve converged due to CONVERGED_RTOL_NORMAL iterations 18, batch 4, species 0 (max)
   12 SNES Function norm 4.237991675159e-10
Iterations
 0: 14  14  14  14  14  14  14  14  14  14  14  14  14  14  14  14  14  14  14  14  14  14  14  14  14  14  14  14  14  14  14  14 
 1: 14  14  14  14  16  14  16  14  14  14  14  14  14  14  14  14  14  14  14  14  14  14  14  14  14  14  14  14  14  14  14  14 
 2: 17  16  16  16  16  16  16  16  15  16  17  16  16  17  17  16  16  17  16  16  16  16  16  16  16  16  16  17  17  17  16  16 
 3: 16  16  15  15  15  16  14  15  14  15  14  15  14  16  15  15  16  16  17  16  16  14  14  16  16  14  16  14  14  14  14  16 
 4: 14  14  14  14  14  15  14  14  14  14  14  14  14  14  13  16  14  17  15  15  14  16  16  13  14  16  14  14  16  16  13  16 
 5: 13  14  14  13  18  13  16  15  13  14  15  13  14  13  13  14  16  15  15  14  18  14  14  16  15  14  13  15  14  14  14  14 
 6: 14  15  14  13  14  15  14  14  14  14  14  14  15  14  14  14  14  15  14  15  15  14  14  14  14  14  15  14  14  14  16  16 
 7: 14  16  14  16  16  14  14  14  14  14  14  15  16  14  14  14  14  14  15  15  13  16  13  16  16  13  13  13  13  16  13  13 
 8: 14  14  14  14  14  14  14  14  14  14  14  14  14  14  14  14  14  14  14  14  14  14  14  14  14  14  14  14  14  14  14  14 
 9: 13  13  13  13  13  13  13  13  13  13  13  13  13  13  13  13  13  13  13  13  13  13  13  13  13  13  13  13  13  13  13  13 
[0] Linear solve converged due to CONVERGED_RTOL_NORMAL iterations 18, batch 4, species 0 (max)
   13 SNES Function norm 1.019508929630e-10
Iterations
 0: 14  14  14  14  14  14  14  14  14  14  14  14  14  14  14  14  14  14  14  14  14  14  14  14  14  14  14  14  14  14  14  14 
 1: 14  14  16  14  15  14  15  15  14  14  14  14  14  14  14  15  16  14  14  14  14  14  14  14  14  14  14  14  15  13  14  14 
 2: 16  16  16  16  16  16  16  16  15  16  16  15  16  16  16  16  16  16  16  16  16  16  16  16  18  16  16  16  15  16  16  16 
 3: 15  16  15  16  15  16  15  15  16  15  15  16  14  16  14  16  16  16  16  16  16  16  16  16  15  15  15  14  15  15  15  16 
 4: 14  14  16  14  15  14  14  14  14  14  14  14  14  14  14  14  14  15  14  14  14  14  14  14  14  14  14  18  14  14  14  14 
 5: 14  14  14  14  14  13  14  13  14  14  14  14  14  14  14  13  14  13  14  13  13  14  14  14  13  13  14  14  13  14  13  14 
 6: 15  15  15  16  14  15  14  14  14  14  15  14  16  15  15  14  15  13  15  14  13  13  14  15  14  16  14  16  17  15  13  13 
 7: 14  14  14  14  14  16  15  15  13  13  13  13  14  13  16  16  16  15  13  13  16  16  15  16  14  16  16  15  15  13  13  15 
 8: 15  14  16  14  14  14  14  15  14  14  14  14  15  14  16  16  15  14  15  14  15  14  14  14  15  14  15  14  14  15  14  14 
 9: 13  13  15  13  14  15  13  13  13  13  13  15  14  13  13  15  13  13  13  13  13  13  13  13  13  13  13  13  13  13  13  13 
[0] Linear solve converged due to CONVERGED_RTOL_NORMAL iterations 18, batch 24, species 0 (max)
   14 SNES Function norm 2.453808634214e-11
Iterations
 0: 14  14  14  14  14  14  14  14  14  14  14  14  14  14  14  14  14  14  14  14  14  14  14  14  14  14  14  14  14  14  14  14 
 1: 14  14  16  14  14  15  16  14  14  16  14  15  16  15  14  16  16  14  16  17  16  16  16  14  16  16  15  14  15  14  14  14 
 2: 17  17  17  17  16  17  17  17  18  18  16  17  16  16  17  16  15  16  16  16  17  16  16  16  16  16  16  15  16  15  16  16 
 3: 15  15  16  15  15  15  15  16  16  15  16  16  15  17  16  15  16  15  15  15  16  15  15  15  16  15  15  16  15  15  15  15 
 4: 15  15  14  15  15  16  16  15  14  15  16  16  15  16  15  15  16  14  15  15  15  15  15  14  15  15  15  15  16  15  15  14 
 5: 15  15  15  15  14  15  14  14  14  14  14  15  14  14  14  16  14  14  14  14  14  14  16  14  14  14  14  14  14  14  14  14 
 6: 14  14  14  14  14  15  15  14  15  14  14  17  14  14  14  14  14  17  14  14  15  14  14  14  17  16  14  14  15  14  14  16 
 7: 14  13  14  14  18  14  14  14  16  14  15  15  14  15  13  16  13  16  16  16  16  16  15  13  15  16  16  16  13  15  15  16 
 8: 14  14  15  14  15  15  15  14  15  16  15  14  15  14  14  15  14  15  14  15  14  15  14  15  16  14  16  14  14  15  15  15 
 9: 13  13  14  14  15  14  13  15  15  13  15  15  15  15  14  14  13  15  15  15  15  15  13  13  15  15  15  13  13  14  15  13 
[0] Linear solve converged due to CONVERGED_RTOL_NORMAL iterations 18, batch 8, species 0 (max)
   15 SNES Function norm 5.909041293854e-12
Iterations
 0: 14  14  14  14  14  14  14  14  14  14  14  14  14  14  14  14  14  14  14  14  14  14  14  14  14  14  14  14  14  14  14  14 
 1: 16  16  16  15  16  16  16  16  17  16  17  16  16  15  15  16  16  16  16  16  16  16  16  16  16  16  15  16  16  16  16  16 
 2: 17  18  18  16  16  18  17  18  19  17  16  18  16  17  17  16  17  17  16  16  16  18  19  17  16  16  16  16  18  16  18  17 
 3: 17  16  16  16  15  16  16  16  16  17  16  18  17  16  18  16  17  16  16  16  16  16  17  16  16  16  16  15  15  16  16  15 
 4: 16  18  15  16  15  15  17  16  15  20  16  16  15  16  16  16  18  15  15  15  15  16  15  15  15  15  15  15  15  17  16  15 
 5: 15  15  15  18  15  15  15  16  15  16  15  15  15  16  14  15  16  15  15  15  15  16  17  15  15  16  15  14  15  15  16  15 
 6: 16  18  17  15  15  15  15  15  15  16  15  15  19  15  15  17  16  15  17  16  15  15  14  15  15  15  14  14  15  16  15  14 
 7: 17  14  14  15  16  15  15  16  15  15  15  14  17  16  16  17  16  14  16  15  15  15  17  17  15  16  16  15  16  15  16  15 
 8: 15  15  15  15  17  15  15  15  15  15  16  15  15  15  16  15  15  16  17  15  15  15  15  15  14  15  15  14  15  15  15  14 
 9: 15  14  16  15  15  14  15  15  15  15  15  14  15  15  15  16  15  14  16  14  15  15  15  14  16  15  15  15  14  14  15  13 
[0] Linear solve converged due to CONVERGED_RTOL_NORMAL iterations 20, batch 9, species 0 (max)
   16 SNES Function norm 1.423912862008e-12
    Nonlinear solve converged due to CONVERGED_SNORM_RELATIVE iterations 16
      TSAdapt none beuler 0: step   0 accepted t=0          + 5.000e-01 dt=5.000e-01 
1 TS dt 0.5 time 0.5
TS Object: 1 MPI process
  type: beuler
  maximum steps=1
  maximum time=100.
  total number of I function evaluations=17
  total number of I Jacobian evaluations=16
  total number of RHS function evaluations=17
  total number of nonlinear solver iterations=16
  total number of linear solver iterations=75883
  total number of nonlinear solve failures=0
  total number of rejected steps=0
  using relative error tolerance of 0.01,   using absolute error tolerance of 0.0001
  TSAdapt Object: 1 MPI process
    type: none
  SNES Object: 1 MPI process
    type: newtonls
    maximum iterations=50, maximum function evaluations=10000
    tolerances: relative=1e-14, absolute=1e-50, solution=1e-14
    total number of linear solver iterations=75883
    total number of function evaluations=17
    norm schedule ALWAYS
    SNESLineSearch Object: 1 MPI process
      type: basic
      maxstep=1.000000e+08, minlambda=1.000000e-12
      tolerances: relative=1.000000e-08, absolute=1.000000e-15, lambda=1.000000e-08
      maximum iterations=40
    KSP Object: 1 MPI process
      type: preonly
      maximum iterations=10000, initial guess is zero
      tolerances: relative=1e-05, absolute=1e-50, divergence=10000.
      left preconditioning
      using NONE norm type for convergence test
    PC Object: 1 MPI process
      type: bjkokkos
        Batched device linear solver: Krylov (KSP) method with Jacobi preconditioning
      		nwork = 10, rel tol = 1.000000e-08, abs tol = 1.000000e-50, div tol = 1.000000e+04, max it =100, type = tfqmr
      linear system matrix = precond matrix:
      Mat Object: Jacobian 1 MPI process
        type: seqaijkokkos
        rows=334400, cols=334400
        total: nonzeros=18048320, allocated nonzeros=18048320
        total number of mallocs used during MatSetValues calls=0
          not using I-node routines
0 TS dt 0.5 time 0.
TS Object: 1 MPI process
  type: beuler
  maximum steps=0
  maximum time=100.
  total number of I function evaluations=17
  total number of I Jacobian evaluations=16
  total number of RHS function evaluations=17
  total number of nonlinear solver iterations=0
  total number of linear solver iterations=0
  total number of nonlinear solve failures=0
  total number of rejected steps=0
  using relative error tolerance of 0.01,   using absolute error tolerance of 0.0001
  TSAdapt Object: 1 MPI process
    type: none
  SNES Object: 1 MPI process
    type: newtonls
    maximum iterations=50, maximum function evaluations=10000
    tolerances: relative=1e-14, absolute=1e-50, solution=1e-14
    total number of linear solver iterations=75883
    total number of function evaluations=17
    norm schedule ALWAYS
    SNESLineSearch Object: 1 MPI process
      type: basic
      maxstep=1.000000e+08, minlambda=1.000000e-12
      tolerances: relative=1.000000e-08, absolute=1.000000e-15, lambda=1.000000e-08
      maximum iterations=40
    KSP Object: 1 MPI process
      type: preonly
      maximum iterations=10000, initial guess is zero
      tolerances: relative=1e-05, absolute=1e-50, divergence=10000.
      left preconditioning
      using NONE norm type for convergence test
    PC Object: 1 MPI process
      type: bjkokkos
        Batched device linear solver: Krylov (KSP) method with Jacobi preconditioning
      		nwork = 10, rel tol = 1.000000e-08, abs tol = 1.000000e-50, div tol = 1.000000e+04, max it =100, type = tfqmr
      linear system matrix = precond matrix:
      Mat Object: Jacobian 1 MPI process
        type: seqaijkokkos
        rows=334400, cols=334400
        total: nonzeros=18048320, allocated nonzeros=18048320
        total number of mallocs used during MatSetValues calls=0
          not using I-node routines
WARNING! There are options you set that were not used!
WARNING! could be spelling mistake, etc!
There is one unused database option. It is:
Option left: name:-dm_landau_coo_assembly (no value) source: file
